<?xml version="1.0"?>
<VTKFile type="PolyData" version="0.1" byte_order="LittleEndian">
  <PolyData>
    <Piece NumberOfPoints="    625" NumberOfVerts="  0" NumberOfLines="      0"
           NumberOfStrips="  0" NumberOfPolys="    600">
      <Points>
        <DataArray type="Float32" NumberOfComponents="3" format="ascii">
                      -4.87441                      -0.41644                      91.43555
                      -4.87441                      -0.41644                      91.43555
                      -4.87441                      -0.41644                      91.43555
                      -4.87441                      -0.41644                      91.43555
                      -4.87441                      -0.41644                      91.43555
                      -4.87441                      -0.41644                      91.43555
                      -4.87441                      -0.41644                      91.43555
                      -4.87441                      -0.41644                      91.43555
                      -4.87441                      -0.41644                      91.43555
                      -4.87441                      -0.41644                      91.43555
                      -4.87441                      -0.41644                      91.43555
                      -4.87441                      -0.41644                      91.43555
                      -4.87441                      -0.41644                      91.43555
                      -4.87441                      -0.41644                      91.43555
                      -4.87441                      -0.41644                      91.43555
                      -4.87441                      -0.41644                      91.43555
                      -4.87441                      -0.41644                      91.43555
                      -4.87441                      -0.41644                      91.43555
                      -4.87441                      -0.41644                      91.43555
                      -4.87441                      -0.41644                      91.43555
                      -4.87441                      -0.41644                      91.43555
                      -4.87441                      -0.41644                      91.43555
                      -4.87441                      -0.41644                      91.43555
                      -4.87441                      -0.41644                      91.43555
                      -4.87441                      -0.41644                      91.43555
                      -4.28768                      -0.38174                      91.26368
                      -4.31004                      -0.52496                      91.22408
                      -4.36853                      -0.65919                      91.19026
                      -4.45946                      -0.77598                      91.16434
                      -4.57713                      -0.86800                      91.14794
                      -4.71412                      -0.92946                      91.14209
                      -4.86185                      -0.95652                      91.14717
                      -5.01103                      -0.94745                      91.16285
                      -5.15227                      -0.90284                      91.18815
                      -5.27672                      -0.82549                      91.22148
                      -5.37654                      -0.72025                      91.26074
                      -5.44547                      -0.59375                      91.30347
                      -5.47918                      -0.45392                      91.34698
                      -5.47554                      -0.30956                      91.38854
                      -5.43479                      -0.16973                      91.42554
                      -5.35949                      -0.04323                      91.45565
                      -5.25436                       0.06201                      91.47698
                      -5.12602                       0.13936                      91.48819
                      -4.98253                       0.18397                      91.48858
                      -4.83290                       0.19304                      91.47811
                      -4.68653                       0.16599                      91.45746
                      -4.55263                       0.10452                      91.42792
                      -4.43960                       0.01250                      91.39133
                      -4.35456                      -0.10429                      91.35001
                      -4.30283                      -0.23852                      91.30655
                      -4.06934                      -0.34704                      91.12403
                      -4.10028                      -0.54513                      91.06927
                      -4.18117                      -0.73078                      91.02249
                      -4.30694                      -0.89232                      90.98663
                      -4.46969                      -1.01959                      90.96395
                      -4.65917                      -1.10461                      90.95587
                      -4.86350                      -1.14202                      90.96289
                      -5.06982                      -1.12949                      90.98458
                      -5.26519                      -1.06779                      91.01957
                      -5.43731                      -0.96080                      91.06566
                      -5.57538                      -0.81524                      91.11997
                      -5.67072                      -0.64027                      91.17907
                      -5.71734                      -0.44687                      91.23925
                      -5.71231                      -0.24720                      91.29673
                      -5.65595                      -0.05380                      91.34790
                      -5.55179                       0.12117                      91.38955
                      -5.40639                       0.26673                      91.41905
                      -5.22888                       0.37371                      91.43456
                      -5.03041                       0.43542                      91.43510
                      -4.82345                       0.44795                      91.42063
                      -4.62101                       0.41054                      91.39206
                      -4.43581                       0.32552                      91.35119
                      -4.27948                       0.19825                      91.30060
                      -4.16184                       0.03671                      91.24344
                      -4.09030                      -0.14894                      91.18333
                      -3.91742                      -0.31233                      90.99019
                      -3.95445                      -0.54937                      90.92467
                      -4.05125                      -0.77152                      90.86869
                      -4.20174                      -0.96481                      90.82579
                      -4.39647                      -1.11711                      90.79865
                      -4.62321                      -1.21883                      90.78897
                      -4.86770                      -1.26360                      90.79737
                      -5.11459                      -1.24860                      90.82333
                      -5.34836                      -1.17477                      90.86520
                      -5.55432                      -1.04675                      90.92035
                      -5.71953                      -0.87258                      90.98533
                      -5.83362                      -0.66321                      91.05605
                      -5.88940                      -0.43179                      91.12806
                      -5.88338                      -0.19287                      91.19685
                      -5.81594                       0.03855                      91.25808
                      -5.69131                       0.24792                      91.30791
                      -5.51733                       0.42209                      91.34322
                      -5.30492                       0.55011                      91.36177
                      -5.06743                       0.62394                      91.36241
                      -4.81978                       0.63894                      91.34510
                      -4.57755                       0.59417                      91.31092
                      -4.35593                       0.49244                      91.26202
                      -4.16887                       0.34015                      91.20147
                      -4.02811                       0.14685                      91.13308
                      -3.94251                      -0.07529                      91.06115
                      -3.80249                      -0.27763                      90.85959
                      -3.84421                      -0.54474                      90.78576
                      -3.95329                      -0.79507                      90.72268
                      -4.12288                      -1.01289                      90.67433
                      -4.34232                      -1.18451                      90.64374
                      -4.59782                      -1.29914                      90.63284
                      -4.87334                      -1.34959                      90.64231
                      -5.15155                      -1.33269                      90.67156
                      -5.41497                      -1.24949                      90.71874
                      -5.64707                      -1.10522                      90.78089
                      -5.83324                      -0.90896                      90.85412
                      -5.96180                      -0.67302                      90.93381
                      -6.02466                      -0.41225                      91.01496
                      -6.01788                      -0.14301                      91.09247
                      -5.94188                       0.11777                      91.16147
                      -5.80144                       0.35370                      91.21762
                      -5.60538                       0.54997                      91.25740
                      -5.36602                       0.69423                      91.27831
                      -5.09840                       0.77743                      91.27903
                      -4.81934                       0.79433                      91.25952
                      -4.54637                       0.74388                      91.22101
                      -4.29664                       0.62925                      91.16590
                      -4.08584                       0.45763                      91.09768
                      -3.92723                       0.23981                      91.02061
                      -3.83076                      -0.01051                      90.93955
                      -3.71302                      -0.24292                      90.73122
                      -3.75849                      -0.53400                      90.65076
                      -3.87735                      -0.80680                      90.58202
                      -4.06216                      -1.04416                      90.52934
                      -4.30129                      -1.23117                      90.49600
                      -4.57972                      -1.35609                      90.48412
                      -4.87995                      -1.41107                      90.49444
                      -5.18312                      -1.39265                      90.52631
                      -5.47019                      -1.30198                      90.57773
                      -5.72310                      -1.14478                      90.64546
                      -5.92598                      -0.93090                      90.72525
                      -6.06607                      -0.67380                      90.81209
                      -6.13457                      -0.38962                      90.90052
                      -6.12719                      -0.09623                      90.98499
                      -6.04437                       0.18795                      91.06018
                      -5.89132                       0.44505                      91.12137
                      -5.67767                       0.65893                      91.16473
                      -5.41684                       0.81613                      91.18751
                      -5.12521                       0.90680                      91.18830
                      -4.82111                       0.92522                      91.16704
                      -4.52364                       0.87024                      91.12506
                      -4.25151                       0.74532                      91.06502
                      -4.02180                       0.55831                      90.99067
                      -3.84895                       0.32095                      90.90669
                      -3.74382                       0.04816                      90.81836
                      -3.64311                      -0.20822                      90.60456
                      -3.69158                      -0.51858                      90.51877
                      -3.81832                      -0.80944                      90.44548
                      -4.01537                      -1.06252                      90.38930
                      -4.27033                      -1.26192                      90.35376
                      -4.56720                      -1.39511                      90.34110
                      -4.88732                      -1.45373                      90.35210
                      -5.21057                      -1.43409                      90.38608
                      -5.51664                      -1.33742                      90.44090
                      -5.78631                      -1.16980                      90.51312
                      -6.00262                      -0.94176                      90.59820
                      -6.15199                      -0.66763                      90.69079
                      -6.22503                      -0.36463                      90.78507
                      -6.21715                      -0.05181                      90.87513
                      -6.12885                       0.25119                      90.95530
                      -5.96567                       0.52532                      91.02055
                      -5.73787                       0.75336                      91.06677
                      -5.45976                       0.92098                      91.09107
                      -5.14882                       1.01764                      91.09191
                      -4.82458                       1.03729                      91.06924
                      -4.50741                       0.97867                      91.02448
                      -4.21725                       0.84548                      90.96046
                      -3.97233                       0.64607                      90.88119
                      -3.78804                       0.39299                      90.79165
                      -3.67595                       0.10214                      90.69747
                      -3.58927                      -0.17352                      90.47930
                      -3.64015                      -0.49930                      90.38925
                      -3.77319                      -0.80461                      90.31232
                      -3.98003                      -1.07026                      90.25335
                      -4.24766                      -1.27957                      90.21605
                      -4.55928                      -1.41939                      90.20275
                      -4.89530                      -1.48092                      90.21430
                      -5.23462                      -1.46030                      90.24997
                      -5.55590                      -1.35883                      90.30751
                      -5.83897                      -1.18288                      90.38332
                      -6.06603                      -0.94351                      90.47262
                      -6.22282                      -0.65576                      90.56982
                      -6.29949                      -0.33770                      90.66879
                      -6.29122                      -0.00933                      90.76332
                      -6.19853                       0.30872                      90.84748
                      -6.02724                       0.59647                      90.91597
                      -5.78812                       0.83584                      90.96449
                      -5.49619                       1.01179                      90.98999
                      -5.16980                       1.11326                      90.99087
                      -4.82945                       1.13388                      90.96707
                      -4.49652                       1.07235                      90.92010
                      -4.19194                       0.93254                      90.85289
                      -3.93485                       0.72323                      90.76968
                      -3.74140                       0.45757                      90.67569
                      -3.62374                       0.15226                      90.57683
                      -3.54930                      -0.13881                      90.35526
                      -3.60208                      -0.47669                      90.26186
                      -3.74005                      -0.79333                      90.18208
                      -3.95457                      -1.06885                      90.12092
                      -4.23214                      -1.28593                      90.08223
                      -4.55533                      -1.43094                      90.06844
                      -4.90383                      -1.49475                      90.08042
                      -5.25574                      -1.47337                      90.11741
                      -5.58895                      -1.36813                      90.17709
                      -5.88253                      -1.18565                      90.25571
                      -6.11802                      -0.93739                      90.34834
                      -6.28063                      -0.63896                      90.44914
                      -6.36015                      -0.30909                      90.55178
                      -6.35157                       0.03147                      90.64983
                      -6.25544                       0.36133                      90.73711
                      -6.07779                       0.65976                      90.80814
                      -5.82979                       0.90802                      90.85846
                      -5.52702                       1.09050                      90.88491
                      -5.18851                       1.19574                      90.88582
                      -4.83552                       1.21712                      90.86114
                      -4.49024                       1.15331                      90.81242
                      -4.17435                       1.00831                      90.74272
                      -3.90772                       0.79122                      90.65642
                      -3.70708                       0.51571                      90.55894
                      -3.58506                       0.19906                      90.45641
                      -3.52176                      -0.10411                      90.23231
                      -3.57596                      -0.45110                      90.13639
                      -3.71766                      -0.77629                      90.05445
                      -3.93796                      -1.05924                      89.99164
                      -4.22302                      -1.28218                      89.95191
                      -4.55493                      -1.43110                      89.93775
                      -4.91283                      -1.49663                      89.95005
                      -5.27423                      -1.47467                      89.98804
                      -5.61644                      -1.36659                      90.04933
                      -5.91793                      -1.17919                      90.13007
                      -6.15978                      -0.92423                      90.22519
                      -6.32678                      -0.61775                      90.32871
                      -6.40844                      -0.27898                      90.43413
                      -6.39963                       0.07076                      90.53482
                      -6.30090                       0.40952                      90.62445
                      -6.11847                       0.71601                      90.69740
                      -5.86378                       0.97097                      90.74908
                      -5.55284                       1.15837                      90.77624
                      -5.20519                       1.26645                      90.77718
                      -4.84268                       1.28841                      90.75183
                      -4.48808                       1.22287                      90.70180
                      -4.16367                       1.07396                      90.63022
                      -3.88984                       0.85102                      90.54159
                      -3.68379                       0.56807                      90.44148
                      -3.55848                       0.24288                      90.33618
                      -3.50568                      -0.06941                      90.11036
                      -3.56087                      -0.42276                      90.01268
                      -3.70517                      -0.75392                      89.92924
                      -3.92951                      -1.04206                      89.86528
                      -4.21980                      -1.26909                      89.82481
                      -4.55780                      -1.42074                      89.81039
                      -4.92227                      -1.48748                      89.82292
                      -5.29031                      -1.46512                      89.86161
                      -5.63879                      -1.35506                      89.92402
                      -5.94582                      -1.16421                      90.00625
                      -6.19210                      -0.90458                      90.10311
                      -6.36217                      -0.59247                      90.20853
                      -6.44533                      -0.24749                      90.31588
                      -6.43636                       0.10868                      90.41842
                      -6.33582                       0.45365                      90.50970
                      -6.15003                       0.76576                      90.58398
                      -5.89067                       1.02540                      90.63661
                      -5.57403                       1.21624                      90.66427
                      -5.22000                       1.32630                      90.66523
                      -4.85084                       1.34867                      90.63942
                      -4.48973                       1.28193                      90.58846
                      -4.15937                       1.13028                      90.51557
                      -3.88051                       0.90325                      90.42531
                      -3.67068                       0.61511                      90.32337
                      -3.54307                       0.28395                      90.21613
                      -3.50044                      -0.03470                      89.98935
                      -3.55622                      -0.39183                      89.89063
                      -3.70206                      -0.72651                      89.80630
                      -3.92879                      -1.01773                      89.74166
                      -4.22218                      -1.24718                      89.70077
                      -4.56378                      -1.40044                      89.68619
                      -4.93213                      -1.46789                      89.69885
                      -5.30409                      -1.44529                      89.73795
                      -5.65629                      -1.33405                      89.80103
                      -5.96659                      -1.14118                      89.88413
                      -6.21550                      -0.87878                      89.98203
                      -6.38737                      -0.56334                      90.08857
                      -6.47142                      -0.21468                      90.19707
                      -6.46235                       0.14528                      90.30070
                      -6.36075                       0.49393                      90.39295
                      -6.17298                       0.80937                      90.46803
                      -5.91085                       1.07177                      90.52122
                      -5.59083                       1.26465                      90.54917
                      -5.23303                       1.37588                      90.55014
                      -4.85994                       1.39848                      90.52405
                      -4.49498                       1.33103                      90.47255
                      -4.16110                       1.17777                      90.39888
                      -3.87927                       0.94832                      90.30767
                      -3.66721                       0.65710                      90.20463
                      -3.53823                       0.32242                      90.09626
                      -3.50571                       0.00000                      89.86927
                      -3.56168                      -0.35837                      89.77021
                      -3.70803                      -0.69422                      89.68558
                      -3.93555                      -0.98645                      89.62071
                      -4.22996                      -1.21670                      89.57968
                      -4.57276                      -1.37050                      89.56505
                      -4.94240                      -1.43819                      89.57776
                      -5.31566                      -1.41551                      89.61699
                      -5.66908                      -1.30389                      89.68029
                      -5.98046                      -1.11033                      89.76368
                      -6.23024                      -0.84702                      89.86192
                      -6.40272                      -0.53048                      89.96884
                      -6.48706                      -0.18061                      90.07771
                      -6.47796                       0.18061                      90.18170
                      -6.37600                       0.53048                      90.27428
                      -6.18757                       0.84702                      90.34962
                      -5.92453                       1.11034                      90.40299
                      -5.60340                       1.30389                      90.43104
                      -5.24435                       1.41551                      90.43201
                      -4.86995                       1.43819                      90.40583
                      -4.50372                       1.37050                      90.35416
                      -4.16867                       1.21670                      90.28023
                      -3.88586                       0.98645                      90.18869
                      -3.67306                       0.69422                      90.08530
                      -3.54363                       0.35837                      89.97655
                      -3.52137                       0.03470                      89.75010
                      -3.57715                      -0.32242                      89.65138
                      -3.72299                      -0.65710                      89.56705
                      -3.94972                      -0.94832                      89.50240
                      -4.24311                      -1.17777                      89.46151
                      -4.58471                      -1.33103                      89.44693
                      -4.95306                      -1.39848                      89.45959
                      -5.32502                      -1.37588                      89.49869
                      -5.67722                      -1.26465                      89.56178
                      -5.98752                      -1.07177                      89.64488
                      -6.23643                      -0.80937                      89.74277
                      -6.40831                      -0.49393                      89.84932
                      -6.49235                      -0.14528                      89.95781
                      -6.48329                       0.21468                      90.06144
                      -6.38168                       0.56334                      90.15369
                      -6.19391                       0.87878                      90.22877
                      -5.93178                       1.14118                      90.28196
                      -5.61177                       1.33405                      90.30991
                      -5.25397                       1.44529                      90.31088
                      -4.88087                       1.46789                      90.28479
                      -4.51591                       1.40044                      90.23330
                      -4.18203                       1.24718                      90.15963
                      -3.90020                       1.01773                      90.06841
                      -3.68814                       0.72651                      89.96537
                      -3.55916                       0.39183                      89.85700
                      -3.54754                       0.06941                      89.63184
                      -3.60273                      -0.28395                      89.53416
                      -3.74703                      -0.61511                      89.45072
                      -3.97138                      -0.90325                      89.38676
                      -4.26167                      -1.13028                      89.34630
                      -4.59967                      -1.28193                      89.33188
                      -4.96414                      -1.34867                      89.34440
                      -5.33217                      -1.32630                      89.38309
                      -5.68065                      -1.21624                      89.44551
                      -5.98768                      -1.02540                      89.52773
                      -6.23397                      -0.76576                      89.62459
                      -6.40403                      -0.45365                      89.73001
                      -6.48719                      -0.10868                      89.83737
                      -6.47822                       0.24749                      89.93990
                      -6.37768                       0.59247                      90.03118
                      -6.19190                       0.90458                      90.10547
                      -5.93253                       1.16421                      90.15810
                      -5.61589                       1.35506                      90.18575
                      -5.26187                       1.46512                      90.18671
                      -4.89270                       1.48748                      90.16090
                      -4.53159                       1.42074                      90.10995
                      -4.20123                       1.26909                      90.03705
                      -3.92238                       1.04206                      89.94680
                      -3.71255                       0.75392                      89.84485
                      -3.58493                       0.42276                      89.73762
                      -3.58456                       0.10411                      89.51453
                      -3.63875                      -0.24288                      89.41862
                      -3.78045                      -0.56807                      89.33668
                      -4.00075                      -0.85102                      89.27387
                      -4.28581                      -1.07396                      89.23414
                      -4.61772                      -1.22287                      89.21998
                      -4.97562                      -1.28841                      89.23228
                      -5.33703                      -1.26645                      89.27027
                      -5.67923                      -1.15837                      89.33156
                      -5.98073                      -0.97097                      89.41230
                      -6.22258                      -0.71601                      89.50742
                      -6.38958                      -0.40952                      89.61094
                      -6.47124                      -0.07076                      89.71636
                      -6.46243                       0.27898                      89.81704
                      -6.36370                       0.61775                      89.90668
                      -6.18126                       0.92423                      89.97963
                      -5.92657                       1.17919                      90.03131
                      -5.61564                       1.36659                      90.05847
                      -5.26799                       1.47467                      90.05940
                      -4.90548                       1.49663                      90.03406
                      -4.55088                       1.43110                      89.98402
                      -4.22647                       1.28218                      89.91244
                      -3.95264                       1.05924                      89.82381
                      -3.74659                       0.77629                      89.72370
                      -3.62127                       0.45110                      89.61841
                      -3.63303                       0.13881                      89.39823
                      -3.68580                      -0.19906                      89.30483
                      -3.82378                      -0.51571                      89.22505
                      -4.03830                      -0.79122                      89.16389
                      -4.31587                      -1.00831                      89.12520
                      -4.63906                      -1.15331                      89.11141
                      -4.98756                      -1.21712                      89.12339
                      -5.33947                      -1.19574                      89.16038
                      -5.67268                      -1.09050                      89.22006
                      -5.96626                      -0.90802                      89.29868
                      -6.20175                      -0.65976                      89.39130
                      -6.36436                      -0.36133                      89.49210
                      -6.44388                      -0.03147                      89.59475
                      -6.43530                       0.30909                      89.69279
                      -6.33917                       0.63896                      89.78007
                      -6.16152                       0.93739                      89.85111
                      -5.91352                       1.18565                      89.90143
                      -5.61075                       1.36813                      89.92787
                      -5.27224                       1.47337                      89.92879
                      -4.91925                       1.49475                      89.90411
                      -4.57397                       1.43094                      89.85539
                      -4.25808                       1.28593                      89.78569
                      -3.99145                       1.06885                      89.69938
                      -3.79081                       0.79333                      89.60191
                      -3.66878                       0.47669                      89.49937
                      -3.69393                       0.17352                      89.28301
                      -3.74481                      -0.15226                      89.19296
                      -3.87785                      -0.45757                      89.11603
                      -4.08469                      -0.72323                      89.05706
                      -4.35232                      -0.93254                      89.01976
                      -4.66394                      -1.07235                      89.00646
                      -4.99997                      -1.13388                      89.01801
                      -5.33928                      -1.11326                      89.05368
                      -5.66056                      -1.01179                      89.11122
                      -5.94363                      -0.83584                      89.18703
                      -6.17069                      -0.59647                      89.27633
                      -6.32749                      -0.30872                      89.37353
                      -6.40416                       0.00933                      89.47250
                      -6.39589                       0.33770                      89.56703
                      -6.30319                       0.65576                      89.65119
                      -6.13191                       0.94351                      89.71968
                      -5.89279                       1.18288                      89.76820
                      -5.60086                       1.35883                      89.79370
                      -5.27446                       1.46030                      89.79458
                      -4.93411                       1.48092                      89.77078
                      -4.60118                       1.41939                      89.72381
                      -4.29661                       1.27957                      89.65660
                      -4.03951                       1.07026                      89.57339
                      -3.84606                       0.80461                      89.47940
                      -3.72840                       0.49930                      89.38054
                      -3.76870                       0.20822                      89.16901
                      -3.81718                      -0.10214                      89.08322
                      -3.94392                      -0.39299                      89.00993
                      -4.14096                      -0.64607                      88.95375
                      -4.39593                      -0.84548                      88.91822
                      -4.69279                      -0.97867                      88.90555
                      -5.01291                      -1.03729                      88.91655
                      -5.33616                      -1.01764                      88.95053
                      -5.64224                      -0.92098                      89.00535
                      -5.91190                      -0.75336                      89.07757
                      -6.12822                      -0.52532                      89.16265
                      -6.27759                      -0.25119                      89.25524
                      -6.35063                       0.05181                      89.34953
                      -6.34275                       0.36463                      89.43958
                      -6.25445                       0.66763                      89.51976
                      -6.09127                       0.94176                      89.58500
                      -5.86347                       1.16980                      89.63123
                      -5.58536                       1.33742                      89.65552
                      -5.27441                       1.43409                      89.65636
                      -4.95017                       1.45373                      89.63369
                      -4.63301                       1.39511                      89.58894
                      -4.34285                       1.26192                      89.52491
                      -4.09793                       1.06252                      89.44564
                      -3.91363                       0.80944                      89.35610
                      -3.80154                       0.51858                      89.26192
                      -3.85955                       0.24292                      89.05641
                      -3.90501                      -0.04816                      88.97595
                      -4.02388                      -0.32095                      88.90722
                      -4.20869                      -0.55831                      88.85453
                      -4.44782                      -0.74532                      88.82120
                      -4.72624                      -0.87024                      88.80932
                      -5.02648                      -0.92522                      88.81964
                      -5.32965                      -0.90680                      88.85150
                      -5.61671                      -0.81613                      88.90292
                      -5.86963                      -0.65893                      88.97065
                      -6.07251                      -0.44505                      89.05045
                      -6.21260                      -0.18795                      89.13729
                      -6.28110                       0.09623                      89.22572
                      -6.27371                       0.38962                      89.31018
                      -6.19089                       0.67380                      89.38537
                      -6.03785                       0.93090                      89.44657
                      -5.82420                       1.14478                      89.48992
                      -5.56336                       1.30198                      89.51270
                      -5.27173                       1.39265                      89.51349
                      -4.96763                       1.41107                      89.49223
                      -4.67017                       1.35609                      89.45026
                      -4.39803                       1.23117                      89.39021
                      -4.16832                       1.04416                      89.31586
                      -3.99548                       0.80680                      89.23188
                      -3.89035                       0.53400                      89.14355
                      -3.96995                       0.27763                      88.94553
                      -4.01167                       0.01051                      88.87169
                      -4.12075                      -0.23981                      88.80861
                      -4.29034                      -0.45763                      88.76026
                      -4.50978                      -0.62925                      88.72968
                      -4.76528                      -0.74388                      88.71878
                      -5.04080                      -0.79433                      88.72825
                      -5.31901                      -0.77743                      88.75749
                      -5.58243                      -0.69423                      88.80467
                      -5.81452                      -0.54997                      88.86683
                      -6.00070                      -0.35370                      88.94005
                      -6.12926                      -0.11777                      89.01974
                      -6.19212                       0.14301                      89.10089
                      -6.18534                       0.41225                      89.17840
                      -6.10934                       0.67302                      89.24740
                      -5.96890                       0.90896                      89.30356
                      -5.77284                       1.10522                      89.34334
                      -5.53348                       1.24949                      89.36425
                      -5.26586                       1.33269                      89.36497
                      -4.98680                       1.34959                      89.34546
                      -4.71382                       1.29914                      89.30694
                      -4.46410                       1.18451                      89.25184
                      -4.25330                       1.01289                      89.18361
                      -4.09469                       0.79507                      89.10655
                      -3.99821                       0.54474                      89.02549
                      -4.10582                       0.31233                      88.83687
                      -4.14284                       0.07529                      88.77134
                      -4.23964                      -0.14685                      88.71537
                      -4.39013                      -0.34015                      88.67246
                      -4.58487                      -0.49244                      88.64532
                      -4.81160                      -0.59417                      88.63565
                      -5.05610                      -0.63894                      88.64405
                      -5.30298                      -0.62394                      88.67000
                      -5.53675                      -0.55011                      88.71187
                      -5.74271                      -0.42209                      88.76703
                      -5.90792                      -0.24792                      88.83201
                      -6.02201                      -0.03855                      88.90273
                      -6.07779                       0.19287                      88.97474
                      -6.07178                       0.43179                      89.04352
                      -6.00433                       0.66321                      89.10476
                      -5.87970                       0.87258                      89.15459
                      -5.70572                       1.04675                      89.18989
                      -5.49331                       1.17477                      89.20845
                      -5.25582                       1.24860                      89.20909
                      -5.00818                       1.26360                      89.19177
                      -4.76594                       1.21883                      89.15759
                      -4.54433                       1.11711                      89.10869
                      -4.35726                       0.96481                      89.04815
                      -4.21651                       0.77152                      88.97976
                      -4.13090                       0.54937                      88.90783
                      -4.27866                       0.34704                      88.73145
                      -4.30960                       0.14894                      88.67669
                      -4.39050                      -0.03671                      88.62991
                      -4.51627                      -0.19825                      88.59405
                      -4.67901                      -0.32552                      88.57137
                      -4.86850                      -0.41054                      88.56328
                      -5.07282                      -0.44795                      88.57031
                      -5.27915                      -0.43542                      88.59199
                      -5.47451                      -0.37371                      88.62699
                      -5.64663                      -0.26673                      88.67308
                      -5.78470                      -0.12117                      88.72738
                      -5.88004                       0.05380                      88.78648
                      -5.92666                       0.24720                      88.84667
                      -5.92164                       0.44687                      88.90415
                      -5.86527                       0.64027                      88.95532
                      -5.76112                       0.81524                      88.99697
                      -5.61572                       0.96080                      89.02647
                      -5.43820                       1.06779                      89.04198
                      -5.23973                       1.12949                      89.04251
                      -5.03277                       1.14202                      89.02804
                      -4.83033                       1.10461                      88.99948
                      -4.64513                       1.01959                      88.95861
                      -4.48880                       0.89232                      88.90801
                      -4.37117                       0.73078                      88.85086
                      -4.29962                       0.54513                      88.79075
                      -4.51793                       0.38174                      88.63184
                      -4.54030                       0.23852                      88.59224
                      -4.59879                       0.10429                      88.55842
                      -4.68972                      -0.01250                      88.53250
                      -4.80738                      -0.10452                      88.51610
                      -4.94438                      -0.16599                      88.51025
                      -5.09211                      -0.19304                      88.51533
                      -5.24128                      -0.18397                      88.53101
                      -5.38253                      -0.13936                      88.55631
                      -5.50697                      -0.06201                      88.58964
                      -5.60680                       0.04323                      88.62890
                      -5.67573                       0.16973                      88.67163
                      -5.70944                       0.30956                      88.71514
                      -5.70580                       0.45392                      88.75670
                      -5.66505                       0.59375                      88.79370
                      -5.58975                       0.72025                      88.82381
                      -5.48462                       0.82549                      88.84514
                      -5.35628                       0.90284                      88.85635
                      -5.21278                       0.94745                      88.85674
                      -5.06315                       0.95652                      88.84627
                      -4.91679                       0.92946                      88.82562
                      -4.78289                       0.86800                      88.79608
                      -4.66986                       0.77598                      88.75949
                      -4.58481                       0.65919                      88.71817
                      -4.53309                       0.52496                      88.67471
                      -5.12560                       0.41644                      88.56445
                      -5.12560                       0.41644                      88.56445
                      -5.12560                       0.41644                      88.56445
                      -5.12560                       0.41644                      88.56445
                      -5.12560                       0.41644                      88.56445
                      -5.12560                       0.41644                      88.56445
                      -5.12560                       0.41644                      88.56445
                      -5.12560                       0.41644                      88.56445
                      -5.12560                       0.41644                      88.56445
                      -5.12560                       0.41644                      88.56445
                      -5.12560                       0.41644                      88.56445
                      -5.12560                       0.41644                      88.56445
                      -5.12560                       0.41644                      88.56445
                      -5.12560                       0.41644                      88.56445
                      -5.12560                       0.41644                      88.56445
                      -5.12560                       0.41644                      88.56445
                      -5.12560                       0.41644                      88.56445
                      -5.12560                       0.41644                      88.56445
                      -5.12560                       0.41644                      88.56445
                      -5.12560                       0.41644                      88.56445
                      -5.12560                       0.41644                      88.56445
                      -5.12560                       0.41644                      88.56445
                      -5.12560                       0.41644                      88.56445
                      -5.12560                       0.41644                      88.56445
                      -5.12560                       0.41644                      88.56445
        </DataArray>
      </Points>
      <Polys>
        <DataArray type="Int32" Name="connectivity" format="ascii">
      0      1     26     25
      1      2     27     26
      2      3     28     27
      3      4     29     28
      4      5     30     29
      5      6     31     30
      6      7     32     31
      7      8     33     32
      8      9     34     33
      9     10     35     34
     10     11     36     35
     11     12     37     36
     12     13     38     37
     13     14     39     38
     14     15     40     39
     15     16     41     40
     16     17     42     41
     17     18     43     42
     18     19     44     43
     19     20     45     44
     20     21     46     45
     21     22     47     46
     22     23     48     47
     23     24     49     48
     24      0     25     49
     25     26     51     50
     26     27     52     51
     27     28     53     52
     28     29     54     53
     29     30     55     54
     30     31     56     55
     31     32     57     56
     32     33     58     57
     33     34     59     58
     34     35     60     59
     35     36     61     60
     36     37     62     61
     37     38     63     62
     38     39     64     63
     39     40     65     64
     40     41     66     65
     41     42     67     66
     42     43     68     67
     43     44     69     68
     44     45     70     69
     45     46     71     70
     46     47     72     71
     47     48     73     72
     48     49     74     73
     49     25     50     74
     50     51     76     75
     51     52     77     76
     52     53     78     77
     53     54     79     78
     54     55     80     79
     55     56     81     80
     56     57     82     81
     57     58     83     82
     58     59     84     83
     59     60     85     84
     60     61     86     85
     61     62     87     86
     62     63     88     87
     63     64     89     88
     64     65     90     89
     65     66     91     90
     66     67     92     91
     67     68     93     92
     68     69     94     93
     69     70     95     94
     70     71     96     95
     71     72     97     96
     72     73     98     97
     73     74     99     98
     74     50     75     99
     75     76    101    100
     76     77    102    101
     77     78    103    102
     78     79    104    103
     79     80    105    104
     80     81    106    105
     81     82    107    106
     82     83    108    107
     83     84    109    108
     84     85    110    109
     85     86    111    110
     86     87    112    111
     87     88    113    112
     88     89    114    113
     89     90    115    114
     90     91    116    115
     91     92    117    116
     92     93    118    117
     93     94    119    118
     94     95    120    119
     95     96    121    120
     96     97    122    121
     97     98    123    122
     98     99    124    123
     99     75    100    124
    100    101    126    125
    101    102    127    126
    102    103    128    127
    103    104    129    128
    104    105    130    129
    105    106    131    130
    106    107    132    131
    107    108    133    132
    108    109    134    133
    109    110    135    134
    110    111    136    135
    111    112    137    136
    112    113    138    137
    113    114    139    138
    114    115    140    139
    115    116    141    140
    116    117    142    141
    117    118    143    142
    118    119    144    143
    119    120    145    144
    120    121    146    145
    121    122    147    146
    122    123    148    147
    123    124    149    148
    124    100    125    149
    125    126    151    150
    126    127    152    151
    127    128    153    152
    128    129    154    153
    129    130    155    154
    130    131    156    155
    131    132    157    156
    132    133    158    157
    133    134    159    158
    134    135    160    159
    135    136    161    160
    136    137    162    161
    137    138    163    162
    138    139    164    163
    139    140    165    164
    140    141    166    165
    141    142    167    166
    142    143    168    167
    143    144    169    168
    144    145    170    169
    145    146    171    170
    146    147    172    171
    147    148    173    172
    148    149    174    173
    149    125    150    174
    150    151    176    175
    151    152    177    176
    152    153    178    177
    153    154    179    178
    154    155    180    179
    155    156    181    180
    156    157    182    181
    157    158    183    182
    158    159    184    183
    159    160    185    184
    160    161    186    185
    161    162    187    186
    162    163    188    187
    163    164    189    188
    164    165    190    189
    165    166    191    190
    166    167    192    191
    167    168    193    192
    168    169    194    193
    169    170    195    194
    170    171    196    195
    171    172    197    196
    172    173    198    197
    173    174    199    198
    174    150    175    199
    175    176    201    200
    176    177    202    201
    177    178    203    202
    178    179    204    203
    179    180    205    204
    180    181    206    205
    181    182    207    206
    182    183    208    207
    183    184    209    208
    184    185    210    209
    185    186    211    210
    186    187    212    211
    187    188    213    212
    188    189    214    213
    189    190    215    214
    190    191    216    215
    191    192    217    216
    192    193    218    217
    193    194    219    218
    194    195    220    219
    195    196    221    220
    196    197    222    221
    197    198    223    222
    198    199    224    223
    199    175    200    224
    200    201    226    225
    201    202    227    226
    202    203    228    227
    203    204    229    228
    204    205    230    229
    205    206    231    230
    206    207    232    231
    207    208    233    232
    208    209    234    233
    209    210    235    234
    210    211    236    235
    211    212    237    236
    212    213    238    237
    213    214    239    238
    214    215    240    239
    215    216    241    240
    216    217    242    241
    217    218    243    242
    218    219    244    243
    219    220    245    244
    220    221    246    245
    221    222    247    246
    222    223    248    247
    223    224    249    248
    224    200    225    249
    225    226    251    250
    226    227    252    251
    227    228    253    252
    228    229    254    253
    229    230    255    254
    230    231    256    255
    231    232    257    256
    232    233    258    257
    233    234    259    258
    234    235    260    259
    235    236    261    260
    236    237    262    261
    237    238    263    262
    238    239    264    263
    239    240    265    264
    240    241    266    265
    241    242    267    266
    242    243    268    267
    243    244    269    268
    244    245    270    269
    245    246    271    270
    246    247    272    271
    247    248    273    272
    248    249    274    273
    249    225    250    274
    250    251    276    275
    251    252    277    276
    252    253    278    277
    253    254    279    278
    254    255    280    279
    255    256    281    280
    256    257    282    281
    257    258    283    282
    258    259    284    283
    259    260    285    284
    260    261    286    285
    261    262    287    286
    262    263    288    287
    263    264    289    288
    264    265    290    289
    265    266    291    290
    266    267    292    291
    267    268    293    292
    268    269    294    293
    269    270    295    294
    270    271    296    295
    271    272    297    296
    272    273    298    297
    273    274    299    298
    274    250    275    299
    275    276    301    300
    276    277    302    301
    277    278    303    302
    278    279    304    303
    279    280    305    304
    280    281    306    305
    281    282    307    306
    282    283    308    307
    283    284    309    308
    284    285    310    309
    285    286    311    310
    286    287    312    311
    287    288    313    312
    288    289    314    313
    289    290    315    314
    290    291    316    315
    291    292    317    316
    292    293    318    317
    293    294    319    318
    294    295    320    319
    295    296    321    320
    296    297    322    321
    297    298    323    322
    298    299    324    323
    299    275    300    324
    300    301    326    325
    301    302    327    326
    302    303    328    327
    303    304    329    328
    304    305    330    329
    305    306    331    330
    306    307    332    331
    307    308    333    332
    308    309    334    333
    309    310    335    334
    310    311    336    335
    311    312    337    336
    312    313    338    337
    313    314    339    338
    314    315    340    339
    315    316    341    340
    316    317    342    341
    317    318    343    342
    318    319    344    343
    319    320    345    344
    320    321    346    345
    321    322    347    346
    322    323    348    347
    323    324    349    348
    324    300    325    349
    325    326    351    350
    326    327    352    351
    327    328    353    352
    328    329    354    353
    329    330    355    354
    330    331    356    355
    331    332    357    356
    332    333    358    357
    333    334    359    358
    334    335    360    359
    335    336    361    360
    336    337    362    361
    337    338    363    362
    338    339    364    363
    339    340    365    364
    340    341    366    365
    341    342    367    366
    342    343    368    367
    343    344    369    368
    344    345    370    369
    345    346    371    370
    346    347    372    371
    347    348    373    372
    348    349    374    373
    349    325    350    374
    350    351    376    375
    351    352    377    376
    352    353    378    377
    353    354    379    378
    354    355    380    379
    355    356    381    380
    356    357    382    381
    357    358    383    382
    358    359    384    383
    359    360    385    384
    360    361    386    385
    361    362    387    386
    362    363    388    387
    363    364    389    388
    364    365    390    389
    365    366    391    390
    366    367    392    391
    367    368    393    392
    368    369    394    393
    369    370    395    394
    370    371    396    395
    371    372    397    396
    372    373    398    397
    373    374    399    398
    374    350    375    399
    375    376    401    400
    376    377    402    401
    377    378    403    402
    378    379    404    403
    379    380    405    404
    380    381    406    405
    381    382    407    406
    382    383    408    407
    383    384    409    408
    384    385    410    409
    385    386    411    410
    386    387    412    411
    387    388    413    412
    388    389    414    413
    389    390    415    414
    390    391    416    415
    391    392    417    416
    392    393    418    417
    393    394    419    418
    394    395    420    419
    395    396    421    420
    396    397    422    421
    397    398    423    422
    398    399    424    423
    399    375    400    424
    400    401    426    425
    401    402    427    426
    402    403    428    427
    403    404    429    428
    404    405    430    429
    405    406    431    430
    406    407    432    431
    407    408    433    432
    408    409    434    433
    409    410    435    434
    410    411    436    435
    411    412    437    436
    412    413    438    437
    413    414    439    438
    414    415    440    439
    415    416    441    440
    416    417    442    441
    417    418    443    442
    418    419    444    443
    419    420    445    444
    420    421    446    445
    421    422    447    446
    422    423    448    447
    423    424    449    448
    424    400    425    449
    425    426    451    450
    426    427    452    451
    427    428    453    452
    428    429    454    453
    429    430    455    454
    430    431    456    455
    431    432    457    456
    432    433    458    457
    433    434    459    458
    434    435    460    459
    435    436    461    460
    436    437    462    461
    437    438    463    462
    438    439    464    463
    439    440    465    464
    440    441    466    465
    441    442    467    466
    442    443    468    467
    443    444    469    468
    444    445    470    469
    445    446    471    470
    446    447    472    471
    447    448    473    472
    448    449    474    473
    449    425    450    474
    450    451    476    475
    451    452    477    476
    452    453    478    477
    453    454    479    478
    454    455    480    479
    455    456    481    480
    456    457    482    481
    457    458    483    482
    458    459    484    483
    459    460    485    484
    460    461    486    485
    461    462    487    486
    462    463    488    487
    463    464    489    488
    464    465    490    489
    465    466    491    490
    466    467    492    491
    467    468    493    492
    468    469    494    493
    469    470    495    494
    470    471    496    495
    471    472    497    496
    472    473    498    497
    473    474    499    498
    474    450    475    499
    475    476    501    500
    476    477    502    501
    477    478    503    502
    478    479    504    503
    479    480    505    504
    480    481    506    505
    481    482    507    506
    482    483    508    507
    483    484    509    508
    484    485    510    509
    485    486    511    510
    486    487    512    511
    487    488    513    512
    488    489    514    513
    489    490    515    514
    490    491    516    515
    491    492    517    516
    492    493    518    517
    493    494    519    518
    494    495    520    519
    495    496    521    520
    496    497    522    521
    497    498    523    522
    498    499    524    523
    499    475    500    524
    500    501    526    525
    501    502    527    526
    502    503    528    527
    503    504    529    528
    504    505    530    529
    505    506    531    530
    506    507    532    531
    507    508    533    532
    508    509    534    533
    509    510    535    534
    510    511    536    535
    511    512    537    536
    512    513    538    537
    513    514    539    538
    514    515    540    539
    515    516    541    540
    516    517    542    541
    517    518    543    542
    518    519    544    543
    519    520    545    544
    520    521    546    545
    521    522    547    546
    522    523    548    547
    523    524    549    548
    524    500    525    549
    525    526    551    550
    526    527    552    551
    527    528    553    552
    528    529    554    553
    529    530    555    554
    530    531    556    555
    531    532    557    556
    532    533    558    557
    533    534    559    558
    534    535    560    559
    535    536    561    560
    536    537    562    561
    537    538    563    562
    538    539    564    563
    539    540    565    564
    540    541    566    565
    541    542    567    566
    542    543    568    567
    543    544    569    568
    544    545    570    569
    545    546    571    570
    546    547    572    571
    547    548    573    572
    548    549    574    573
    549    525    550    574
    550    551    576    575
    551    552    577    576
    552    553    578    577
    553    554    579    578
    554    555    580    579
    555    556    581    580
    556    557    582    581
    557    558    583    582
    558    559    584    583
    559    560    585    584
    560    561    586    585
    561    562    587    586
    562    563    588    587
    563    564    589    588
    564    565    590    589
    565    566    591    590
    566    567    592    591
    567    568    593    592
    568    569    594    593
    569    570    595    594
    570    571    596    595
    571    572    597    596
    572    573    598    597
    573    574    599    598
    574    550    575    599
    575    576    601    600
    576    577    602    601
    577    578    603    602
    578    579    604    603
    579    580    605    604
    580    581    606    605
    581    582    607    606
    582    583    608    607
    583    584    609    608
    584    585    610    609
    585    586    611    610
    586    587    612    611
    587    588    613    612
    588    589    614    613
    589    590    615    614
    590    591    616    615
    591    592    617    616
    592    593    618    617
    593    594    619    618
    594    595    620    619
    595    596    621    620
    596    597    622    621
    597    598    623    622
    598    599    624    623
    599    575    600    624
        </DataArray>
        <DataArray type="Int32" Name="offsets" format="ascii">
      4
      8
     12
     16
     20
     24
     28
     32
     36
     40
     44
     48
     52
     56
     60
     64
     68
     72
     76
     80
     84
     88
     92
     96
    100
    104
    108
    112
    116
    120
    124
    128
    132
    136
    140
    144
    148
    152
    156
    160
    164
    168
    172
    176
    180
    184
    188
    192
    196
    200
    204
    208
    212
    216
    220
    224
    228
    232
    236
    240
    244
    248
    252
    256
    260
    264
    268
    272
    276
    280
    284
    288
    292
    296
    300
    304
    308
    312
    316
    320
    324
    328
    332
    336
    340
    344
    348
    352
    356
    360
    364
    368
    372
    376
    380
    384
    388
    392
    396
    400
    404
    408
    412
    416
    420
    424
    428
    432
    436
    440
    444
    448
    452
    456
    460
    464
    468
    472
    476
    480
    484
    488
    492
    496
    500
    504
    508
    512
    516
    520
    524
    528
    532
    536
    540
    544
    548
    552
    556
    560
    564
    568
    572
    576
    580
    584
    588
    592
    596
    600
    604
    608
    612
    616
    620
    624
    628
    632
    636
    640
    644
    648
    652
    656
    660
    664
    668
    672
    676
    680
    684
    688
    692
    696
    700
    704
    708
    712
    716
    720
    724
    728
    732
    736
    740
    744
    748
    752
    756
    760
    764
    768
    772
    776
    780
    784
    788
    792
    796
    800
    804
    808
    812
    816
    820
    824
    828
    832
    836
    840
    844
    848
    852
    856
    860
    864
    868
    872
    876
    880
    884
    888
    892
    896
    900
    904
    908
    912
    916
    920
    924
    928
    932
    936
    940
    944
    948
    952
    956
    960
    964
    968
    972
    976
    980
    984
    988
    992
    996
   1000
   1004
   1008
   1012
   1016
   1020
   1024
   1028
   1032
   1036
   1040
   1044
   1048
   1052
   1056
   1060
   1064
   1068
   1072
   1076
   1080
   1084
   1088
   1092
   1096
   1100
   1104
   1108
   1112
   1116
   1120
   1124
   1128
   1132
   1136
   1140
   1144
   1148
   1152
   1156
   1160
   1164
   1168
   1172
   1176
   1180
   1184
   1188
   1192
   1196
   1200
   1204
   1208
   1212
   1216
   1220
   1224
   1228
   1232
   1236
   1240
   1244
   1248
   1252
   1256
   1260
   1264
   1268
   1272
   1276
   1280
   1284
   1288
   1292
   1296
   1300
   1304
   1308
   1312
   1316
   1320
   1324
   1328
   1332
   1336
   1340
   1344
   1348
   1352
   1356
   1360
   1364
   1368
   1372
   1376
   1380
   1384
   1388
   1392
   1396
   1400
   1404
   1408
   1412
   1416
   1420
   1424
   1428
   1432
   1436
   1440
   1444
   1448
   1452
   1456
   1460
   1464
   1468
   1472
   1476
   1480
   1484
   1488
   1492
   1496
   1500
   1504
   1508
   1512
   1516
   1520
   1524
   1528
   1532
   1536
   1540
   1544
   1548
   1552
   1556
   1560
   1564
   1568
   1572
   1576
   1580
   1584
   1588
   1592
   1596
   1600
   1604
   1608
   1612
   1616
   1620
   1624
   1628
   1632
   1636
   1640
   1644
   1648
   1652
   1656
   1660
   1664
   1668
   1672
   1676
   1680
   1684
   1688
   1692
   1696
   1700
   1704
   1708
   1712
   1716
   1720
   1724
   1728
   1732
   1736
   1740
   1744
   1748
   1752
   1756
   1760
   1764
   1768
   1772
   1776
   1780
   1784
   1788
   1792
   1796
   1800
   1804
   1808
   1812
   1816
   1820
   1824
   1828
   1832
   1836
   1840
   1844
   1848
   1852
   1856
   1860
   1864
   1868
   1872
   1876
   1880
   1884
   1888
   1892
   1896
   1900
   1904
   1908
   1912
   1916
   1920
   1924
   1928
   1932
   1936
   1940
   1944
   1948
   1952
   1956
   1960
   1964
   1968
   1972
   1976
   1980
   1984
   1988
   1992
   1996
   2000
   2004
   2008
   2012
   2016
   2020
   2024
   2028
   2032
   2036
   2040
   2044
   2048
   2052
   2056
   2060
   2064
   2068
   2072
   2076
   2080
   2084
   2088
   2092
   2096
   2100
   2104
   2108
   2112
   2116
   2120
   2124
   2128
   2132
   2136
   2140
   2144
   2148
   2152
   2156
   2160
   2164
   2168
   2172
   2176
   2180
   2184
   2188
   2192
   2196
   2200
   2204
   2208
   2212
   2216
   2220
   2224
   2228
   2232
   2236
   2240
   2244
   2248
   2252
   2256
   2260
   2264
   2268
   2272
   2276
   2280
   2284
   2288
   2292
   2296
   2300
   2304
   2308
   2312
   2316
   2320
   2324
   2328
   2332
   2336
   2340
   2344
   2348
   2352
   2356
   2360
   2364
   2368
   2372
   2376
   2380
   2384
   2388
   2392
   2396
   2400
        </DataArray>
      </Polys>
    </Piece>
  </PolyData>
</VTKFile>
