<?xml version="1.0"?>
<VTKFile type="PolyData" version="0.1" byte_order="LittleEndian">
  <PolyData>
    <Piece NumberOfPoints="     19" NumberOfVerts="  0" NumberOfLines="     18"
           NumberOfStrips="  0" NumberOfPolys="      0">
      <Points>
        <DataArray type="Float32" NumberOfComponents="3" format="ascii">
                      -4.94638                      -0.62265                      91.36361
                      -4.89846                      -1.19309                      92.60466
                      -4.82842                      -2.41963                      95.04853
                      -4.77060                      -3.68676                      97.47435
                      -4.70562                      -5.29495                     100.49591
                      -4.56962                      -7.09557                     104.17845
                      -4.40489                      -8.77837                     107.91366
                      -4.24235                     -10.45878                     111.65005
                      -4.07952                     -12.13520                     115.38825
                      -3.91732                     -13.80935                     119.12751
                      -3.75720                     -15.48455                     122.86637
                      -3.59839                     -17.15944                     126.60543
                      -3.44153                     -18.83403                     130.34470
                      -3.28734                     -20.50833                     134.08421
                      -3.13408                     -22.18253                     137.82380
                      -3.00699                     -23.57763                     140.94021
                      -2.90559                     -24.68649                     143.43659
                      -2.80351                     -25.74527                     145.95580
                      -2.75466                     -26.31255                     147.19814
        </DataArray>
      </Points>
      <PointData>
        <DataArray type="Float32" Name="TranslationalVelocity" NumberOfComponents="3" format="ascii">
                      -0.17184                      -4.31642                      -1.96420
                      -0.32928                      -8.24461                      -3.76369
                      -0.66779                     -15.97334                      -7.63291
                      -1.01751                     -23.64174                     -11.63017
                      -1.46135                     -33.19143                     -16.70334
                      -1.95831                     -44.84584                     -22.38357
                      -2.42274                     -56.67434                     -27.69208
                      -2.88652                     -68.50595                     -32.99306
                      -3.34919                     -80.34334                     -38.28147
                      -3.81125                     -92.18390                     -43.56273
                      -4.27358                    -104.02264                     -48.84728
                      -4.73584                    -115.86163                     -54.13087
                      -5.19801                    -127.70076                     -59.41348
                      -5.66010                    -139.53989                     -64.69521
                      -6.12216                    -151.37904                     -69.97660
                      -6.50719                    -161.24509                     -74.37757
                      -6.81323                    -169.14811                     -77.87554
                      -7.10544                    -177.12335                     -81.21556
                      -7.26200                    -181.05589                     -83.00507
        </DataArray>
        <DataArray type="Float32" Name="RotationalVelocity" NumberOfComponents="3" format="ascii">
                       3.15458                      -0.00000                      -0.27599
                       3.15458                      -0.00000                      -0.27599
                       3.15458                      -0.00000                      -0.27599
                       3.15458                      -0.00000                      -0.27599
                       3.15458                      -0.00000                      -0.27599
                       3.15458                      -0.00000                      -0.27599
                       3.15458                      -0.00000                      -0.27599
                       3.15458                      -0.00000                      -0.27599
                       3.15458                      -0.00000                      -0.27599
                       3.15458                      -0.00000                      -0.27599
                       3.15458                      -0.00000                      -0.27599
                       3.15458                      -0.00000                      -0.27599
                       3.15458                      -0.00000                      -0.27599
                       3.15458                      -0.00000                      -0.27599
                       3.15458                      -0.00000                      -0.27599
                       3.15458                      -0.00000                      -0.27599
                       3.15458                      -0.00000                      -0.27599
                       3.15458                      -0.00000                      -0.27599
                       3.15458                      -0.00000                      -0.27599
        </DataArray>
        <DataArray type="Float32" Name="TranslationalAcceleration" NumberOfComponents="3" format="ascii">
                      -1.19156                       6.23682                     -13.61960
                      -2.27595                      11.95070                     -26.01426
                      -4.40954                      24.23769                     -50.40127
                      -6.52650                      36.93179                     -74.59819
                      -9.16282                      53.04291                    -104.73148
                     -12.38010                      71.08038                    -141.50522
                     -15.64539                      87.93601                    -178.82759
                     -18.91153                     104.76769                    -216.15974
                     -22.17926                     121.55938                    -253.51012
                     -25.44787                     138.32836                    -290.87048
                     -28.71598                     155.10779                    -328.22512
                     -31.98415                     171.88415                    -365.58051
                     -35.25236                     188.65742                    -402.93637
                     -38.52058                     205.42791                    -440.29221
                     -41.78880                     222.19728                    -477.64812
                     -44.51234                     236.17119                    -508.77835
                     -46.69398                     247.27780                    -533.71458
                     -48.89552                     257.88219                    -558.87840
                     -49.98112                     263.56435                    -571.28677
        </DataArray>
        <DataArray type="Float32" Name="OrientationX" NumberOfComponents="3" format="ascii">
                       0.96355                      -0.22701                      -0.14155
                       0.96355                      -0.22701                      -0.14155
                       0.96355                      -0.22701                      -0.14155
                       0.96355                      -0.22701                      -0.14155
                       0.96355                      -0.22701                      -0.14155
                       0.97152                      -0.19879                      -0.12898
                       0.97665                      -0.17832                      -0.11983
                       0.98071                      -0.16036                      -0.11179
                       0.98456                      -0.14132                      -0.10325
                       0.98807                      -0.12167                      -0.09441
                       0.99095                      -0.10303                      -0.08601
                       0.99339                      -0.08450                      -0.07765
                       0.99525                      -0.06768                      -0.07004
                       0.99642                      -0.05491                      -0.06426
                       0.99739                      -0.04234                      -0.05855
                       0.99805                      -0.03182                      -0.05378
                       0.99845                      -0.02400                      -0.05022
                       0.99864                      -0.01981                      -0.04831
                       0.99864                      -0.01981                      -0.04831
        </DataArray>
        <DataArray type="Float32" Name="OrientationY" NumberOfComponents="3" format="ascii">
                       0.26513                       0.88100                       0.39185
                       0.26513                       0.88100                       0.39185
                       0.26513                       0.88100                       0.39185
                       0.26513                       0.88100                       0.39185
                       0.26513                       0.88100                       0.39185
                       0.23426                       0.88779                       0.39617
                       0.21185                       0.89213                       0.39903
                       0.19219                       0.89553                       0.40136
                       0.17133                       0.89873                       0.40364
                       0.14980                       0.90160                       0.40580
                       0.12936                       0.90392                       0.40766
                       0.10905                       0.90584                       0.40934
                       0.09060                       0.90725                       0.41071
                       0.07659                       0.90812                       0.41165
                       0.06280                       0.90879                       0.41250
                       0.05125                       0.90922                       0.41315
                       0.04266                       0.90946                       0.41360
                       0.03806                       0.90956                       0.41382
                       0.03806                       0.90956                       0.41382
        </DataArray>
        <DataArray type="Float32" Name="OrientationZ" NumberOfComponents="3" format="ascii">
                       0.03575                      -0.41510                       0.90907
                       0.03575                      -0.41510                       0.90907
                       0.03575                      -0.41510                       0.90907
                       0.03575                      -0.41510                       0.90907
                       0.03575                      -0.41510                       0.90907
                       0.03575                      -0.41510                       0.90907
                       0.03575                      -0.41510                       0.90907
                       0.03575                      -0.41510                       0.90907
                       0.03575                      -0.41510                       0.90907
                       0.03575                      -0.41510                       0.90907
                       0.03575                      -0.41510                       0.90907
                       0.03575                      -0.41510                       0.90907
                       0.03575                      -0.41510                       0.90907
                       0.03575                      -0.41510                       0.90907
                       0.03575                      -0.41510                       0.90907
                       0.03575                      -0.41510                       0.90907
                       0.03575                      -0.41510                       0.90907
                       0.03575                      -0.41510                       0.90907
                       0.03575                      -0.41510                       0.90907
        </DataArray>
        <DataArray type="Float32" Name="Force" NumberOfComponents="3" format="ascii">
                       1.05454                      26.48796                      12.05341
                     206.18456                     140.34495                      55.97619
                     329.11697                     419.79978                     178.74620
                     346.35887                     635.36621                     276.49969
                    1453.21339                    -272.92302                    -181.76645
                    1315.64390                    -185.22565                    -136.31260
                    1261.31973                     -94.95690                     -92.95807
                    2343.93885                    -226.13170                    -195.42682
                    3303.56224                    -266.53830                    -251.61260
                    4395.54559                    -286.29909                    -303.57594
                    6942.97176                    -325.77268                    -421.77307
                    8810.31075                    -293.48716                    -480.46055
                   10824.00423                    -329.72080                    -576.19022
                   13054.98329                    -306.73019                    -653.42139
                   15648.79534                    -280.36633                    -743.38000
                   18072.44550                    -257.36549                    -828.18293
                   19737.24271                    -203.98371                    -869.27290
                   17321.21896                    -373.86614                    -851.83863
                   14903.88231                     -87.68194                    -626.10454
        </DataArray>
        <DataArray type="Float32" Name="Moment" NumberOfComponents="3" format="ascii">
                       0.00000                       0.00000                       0.00000
                       0.00000                       0.00000                       0.00000
                       0.00000                       0.00000                       0.00000
                       0.00000                       0.00000                       0.00000
                     -53.28791                     618.77600                   -1355.12856
                    -103.47675                    1201.56590                   -2631.44704
                    -142.81004                    1658.30170                   -3631.70518
                    -241.05401                    2799.10491                   -6130.08103
                    -357.49041                    4151.15753                   -9091.09619
                    -409.67097                    4757.07504                  -10418.06448
                    -460.19138                    5343.71503                  -11702.81471
                    -493.58428                    5731.47142                  -12552.00692
                    -384.01212                    4459.12601                   -9765.55172
                    -388.30680                    4508.99557                   -9874.76679
                    -383.94496                    4458.34615                   -9763.84381
                    -372.66888                    4327.40903                   -9477.08959
                    -338.30442                    3928.37086                   -8603.19012
                    -178.58707                    2073.74249                   -4541.52663
                    -177.63907                    2062.73438                   -4517.41872
        </DataArray>
      </PointData>
      <Lines>
        <DataArray type="Int32" Name="connectivity" format="ascii">
      0      1
      1      2
      2      3
      3      4
      4      5
      5      6
      6      7
      7      8
      8      9
      9     10
     10     11
     11     12
     12     13
     13     14
     14     15
     15     16
     16     17
     17     18
        </DataArray>
        <DataArray type="Int32" Name="offsets" format="ascii">
      2
      4
      6
      8
     10
     12
     14
     16
     18
     20
     22
     24
     26
     28
     30
     32
     34
     36
        </DataArray>
      </Lines>
    </Piece>
  </PolyData>
</VTKFile>
