<?xml version="1.0"?>
<VTKFile type="PolyData" version="0.1" byte_order="LittleEndian">
  <PolyData>
    <Piece NumberOfPoints="     19" NumberOfVerts="  0" NumberOfLines="     18"
           NumberOfStrips="  0" NumberOfPolys="      0">
      <Points>
        <DataArray type="Float32" NumberOfComponents="3" format="ascii">
                      -4.94621                      -0.61835                      91.36556
                      -4.89814                      -1.18488                      92.60839
                      -4.82776                      -2.40372                      95.05610
                      -4.76959                      -3.66322                      97.48588
                      -4.70417                      -5.26190                     100.51247
                      -4.56768                      -7.05092                     104.20064
                      -4.40249                      -8.72194                     107.94112
                      -4.23948                     -10.39057                     111.68277
                      -4.07620                     -12.05521                     115.42621
                      -3.91354                     -13.71757                     119.17070
                      -3.75297                     -15.38099                     122.91481
                      -3.59370                     -17.04409                     126.65910
                      -3.43638                     -18.70689                     130.40361
                      -3.28173                     -20.36941                     134.14835
                      -3.12801                     -22.03182                     137.89318
                      -3.00054                     -23.41710                     141.01396
                      -2.89883                     -24.51809                     143.51380
                      -2.79646                     -25.56893                     146.03633
                      -2.74746                     -26.13229                     147.28044
        </DataArray>
      </Points>
      <PointData>
        <DataArray type="Float32" Name="TranslationalVelocity" NumberOfComponents="3" format="ascii">
                      -0.14159                      -3.58628                      -1.61836
                      -0.27131                      -6.85005                      -3.10109
                      -0.55040                     -13.27236                      -6.29108
                      -0.83879                     -19.64496                      -9.58745
                      -1.20485                     -27.58120                     -13.77156
                      -1.61450                     -37.26522                     -18.45383
                      -1.99713                     -47.09270                     -22.82726
                      -2.37920                     -56.92274                     -27.19443
                      -2.76037                     -66.75755                     -31.55115
                      -3.14101                     -76.59496                     -35.90193
                      -3.52190                     -86.43088                     -40.25545
                      -3.90271                     -96.26699                     -44.60817
                      -4.28345                    -106.10323                     -48.96007
                      -4.66413                    -115.93946                     -53.31126
                      -5.04478                    -125.77570                     -57.66215
                      -5.36198                    -133.97265                     -61.28774
                      -5.61408                    -140.53859                     -64.16927
                      -5.85470                    -147.16403                     -66.91956
                      -5.98370                    -150.43138                     -68.39399
        </DataArray>
        <DataArray type="Float32" Name="RotationalVelocity" NumberOfComponents="3" format="ascii">
                       2.61722                      -0.00000                      -0.22898
                       2.61722                      -0.00000                      -0.22898
                       2.61722                      -0.00000                      -0.22898
                       2.61722                      -0.00000                      -0.22898
                       2.61722                      -0.00000                      -0.22898
                       2.61722                      -0.00000                      -0.22898
                       2.61722                      -0.00000                      -0.22898
                       2.61722                      -0.00000                      -0.22898
                       2.61722                      -0.00000                      -0.22898
                       2.61722                      -0.00000                      -0.22898
                       2.61722                      -0.00000                      -0.22898
                       2.61722                      -0.00000                      -0.22898
                       2.61722                      -0.00000                      -0.22898
                       2.61722                      -0.00000                      -0.22898
                       2.61722                      -0.00000                      -0.22898
                       2.61722                      -0.00000                      -0.22898
                       2.61722                      -0.00000                      -0.22898
                       2.61722                      -0.00000                      -0.22898
                       2.61722                      -0.00000                      -0.22898
        </DataArray>
        <DataArray type="Float32" Name="TranslationalAcceleration" NumberOfComponents="3" format="ascii">
                      -0.82272                       4.22895                      -9.40374
                      -1.57146                       8.10370                     -17.96188
                      -3.04507                      16.44652                     -34.80527
                      -4.50739                      25.07046                     -51.51971
                      -6.32860                      36.01851                     -72.33620
                      -8.55048                      48.26132                     -97.73245
                     -10.80492                      59.68806                    -123.50081
                     -13.05994                      71.09826                    -149.27580
                     -15.31604                      82.48086                    -175.06315
                     -17.57273                      93.84778                    -200.85726
                     -19.82909                     105.22192                    -226.64748
                     -22.08548                     116.59394                    -252.43821
                     -24.34190                     127.96383                    -278.22925
                     -26.59833                     139.33181                    -304.02025
                     -28.85475                     150.69902                    -329.81130
                     -30.73512                     160.17130                    -351.30405
                     -32.24132                     167.69906                    -368.51997
                     -33.76102                     174.88007                    -385.89020
                     -34.51057                     178.73292                    -394.45764
        </DataArray>
        <DataArray type="Float32" Name="OrientationX" NumberOfComponents="3" format="ascii">
                       0.96361                      -0.22719                      -0.14084
                       0.96361                      -0.22719                      -0.14084
                       0.96361                      -0.22719                      -0.14084
                       0.96361                      -0.22719                      -0.14084
                       0.96361                      -0.22719                      -0.14084
                       0.97157                      -0.19893                      -0.12835
                       0.97670                      -0.17843                      -0.11927
                       0.98075                      -0.16045                      -0.11129
                       0.98460                      -0.14138                      -0.10280
                       0.98810                      -0.12169                      -0.09403
                       0.99098                      -0.10303                      -0.08569
                       0.99342                      -0.08447                      -0.07738
                       0.99526                      -0.06763                      -0.06983
                       0.99644                      -0.05484                      -0.06408
                       0.99740                      -0.04225                      -0.05842
                       0.99805                      -0.03172                      -0.05368
                       0.99846                      -0.02388                      -0.05014
                       0.99864                      -0.01968                      -0.04825
                       0.99864                      -0.01968                      -0.04825
        </DataArray>
        <DataArray type="Float32" Name="OrientationY" NumberOfComponents="3" format="ascii">
                       0.26489                       0.88230                       0.38909
                       0.26489                       0.88230                       0.38909
                       0.26489                       0.88230                       0.38909
                       0.26489                       0.88230                       0.38909
                       0.26489                       0.88230                       0.38909
                       0.23401                       0.88909                       0.39338
                       0.21160                       0.89344                       0.39623
                       0.19194                       0.89684                       0.39855
                       0.17108                       0.90004                       0.40082
                       0.14955                       0.90291                       0.40297
                       0.12912                       0.90523                       0.40482
                       0.10880                       0.90715                       0.40649
                       0.09035                       0.90856                       0.40786
                       0.07634                       0.90943                       0.40880
                       0.06255                       0.91010                       0.40965
                       0.05100                       0.91053                       0.41030
                       0.04241                       0.91076                       0.41074
                       0.03781                       0.91087                       0.41097
                       0.03781                       0.91087                       0.41097
        </DataArray>
        <DataArray type="Float32" Name="OrientationZ" NumberOfComponents="3" format="ascii">
                       0.03586                      -0.41223                       0.91037
                       0.03586                      -0.41223                       0.91037
                       0.03586                      -0.41223                       0.91037
                       0.03586                      -0.41223                       0.91037
                       0.03586                      -0.41223                       0.91037
                       0.03586                      -0.41223                       0.91037
                       0.03586                      -0.41223                       0.91037
                       0.03586                      -0.41223                       0.91037
                       0.03586                      -0.41223                       0.91037
                       0.03586                      -0.41223                       0.91037
                       0.03586                      -0.41223                       0.91037
                       0.03586                      -0.41223                       0.91037
                       0.03586                      -0.41223                       0.91037
                       0.03586                      -0.41223                       0.91037
                       0.03586                      -0.41223                       0.91037
                       0.03586                      -0.41223                       0.91037
                       0.03586                      -0.41223                       0.91037
                       0.03586                      -0.41223                       0.91037
                       0.03586                      -0.41223                       0.91037
        </DataArray>
        <DataArray type="Float32" Name="Force" NumberOfComponents="3" format="ascii">
                       0.74495                      18.86883                       8.51484
                     193.09212                     110.17813                      42.28459
                     289.69808                     310.49304                     129.18566
                     295.10358                     456.46795                     195.07306
                    1718.10995                    -434.11748                    -264.25648
                    1781.80585                    -345.24234                    -226.52115
                    1946.08863                    -288.26771                    -207.19331
                    3027.04929                    -410.17977                    -304.97851
                    3698.12064                    -398.79016                    -326.25580
                    4654.88450                    -415.23002                    -371.38876
                    6658.72498                    -446.12444                    -464.31330
                    8154.28450                    -423.48575                    -512.97487
                   10065.55733                    -493.33717                    -619.89350
                   11775.88483                    -484.05869                    -683.06494
                   13701.36690                    -434.66148                    -736.54515
                   15444.16024                    -438.08433                    -806.74689
                   16528.68201                    -460.98588                    -859.83846
                   13695.63164                    -455.16604                    -745.60410
                   10268.63346                     -58.25846                    -430.88078
        </DataArray>
        <DataArray type="Float32" Name="Moment" NumberOfComponents="3" format="ascii">
                       0.00000                       0.00000                       0.00000
                       0.00000                       0.00000                       0.00000
                       0.00000                       0.00000                       0.00000
                       0.00000                       0.00000                       0.00000
                     -43.88600                     504.48156                   -1114.08901
                     -79.65199                     915.62142                   -2022.04371
                    -107.80968                    1239.30174                   -2736.85414
                    -175.22871                    2014.30201                   -4448.35235
                    -255.27268                    2934.42940                   -6480.34696
                    -291.51668                    3351.06408                   -7400.43631
                    -324.69136                    3732.41614                   -8242.60811
                    -347.53434                    3995.00241                   -8822.49942
                    -275.14087                    3162.81960                   -6984.72022
                    -279.05170                    3207.77574                   -7084.00064
                    -276.45275                    3177.90010                   -7018.02374
                    -269.58831                    3098.99140                   -6843.76303
                    -245.96272                    2827.40882                   -6244.00441
                    -127.95220                    1470.84555                   -3248.19178
                    -122.77922                    1411.38070                   -3116.87057
        </DataArray>
      </PointData>
      <Lines>
        <DataArray type="Int32" Name="connectivity" format="ascii">
      0      1
      1      2
      2      3
      3      4
      4      5
      5      6
      6      7
      7      8
      8      9
      9     10
     10     11
     11     12
     12     13
     13     14
     14     15
     15     16
     16     17
     17     18
        </DataArray>
        <DataArray type="Int32" Name="offsets" format="ascii">
      2
      4
      6
      8
     10
     12
     14
     16
     18
     20
     22
     24
     26
     28
     30
     32
     34
     36
        </DataArray>
      </Lines>
    </Piece>
  </PolyData>
</VTKFile>
