<?xml version="1.0"?>
<VTKFile type="PolyData" version="0.1" byte_order="LittleEndian">
  <PolyData>
    <Piece NumberOfPoints="     19" NumberOfVerts="  0" NumberOfLines="     18"
           NumberOfStrips="  0" NumberOfPolys="      0">
      <Points>
        <DataArray type="Float32" NumberOfComponents="3" format="ascii">
                      -5.19540                      -0.11521                      88.51725
                      -5.37427                      -0.21674                      87.16611
                      -5.75484                      -0.32532                      84.45960
                      -6.14621                      -0.38916                      81.75104
                      -6.64191                      -0.44225                      78.36404
                      -7.18332                      -0.64878                      74.30373
                      -7.70001                      -0.98503                      70.25025
                      -8.21895                      -1.32385                      66.19726
                      -8.73774                      -1.66704                      62.14460
                      -9.25722                      -2.01269                      58.09221
                      -9.77873                      -2.35716                      54.04000
                     -10.30155                      -2.70193                      49.98799
                     -10.82632                      -3.04699                      45.93625
                     -11.35374                      -3.39229                      41.88489
                     -11.88208                      -3.73770                      37.83365
                     -12.32301                      -4.02560                      34.45768
                     -12.67623                      -4.26380                      31.75764
                     -13.03039                      -4.55686                      29.06198
                     -13.20842                      -4.66182                      27.71109
        </DataArray>
      </Points>
      <PointData>
        <DataArray type="Float32" Name="TranslationalVelocity" NumberOfComponents="3" format="ascii">
                      -0.03223                       4.79576                      -0.36837
                      -0.06063                       9.16607                      -0.69301
                      -0.09101                      17.92661                      -1.04021
                      -0.10887                      26.69674                      -1.24435
                      -0.12372                      37.66535                      -1.41410
                      -0.18149                      50.79965                      -2.07448
                      -0.27556                      63.90522                      -3.14965
                      -0.37034                      77.00983                      -4.23302
                      -0.46635                      90.11338                      -5.33036
                      -0.56304                     103.21622                      -6.43560
                      -0.65940                     116.31906                      -7.53703
                      -0.75585                     129.42165                      -8.63943
                      -0.85238                     142.52388                      -9.74276
                      -0.94898                     155.62568                     -10.84687
                      -1.04560                     168.72733                     -11.95131
                      -1.12614                     179.64537                     -12.87187
                      -1.19278                     188.37758                     -13.63353
                      -1.27476                     197.09603                     -14.57058
                      -1.30412                     201.46528                     -14.90619
        </DataArray>
        <DataArray type="Float32" Name="RotationalVelocity" NumberOfComponents="3" format="ascii">
                       3.19750                      -0.00000                      -0.27975
                       3.19750                      -0.00000                      -0.27975
                       3.19750                      -0.00000                      -0.27975
                       3.19750                      -0.00000                      -0.27975
                       3.19750                      -0.00000                      -0.27975
                       3.19750                      -0.00000                      -0.27975
                       3.19750                      -0.00000                      -0.27975
                       3.19750                      -0.00000                      -0.27975
                       3.19750                      -0.00000                      -0.27975
                       3.19750                      -0.00000                      -0.27975
                       3.19750                      -0.00000                      -0.27975
                       3.19750                      -0.00000                      -0.27975
                       3.19750                      -0.00000                      -0.27975
                       3.19750                      -0.00000                      -0.27975
                       3.19750                      -0.00000                      -0.27975
                       3.19750                      -0.00000                      -0.27975
                       3.19750                      -0.00000                      -0.27975
                       3.19750                      -0.00000                      -0.27975
                       3.19750                      -0.00000                      -0.27975
        </DataArray>
        <DataArray type="Float32" Name="TranslationalAcceleration" NumberOfComponents="3" format="ascii">
                       1.34158                       1.18820                      15.33436
                       2.56415                       2.23538                      29.30836
                       5.01486                       3.35642                      57.32012
                       7.46826                       4.01657                      85.36257
                      10.53667                       4.56648                     120.43472
                      14.21091                       6.69783                     162.43150
                      17.87711                      10.16557                     204.33631
                      21.54304                      13.65974                     246.23806
                      25.20867                      17.19895                     288.13641
                      28.87410                      20.76357                     330.03248
                      32.53953                      24.31593                     371.92857
                      36.20489                      27.87142                     413.82383
                      39.87016                      31.42994                     455.71798
                      43.53530                      34.99093                     497.61073
                      47.20040                      38.55298                     539.50298
                      50.25464                      41.52201                     574.41320
                      52.69742                      43.97843                     602.33427
                      55.13634                      46.99997                     630.21128
                      56.35861                      48.08250                     644.18190
        </DataArray>
        <DataArray type="Float32" Name="OrientationX" NumberOfComponents="3" format="ascii">
                       0.96329                       0.22624                      -0.14452
                       0.96329                       0.22624                      -0.14452
                       0.96329                       0.22624                      -0.14452
                       0.96329                       0.22624                      -0.14452
                       0.96329                       0.22624                      -0.14452
                       0.97029                       0.19515                      -0.14303
                       0.97472                       0.17261                      -0.14186
                       0.97817                       0.15285                      -0.14078
                       0.98139                       0.13191                      -0.13958
                       0.98423                       0.11030                      -0.13828
                       0.98649                       0.08982                      -0.13698
                       0.98832                       0.06947                      -0.13564
                       0.98962                       0.05100                      -0.13438
                       0.99037                       0.03699                      -0.13339
                       0.99093                       0.02320                      -0.13239
                       0.99124                       0.01166                      -0.13154
                       0.99139                       0.00309                      -0.13089
                       0.99144                      -0.00151                      -0.13054
                       0.99144                      -0.00151                      -0.13054
        </DataArray>
        <DataArray type="Float32" Name="OrientationY" NumberOfComponents="3" format="ascii">
                       0.23474                      -0.97104                       0.04451
                       0.23474                      -0.97104                       0.04451
                       0.23474                      -0.97104                       0.04451
                       0.23474                      -0.97104                       0.04451
                       0.23474                      -0.97104                       0.04451
                       0.20389                      -0.97776                       0.04910
                       0.18152                      -0.98199                       0.05238
                       0.16190                      -0.98526                       0.05522
                       0.14111                      -0.98828                       0.05819
                       0.11965                      -0.99093                       0.06123
                       0.09930                      -0.99299                       0.06407
                       0.07909                      -0.99462                       0.06686
                       0.06074                      -0.99574                       0.06936
                       0.04681                      -0.99636                       0.07125
                       0.03310                      -0.99678                       0.07309
                       0.02163                      -0.99698                       0.07461
                       0.01310                      -0.99704                       0.07574
                       0.00853                      -0.99705                       0.07634
                       0.00853                      -0.99705                       0.07634
        </DataArray>
        <DataArray type="Float32" Name="OrientationZ" NumberOfComponents="3" format="ascii">
                      -0.13027                      -0.07680                      -0.98850
                      -0.13027                      -0.07680                      -0.98850
                      -0.13027                      -0.07680                      -0.98850
                      -0.13027                      -0.07680                      -0.98850
                      -0.13027                      -0.07680                      -0.98850
                      -0.13027                      -0.07680                      -0.98850
                      -0.13027                      -0.07680                      -0.98850
                      -0.13027                      -0.07680                      -0.98850
                      -0.13027                      -0.07680                      -0.98850
                      -0.13027                      -0.07680                      -0.98850
                      -0.13027                      -0.07680                      -0.98850
                      -0.13027                      -0.07680                      -0.98850
                      -0.13027                      -0.07680                      -0.98850
                      -0.13027                      -0.07680                      -0.98850
                      -0.13027                      -0.07680                      -0.98850
                      -0.13027                      -0.07680                      -0.98850
                      -0.13027                      -0.07680                      -0.98850
                      -0.13027                      -0.07680                      -0.98850
                      -0.13027                      -0.07680                      -0.98850
        </DataArray>
        <DataArray type="Float32" Name="Force" NumberOfComponents="3" format="ascii">
                       0.17620                     -26.21916                       2.01396
                     155.25484                    -141.95905                      -9.43018
                     258.88545                    -449.12972                       0.77950
                     273.85681                    -694.65245                      17.88315
                    1104.34033                     138.88775                    -156.32579
                     756.85263                      46.45586                    -103.35066
                     451.53324                     -62.96634                     -54.61254
                    1246.11804                      20.29311                    -165.79527
                    2175.27419                      69.59256                    -292.07374
                    3067.68845                      65.00894                    -409.32360
                    5552.84495                      61.94540                    -736.58966
                    7342.62034                      -6.19097                    -967.15952
                    9077.56952                     -28.37294                   -1194.07473
                   11255.24451                    -102.95280                   -1475.26294
                   13864.90689                    -188.85111                   -1812.50079
                   12991.37089                    -410.26618                   -1680.17913
                   15064.49049                    -447.32351                   -1950.50404
                   13028.24812                    -322.43610                   -1691.86319
                   15159.23057                    -256.63400                   -1977.80547
        </DataArray>
        <DataArray type="Float32" Name="Moment" NumberOfComponents="3" format="ascii">
                       0.00000                       0.00000                       0.00000
                       0.00000                       0.00000                       0.00000
                       0.00000                       0.00000                       0.00000
                       0.00000                       0.00000                       0.00000
                     169.16311                      99.73615                    1283.63831
                     350.37914                     206.57853                    2658.73622
                     483.88779                     285.29333                    3671.82252
                     848.09751                     500.02617                    6435.50757
                    1298.21316                     765.40793                    9851.06135
                    1493.42964                     880.50477                   11332.39705
                    1688.49215                     995.51083                   12812.56435
                    1815.00982                    1070.10385                   13772.60189
                    1407.02672                     829.56285                   10676.75707
                    1425.59468                     840.51024                   10817.65382
                    1404.49447                     828.06986                   10657.54190
                    1338.41891                     789.11266                   10156.14934
                    1210.73356                     713.83120                    9187.25126
                     625.38183                     368.71619                    4745.50322
                     663.66415                     391.28690                    5035.99595
        </DataArray>
      </PointData>
      <Lines>
        <DataArray type="Int32" Name="connectivity" format="ascii">
      0      1
      1      2
      2      3
      3      4
      4      5
      5      6
      6      7
      7      8
      8      9
      9     10
     10     11
     11     12
     12     13
     13     14
     14     15
     15     16
     16     17
     17     18
        </DataArray>
        <DataArray type="Int32" Name="offsets" format="ascii">
      2
      4
      6
      8
     10
     12
     14
     16
     18
     20
     22
     24
     26
     28
     30
     32
     34
     36
        </DataArray>
      </Lines>
    </Piece>
  </PolyData>
</VTKFile>
