<?xml version="1.0"?>
<VTKFile type="PolyData" version="0.1" byte_order="LittleEndian">
  <PolyData>
    <Piece NumberOfPoints="    625" NumberOfVerts="  0" NumberOfLines="      0"
           NumberOfStrips="  0" NumberOfPolys="    600">
      <Points>
        <DataArray type="Float32" NumberOfComponents="3" format="ascii">
                      -4.95164                       1.39359                      90.55278
                      -4.95164                       1.39359                      90.55278
                      -4.95164                       1.39359                      90.55278
                      -4.95164                       1.39359                      90.55278
                      -4.95164                       1.39359                      90.55278
                      -4.95164                       1.39359                      90.55278
                      -4.95164                       1.39359                      90.55278
                      -4.95164                       1.39359                      90.55278
                      -4.95164                       1.39359                      90.55278
                      -4.95164                       1.39359                      90.55278
                      -4.95164                       1.39359                      90.55278
                      -4.95164                       1.39359                      90.55278
                      -4.95164                       1.39359                      90.55278
                      -4.95164                       1.39359                      90.55278
                      -4.95164                       1.39359                      90.55278
                      -4.95164                       1.39359                      90.55278
                      -4.95164                       1.39359                      90.55278
                      -4.95164                       1.39359                      90.55278
                      -4.95164                       1.39359                      90.55278
                      -4.95164                       1.39359                      90.55278
                      -4.95164                       1.39359                      90.55278
                      -4.95164                       1.39359                      90.55278
                      -4.95164                       1.39359                      90.55278
                      -4.95164                       1.39359                      90.55278
                      -4.95164                       1.39359                      90.55278
                      -4.35847                       1.27746                      90.45447
                      -4.36516                       1.22231                      90.59409
                      -4.40896                       1.17062                      90.72823
                      -4.48710                       1.12565                      90.84844
                      -4.59469                       1.09022                      90.94718
                      -4.72496                       1.06655                      91.01825
                      -4.86972                       1.05613                      91.05718
                      -5.01989                       1.05962                      91.06151
                      -5.16602                       1.07680                      91.03099
                      -5.29894                       1.10659                      90.96753
                      -5.41028                       1.14711                      90.87511
                      -5.49306                       1.19582                      90.75955
                      -5.54207                       1.24966                      90.62809
                      -5.55424                       1.30525                      90.48902
                      -5.52880                       1.35909                      90.35105
                      -5.46734                       1.40781                      90.22287
                      -5.37374                       1.44833                      90.11252
                      -5.25387                       1.47812                      90.02694
                      -5.11525                       1.49529                      89.97150
                      -4.96662                       1.49878                      89.94970
                      -4.81729                       1.48837                      89.96290
                      -4.67666                       1.46470                      90.01026
                      -4.55356                       1.42927                      90.08882
                      -4.45573                       1.38429                      90.19364
                      -4.38931                       1.33261                      90.31813
                      -4.13370                       1.16133                      90.38839
                      -4.14295                       1.08505                      90.58150
                      -4.20352                       1.01356                      90.76703
                      -4.31161                       0.95136                      90.93330
                      -4.46042                       0.90235                      91.06987
                      -4.64060                       0.86961                      91.16817
                      -4.84083                       0.85520                      91.22201
                      -5.04853                       0.86003                      91.22801
                      -5.25064                       0.88379                      91.18579
                      -5.43448                       0.92499                      91.09801
                      -5.58848                       0.98104                      90.97019
                      -5.70298                       1.04841                      90.81035
                      -5.77077                       1.12288                      90.62853
                      -5.78760                       1.19977                      90.43617
                      -5.75241                       1.27424                      90.24534
                      -5.66741                       1.34162                      90.06805
                      -5.53794                       1.39766                      89.91542
                      -5.37214                       1.43886                      89.79705
                      -5.18043                       1.46262                      89.72038
                      -4.97484                       1.46745                      89.69023
                      -4.76830                       1.45304                      89.70848
                      -4.57379                       1.42030                      89.77399
                      -4.40353                       1.37130                      89.88265
                      -4.26821                       1.30909                      90.02763
                      -4.17635                       1.23761                      90.19981
                      -3.97535                       1.04519                      90.32812
                      -3.98642                       0.95392                      90.55920
                      -4.05890                       0.86838                      90.78119
                      -4.18824                       0.79395                      90.98015
                      -4.36630                       0.73530                      91.14357
                      -4.58190                       0.69613                      91.26119
                      -4.82149                       0.67889                      91.32561
                      -5.07002                       0.68467                      91.33279
                      -5.31187                       0.71310                      91.28228
                      -5.53185                       0.76239                      91.17724
                      -5.71613                       0.82946                      91.02429
                      -5.85313                       0.91008                      90.83302
                      -5.93425                       0.99919                      90.61547
                      -5.95439                       1.09119                      90.38529
                      -5.91228                       1.18030                      90.15695
                      -5.81057                       1.26093                      89.94480
                      -5.65565                       1.32799                      89.76217
                      -5.45725                       1.37729                      89.62053
                      -5.22785                       1.40572                      89.52879
                      -4.98185                       1.41150                      89.49270
                      -4.73471                       1.39426                      89.51454
                      -4.50196                       1.35508                      89.59294
                      -4.29823                       1.29644                      89.72296
                      -4.13631                       1.22201                      89.89643
                      -4.02638                       1.13647                      90.10247
                      -3.85398                       0.92906                      90.27108
                      -3.86646                       0.82620                      90.53148
                      -3.94813                       0.72981                      90.78164
                      -4.09388                       0.64594                      91.00584
                      -4.29453                       0.57985                      91.18999
                      -4.53748                       0.53571                      91.32254
                      -4.80747                       0.51628                      91.39513
                      -5.08753                       0.52279                      91.40322
                      -5.36007                       0.55483                      91.34630
                      -5.60795                       0.61038                      91.22794
                      -5.81561                       0.68596                      91.05558
                      -5.97000                       0.77681                      90.84005
                      -6.06141                       0.87722                      90.59489
                      -6.08410                       0.98090                      90.33551
                      -6.03665                       1.08131                      90.07820
                      -5.92204                       1.17216                      89.83913
                      -5.74746                       1.24774                      89.63333
                      -5.52390                       1.30329                      89.47373
                      -5.26539                       1.33533                      89.37034
                      -4.98818                       1.34184                      89.32968
                      -4.70968                       1.32241                      89.35429
                      -4.44740                       1.27827                      89.44263
                      -4.21782                       1.21218                      89.58914
                      -4.03536                       1.12831                      89.78463
                      -3.91149                       1.03192                      90.01681
                      -3.75808                       0.81293                      90.21627
                      -3.77167                       0.70084                      90.50003
                      -3.86068                       0.59580                      90.77264
                      -4.01950                       0.50440                      91.01696
                      -4.23815                       0.43239                      91.21764
                      -4.50291                       0.38429                      91.36207
                      -4.79712                       0.36312                      91.44118
                      -5.10231                       0.37021                      91.45000
                      -5.39930                       0.40512                      91.38796
                      -5.66943                       0.46566                      91.25898
                      -5.89572                       0.54801                      91.07116
                      -6.06395                       0.64701                      90.83629
                      -6.16357                       0.75644                      90.56913
                      -6.18830                       0.86942                      90.28648
                      -6.13659                       0.97884                      90.00609
                      -6.01169                       1.07784                      89.74557
                      -5.82145                       1.16020                      89.52130
                      -5.57783                       1.22073                      89.34738
                      -5.29612                       1.25565                      89.23472
                      -4.99404                       1.26274                      89.19040
                      -4.69056                       1.24157                      89.21722
                      -4.40475                       1.19347                      89.31349
                      -4.15456                       1.12145                      89.47315
                      -3.95573                       1.03006                      89.68618
                      -3.82074                       0.92501                      89.93918
                      -3.68172                       0.69680                      90.16317
                      -3.69622                       0.57729                      90.46573
                      -3.79112                       0.46529                      90.75639
                      -3.96046                       0.36784                      91.01689
                      -4.19360                       0.29105                      91.23086
                      -4.47588                       0.23976                      91.38486
                      -4.78958                       0.21719                      91.46920
                      -5.11499                       0.22476                      91.47861
                      -5.43164                       0.26198                      91.41247
                      -5.71966                       0.32652                      91.27494
                      -5.96094                       0.41433                      91.07468
                      -6.14032                       0.51989                      90.82425
                      -6.24653                       0.63657                      90.53941
                      -6.27289                       0.75702                      90.23803
                      -6.21776                       0.87370                      89.93907
                      -6.08459                       0.97926                      89.66130
                      -5.88175                       1.06707                      89.42218
                      -5.62199                       1.13161                      89.23673
                      -5.32163                       1.16883                      89.11661
                      -4.99954                       1.17640                      89.06936
                      -4.67596                       1.15383                      89.09796
                      -4.37122                       1.10254                      89.20060
                      -4.10447                       1.02575                      89.37083
                      -3.89247                       0.92830                      89.59797
                      -3.74854                       0.81630                      89.86773
                      -3.62145                       0.58066                      90.11148
                      -3.63667                       0.45522                      90.42907
                      -3.73628                       0.33765                      90.73417
                      -3.91404                       0.23536                      91.00762
                      -4.15876                       0.15476                      91.23222
                      -4.45507                       0.10092                      91.39387
                      -4.78436                       0.07723                      91.48241
                      -5.12593                       0.08517                      91.49228
                      -5.45832                       0.12424                      91.42285
                      -5.76065                       0.19199                      91.27850
                      -6.01392                       0.28417                      91.06828
                      -6.20221                       0.39497                      90.80541
                      -6.31370                       0.51744                      90.50641
                      -6.34138                       0.64388                      90.19006
                      -6.28350                       0.76636                      89.87624
                      -6.14372                       0.87716                      89.58467
                      -5.93080                       0.96933                      89.33367
                      -5.65813                       1.03708                      89.13901
                      -5.34285                       1.07616                      89.01292
                      -5.00475                       1.08410                      88.96332
                      -4.66509                       1.06040                      88.99334
                      -4.34521                       1.00657                      89.10108
                      -4.06520                       0.92597                      89.27977
                      -3.84267                       0.82367                      89.51819
                      -3.69159                       0.70611                      89.80136
                      -3.57505                       0.46453                      90.06101
                      -3.59083                       0.33443                      90.39039
                      -3.69414                       0.21250                      90.70682
                      -3.87850                       0.10640                      90.99041
                      -4.13230                       0.02281                      91.22335
                      -4.43962                      -0.03302                      91.39100
                      -4.78113                      -0.05759                      91.48283
                      -5.13538                      -0.04936                      91.49307
                      -5.48012                      -0.00884                      91.42106
                      -5.79367                       0.06143                      91.27135
                      -6.05634                       0.15703                      91.05333
                      -6.25162                       0.27194                      90.78070
                      -6.36725                       0.39896                      90.47060
                      -6.39596                       0.53010                      90.14250
                      -6.33593                       0.65712                      89.81703
                      -6.19096                       0.77203                      89.51463
                      -5.97014                       0.86763                      89.25431
                      -5.68735                       0.93790                      89.05242
                      -5.36035                       0.97842                      88.92165
                      -5.00971                       0.98665                      88.87022
                      -4.65744                       0.96208                      88.90135
                      -4.32568                       0.90625                      89.01309
                      -4.03528                       0.82266                      89.19842
                      -3.80448                       0.71656                      89.44569
                      -3.64779                       0.59463                      89.73937
                      -3.54107                       0.34840                      90.01162
                      -3.55728                       0.21478                      90.34988
                      -3.66338                       0.08957                      90.67485
                      -3.85270                      -0.01939                      90.96609
                      -4.11336                      -0.10524                      91.20532
                      -4.42896                      -0.16258                      91.37750
                      -4.77969                      -0.18781                      91.47180
                      -5.14350                      -0.17936                      91.48231
                      -5.49754                      -0.13774                      91.40837
                      -5.81955                      -0.06558                      91.25461
                      -6.08931                       0.03260                      91.03071
                      -6.28986                       0.15061                      90.75073
                      -6.40860                       0.28106                      90.43226
                      -6.43808                       0.41574                      90.09531
                      -6.37644                       0.54618                      89.76106
                      -6.22756                       0.66420                      89.45050
                      -6.00078                       0.76237                      89.18316
                      -5.71036                       0.83454                      88.97582
                      -5.37454                       0.87615                      88.84152
                      -5.01443                       0.88461                      88.78870
                      -4.65266                       0.85937                      88.82067
                      -4.31195                       0.80203                      88.93542
                      -4.01371                       0.71619                      89.12575
                      -3.77669                       0.60723                      89.37970
                      -3.61577                       0.48201                      89.68130
                      -3.51855                       0.23227                      89.96323
                      -3.53505                       0.09620                      90.30770
                      -3.64310                      -0.03132                      90.63863
                      -3.83590                      -0.14227                      90.93522
                      -4.10134                      -0.22969                      91.17884
                      -4.42274                      -0.28809                      91.35417
                      -4.77990                      -0.31379                      91.45021
                      -5.15039                      -0.30517                      91.46091
                      -5.51092                      -0.26279                      91.38561
                      -5.83884                      -0.18931                      91.22903
                      -6.11355                      -0.08933                      91.00102
                      -6.31778                       0.03085                      90.71590
                      -6.43870                       0.16369                      90.39159
                      -6.46872                       0.30084                      90.04846
                      -6.40595                       0.43368                      89.70807
                      -6.25433                       0.55386                      89.39182
                      -6.02339                       0.65384                      89.11957
                      -5.72764                       0.72732                      88.90843
                      -5.38567                       0.76970                      88.77166
                      -5.01895                       0.77832                      88.71787
                      -4.65054                       0.75262                      88.75043
                      -4.30358                       0.69422                      88.86729
                      -3.99987                       0.60680                      89.06111
                      -3.75849                       0.49585                      89.31971
                      -3.59462                       0.36833                      89.62685
                      -3.50688                       0.11613                      89.91579
                      -3.52356                      -0.02138                      90.26393
                      -3.63276                      -0.15026                      90.59839
                      -3.82761                      -0.26240                      90.89814
                      -4.09588                      -0.35075                      91.14435
                      -4.42070                      -0.40977                      91.32156
                      -4.78167                      -0.43574                      91.41862
                      -5.15611                      -0.42703                      91.42943
                      -5.52048                      -0.38420                      91.35333
                      -5.85189                      -0.30993                      91.19508
                      -6.12953                      -0.20889                      90.96464
                      -6.33594                      -0.08743                      90.67648
                      -6.45815                       0.04683                      90.34871
                      -6.48849                       0.18544                      90.00193
                      -6.42505                       0.31969                      89.65791
                      -6.27182                       0.44116                      89.33829
                      -6.03842                       0.54220                      89.06314
                      -5.73951                       0.61647                      88.84975
                      -5.39389                       0.65930                      88.71153
                      -5.02327                       0.66800                      88.65716
                      -4.65093                       0.64203                      88.69006
                      -4.30027                       0.58301                      88.80817
                      -3.99332                       0.49466                      89.00406
                      -3.74938                       0.38252                      89.26542
                      -3.58376                       0.25365                      89.57583
                      -3.50571                       0.00000                      89.86927
                      -3.52245                      -0.13800                      90.21863
                      -3.63203                      -0.26732                      90.55425
                      -3.82756                      -0.37985                      90.85505
                      -4.09677                      -0.46851                      91.10212
                      -4.42272                      -0.52773                      91.27994
                      -4.78495                      -0.55380                      91.37734
                      -5.16070                      -0.54506                      91.38820
                      -5.52634                      -0.50208                      91.31183
                      -5.85891                      -0.42755                      91.15303
                      -6.13752                      -0.32616                      90.92178
                      -6.34465                      -0.20427                      90.63262
                      -6.46729                      -0.06955                      90.30370
                      -6.49773                       0.06955                      89.95571
                      -6.43407                       0.20427                      89.61049
                      -6.28030                       0.32616                      89.28975
                      -6.04608                       0.42755                      89.01364
                      -5.74614                       0.50208                      88.79951
                      -5.39931                       0.54506                      88.66080
                      -5.02739                       0.55380                      88.60625
                      -4.65375                       0.52773                      88.63926
                      -4.30187                       0.46851                      88.75778
                      -3.99385                       0.37985                      88.95435
                      -3.74906                       0.26732                      89.21663
                      -3.58286                       0.13800                      89.52812
                      -3.51494                      -0.11613                      89.82366
                      -3.53162                      -0.25365                      90.17180
                      -3.64082                      -0.38252                      90.50626
                      -3.83567                      -0.49466                      90.80601
                      -4.10394                      -0.58301                      91.05222
                      -4.42876                      -0.64203                      91.22943
                      -4.78973                      -0.66800                      91.32649
                      -5.16417                      -0.65930                      91.33730
                      -5.52854                      -0.61647                      91.26120
                      -5.85995                      -0.54220                      91.10295
                      -6.13759                      -0.44116                      90.87251
                      -6.34400                      -0.31969                      90.58435
                      -6.46621                      -0.18544                      90.25658
                      -6.49655                      -0.04683                      89.90980
                      -6.43311                       0.08743                      89.56578
                      -6.27988                       0.20889                      89.24616
                      -6.04648                       0.30993                      88.97101
                      -5.74757                       0.38420                      88.75762
                      -5.40195                       0.42703                      88.61940
                      -5.03133                       0.43574                      88.56503
                      -4.65899                       0.40977                      88.59793
                      -4.30833                       0.35075                      88.71604
                      -4.00138                       0.26240                      88.91193
                      -3.75744                       0.15026                      89.17329
                      -3.59182                       0.02138                      89.48370
                      -3.53467                      -0.23227                      89.77897
                      -3.55118                      -0.36833                      90.12344
                      -3.65922                      -0.49585                      90.45437
                      -3.85202                      -0.60680                      90.75096
                      -4.11746                      -0.69422                      90.99458
                      -4.43886                      -0.75262                      91.16991
                      -4.79602                      -0.77832                      91.26595
                      -5.16651                      -0.76970                      91.27665
                      -5.52704                      -0.72732                      91.20135
                      -5.85496                      -0.65384                      91.04477
                      -6.12967                      -0.55386                      90.81676
                      -6.33390                      -0.43368                      90.53164
                      -6.45482                      -0.30084                      90.20733
                      -6.48484                      -0.16369                      89.86420
                      -6.42207                      -0.03085                      89.52381
                      -6.27045                       0.08933                      89.20756
                      -6.03951                       0.18931                      88.93531
                      -5.74376                       0.26279                      88.72417
                      -5.40179                       0.30517                      88.58740
                      -5.03507                       0.31379                      88.53361
                      -4.66666                       0.28809                      88.56617
                      -4.31970                       0.22969                      88.68303
                      -4.01599                       0.14227                      88.87685
                      -3.77461                       0.03132                      89.13545
                      -3.61074                      -0.09620                      89.44259
                      -3.56525                      -0.34840                      89.73523
                      -3.58146                      -0.48201                      90.07349
                      -3.68756                      -0.60723                      90.39846
                      -3.87688                      -0.71619                      90.68970
                      -4.13754                      -0.80203                      90.92893
                      -4.45315                      -0.85937                      91.10111
                      -4.80387                      -0.88461                      91.19541
                      -5.16768                      -0.87615                      91.20592
                      -5.52172                      -0.83454                      91.13198
                      -5.84373                      -0.76237                      90.97822
                      -6.11349                      -0.66420                      90.75432
                      -6.31404                      -0.54618                      90.47434
                      -6.43279                      -0.41574                      90.15587
                      -6.46226                      -0.28106                      89.81892
                      -6.40062                      -0.15061                      89.48467
                      -6.25174                      -0.03260                      89.17411
                      -6.02496                       0.06558                      88.90677
                      -5.73454                       0.13774                      88.69943
                      -5.39872                       0.17936                      88.56513
                      -5.03861                       0.18781                      88.51231
                      -4.67684                       0.16258                      88.54428
                      -4.33613                       0.10524                      88.65903
                      -4.03789                       0.01939                      88.84936
                      -3.80087                      -0.08957                      89.10331
                      -3.63995                      -0.21478                      89.40491
                      -3.60729                      -0.46453                      89.69249
                      -3.62307                      -0.59463                      90.02187
                      -3.72639                      -0.71656                      90.33830
                      -3.91074                      -0.82266                      90.62189
                      -4.16455                      -0.90625                      90.85483
                      -4.47186                      -0.96208                      91.02248
                      -4.81337                      -0.98665                      91.11431
                      -5.16763                      -0.97842                      91.12455
                      -5.51236                      -0.93790                      91.05254
                      -5.82591                      -0.86763                      90.90283
                      -6.08858                      -0.77203                      90.68481
                      -6.28387                      -0.65712                      90.41218
                      -6.39949                      -0.53010                      90.10208
                      -6.42820                      -0.39896                      89.77398
                      -6.36818                      -0.27194                      89.44851
                      -6.22320                      -0.15703                      89.14611
                      -6.00238                      -0.06143                      88.88579
                      -5.71959                       0.00884                      88.68390
                      -5.39260                       0.04936                      88.55313
                      -5.04195                       0.05759                      88.50170
                      -4.68968                       0.03302                      88.53283
                      -4.35792                      -0.02281                      88.64457
                      -4.06752                      -0.10640                      88.82990
                      -3.83672                      -0.21250                      89.07717
                      -3.68003                      -0.33443                      89.37085
                      -3.66175                      -0.58066                      89.65083
                      -3.67697                      -0.70611                      89.96842
                      -3.77658                      -0.82367                      90.27352
                      -3.95434                      -0.92597                      90.54697
                      -4.19906                      -1.00657                      90.77157
                      -4.49537                      -1.06040                      90.93322
                      -4.82466                      -1.08410                      91.02176
                      -5.16623                      -1.07616                      91.03163
                      -5.49863                      -1.03708                      90.96220
                      -5.80095                      -0.96933                      90.81785
                      -6.05422                      -0.87716                      90.60763
                      -6.24251                      -0.76636                      90.34476
                      -6.35400                      -0.64388                      90.04576
                      -6.38168                      -0.51744                      89.72941
                      -6.32381                      -0.39497                      89.41559
                      -6.18402                      -0.28417                      89.12402
                      -5.97110                      -0.19199                      88.87302
                      -5.69844                      -0.12424                      88.67836
                      -5.38315                      -0.08517                      88.55227
                      -5.04505                      -0.07723                      88.50267
                      -4.70539                      -0.10092                      88.53269
                      -4.38551                      -0.15476                      88.64043
                      -4.10550                      -0.23536                      88.81912
                      -3.88297                      -0.33765                      89.05754
                      -3.73189                      -0.45522                      89.34071
                      -3.73009                      -0.69680                      89.61039
                      -3.74458                      -0.81630                      89.91295
                      -3.83948                      -0.92830                      90.20361
                      -4.00882                      -1.02575                      90.46411
                      -4.24196                      -1.10254                      90.67808
                      -4.52425                      -1.15383                      90.83207
                      -4.83795                      -1.17640                      90.91642
                      -5.16335                      -1.16883                      90.92582
                      -5.48000                      -1.13161                      90.85969
                      -5.76802                      -1.06707                      90.72216
                      -6.00930                      -0.97926                      90.52190
                      -6.18868                      -0.87370                      90.27147
                      -6.29489                      -0.75702                      89.98663
                      -6.32126                      -0.63657                      89.68525
                      -6.26612                      -0.51989                      89.38629
                      -6.13295                      -0.41433                      89.10852
                      -5.93012                      -0.32652                      88.86940
                      -5.67036                      -0.26198                      88.68395
                      -5.36999                      -0.22476                      88.56383
                      -5.04790                      -0.21719                      88.51658
                      -4.72432                      -0.23976                      88.54518
                      -4.41958                      -0.29105                      88.64782
                      -4.15283                      -0.36784                      88.81805
                      -3.94083                      -0.46529                      89.04519
                      -3.79690                      -0.57729                      89.31495
                      -3.81450                      -0.81293                      89.57136
                      -3.82810                      -0.92501                      89.85512
                      -3.91710                      -1.03006                      90.12773
                      -4.07592                      -1.12145                      90.37205
                      -4.29458                      -1.19347                      90.57273
                      -4.55933                      -1.24157                      90.71716
                      -4.85354                      -1.26274                      90.79627
                      -5.15873                      -1.25565                      90.80509
                      -5.45572                      -1.22073                      90.74305
                      -5.72585                      -1.16020                      90.61407
                      -5.95214                      -1.07784                      90.42625
                      -6.12038                      -0.97884                      90.19138
                      -6.21999                      -0.86942                      89.92422
                      -6.24472                      -0.75644                      89.64157
                      -6.19301                      -0.64701                      89.36118
                      -6.06811                      -0.54801                      89.10066
                      -5.87788                      -0.46566                      88.87639
                      -5.63425                      -0.40512                      88.70247
                      -5.35255                      -0.37021                      88.58981
                      -5.05046                      -0.36312                      88.54549
                      -4.74698                      -0.38429                      88.57231
                      -4.46117                      -0.43239                      88.66858
                      -4.21099                      -0.50440                      88.82824
                      -4.01215                      -0.59580                      89.04126
                      -3.87716                      -0.70084                      89.29427
                      -3.91846                      -0.92906                      89.53404
                      -3.93094                      -1.03192                      89.79444
                      -4.01262                      -1.12831                      90.04460
                      -4.15836                      -1.21218                      90.26880
                      -4.35901                      -1.27827                      90.45295
                      -4.60197                      -1.32241                      90.58550
                      -4.87196                      -1.34184                      90.65809
                      -5.15202                      -1.33533                      90.66618
                      -5.42455                      -1.30329                      90.60926
                      -5.67244                      -1.24774                      90.49090
                      -5.88010                      -1.17216                      90.31854
                      -6.03448                      -1.08131                      90.10301
                      -6.12589                      -0.98090                      89.85785
                      -6.14859                      -0.87722                      89.59847
                      -6.10113                      -0.77681                      89.34116
                      -5.98652                      -0.68596                      89.10209
                      -5.81195                      -0.61038                      88.89629
                      -5.58838                      -0.55483                      88.73669
                      -5.32987                      -0.52279                      88.63330
                      -5.05266                      -0.51628                      88.59264
                      -4.77416                      -0.53571                      88.61725
                      -4.51189                      -0.57985                      88.70559
                      -4.28230                      -0.64594                      88.85210
                      -4.09984                      -0.72981                      89.04759
                      -3.97597                      -0.82620                      89.27977
                      -4.04789                      -1.04519                      89.49895
                      -4.05896                      -1.13647                      89.73003
                      -4.13144                      -1.22201                      89.95202
                      -4.26078                      -1.29644                      90.15098
                      -4.43884                      -1.35508                      90.31440
                      -4.65444                      -1.39426                      90.43202
                      -4.89403                      -1.41150                      90.49644
                      -5.14256                      -1.40572                      90.50362
                      -5.38441                      -1.37729                      90.45311
                      -5.60439                      -1.32799                      90.34807
                      -5.78867                      -1.26093                      90.19512
                      -5.92567                      -1.18030                      90.00385
                      -6.00679                      -1.09119                      89.78630
                      -6.02693                      -0.99919                      89.55612
                      -5.98482                      -0.91008                      89.32778
                      -5.88311                      -0.82946                      89.11563
                      -5.72819                      -0.76239                      88.93300
                      -5.52980                      -0.71310                      88.79136
                      -5.30039                      -0.68467                      88.69962
                      -5.05439                      -0.67889                      88.66353
                      -4.80725                      -0.69613                      88.68537
                      -4.57450                      -0.73530                      88.76377
                      -4.37077                      -0.79395                      88.89379
                      -4.20885                      -0.86838                      89.06726
                      -4.09892                      -0.95392                      89.27330
                      -4.21430                      -1.16133                      89.46709
                      -4.22356                      -1.23761                      89.66020
                      -4.28413                      -1.30909                      89.84573
                      -4.39221                      -1.37130                      90.01200
                      -4.54102                      -1.42030                      90.14857
                      -4.72120                      -1.45304                      90.24687
                      -4.92143                      -1.46745                      90.30071
                      -5.12913                      -1.46262                      90.30671
                      -5.33125                      -1.43886                      90.26449
                      -5.51508                      -1.39766                      90.17671
                      -5.66909                      -1.34162                      90.04889
                      -5.78358                      -1.27424                      89.88904
                      -5.85138                      -1.19977                      89.70723
                      -5.86820                      -1.12288                      89.51487
                      -5.83301                      -1.04841                      89.32404
                      -5.74801                      -0.98104                      89.14675
                      -5.61855                      -0.92499                      88.99412
                      -5.45275                      -0.88379                      88.87575
                      -5.26103                      -0.86003                      88.79908
                      -5.05544                      -0.85520                      88.76893
                      -4.84891                      -0.86961                      88.78718
                      -4.65440                      -0.90235                      88.85269
                      -4.48413                      -0.95136                      88.96135
                      -4.34882                      -1.01356                      89.10633
                      -4.25695                      -1.08505                      89.27851
                      -4.44713                      -1.27746                      89.44104
                      -4.45383                      -1.33261                      89.58066
                      -4.49762                      -1.38429                      89.71480
                      -4.57577                      -1.42927                      89.83501
                      -4.68335                      -1.46470                      89.93375
                      -4.81362                      -1.48837                      90.00482
                      -4.95839                      -1.49878                      90.04375
                      -5.10855                      -1.49529                      90.04808
                      -5.25469                      -1.47812                      90.01756
                      -5.38760                      -1.44833                      89.95410
                      -5.49894                      -1.40781                      89.86168
                      -5.58172                      -1.35909                      89.74611
                      -5.63074                      -1.30525                      89.61466
                      -5.64291                      -1.24966                      89.47559
                      -5.61746                      -1.19582                      89.33762
                      -5.55601                      -1.14711                      89.20944
                      -5.46240                      -1.10659                      89.09909
                      -5.34253                      -1.07680                      89.01351
                      -5.20392                      -1.05962                      88.95807
                      -5.05528                      -1.05613                      88.93627
                      -4.90595                      -1.06655                      88.94947
                      -4.76532                      -1.09022                      88.99683
                      -4.64222                      -1.12565                      89.07539
                      -4.54439                      -1.17062                      89.18021
                      -4.47797                      -1.22231                      89.30470
                      -5.04836                      -1.39359                      89.44722
                      -5.04836                      -1.39359                      89.44722
                      -5.04836                      -1.39359                      89.44722
                      -5.04836                      -1.39359                      89.44722
                      -5.04836                      -1.39359                      89.44722
                      -5.04836                      -1.39359                      89.44722
                      -5.04836                      -1.39359                      89.44722
                      -5.04836                      -1.39359                      89.44722
                      -5.04836                      -1.39359                      89.44722
                      -5.04836                      -1.39359                      89.44722
                      -5.04836                      -1.39359                      89.44722
                      -5.04836                      -1.39359                      89.44722
                      -5.04836                      -1.39359                      89.44722
                      -5.04836                      -1.39359                      89.44722
                      -5.04836                      -1.39359                      89.44722
                      -5.04836                      -1.39359                      89.44722
                      -5.04836                      -1.39359                      89.44722
                      -5.04836                      -1.39359                      89.44722
                      -5.04836                      -1.39359                      89.44722
                      -5.04836                      -1.39359                      89.44722
                      -5.04836                      -1.39359                      89.44722
                      -5.04836                      -1.39359                      89.44722
                      -5.04836                      -1.39359                      89.44722
                      -5.04836                      -1.39359                      89.44722
                      -5.04836                      -1.39359                      89.44722
        </DataArray>
      </Points>
      <Polys>
        <DataArray type="Int32" Name="connectivity" format="ascii">
      0      1     26     25
      1      2     27     26
      2      3     28     27
      3      4     29     28
      4      5     30     29
      5      6     31     30
      6      7     32     31
      7      8     33     32
      8      9     34     33
      9     10     35     34
     10     11     36     35
     11     12     37     36
     12     13     38     37
     13     14     39     38
     14     15     40     39
     15     16     41     40
     16     17     42     41
     17     18     43     42
     18     19     44     43
     19     20     45     44
     20     21     46     45
     21     22     47     46
     22     23     48     47
     23     24     49     48
     24      0     25     49
     25     26     51     50
     26     27     52     51
     27     28     53     52
     28     29     54     53
     29     30     55     54
     30     31     56     55
     31     32     57     56
     32     33     58     57
     33     34     59     58
     34     35     60     59
     35     36     61     60
     36     37     62     61
     37     38     63     62
     38     39     64     63
     39     40     65     64
     40     41     66     65
     41     42     67     66
     42     43     68     67
     43     44     69     68
     44     45     70     69
     45     46     71     70
     46     47     72     71
     47     48     73     72
     48     49     74     73
     49     25     50     74
     50     51     76     75
     51     52     77     76
     52     53     78     77
     53     54     79     78
     54     55     80     79
     55     56     81     80
     56     57     82     81
     57     58     83     82
     58     59     84     83
     59     60     85     84
     60     61     86     85
     61     62     87     86
     62     63     88     87
     63     64     89     88
     64     65     90     89
     65     66     91     90
     66     67     92     91
     67     68     93     92
     68     69     94     93
     69     70     95     94
     70     71     96     95
     71     72     97     96
     72     73     98     97
     73     74     99     98
     74     50     75     99
     75     76    101    100
     76     77    102    101
     77     78    103    102
     78     79    104    103
     79     80    105    104
     80     81    106    105
     81     82    107    106
     82     83    108    107
     83     84    109    108
     84     85    110    109
     85     86    111    110
     86     87    112    111
     87     88    113    112
     88     89    114    113
     89     90    115    114
     90     91    116    115
     91     92    117    116
     92     93    118    117
     93     94    119    118
     94     95    120    119
     95     96    121    120
     96     97    122    121
     97     98    123    122
     98     99    124    123
     99     75    100    124
    100    101    126    125
    101    102    127    126
    102    103    128    127
    103    104    129    128
    104    105    130    129
    105    106    131    130
    106    107    132    131
    107    108    133    132
    108    109    134    133
    109    110    135    134
    110    111    136    135
    111    112    137    136
    112    113    138    137
    113    114    139    138
    114    115    140    139
    115    116    141    140
    116    117    142    141
    117    118    143    142
    118    119    144    143
    119    120    145    144
    120    121    146    145
    121    122    147    146
    122    123    148    147
    123    124    149    148
    124    100    125    149
    125    126    151    150
    126    127    152    151
    127    128    153    152
    128    129    154    153
    129    130    155    154
    130    131    156    155
    131    132    157    156
    132    133    158    157
    133    134    159    158
    134    135    160    159
    135    136    161    160
    136    137    162    161
    137    138    163    162
    138    139    164    163
    139    140    165    164
    140    141    166    165
    141    142    167    166
    142    143    168    167
    143    144    169    168
    144    145    170    169
    145    146    171    170
    146    147    172    171
    147    148    173    172
    148    149    174    173
    149    125    150    174
    150    151    176    175
    151    152    177    176
    152    153    178    177
    153    154    179    178
    154    155    180    179
    155    156    181    180
    156    157    182    181
    157    158    183    182
    158    159    184    183
    159    160    185    184
    160    161    186    185
    161    162    187    186
    162    163    188    187
    163    164    189    188
    164    165    190    189
    165    166    191    190
    166    167    192    191
    167    168    193    192
    168    169    194    193
    169    170    195    194
    170    171    196    195
    171    172    197    196
    172    173    198    197
    173    174    199    198
    174    150    175    199
    175    176    201    200
    176    177    202    201
    177    178    203    202
    178    179    204    203
    179    180    205    204
    180    181    206    205
    181    182    207    206
    182    183    208    207
    183    184    209    208
    184    185    210    209
    185    186    211    210
    186    187    212    211
    187    188    213    212
    188    189    214    213
    189    190    215    214
    190    191    216    215
    191    192    217    216
    192    193    218    217
    193    194    219    218
    194    195    220    219
    195    196    221    220
    196    197    222    221
    197    198    223    222
    198    199    224    223
    199    175    200    224
    200    201    226    225
    201    202    227    226
    202    203    228    227
    203    204    229    228
    204    205    230    229
    205    206    231    230
    206    207    232    231
    207    208    233    232
    208    209    234    233
    209    210    235    234
    210    211    236    235
    211    212    237    236
    212    213    238    237
    213    214    239    238
    214    215    240    239
    215    216    241    240
    216    217    242    241
    217    218    243    242
    218    219    244    243
    219    220    245    244
    220    221    246    245
    221    222    247    246
    222    223    248    247
    223    224    249    248
    224    200    225    249
    225    226    251    250
    226    227    252    251
    227    228    253    252
    228    229    254    253
    229    230    255    254
    230    231    256    255
    231    232    257    256
    232    233    258    257
    233    234    259    258
    234    235    260    259
    235    236    261    260
    236    237    262    261
    237    238    263    262
    238    239    264    263
    239    240    265    264
    240    241    266    265
    241    242    267    266
    242    243    268    267
    243    244    269    268
    244    245    270    269
    245    246    271    270
    246    247    272    271
    247    248    273    272
    248    249    274    273
    249    225    250    274
    250    251    276    275
    251    252    277    276
    252    253    278    277
    253    254    279    278
    254    255    280    279
    255    256    281    280
    256    257    282    281
    257    258    283    282
    258    259    284    283
    259    260    285    284
    260    261    286    285
    261    262    287    286
    262    263    288    287
    263    264    289    288
    264    265    290    289
    265    266    291    290
    266    267    292    291
    267    268    293    292
    268    269    294    293
    269    270    295    294
    270    271    296    295
    271    272    297    296
    272    273    298    297
    273    274    299    298
    274    250    275    299
    275    276    301    300
    276    277    302    301
    277    278    303    302
    278    279    304    303
    279    280    305    304
    280    281    306    305
    281    282    307    306
    282    283    308    307
    283    284    309    308
    284    285    310    309
    285    286    311    310
    286    287    312    311
    287    288    313    312
    288    289    314    313
    289    290    315    314
    290    291    316    315
    291    292    317    316
    292    293    318    317
    293    294    319    318
    294    295    320    319
    295    296    321    320
    296    297    322    321
    297    298    323    322
    298    299    324    323
    299    275    300    324
    300    301    326    325
    301    302    327    326
    302    303    328    327
    303    304    329    328
    304    305    330    329
    305    306    331    330
    306    307    332    331
    307    308    333    332
    308    309    334    333
    309    310    335    334
    310    311    336    335
    311    312    337    336
    312    313    338    337
    313    314    339    338
    314    315    340    339
    315    316    341    340
    316    317    342    341
    317    318    343    342
    318    319    344    343
    319    320    345    344
    320    321    346    345
    321    322    347    346
    322    323    348    347
    323    324    349    348
    324    300    325    349
    325    326    351    350
    326    327    352    351
    327    328    353    352
    328    329    354    353
    329    330    355    354
    330    331    356    355
    331    332    357    356
    332    333    358    357
    333    334    359    358
    334    335    360    359
    335    336    361    360
    336    337    362    361
    337    338    363    362
    338    339    364    363
    339    340    365    364
    340    341    366    365
    341    342    367    366
    342    343    368    367
    343    344    369    368
    344    345    370    369
    345    346    371    370
    346    347    372    371
    347    348    373    372
    348    349    374    373
    349    325    350    374
    350    351    376    375
    351    352    377    376
    352    353    378    377
    353    354    379    378
    354    355    380    379
    355    356    381    380
    356    357    382    381
    357    358    383    382
    358    359    384    383
    359    360    385    384
    360    361    386    385
    361    362    387    386
    362    363    388    387
    363    364    389    388
    364    365    390    389
    365    366    391    390
    366    367    392    391
    367    368    393    392
    368    369    394    393
    369    370    395    394
    370    371    396    395
    371    372    397    396
    372    373    398    397
    373    374    399    398
    374    350    375    399
    375    376    401    400
    376    377    402    401
    377    378    403    402
    378    379    404    403
    379    380    405    404
    380    381    406    405
    381    382    407    406
    382    383    408    407
    383    384    409    408
    384    385    410    409
    385    386    411    410
    386    387    412    411
    387    388    413    412
    388    389    414    413
    389    390    415    414
    390    391    416    415
    391    392    417    416
    392    393    418    417
    393    394    419    418
    394    395    420    419
    395    396    421    420
    396    397    422    421
    397    398    423    422
    398    399    424    423
    399    375    400    424
    400    401    426    425
    401    402    427    426
    402    403    428    427
    403    404    429    428
    404    405    430    429
    405    406    431    430
    406    407    432    431
    407    408    433    432
    408    409    434    433
    409    410    435    434
    410    411    436    435
    411    412    437    436
    412    413    438    437
    413    414    439    438
    414    415    440    439
    415    416    441    440
    416    417    442    441
    417    418    443    442
    418    419    444    443
    419    420    445    444
    420    421    446    445
    421    422    447    446
    422    423    448    447
    423    424    449    448
    424    400    425    449
    425    426    451    450
    426    427    452    451
    427    428    453    452
    428    429    454    453
    429    430    455    454
    430    431    456    455
    431    432    457    456
    432    433    458    457
    433    434    459    458
    434    435    460    459
    435    436    461    460
    436    437    462    461
    437    438    463    462
    438    439    464    463
    439    440    465    464
    440    441    466    465
    441    442    467    466
    442    443    468    467
    443    444    469    468
    444    445    470    469
    445    446    471    470
    446    447    472    471
    447    448    473    472
    448    449    474    473
    449    425    450    474
    450    451    476    475
    451    452    477    476
    452    453    478    477
    453    454    479    478
    454    455    480    479
    455    456    481    480
    456    457    482    481
    457    458    483    482
    458    459    484    483
    459    460    485    484
    460    461    486    485
    461    462    487    486
    462    463    488    487
    463    464    489    488
    464    465    490    489
    465    466    491    490
    466    467    492    491
    467    468    493    492
    468    469    494    493
    469    470    495    494
    470    471    496    495
    471    472    497    496
    472    473    498    497
    473    474    499    498
    474    450    475    499
    475    476    501    500
    476    477    502    501
    477    478    503    502
    478    479    504    503
    479    480    505    504
    480    481    506    505
    481    482    507    506
    482    483    508    507
    483    484    509    508
    484    485    510    509
    485    486    511    510
    486    487    512    511
    487    488    513    512
    488    489    514    513
    489    490    515    514
    490    491    516    515
    491    492    517    516
    492    493    518    517
    493    494    519    518
    494    495    520    519
    495    496    521    520
    496    497    522    521
    497    498    523    522
    498    499    524    523
    499    475    500    524
    500    501    526    525
    501    502    527    526
    502    503    528    527
    503    504    529    528
    504    505    530    529
    505    506    531    530
    506    507    532    531
    507    508    533    532
    508    509    534    533
    509    510    535    534
    510    511    536    535
    511    512    537    536
    512    513    538    537
    513    514    539    538
    514    515    540    539
    515    516    541    540
    516    517    542    541
    517    518    543    542
    518    519    544    543
    519    520    545    544
    520    521    546    545
    521    522    547    546
    522    523    548    547
    523    524    549    548
    524    500    525    549
    525    526    551    550
    526    527    552    551
    527    528    553    552
    528    529    554    553
    529    530    555    554
    530    531    556    555
    531    532    557    556
    532    533    558    557
    533    534    559    558
    534    535    560    559
    535    536    561    560
    536    537    562    561
    537    538    563    562
    538    539    564    563
    539    540    565    564
    540    541    566    565
    541    542    567    566
    542    543    568    567
    543    544    569    568
    544    545    570    569
    545    546    571    570
    546    547    572    571
    547    548    573    572
    548    549    574    573
    549    525    550    574
    550    551    576    575
    551    552    577    576
    552    553    578    577
    553    554    579    578
    554    555    580    579
    555    556    581    580
    556    557    582    581
    557    558    583    582
    558    559    584    583
    559    560    585    584
    560    561    586    585
    561    562    587    586
    562    563    588    587
    563    564    589    588
    564    565    590    589
    565    566    591    590
    566    567    592    591
    567    568    593    592
    568    569    594    593
    569    570    595    594
    570    571    596    595
    571    572    597    596
    572    573    598    597
    573    574    599    598
    574    550    575    599
    575    576    601    600
    576    577    602    601
    577    578    603    602
    578    579    604    603
    579    580    605    604
    580    581    606    605
    581    582    607    606
    582    583    608    607
    583    584    609    608
    584    585    610    609
    585    586    611    610
    586    587    612    611
    587    588    613    612
    588    589    614    613
    589    590    615    614
    590    591    616    615
    591    592    617    616
    592    593    618    617
    593    594    619    618
    594    595    620    619
    595    596    621    620
    596    597    622    621
    597    598    623    622
    598    599    624    623
    599    575    600    624
        </DataArray>
        <DataArray type="Int32" Name="offsets" format="ascii">
      4
      8
     12
     16
     20
     24
     28
     32
     36
     40
     44
     48
     52
     56
     60
     64
     68
     72
     76
     80
     84
     88
     92
     96
    100
    104
    108
    112
    116
    120
    124
    128
    132
    136
    140
    144
    148
    152
    156
    160
    164
    168
    172
    176
    180
    184
    188
    192
    196
    200
    204
    208
    212
    216
    220
    224
    228
    232
    236
    240
    244
    248
    252
    256
    260
    264
    268
    272
    276
    280
    284
    288
    292
    296
    300
    304
    308
    312
    316
    320
    324
    328
    332
    336
    340
    344
    348
    352
    356
    360
    364
    368
    372
    376
    380
    384
    388
    392
    396
    400
    404
    408
    412
    416
    420
    424
    428
    432
    436
    440
    444
    448
    452
    456
    460
    464
    468
    472
    476
    480
    484
    488
    492
    496
    500
    504
    508
    512
    516
    520
    524
    528
    532
    536
    540
    544
    548
    552
    556
    560
    564
    568
    572
    576
    580
    584
    588
    592
    596
    600
    604
    608
    612
    616
    620
    624
    628
    632
    636
    640
    644
    648
    652
    656
    660
    664
    668
    672
    676
    680
    684
    688
    692
    696
    700
    704
    708
    712
    716
    720
    724
    728
    732
    736
    740
    744
    748
    752
    756
    760
    764
    768
    772
    776
    780
    784
    788
    792
    796
    800
    804
    808
    812
    816
    820
    824
    828
    832
    836
    840
    844
    848
    852
    856
    860
    864
    868
    872
    876
    880
    884
    888
    892
    896
    900
    904
    908
    912
    916
    920
    924
    928
    932
    936
    940
    944
    948
    952
    956
    960
    964
    968
    972
    976
    980
    984
    988
    992
    996
   1000
   1004
   1008
   1012
   1016
   1020
   1024
   1028
   1032
   1036
   1040
   1044
   1048
   1052
   1056
   1060
   1064
   1068
   1072
   1076
   1080
   1084
   1088
   1092
   1096
   1100
   1104
   1108
   1112
   1116
   1120
   1124
   1128
   1132
   1136
   1140
   1144
   1148
   1152
   1156
   1160
   1164
   1168
   1172
   1176
   1180
   1184
   1188
   1192
   1196
   1200
   1204
   1208
   1212
   1216
   1220
   1224
   1228
   1232
   1236
   1240
   1244
   1248
   1252
   1256
   1260
   1264
   1268
   1272
   1276
   1280
   1284
   1288
   1292
   1296
   1300
   1304
   1308
   1312
   1316
   1320
   1324
   1328
   1332
   1336
   1340
   1344
   1348
   1352
   1356
   1360
   1364
   1368
   1372
   1376
   1380
   1384
   1388
   1392
   1396
   1400
   1404
   1408
   1412
   1416
   1420
   1424
   1428
   1432
   1436
   1440
   1444
   1448
   1452
   1456
   1460
   1464
   1468
   1472
   1476
   1480
   1484
   1488
   1492
   1496
   1500
   1504
   1508
   1512
   1516
   1520
   1524
   1528
   1532
   1536
   1540
   1544
   1548
   1552
   1556
   1560
   1564
   1568
   1572
   1576
   1580
   1584
   1588
   1592
   1596
   1600
   1604
   1608
   1612
   1616
   1620
   1624
   1628
   1632
   1636
   1640
   1644
   1648
   1652
   1656
   1660
   1664
   1668
   1672
   1676
   1680
   1684
   1688
   1692
   1696
   1700
   1704
   1708
   1712
   1716
   1720
   1724
   1728
   1732
   1736
   1740
   1744
   1748
   1752
   1756
   1760
   1764
   1768
   1772
   1776
   1780
   1784
   1788
   1792
   1796
   1800
   1804
   1808
   1812
   1816
   1820
   1824
   1828
   1832
   1836
   1840
   1844
   1848
   1852
   1856
   1860
   1864
   1868
   1872
   1876
   1880
   1884
   1888
   1892
   1896
   1900
   1904
   1908
   1912
   1916
   1920
   1924
   1928
   1932
   1936
   1940
   1944
   1948
   1952
   1956
   1960
   1964
   1968
   1972
   1976
   1980
   1984
   1988
   1992
   1996
   2000
   2004
   2008
   2012
   2016
   2020
   2024
   2028
   2032
   2036
   2040
   2044
   2048
   2052
   2056
   2060
   2064
   2068
   2072
   2076
   2080
   2084
   2088
   2092
   2096
   2100
   2104
   2108
   2112
   2116
   2120
   2124
   2128
   2132
   2136
   2140
   2144
   2148
   2152
   2156
   2160
   2164
   2168
   2172
   2176
   2180
   2184
   2188
   2192
   2196
   2200
   2204
   2208
   2212
   2216
   2220
   2224
   2228
   2232
   2236
   2240
   2244
   2248
   2252
   2256
   2260
   2264
   2268
   2272
   2276
   2280
   2284
   2288
   2292
   2296
   2300
   2304
   2308
   2312
   2316
   2320
   2324
   2328
   2332
   2336
   2340
   2344
   2348
   2352
   2356
   2360
   2364
   2368
   2372
   2376
   2380
   2384
   2388
   2392
   2396
   2400
        </DataArray>
      </Polys>
    </Piece>
  </PolyData>
</VTKFile>
