<?xml version="1.0"?>
<VTKFile type="PolyData" version="0.1" byte_order="LittleEndian">
  <PolyData>
    <Piece NumberOfPoints="     19" NumberOfVerts="  0" NumberOfLines="     18"
           NumberOfStrips="  0" NumberOfPolys="      0">
      <Points>
        <DataArray type="Float32" NumberOfComponents="3" format="ascii">
                      -5.19539                       0.11672                      88.51737
                      -5.37421                       0.22651                      87.16687
                      -5.75338                       0.54038                      84.47623
                      -6.14276                       0.89892                      81.79046
                      -6.63560                       1.37377                      78.43607
                      -7.17552                       1.80113                      74.39284
                      -7.69247                       2.09895                      70.33638
                      -8.21171                       2.39418                      66.28002
                      -8.73085                       2.68504                      62.22331
                      -9.25072                       2.97344                      58.16650
                      -9.77260                       3.26300                      54.11004
                     -10.29580                       3.55226                      50.05374
                     -10.82094                       3.84121                      45.99766
                     -11.34875                       4.12990                      41.94192
                     -11.87748                       4.41848                      37.88629
                     -12.31872                       4.65890                      34.50665
                     -12.67231                       4.84334                      31.80245
                     -13.02758                       4.97293                      29.09415
                     -13.20559                       5.07927                      27.74337
        </DataArray>
      </Points>
      <PointData>
        <DataArray type="Float32" Name="TranslationalVelocity" NumberOfComponents="3" format="ascii">
                       0.02680                       3.93601                       0.30634
                       0.05201                       7.52144                       0.59447
                       0.12408                      14.67005                       1.41823
                       0.20640                      21.80824                       2.35920
                       0.31544                      30.72496                       3.60545
                       0.41356                      41.46033                       4.72705
                       0.48195                      52.22514                       5.50866
                       0.54973                      62.99022                       6.28350
                       0.61652                      73.75621                       7.04686
                       0.68274                      84.52263                       7.80374
                       0.74923                      95.28857                       8.56371
                       0.81564                     106.05442                       9.32285
                       0.88199                     116.82011                      10.08120
                       0.94828                     127.58555                      10.83886
                       1.01454                     138.35090                      11.59623
                       1.06974                     147.32205                      12.22722
                       1.11209                     154.50037                      12.71128
                       1.14185                     161.68984                      13.05138
                       1.16627                     165.27581                      13.33047
        </DataArray>
        <DataArray type="Float32" Name="RotationalVelocity" NumberOfComponents="3" format="ascii">
                       2.62449                      -0.00000                      -0.22961
                       2.62449                      -0.00000                      -0.22961
                       2.62449                      -0.00000                      -0.22961
                       2.62449                      -0.00000                      -0.22961
                       2.62449                      -0.00000                      -0.22961
                       2.62449                      -0.00000                      -0.22961
                       2.62449                      -0.00000                      -0.22961
                       2.62449                      -0.00000                      -0.22961
                       2.62449                      -0.00000                      -0.22961
                       2.62449                      -0.00000                      -0.22961
                       2.62449                      -0.00000                      -0.22961
                       2.62449                      -0.00000                      -0.22961
                       2.62449                      -0.00000                      -0.22961
                       2.62449                      -0.00000                      -0.22961
                       2.62449                      -0.00000                      -0.22961
                       2.62449                      -0.00000                      -0.22961
                       2.62449                      -0.00000                      -0.22961
                       2.62449                      -0.00000                      -0.22961
                       2.62449                      -0.00000                      -0.22961
        </DataArray>
        <DataArray type="Float32" Name="TranslationalAcceleration" NumberOfComponents="3" format="ascii">
                       0.90402                      -0.77157                      10.33301
                       1.72753                      -1.49841                      19.74575
                       3.36965                      -3.60684                      38.51525
                       5.00947                      -6.02535                      57.25856
                       7.05794                      -9.23376                      80.67257
                       9.52388                     -12.09471                     108.85841
                      11.99629                     -14.05622                     137.11817
                      14.46875                     -15.99983                     165.37857
                      16.94141                     -17.91309                     193.64126
                      19.41417                     -19.80920                     221.90500
                      21.88682                     -21.71348                     250.16751
                      24.35945                     -23.61558                     278.42979
                      26.83204                     -25.51556                     306.69163
                      29.30457                     -27.41374                     334.95280
                      31.77708                     -29.31117                     363.21374
                      33.83752                     -30.89193                     386.76459
                      35.48617                     -32.10173                     405.60875
                      37.13725                     -32.93067                     424.48074
                      37.96088                     -33.63362                     433.89480
        </DataArray>
        <DataArray type="Float32" Name="OrientationX" NumberOfComponents="3" format="ascii">
                       0.96640                       0.23279                      -0.10903
                       0.96640                       0.23279                      -0.10903
                       0.96640                       0.23279                      -0.10903
                       0.96640                       0.23279                      -0.10903
                       0.96640                       0.23279                      -0.10903
                       0.97297                       0.20175                      -0.11234
                       0.97710                       0.17924                      -0.11466
                       0.98028                       0.15950                      -0.11663
                       0.98322                       0.13858                      -0.11867
                       0.98577                       0.11700                      -0.12070
                       0.98775                       0.09653                      -0.12257
                       0.98930                       0.07620                      -0.12438
                       0.99035                       0.05774                      -0.12597
                       0.99092                       0.04373                      -0.12715
                       0.99129                       0.02995                      -0.12828
                       0.99145                       0.01841                      -0.12921
                       0.99148                       0.00984                      -0.12989
                       0.99147                       0.00524                      -0.13025
                       0.99147                       0.00524                      -0.13025
        </DataArray>
        <DataArray type="Float32" Name="OrientationY" NumberOfComponents="3" format="ascii">
                       0.22161                      -0.96941                      -0.10553
                       0.22161                      -0.96941                      -0.10553
                       0.22161                      -0.96941                      -0.10553
                       0.22161                      -0.96941                      -0.10553
                       0.22161                      -0.96941                      -0.10553
                       0.19067                      -0.97634                      -0.10199
                       0.16824                      -0.98072                      -0.09938
                       0.14858                      -0.98413                      -0.09706
                       0.12774                      -0.98729                      -0.09456
                       0.10625                      -0.99008                      -0.09195
                       0.08587                      -0.99228                      -0.08944
                       0.06563                      -0.99405                      -0.08691
                       0.04727                      -0.99529                      -0.08459
                       0.03333                      -0.99601                      -0.08281
                       0.01962                      -0.99652                      -0.08104
                       0.00815                      -0.99680                      -0.07955
                      -0.00039                      -0.99692                      -0.07843
                      -0.00495                      -0.99695                      -0.07784
                      -0.00495                      -0.99695                      -0.07784
        </DataArray>
        <DataArray type="Float32" Name="OrientationZ" NumberOfComponents="3" format="ascii">
                      -0.13026                       0.07782                      -0.98842
                      -0.13026                       0.07782                      -0.98842
                      -0.13026                       0.07782                      -0.98842
                      -0.13026                       0.07782                      -0.98842
                      -0.13026                       0.07782                      -0.98842
                      -0.13026                       0.07782                      -0.98842
                      -0.13026                       0.07782                      -0.98842
                      -0.13026                       0.07782                      -0.98842
                      -0.13026                       0.07782                      -0.98842
                      -0.13026                       0.07782                      -0.98842
                      -0.13026                       0.07782                      -0.98842
                      -0.13026                       0.07782                      -0.98842
                      -0.13026                       0.07782                      -0.98842
                      -0.13026                       0.07782                      -0.98842
                      -0.13026                       0.07782                      -0.98842
                      -0.13026                       0.07782                      -0.98842
                      -0.13026                       0.07782                      -0.98842
                      -0.13026                       0.07782                      -0.98842
                      -0.13026                       0.07782                      -0.98842
        </DataArray>
        <DataArray type="Float32" Name="Force" NumberOfComponents="3" format="ascii">
                      -0.10818                     -15.88695                      -1.23649
                     139.40860                     -99.99631                     -26.24485
                     215.76553                    -301.31210                     -52.15696
                     221.17784                    -458.43196                     -65.23998
                    1281.53799                     288.17581                    -146.20327
                    1163.78980                     191.64278                    -138.28539
                    1123.33098                     110.90460                    -139.30978
                    1888.01022                     192.01621                    -233.69926
                    2467.27795                     191.59266                    -310.07290
                    3170.04005                     186.79957                    -403.06558
                    4952.61499                     193.08008                    -637.49240
                    6252.90247                     151.79199                    -812.10470
                    7749.38295                     161.22583                   -1008.57956
                    9267.62167                     117.18971                   -1212.13147
                   11031.46526                      67.63912                   -1448.48521
                   12671.47191                      21.95885                   -1668.21407
                   13691.12551                     -40.53398                   -1807.51171
                   11626.61448                      66.64150                   -1526.99704
                   10146.63082                    -103.62840                   -1345.35857
        </DataArray>
        <DataArray type="Float32" Name="Moment" NumberOfComponents="3" format="ascii">
                       0.00000                       0.00000                       0.00000
                       0.00000                       0.00000                       0.00000
                       0.00000                       0.00000                       0.00000
                       0.00000                       0.00000                       0.00000
                     136.05094                     -81.27499                    1032.35009
                     252.63525                    -150.92088                    1916.98806
                     346.27486                    -206.85991                    2627.52237
                     586.31251                    -350.25515                    4448.92021
                     880.27747                    -525.86583                    6679.51676
                    1012.11814                    -604.62566                    7679.91947
                    1139.47588                    -680.70745                    8646.30582
                    1226.07668                    -732.44159                    9303.42993
                     956.96816                    -571.67981                    7261.44325
                     972.22589                    -580.79457                    7377.21835
                     963.31010                    -575.46840                    7309.56563
                     935.74769                    -559.00299                    7100.42302
                     850.30567                    -507.96108                    6452.09172
                     445.39583                    -266.07343                    3379.64907
                     444.33412                    -265.43918                    3371.59286
        </DataArray>
      </PointData>
      <Lines>
        <DataArray type="Int32" Name="connectivity" format="ascii">
      0      1
      1      2
      2      3
      3      4
      4      5
      5      6
      6      7
      7      8
      8      9
      9     10
     10     11
     11     12
     12     13
     13     14
     14     15
     15     16
     16     17
     17     18
        </DataArray>
        <DataArray type="Int32" Name="offsets" format="ascii">
      2
      4
      6
      8
     10
     12
     14
     16
     18
     20
     22
     24
     26
     28
     30
     32
     34
     36
        </DataArray>
      </Lines>
    </Piece>
  </PolyData>
</VTKFile>
