<?xml version="1.0"?>
<VTKFile type="PolyData" version="0.1" byte_order="LittleEndian">
  <PolyData>
    <Piece NumberOfPoints="     19" NumberOfVerts="  0" NumberOfLines="     18"
           NumberOfStrips="  0" NumberOfPolys="      0">
      <Points>
        <DataArray type="Float32" NumberOfComponents="3" format="ascii">
                      -5.19456                      -0.20516                      88.52689
                      -5.37268                      -0.38868                      87.18433
                      -5.75224                      -0.66177                      84.48930
                      -6.14285                      -0.89039                      81.78954
                      -6.63772                      -1.14960                      78.41193
                      -7.17739                      -1.60270                      74.37147
                      -7.69167                      -2.18474                      70.34562
                      -8.20818                      -2.76933                      66.32041
                      -8.72451                      -3.35826                      62.29579
                      -9.24152                      -3.94963                      58.27160
                      -9.76058                      -4.53982                      54.24751
                     -10.28093                      -5.13031                      50.22363
                     -10.80324                      -5.72108                      46.20005
                     -11.32819                      -6.31209                      42.17686
                     -11.85407                      -6.90319                      38.15380
                     -12.29294                      -7.39584                      34.80131
                     -12.64448                      -7.79779                      32.12052
                     -12.99667                      -8.25423                      29.44741
                     -13.17393                      -8.44115                      28.10531
        </DataArray>
      </Points>
      <PointData>
        <DataArray type="Float32" Name="TranslationalVelocity" NumberOfComponents="3" format="ascii">
                      -0.05004                       4.15442                      -0.57199
                      -0.09480                       7.94086                      -1.08361
                      -0.16142                      15.54705                      -1.84498
                      -0.21718                      23.16913                      -2.48236
                      -0.28040                      32.70643                      -3.20504
                      -0.39092                      44.10267                      -4.46826
                      -0.53289                      55.45199                      -6.09096
                      -0.67548                      66.80005                      -7.72075
                      -0.81913                      78.14644                      -9.36265
                      -0.96337                      89.49180                     -11.01138
                      -1.10733                     100.83737                     -12.65680
                      -1.25135                     112.18266                     -14.30305
                      -1.39545                     123.52759                     -15.95009
                      -1.53961                     134.87211                     -17.59779
                      -1.68379                     146.21647                     -19.24576
                      -1.80395                     155.67009                     -20.61925
                      -1.90199                     163.22973                     -21.73985
                      -2.01332                     170.76813                     -23.01239
                      -2.05891                     174.55308                     -23.53351
        </DataArray>
        <DataArray type="Float32" Name="RotationalVelocity" NumberOfComponents="3" format="ascii">
                       2.78795                      -0.00000                      -0.24391
                       2.78795                      -0.00000                      -0.24391
                       2.78795                      -0.00000                      -0.24391
                       2.78795                      -0.00000                      -0.24391
                       2.78795                      -0.00000                      -0.24391
                       2.78795                      -0.00000                      -0.24391
                       2.78795                      -0.00000                      -0.24391
                       2.78795                      -0.00000                      -0.24391
                       2.78795                      -0.00000                      -0.24391
                       2.78795                      -0.00000                      -0.24391
                       2.78795                      -0.00000                      -0.24391
                       2.78795                      -0.00000                      -0.24391
                       2.78795                      -0.00000                      -0.24391
                       2.78795                      -0.00000                      -0.24391
                       2.78795                      -0.00000                      -0.24391
                       2.78795                      -0.00000                      -0.24391
                       2.78795                      -0.00000                      -0.24391
                       2.78795                      -0.00000                      -0.24391
                       2.78795                      -0.00000                      -0.24391
        </DataArray>
        <DataArray type="Float32" Name="TranslationalAcceleration" NumberOfComponents="3" format="ascii">
                       1.01299                       1.63457                      11.57849
                       1.93626                       3.09710                      22.13151
                       3.79107                       5.28673                      43.33210
                       5.64983                       7.12811                      64.57784
                       7.97569                       9.22190                      91.16256
                      10.75465                      12.84661                     122.92627
                      13.52197                      17.48091                     154.55681
                      16.28897                      22.13511                     186.18377
                      19.05556                      26.82332                     217.80601
                      21.82189                      31.53070                     249.42532
                      24.58827                      36.22878                     281.04523
                      27.35459                      40.92920                     312.66436
                      30.12082                      45.63186                     344.28250
                      32.88694                      50.33634                     375.89946
                      35.65303                      55.04158                     407.51600
                      37.95810                      58.96312                     433.86308
                      39.80135                      62.16162                     454.93151
                      41.63933                      65.78680                     475.93970
                      42.56223                      67.27600                     486.48848
        </DataArray>
        <DataArray type="Float32" Name="OrientationX" NumberOfComponents="3" format="ascii">
                       0.96211                       0.22221                      -0.15802
                       0.96211                       0.22221                      -0.15802
                       0.96211                       0.22221                      -0.15802
                       0.96211                       0.22221                      -0.15802
                       0.96211                       0.22221                      -0.15802
                       0.96927                       0.19130                      -0.15466
                       0.97382                       0.16889                      -0.15214
                       0.97738                       0.14925                      -0.14987
                       0.98070                       0.12844                      -0.14741
                       0.98366                       0.10696                      -0.14481
                       0.98603                       0.08661                      -0.14229
                       0.98796                       0.06639                      -0.13973
                       0.98936                       0.04804                      -0.13736
                       0.99019                       0.03412                      -0.13553
                       0.99081                       0.02041                      -0.13370
                       0.99119                       0.00895                      -0.13216
                       0.99138                       0.00043                      -0.13100
                       0.99146                      -0.00414                      -0.13037
                       0.99146                      -0.00414                      -0.13037
        </DataArray>
        <DataArray type="Float32" Name="OrientationY" NumberOfComponents="3" format="ascii">
                       0.23984                      -0.96536                       0.10277
                       0.23984                      -0.96536                       0.10277
                       0.23984                      -0.96536                       0.10277
                       0.23984                      -0.96536                       0.10277
                       0.23984                      -0.96536                       0.10277
                       0.20902                      -0.97196                       0.10776
                       0.18667                      -0.97610                       0.11129
                       0.16707                      -0.97929                       0.11432
                       0.14630                      -0.98224                       0.11748
                       0.12485                      -0.98481                       0.12067
                       0.10451                      -0.98681                       0.12363
                       0.08431                      -0.98838                       0.12652
                       0.06596                      -0.98944                       0.12909
                       0.05204                      -0.99001                       0.13101
                       0.03833                      -0.99039                       0.13287
                       0.02686                      -0.99056                       0.13441
                       0.01833                      -0.99060                       0.13554
                       0.01377                      -0.99059                       0.13614
                       0.01377                      -0.99059                       0.13614
        </DataArray>
        <DataArray type="Float32" Name="OrientationZ" NumberOfComponents="3" format="ascii">
                      -0.12971                      -0.13678                      -0.98207
                      -0.12971                      -0.13678                      -0.98207
                      -0.12971                      -0.13678                      -0.98207
                      -0.12971                      -0.13678                      -0.98207
                      -0.12971                      -0.13678                      -0.98207
                      -0.12971                      -0.13678                      -0.98207
                      -0.12971                      -0.13678                      -0.98207
                      -0.12971                      -0.13678                      -0.98207
                      -0.12971                      -0.13678                      -0.98207
                      -0.12971                      -0.13678                      -0.98207
                      -0.12971                      -0.13678                      -0.98207
                      -0.12971                      -0.13678                      -0.98207
                      -0.12971                      -0.13678                      -0.98207
                      -0.12971                      -0.13678                      -0.98207
                      -0.12971                      -0.13678                      -0.98207
                      -0.12971                      -0.13678                      -0.98207
                      -0.12971                      -0.13678                      -0.98207
                      -0.12971                      -0.13678                      -0.98207
                      -0.12971                      -0.13678                      -0.98207
        </DataArray>
        <DataArray type="Float32" Name="Force" NumberOfComponents="3" format="ascii">
                       0.25001                     -20.75538                       2.85763
                     148.71004                    -120.12445                      -2.91071
                     239.52447                    -362.21356                      18.81139
                     249.94744                    -548.00456                      43.31034
                    1348.70991                     253.55260                    -213.44227
                    1192.88114                     162.45335                    -180.17375
                    1125.44603                      76.28376                    -159.26629
                    1957.39027                     157.14495                    -280.40615
                    2652.70227                     161.32921                    -372.82148
                    3438.87715                     148.93078                    -474.92792
                    5457.21281                     133.85001                    -739.39709
                    6919.49982                      71.82556                    -923.88878
                    8498.14157                      61.27114                   -1130.91625
                   10201.98762                      -3.61261                   -1346.91336
                   12185.95630                     -77.45386                   -1598.65984
                   14040.38087                    -141.14359                   -1834.71074
                   14707.49686                    -497.02675                   -1873.25469
                   12920.01842                     -87.89953                   -1694.15551
                   11543.24634                    -225.44630                   -1493.16336
        </DataArray>
        <DataArray type="Float32" Name="Moment" NumberOfComponents="3" format="ascii">
                       0.00000                       0.00000                       0.00000
                       0.00000                       0.00000                       0.00000
                       0.00000                       0.00000                       0.00000
                       0.00000                       0.00000                       0.00000
                     154.65936                     163.08875                    1171.00604
                     289.17525                     304.93616                    2189.49548
                     397.05795                     418.69878                    3006.33124
                     674.31097                     711.06291                    5105.55735
                    1008.93627                    1063.92627                    7639.17861
                    1156.25598                    1219.27534                    8754.61239
                    1299.14747                    1369.95484                    9836.51779
                    1394.25897                    1470.25020                   10556.65619
                    1083.64161                    1142.70328                    8204.81143
                    1096.57417                    1156.34070                    8302.73054
                    1085.05659                    1144.19538                    8215.52497
                    1053.15112                    1110.55097                    7973.95218
                     931.58139                     982.35533                    7053.48485
                     499.71910                     526.95527                    3783.63193
                     503.04497                     530.46240                    3808.81377
        </DataArray>
      </PointData>
      <Lines>
        <DataArray type="Int32" Name="connectivity" format="ascii">
      0      1
      1      2
      2      3
      3      4
      4      5
      5      6
      6      7
      7      8
      8      9
      9     10
     10     11
     11     12
     12     13
     13     14
     14     15
     15     16
     16     17
     17     18
        </DataArray>
        <DataArray type="Int32" Name="offsets" format="ascii">
      2
      4
      6
      8
     10
     12
     14
     16
     18
     20
     22
     24
     26
     28
     30
     32
     34
     36
        </DataArray>
      </Lines>
    </Piece>
  </PolyData>
</VTKFile>
