<?xml version="1.0"?>
<VTKFile type="PolyData" version="0.1" byte_order="LittleEndian">
  <PolyData>
    <Piece NumberOfPoints="    625" NumberOfVerts="  0" NumberOfLines="      0"
           NumberOfStrips="  0" NumberOfPolys="    600">
      <Points>
        <DataArray type="Float32" NumberOfComponents="3" format="ascii">
                      -4.87668                      -0.49799                      91.40954
                      -4.87668                      -0.49799                      91.40954
                      -4.87668                      -0.49799                      91.40954
                      -4.87668                      -0.49799                      91.40954
                      -4.87668                      -0.49799                      91.40954
                      -4.87668                      -0.49799                      91.40954
                      -4.87668                      -0.49799                      91.40954
                      -4.87668                      -0.49799                      91.40954
                      -4.87668                      -0.49799                      91.40954
                      -4.87668                      -0.49799                      91.40954
                      -4.87668                      -0.49799                      91.40954
                      -4.87668                      -0.49799                      91.40954
                      -4.87668                      -0.49799                      91.40954
                      -4.87668                      -0.49799                      91.40954
                      -4.87668                      -0.49799                      91.40954
                      -4.87668                      -0.49799                      91.40954
                      -4.87668                      -0.49799                      91.40954
                      -4.87668                      -0.49799                      91.40954
                      -4.87668                      -0.49799                      91.40954
                      -4.87668                      -0.49799                      91.40954
                      -4.87668                      -0.49799                      91.40954
                      -4.87668                      -0.49799                      91.40954
                      -4.87668                      -0.49799                      91.40954
                      -4.87668                      -0.49799                      91.40954
                      -4.87668                      -0.49799                      91.40954
                      -4.28976                      -0.45649                      91.23983
                      -4.31284                      -0.59712                      91.19217
                      -4.37199                      -0.72892                      91.15078
                      -4.46349                      -0.84359                      91.11827
                      -4.58161                      -0.93394                      91.09668
                      -4.71891                      -0.99430                      91.08737
                      -4.86677                      -1.02086                      91.09092
                      -5.01590                      -1.01196                      91.10711
                      -5.15693                      -0.96815                      91.13493
                      -5.28099                      -0.89220                      91.17262
                      -5.38030                      -0.78887                      91.21781
                      -5.44860                      -0.66466                      91.26767
                      -5.48162                      -0.52737                      91.31907
                      -5.47727                      -0.38562                      91.36876
                      -5.43583                      -0.24833                      91.41364
                      -5.35991                      -0.12412                      91.45089
                      -5.25426                      -0.02079                      91.47815
                      -5.12554                       0.05516                      91.49372
                      -4.98182                       0.09897                      91.49662
                      -4.83215                       0.10787                      91.48667
                      -4.68592                       0.08131                      91.46450
                      -4.55232                       0.02095                      91.43149
                      -4.43975                      -0.06940                      91.38972
                      -4.35527                      -0.18407                      91.34181
                      -4.30421                      -0.31587                      91.29078
                      -4.07123                      -0.41500                      91.10235
                      -4.10315                      -0.60950                      91.03642
                      -4.18496                      -0.79179                      90.97918
                      -4.31153                      -0.95040                      90.93422
                      -4.47490                      -1.07537                      90.90436
                      -4.66480                      -1.15884                      90.89148
                      -4.86931                      -1.19558                      90.89639
                      -5.07558                      -1.18327                      90.91879
                      -5.27064                      -1.12268                      90.95726
                      -5.44223                      -1.01763                      91.00938
                      -5.57959                      -0.87472                      91.07189
                      -5.67406                      -0.70292                      91.14086
                      -5.71973                      -0.51302                      91.21194
                      -5.71372                      -0.31697                      91.28068
                      -5.65640                      -0.12707                      91.34276
                      -5.55138                       0.04473                      91.39427
                      -5.40526                       0.18764                      91.43198
                      -5.22722                       0.29269                      91.45352
                      -5.02845                       0.35328                      91.45753
                      -4.82143                       0.36559                      91.44377
                      -4.61917                       0.32885                      91.41309
                      -4.43439                       0.24538                      91.36743
                      -4.27868                       0.12041                      91.30966
                      -4.16185                      -0.03820                      91.24340
                      -4.09122                      -0.22049                      91.17282
                      -3.91913                      -0.37350                      90.97068
                      -3.95732                      -0.60624                      90.89180
                      -4.05522                      -0.82436                      90.82330
                      -4.20667                      -1.01415                      90.76949
                      -4.40215                      -1.16369                      90.73377
                      -4.62939                      -1.26357                      90.71836
                      -4.87410                      -1.30753                      90.72424
                      -5.12092                      -1.29280                      90.75103
                      -5.35432                      -1.22031                      90.79707
                      -5.55965                      -1.09461                      90.85944
                      -5.72400                      -0.92359                      90.93424
                      -5.83705                      -0.71802                      91.01676
                      -5.89170                      -0.49079                      91.10182
                      -5.88450                      -0.25620                      91.18407
                      -5.81592                      -0.02897                      91.25835
                      -5.69025                       0.17660                      91.31999
                      -5.51541                       0.34761                      91.36511
                      -5.30237                       0.47332                      91.39088
                      -5.06452                       0.54581                      91.39569
                      -4.81680                       0.56054                      91.37922
                      -4.57478                       0.51658                      91.34251
                      -4.35367                       0.41670                      91.28788
                      -4.16736                       0.26716                      91.21875
                      -4.02756                       0.07737                      91.13946
                      -3.94304                      -0.14075                      91.05501
                      -3.80401                      -0.33200                      90.84225
                      -3.84705                      -0.59427                      90.75335
                      -3.95736                      -0.84006                      90.67617
                      -4.12802                      -1.05393                      90.61554
                      -4.34831                      -1.22244                      90.57527
                      -4.60438                      -1.33500                      90.55791
                      -4.88014                      -1.38453                      90.56454
                      -5.15827                      -1.36794                      90.59473
                      -5.42128                      -1.28624                      90.64661
                      -5.65266                      -1.14459                      90.71689
                      -5.83787                      -0.95189                      90.80118
                      -5.96526                      -0.72023                      90.89417
                      -6.02684                      -0.46417                      90.99002
                      -6.01873                      -0.19982                      91.08271
                      -5.94145                       0.05624                      91.16642
                      -5.79984                       0.28789                      91.23587
                      -5.60281                       0.48060                      91.28672
                      -5.36274                       0.62225                      91.31576
                      -5.09471                       0.70394                      91.32117
                      -4.81557                       0.72054                      91.30262
                      -4.54284                       0.67101                      91.26126
                      -4.29368                       0.55845                      91.19969
                      -4.08373                       0.38994                      91.12179
                      -3.92619                       0.17607                      91.03244
                      -3.83096                      -0.06972                      90.93727
                      -3.71435                      -0.29050                      90.71605
                      -3.76125                      -0.57630                      90.61917
                      -3.88146                      -0.84415                      90.53506
                      -4.06744                      -1.07721                      90.46899
                      -4.30749                      -1.26084                      90.42512
                      -4.58654                      -1.38349                      90.40619
                      -4.88704                      -1.43747                      90.41341
                      -5.19012                      -1.41939                      90.44632
                      -5.47674                      -1.33036                      90.50285
                      -5.72888                      -1.17601                      90.57944
                      -5.93070                      -0.96601                      90.67129
                      -6.06952                      -0.71356                      90.77263
                      -6.13663                      -0.43454                      90.87708
                      -6.12779                      -0.14646                      90.97808
                      -6.04357                       0.13257                      91.06930
                      -5.88926                       0.38501                      91.14499
                      -5.67455                       0.59501                      91.20040
                      -5.41294                       0.74937                      91.23204
                      -5.12086                       0.83839                      91.23794
                      -4.81667                       0.85648                      91.21772
                      -4.51948                       0.80250                      91.17265
                      -4.24796                       0.67984                      91.10556
                      -4.01917                       0.49622                      91.02066
                      -3.84750                       0.26316                      90.92330
                      -3.74372                      -0.00469                      90.81959
                      -3.64425                      -0.24900                      90.59155
                      -3.69425                      -0.55373                      90.48826
                      -3.82243                      -0.83932                      90.39858
                      -4.02072                      -1.08781                      90.32813
                      -4.27667                      -1.28360                      90.28135
                      -4.57419                      -1.41438                      90.26118
                      -4.89460                      -1.47194                      90.26888
                      -5.21775                      -1.45265                      90.30396
                      -5.52335                      -1.35773                      90.36423
                      -5.79219                      -1.19315                      90.44590
                      -6.00738                      -0.96924                      90.54383
                      -6.15540                      -0.70008                      90.65188
                      -6.22694                      -0.40258                      90.76325
                      -6.21752                      -0.09542                      90.87095
                      -6.12772                       0.20209                      90.96820
                      -5.96319                       0.47125                      91.04890
                      -5.73427                       0.69516                      91.10798
                      -5.45533                       0.85974                      91.14172
                      -5.14391                       0.95466                      91.14801
                      -4.81957                       0.97394                      91.12645
                      -4.50270                       0.91639                      91.07839
                      -4.21319                       0.78561                      91.00686
                      -3.96926                       0.58982                      90.91634
                      -3.78621                       0.34132                      90.81254
                      -3.67556                       0.05574                      90.70196
                      -3.59022                      -0.20750                      90.46847
                      -3.64271                      -0.52737                      90.36004
                      -3.77725                      -0.82715                      90.26590
                      -3.98540                      -1.08799                      90.19196
                      -4.25406                      -1.29351                      90.14285
                      -4.56637                      -1.43079                      90.12167
                      -4.90270                      -1.49121                      90.12975
                      -5.24191                      -1.47096                      90.16658
                      -5.56270                      -1.37133                      90.22985
                      -5.84490                      -1.19857                      90.31558
                      -6.07078                      -0.96353                      90.41838
                      -6.22615                      -0.68100                      90.53179
                      -6.30125                      -0.36871                      90.64869
                      -6.29136                      -0.04629                      90.76174
                      -6.19710                       0.26600                      90.86383
                      -6.02440                       0.54854                      90.94854
                      -5.78409                       0.78357                      91.01055
                      -5.49130                       0.95633                      91.04597
                      -5.16440                       1.05597                      91.05258
                      -4.82395                       1.07621                      91.02994
                      -4.49132                       1.01580                      90.97950
                      -4.18744                       0.87852                      90.90441
                      -3.93138                       0.67300                      90.80940
                      -3.73924                       0.41216                      90.70043
                      -3.62308                       0.11238                      90.58435
                      -3.55006                      -0.16600                      90.34659
                      -3.60450                      -0.49775                      90.23415
                      -3.74404                      -0.80866                      90.13651
                      -3.95991                      -1.07918                      90.05982
                      -4.23856                      -1.29233                      90.00889
                      -4.56246                      -1.43471                      89.98693
                      -4.91127                      -1.49737                      89.99531
                      -5.26308                      -1.47637                      90.03350
                      -5.59577                      -1.37304                      90.09912
                      -5.88845                      -1.19386                      90.18803
                      -6.12272                      -0.95010                      90.29464
                      -6.28386                      -0.65708                      90.41227
                      -6.36175                      -0.33319                      90.53351
                      -6.35149                       0.00120                      90.65076
                      -6.25373                       0.32508                      90.75663
                      -6.07461                       0.61811                      90.84449
                      -5.82539                       0.86187                      90.90881
                      -5.52172                       1.04104                      90.94554
                      -5.18269                       1.14437                      90.95239
                      -4.82959                       1.16537                      90.92891
                      -4.48462                       1.10271                      90.87660
                      -4.16945                       0.96034                      90.79872
                      -3.90389                       0.74719                      90.70018
                      -3.70461                       0.47666                      90.58717
                      -3.58415                       0.16575                      90.46678
                      -3.52233                      -0.12450                      90.22581
                      -3.57824                      -0.46520                      90.11032
                      -3.72154                      -0.78450                      90.01005
                      -3.94324                      -1.06232                      89.93129
                      -4.22940                      -1.28122                      89.87899
                      -4.56204                      -1.42744                      89.85644
                      -4.92027                      -1.49179                      89.86504
                      -5.28156                      -1.47022                      89.90427
                      -5.62323                      -1.36410                      89.97165
                      -5.92380                      -1.18010                      90.06296
                      -6.16439                      -0.92976                      90.17245
                      -6.32988                      -0.62883                      90.29325
                      -6.40987                      -0.29620                      90.41777
                      -6.39934                       0.04721                      90.53818
                      -6.29894                       0.37983                      90.64691
                      -6.11499                       0.68076                      90.73714
                      -5.85904                       0.93110                      90.80319
                      -5.54718                       1.11511                      90.84091
                      -5.19900                       1.22123                      90.84794
                      -4.83638                       1.24279                      90.82384
                      -4.48210                       1.17844                      90.77011
                      -4.15843                       1.03222                      90.69013
                      -3.88570                       0.81333                      90.58893
                      -3.68105                       0.53550                      90.47287
                      -3.55733                       0.21620                      90.34924
                      -3.50606                      -0.08300                      90.10602
                      -3.56299                      -0.42995                      89.98842
                      -3.70892                      -0.75511                      89.88631
                      -3.93469                      -1.03803                      89.80611
                      -4.22610                      -1.26095                      89.75284
                      -4.56485                      -1.40985                      89.72987
                      -4.92964                      -1.47538                      89.73864
                      -5.29757                      -1.45342                      89.77858
                      -5.64551                      -1.34535                      89.84721
                      -5.95160                      -1.15797                      89.94019
                      -6.19660                      -0.90304                      90.05169
                      -6.36513                      -0.59658                      90.17471
                      -6.44659                      -0.25786                      90.30151
                      -6.43586                       0.09186                      90.42412
                      -6.33362                       0.43058                      90.53485
                      -6.14629                       0.73704                      90.62673
                      -5.88565                       0.99197                      90.69400
                      -5.56806                       1.17935                      90.73242
                      -5.21350                       1.28742                      90.73958
                      -4.84422                       1.30938                      90.71503
                      -4.48344                       1.24385                      90.66031
                      -4.15383                       1.09495                      90.57887
                      -3.87610                       0.87203                      90.47581
                      -3.66769                       0.58911                      90.35762
                      -3.54170                       0.26396                      90.23172
                      -3.50063                      -0.04150                      89.98719
                      -3.55817                      -0.39215                      89.86833
                      -3.70566                      -0.72077                      89.76513
                      -3.93383                      -1.00671                      89.68407
                      -4.22835                      -1.23200                      89.63024
                      -4.57070                      -1.38249                      89.60703
                      -4.93939                      -1.44872                      89.61589
                      -5.31124                      -1.42652                      89.65626
                      -5.66289                      -1.31731                      89.72561
                      -5.97224                      -1.12792                      89.81959
                      -6.21985                      -0.87028                      89.93228
                      -6.39017                      -0.56056                      90.05660
                      -6.47250                      -0.21822                      90.18475
                      -6.46166                       0.13522                      90.30868
                      -6.35833                       0.47756                      90.42059
                      -6.16900                       0.78728                      90.51345
                      -5.90558                       1.04492                      90.58143
                      -5.58461                       1.23431                      90.62026
                      -5.22627                       1.34353                      90.62749
                      -4.85306                       1.36572                      90.60268
                      -4.48843                       1.29949                      90.54738
                      -4.15531                       1.14900                      90.46507
                      -3.87461                       0.92371                      90.36092
                      -3.66398                       0.63777                      90.24147
                      -3.53666                       0.30915                      90.11422
                      -3.50571                       0.00000                      89.86927
                      -3.56345                      -0.35188                      89.75000
                      -3.71145                      -0.68164                      89.64644
                      -3.94042                      -0.96858                      89.56510
                      -4.23597                      -1.19466                      89.51108
                      -4.57952                      -1.34567                      89.48779
                      -4.94949                      -1.41213                      89.49667
                      -5.32264                      -1.38986                      89.53719
                      -5.67551                      -1.28026                      89.60678
                      -5.98594                      -1.09022                      89.70109
                      -6.23442                      -0.83167                      89.81417
                      -6.40534                      -0.52087                      89.93893
                      -6.48795                      -0.17734                      90.06753
                      -6.47707                       0.17734                      90.19188
                      -6.37338                       0.52087                      90.30418
                      -6.18340                       0.83167                      90.39737
                      -5.91906                       1.09022                      90.46559
                      -5.59697                       1.28026                      90.50455
                      -5.23737                       1.38986                      90.51181
                      -4.86286                       1.41213                      90.48691
                      -4.49696                       1.34567                      90.43142
                      -4.16267                       1.19466                      90.34882
                      -3.88100                       0.96858                      90.24431
                      -3.66963                       0.68164                      90.12444
                      -3.54186                       0.35188                      89.99675
                      -3.52118                       0.04150                      89.75226
                      -3.57872                      -0.30915                      89.63341
                      -3.72621                      -0.63777                      89.53021
                      -3.95438                      -0.92371                      89.44915
                      -4.24890                      -1.14900                      89.39532
                      -4.59126                      -1.29949                      89.37211
                      -4.95994                      -1.36572                      89.38096
                      -5.33179                      -1.34353                      89.42134
                      -5.68344                      -1.23431                      89.49069
                      -5.99279                      -1.04492                      89.58466
                      -6.24040                      -0.78728                      89.69735
                      -6.41072                      -0.47756                      89.82168
                      -6.49305                      -0.13522                      89.94983
                      -6.48221                       0.21822                      90.07375
                      -6.37888                       0.56056                      90.18566
                      -6.18956                       0.87028                      90.27853
                      -5.92614                       1.12792                      90.34651
                      -5.60517                       1.31731                      90.38533
                      -5.24682                       1.42652                      90.39257
                      -4.87361                       1.44872                      90.36776
                      -4.50899                       1.38249                      90.31246
                      -4.17586                       1.23200                      90.23015
                      -3.89517                       1.00671                      90.12599
                      -3.68454                       0.72077                      90.00654
                      -3.55721                       0.39215                      89.87930
                      -3.54716                       0.08300                      89.63618
                      -3.60409                      -0.26396                      89.51858
                      -3.75003                      -0.58911                      89.41647
                      -3.97579                      -0.87203                      89.33626
                      -4.26721                      -1.09495                      89.28300
                      -4.60595                      -1.24385                      89.26003
                      -4.97075                      -1.30938                      89.26879
                      -5.33868                      -1.28742                      89.30874
                      -5.68662                      -1.17935                      89.37736
                      -5.99270                      -0.99197                      89.47034
                      -6.23771                      -0.73704                      89.58185
                      -6.40623                      -0.43058                      89.70486
                      -6.48769                      -0.09186                      89.83166
                      -6.47696                       0.25786                      89.95428
                      -6.37472                       0.59658                      90.06501
                      -6.18740                       0.90304                      90.15689
                      -5.92675                       1.15797                      90.22415
                      -5.60917                       1.34535                      90.26257
                      -5.25460                       1.45342                      90.26973
                      -4.88533                       1.47538                      90.24518
                      -4.52455                       1.40985                      90.19047
                      -4.19494                       1.26095                      90.10902
                      -3.91720                       1.03803                      90.00597
                      -3.70879                       0.75511                      89.88778
                      -3.58281                       0.42995                      89.76187
                      -3.58399                       0.12450                      89.52104
                      -3.63989                      -0.21620                      89.40556
                      -3.78320                      -0.53550                      89.30529
                      -4.00490                      -0.81333                      89.22653
                      -4.29106                      -1.03222                      89.17422
                      -4.62370                      -1.17844                      89.15167
                      -4.98192                      -1.24279                      89.16027
                      -5.34322                      -1.22123                      89.19950
                      -5.68489                      -1.11511                      89.26689
                      -5.98546                      -0.93110                      89.35819
                      -6.22605                      -0.68076                      89.46769
                      -6.39154                      -0.37983                      89.58849
                      -6.47153                      -0.04721                      89.71300
                      -6.46100                       0.29620                      89.83341
                      -6.36060                       0.62883                      89.94214
                      -6.17665                       0.92976                      90.03237
                      -5.92070                       1.18010                      90.09842
                      -5.60884                       1.36410                      90.13615
                      -5.26066                       1.47022                      90.14318
                      -4.89804                       1.49179                      90.11907
                      -4.54376                       1.42744                      90.06534
                      -4.22009                       1.28122                      89.98536
                      -3.94736                       1.06232                      89.88416
                      -3.74271                       0.78450                      89.76810
                      -3.61899                       0.46520                      89.64447
                      -3.63228                       0.16600                      89.40690
                      -3.68671                      -0.16575                      89.29445
                      -3.82625                      -0.47666                      89.19682
                      -4.04212                      -0.74719                      89.12013
                      -4.32077                      -0.96034                      89.06920
                      -4.64467                      -1.10271                      89.04723
                      -4.99349                      -1.16537                      89.05561
                      -5.34529                      -1.14437                      89.09381
                      -5.67798                      -1.04104                      89.15943
                      -5.97066                      -0.86187                      89.24833
                      -6.20493                      -0.61811                      89.35495
                      -6.36607                      -0.32508                      89.47258
                      -6.44396                      -0.00120                      89.59382
                      -6.43370                       0.33319                      89.71106
                      -6.33594                       0.65708                      89.81694
                      -6.15682                       0.95010                      89.90480
                      -5.90760                       1.19386                      89.96911
                      -5.60393                       1.37304                      90.00585
                      -5.26490                       1.47637                      90.01270
                      -4.91181                       1.49737                      89.98922
                      -4.56684                       1.43471                      89.93690
                      -4.25167                       1.29233                      89.85903
                      -3.98610                       1.07918                      89.76049
                      -3.78682                       0.80866                      89.64748
                      -3.66636                       0.49775                      89.52709
                      -3.69298                       0.20750                      89.29385
                      -3.74547                      -0.11238                      89.18543
                      -3.88002                      -0.41216                      89.09129
                      -4.08816                      -0.67300                      89.01734
                      -4.35683                      -0.87852                      88.96824
                      -4.66914                      -1.01580                      88.94706
                      -5.00547                      -1.07621                      88.95514
                      -5.34468                      -1.05597                      88.99197
                      -5.66546                      -0.95633                      89.05524
                      -5.94766                      -0.78357                      89.14096
                      -6.17354                      -0.54854                      89.24376
                      -6.32892                      -0.26600                      89.35718
                      -6.40402                       0.04629                      89.47408
                      -6.39413                       0.36871                      89.58713
                      -6.29987                       0.68100                      89.68921
                      -6.12716                       0.96353                      89.77393
                      -5.88686                       1.19857                      89.83594
                      -5.59406                       1.37133                      89.87136
                      -5.26717                       1.47096                      89.87796
                      -4.92671                       1.49121                      89.85533
                      -4.59409                       1.43079                      89.80488
                      -4.29020                       1.29351                      89.72979
                      -4.03414                       1.08799                      89.63478
                      -3.84200                       0.82715                      89.52582
                      -3.72585                       0.52737                      89.40974
                      -3.76757                       0.24900                      89.18202
                      -3.81757                      -0.05574                      89.07873
                      -3.94574                      -0.34132                      88.98904
                      -4.14404                      -0.58982                      88.91860
                      -4.39999                      -0.78561                      88.87182
                      -4.69751                      -0.91639                      88.85164
                      -5.01792                      -0.97394                      88.85934
                      -5.34107                      -0.95466                      88.89443
                      -5.64667                      -0.85974                      88.95470
                      -5.91551                      -0.69516                      89.03636
                      -6.13070                      -0.47125                      89.13430
                      -6.27872                      -0.20209                      89.24234
                      -6.35026                       0.09542                      89.35371
                      -6.34084                       0.40257                      89.46141
                      -6.25104                       0.70008                      89.55866
                      -6.08651                       0.96924                      89.63936
                      -5.85758                       1.19315                      89.69844
                      -5.57865                       1.35773                      89.73219
                      -5.26723                       1.45265                      89.73847
                      -4.94289                       1.47194                      89.71691
                      -4.62601                       1.41438                      89.66886
                      -4.33651                       1.28360                      89.59732
                      -4.09257                       1.08781                      89.50681
                      -3.90953                       0.83932                      89.40300
                      -3.79887                       0.55373                      89.29242
                      -3.85822                       0.29050                      89.07159
                      -3.90512                       0.00469                      88.97471
                      -4.02534                      -0.26316                      88.89060
                      -4.21131                      -0.49622                      88.82453
                      -4.45136                      -0.67984                      88.78066
                      -4.73041                      -0.80250                      88.76173
                      -5.03091                      -0.85648                      88.76895
                      -5.33399                      -0.83839                      88.80186
                      -5.62061                      -0.74937                      88.85839
                      -5.87275                      -0.59501                      88.93498
                      -6.07457                      -0.38501                      89.02683
                      -6.21340                      -0.13257                      89.12817
                      -6.28050                       0.14646                      89.23262
                      -6.27166                       0.43454                      89.33362
                      -6.18744                       0.71356                      89.42484
                      -6.03313                       0.96601                      89.50053
                      -5.81842                       1.17601                      89.55594
                      -5.55681                       1.33036                      89.58758
                      -5.26473                       1.41939                      89.59348
                      -4.96054                       1.43747                      89.57326
                      -4.66335                       1.38349                      89.52819
                      -4.39183                       1.26084                      89.46110
                      -4.16305                       1.07721                      89.37620
                      -3.99137                       0.84415                      89.27884
                      -3.88759                       0.57630                      89.17513
                      -3.96843                       0.33200                      88.96287
                      -4.01147                       0.06972                      88.87397
                      -4.12179                      -0.17607                      88.79678
                      -4.29245                      -0.38994                      88.73615
                      -4.51273                      -0.55845                      88.69589
                      -4.76880                      -0.67101                      88.67853
                      -5.04457                      -0.72054                      88.68515
                      -5.32269                      -0.70394                      88.71535
                      -5.58571                      -0.62225                      88.76722
                      -5.81709                      -0.48060                      88.83751
                      -6.00230                      -0.28789                      88.92180
                      -6.12969                      -0.05624                      89.01479
                      -6.19126                       0.19982                      89.11064
                      -6.18316                       0.46417                      89.20333
                      -6.10587                       0.72023                      89.28703
                      -5.96426                       0.95189                      89.35649
                      -5.76724                       1.14459                      89.40734
                      -5.52717                       1.28624                      89.43638
                      -5.25914                       1.36794                      89.44179
                      -4.97999                       1.38453                      89.42323
                      -4.70727                       1.33500                      89.38187
                      -4.45811                       1.22244                      89.32031
                      -4.24816                       1.05393                      89.24240
                      -4.09062                       0.84006                      89.15306
                      -3.99538                       0.59427                      89.05789
                      -4.10411                       0.37350                      88.85638
                      -4.14230                       0.14075                      88.77749
                      -4.24019                      -0.07737                      88.70899
                      -4.39164                      -0.26716                      88.65519
                      -4.58713                      -0.41670                      88.61946
                      -4.81437                      -0.51658                      88.60405
                      -5.05908                      -0.56054                      88.60993
                      -5.30589                      -0.54581                      88.63673
                      -5.53930                      -0.47332                      88.68276
                      -5.74463                      -0.34761                      88.74513
                      -5.90898                      -0.17660                      88.81993
                      -6.02203                       0.02897                      88.90245
                      -6.07668                       0.25620                      88.98751
                      -6.06948                       0.49079                      89.06977
                      -6.00090                       0.71802                      89.14405
                      -5.87523                       0.92359                      89.20568
                      -5.70039                       1.09461                      89.25081
                      -5.48735                       1.22031                      89.27658
                      -5.24949                       1.29280                      89.28138
                      -5.00178                       1.30753                      89.26491
                      -4.75976                       1.26357                      89.22821
                      -4.53865                       1.16369                      89.17357
                      -4.35234                       1.01415                      89.10444
                      -4.21253                       0.82436                      89.02516
                      -4.12802                       0.60624                      88.94070
                      -4.27677                       0.41500                      88.75312
                      -4.30868                       0.22049                      88.68720
                      -4.39049                       0.03820                      88.62995
                      -4.51706                      -0.12041                      88.58499
                      -4.68043                      -0.24538                      88.55513
                      -4.87034                      -0.32885                      88.54225
                      -5.07485                      -0.36559                      88.54716
                      -5.28111                      -0.35328                      88.56956
                      -5.47617                      -0.29269                      88.60803
                      -5.64777                      -0.18764                      88.66016
                      -5.78512                      -0.04473                      88.72267
                      -5.87959                       0.12707                      88.79163
                      -5.92526                       0.31697                      88.86272
                      -5.91925                       0.51302                      88.93146
                      -5.86193                       0.70292                      88.99353
                      -5.75691                       0.87472                      89.04504
                      -5.61079                       1.01763                      89.08275
                      -5.43275                       1.12268                      89.10429
                      -5.23398                       1.18327                      89.10830
                      -5.02696                       1.19558                      89.09454
                      -4.82470                       1.15884                      89.06387
                      -4.63992                       1.07537                      89.01821
                      -4.48421                       0.95040                      88.96043
                      -4.36738                       0.79179                      88.89417
                      -4.29675                       0.60950                      88.82359
                      -4.51584                       0.45649                      88.65568
                      -4.53892                       0.31587                      88.60801
                      -4.59807                       0.18407                      88.56663
                      -4.68958                       0.06940                      88.53412
                      -4.80769                      -0.02095                      88.51253
                      -4.94500                      -0.08131                      88.50322
                      -5.09286                      -0.10787                      88.50677
                      -5.24199                      -0.09897                      88.52296
                      -5.38301                      -0.05516                      88.55078
                      -5.50708                       0.02079                      88.58846
                      -5.60638                       0.12412                      88.63366
                      -5.67469                       0.24833                      88.68352
                      -5.70771                       0.38562                      88.73491
                      -5.70336                       0.52737                      88.78461
                      -5.66192                       0.66466                      88.82949
                      -5.58599                       0.78887                      88.86674
                      -5.48035                       0.89220                      88.89400
                      -5.35162                       0.96815                      88.90957
                      -5.20791                       1.01196                      88.91247
                      -5.05823                       1.02086                      88.90252
                      -4.91200                       0.99430                      88.88035
                      -4.77840                       0.93394                      88.84733
                      -4.66583                       0.84359                      88.80556
                      -4.58136                       0.72892                      88.75766
                      -4.53029                       0.59712                      88.70663
                      -5.12332                       0.49799                      88.59047
                      -5.12332                       0.49799                      88.59047
                      -5.12332                       0.49799                      88.59047
                      -5.12332                       0.49799                      88.59047
                      -5.12332                       0.49799                      88.59047
                      -5.12332                       0.49799                      88.59047
                      -5.12332                       0.49799                      88.59047
                      -5.12332                       0.49799                      88.59047
                      -5.12332                       0.49799                      88.59047
                      -5.12332                       0.49799                      88.59047
                      -5.12332                       0.49799                      88.59047
                      -5.12332                       0.49799                      88.59047
                      -5.12332                       0.49799                      88.59047
                      -5.12332                       0.49799                      88.59047
                      -5.12332                       0.49799                      88.59047
                      -5.12332                       0.49799                      88.59047
                      -5.12332                       0.49799                      88.59047
                      -5.12332                       0.49799                      88.59047
                      -5.12332                       0.49799                      88.59047
                      -5.12332                       0.49799                      88.59047
                      -5.12332                       0.49799                      88.59047
                      -5.12332                       0.49799                      88.59047
                      -5.12332                       0.49799                      88.59047
                      -5.12332                       0.49799                      88.59047
                      -5.12332                       0.49799                      88.59047
        </DataArray>
      </Points>
      <Polys>
        <DataArray type="Int32" Name="connectivity" format="ascii">
      0      1     26     25
      1      2     27     26
      2      3     28     27
      3      4     29     28
      4      5     30     29
      5      6     31     30
      6      7     32     31
      7      8     33     32
      8      9     34     33
      9     10     35     34
     10     11     36     35
     11     12     37     36
     12     13     38     37
     13     14     39     38
     14     15     40     39
     15     16     41     40
     16     17     42     41
     17     18     43     42
     18     19     44     43
     19     20     45     44
     20     21     46     45
     21     22     47     46
     22     23     48     47
     23     24     49     48
     24      0     25     49
     25     26     51     50
     26     27     52     51
     27     28     53     52
     28     29     54     53
     29     30     55     54
     30     31     56     55
     31     32     57     56
     32     33     58     57
     33     34     59     58
     34     35     60     59
     35     36     61     60
     36     37     62     61
     37     38     63     62
     38     39     64     63
     39     40     65     64
     40     41     66     65
     41     42     67     66
     42     43     68     67
     43     44     69     68
     44     45     70     69
     45     46     71     70
     46     47     72     71
     47     48     73     72
     48     49     74     73
     49     25     50     74
     50     51     76     75
     51     52     77     76
     52     53     78     77
     53     54     79     78
     54     55     80     79
     55     56     81     80
     56     57     82     81
     57     58     83     82
     58     59     84     83
     59     60     85     84
     60     61     86     85
     61     62     87     86
     62     63     88     87
     63     64     89     88
     64     65     90     89
     65     66     91     90
     66     67     92     91
     67     68     93     92
     68     69     94     93
     69     70     95     94
     70     71     96     95
     71     72     97     96
     72     73     98     97
     73     74     99     98
     74     50     75     99
     75     76    101    100
     76     77    102    101
     77     78    103    102
     78     79    104    103
     79     80    105    104
     80     81    106    105
     81     82    107    106
     82     83    108    107
     83     84    109    108
     84     85    110    109
     85     86    111    110
     86     87    112    111
     87     88    113    112
     88     89    114    113
     89     90    115    114
     90     91    116    115
     91     92    117    116
     92     93    118    117
     93     94    119    118
     94     95    120    119
     95     96    121    120
     96     97    122    121
     97     98    123    122
     98     99    124    123
     99     75    100    124
    100    101    126    125
    101    102    127    126
    102    103    128    127
    103    104    129    128
    104    105    130    129
    105    106    131    130
    106    107    132    131
    107    108    133    132
    108    109    134    133
    109    110    135    134
    110    111    136    135
    111    112    137    136
    112    113    138    137
    113    114    139    138
    114    115    140    139
    115    116    141    140
    116    117    142    141
    117    118    143    142
    118    119    144    143
    119    120    145    144
    120    121    146    145
    121    122    147    146
    122    123    148    147
    123    124    149    148
    124    100    125    149
    125    126    151    150
    126    127    152    151
    127    128    153    152
    128    129    154    153
    129    130    155    154
    130    131    156    155
    131    132    157    156
    132    133    158    157
    133    134    159    158
    134    135    160    159
    135    136    161    160
    136    137    162    161
    137    138    163    162
    138    139    164    163
    139    140    165    164
    140    141    166    165
    141    142    167    166
    142    143    168    167
    143    144    169    168
    144    145    170    169
    145    146    171    170
    146    147    172    171
    147    148    173    172
    148    149    174    173
    149    125    150    174
    150    151    176    175
    151    152    177    176
    152    153    178    177
    153    154    179    178
    154    155    180    179
    155    156    181    180
    156    157    182    181
    157    158    183    182
    158    159    184    183
    159    160    185    184
    160    161    186    185
    161    162    187    186
    162    163    188    187
    163    164    189    188
    164    165    190    189
    165    166    191    190
    166    167    192    191
    167    168    193    192
    168    169    194    193
    169    170    195    194
    170    171    196    195
    171    172    197    196
    172    173    198    197
    173    174    199    198
    174    150    175    199
    175    176    201    200
    176    177    202    201
    177    178    203    202
    178    179    204    203
    179    180    205    204
    180    181    206    205
    181    182    207    206
    182    183    208    207
    183    184    209    208
    184    185    210    209
    185    186    211    210
    186    187    212    211
    187    188    213    212
    188    189    214    213
    189    190    215    214
    190    191    216    215
    191    192    217    216
    192    193    218    217
    193    194    219    218
    194    195    220    219
    195    196    221    220
    196    197    222    221
    197    198    223    222
    198    199    224    223
    199    175    200    224
    200    201    226    225
    201    202    227    226
    202    203    228    227
    203    204    229    228
    204    205    230    229
    205    206    231    230
    206    207    232    231
    207    208    233    232
    208    209    234    233
    209    210    235    234
    210    211    236    235
    211    212    237    236
    212    213    238    237
    213    214    239    238
    214    215    240    239
    215    216    241    240
    216    217    242    241
    217    218    243    242
    218    219    244    243
    219    220    245    244
    220    221    246    245
    221    222    247    246
    222    223    248    247
    223    224    249    248
    224    200    225    249
    225    226    251    250
    226    227    252    251
    227    228    253    252
    228    229    254    253
    229    230    255    254
    230    231    256    255
    231    232    257    256
    232    233    258    257
    233    234    259    258
    234    235    260    259
    235    236    261    260
    236    237    262    261
    237    238    263    262
    238    239    264    263
    239    240    265    264
    240    241    266    265
    241    242    267    266
    242    243    268    267
    243    244    269    268
    244    245    270    269
    245    246    271    270
    246    247    272    271
    247    248    273    272
    248    249    274    273
    249    225    250    274
    250    251    276    275
    251    252    277    276
    252    253    278    277
    253    254    279    278
    254    255    280    279
    255    256    281    280
    256    257    282    281
    257    258    283    282
    258    259    284    283
    259    260    285    284
    260    261    286    285
    261    262    287    286
    262    263    288    287
    263    264    289    288
    264    265    290    289
    265    266    291    290
    266    267    292    291
    267    268    293    292
    268    269    294    293
    269    270    295    294
    270    271    296    295
    271    272    297    296
    272    273    298    297
    273    274    299    298
    274    250    275    299
    275    276    301    300
    276    277    302    301
    277    278    303    302
    278    279    304    303
    279    280    305    304
    280    281    306    305
    281    282    307    306
    282    283    308    307
    283    284    309    308
    284    285    310    309
    285    286    311    310
    286    287    312    311
    287    288    313    312
    288    289    314    313
    289    290    315    314
    290    291    316    315
    291    292    317    316
    292    293    318    317
    293    294    319    318
    294    295    320    319
    295    296    321    320
    296    297    322    321
    297    298    323    322
    298    299    324    323
    299    275    300    324
    300    301    326    325
    301    302    327    326
    302    303    328    327
    303    304    329    328
    304    305    330    329
    305    306    331    330
    306    307    332    331
    307    308    333    332
    308    309    334    333
    309    310    335    334
    310    311    336    335
    311    312    337    336
    312    313    338    337
    313    314    339    338
    314    315    340    339
    315    316    341    340
    316    317    342    341
    317    318    343    342
    318    319    344    343
    319    320    345    344
    320    321    346    345
    321    322    347    346
    322    323    348    347
    323    324    349    348
    324    300    325    349
    325    326    351    350
    326    327    352    351
    327    328    353    352
    328    329    354    353
    329    330    355    354
    330    331    356    355
    331    332    357    356
    332    333    358    357
    333    334    359    358
    334    335    360    359
    335    336    361    360
    336    337    362    361
    337    338    363    362
    338    339    364    363
    339    340    365    364
    340    341    366    365
    341    342    367    366
    342    343    368    367
    343    344    369    368
    344    345    370    369
    345    346    371    370
    346    347    372    371
    347    348    373    372
    348    349    374    373
    349    325    350    374
    350    351    376    375
    351    352    377    376
    352    353    378    377
    353    354    379    378
    354    355    380    379
    355    356    381    380
    356    357    382    381
    357    358    383    382
    358    359    384    383
    359    360    385    384
    360    361    386    385
    361    362    387    386
    362    363    388    387
    363    364    389    388
    364    365    390    389
    365    366    391    390
    366    367    392    391
    367    368    393    392
    368    369    394    393
    369    370    395    394
    370    371    396    395
    371    372    397    396
    372    373    398    397
    373    374    399    398
    374    350    375    399
    375    376    401    400
    376    377    402    401
    377    378    403    402
    378    379    404    403
    379    380    405    404
    380    381    406    405
    381    382    407    406
    382    383    408    407
    383    384    409    408
    384    385    410    409
    385    386    411    410
    386    387    412    411
    387    388    413    412
    388    389    414    413
    389    390    415    414
    390    391    416    415
    391    392    417    416
    392    393    418    417
    393    394    419    418
    394    395    420    419
    395    396    421    420
    396    397    422    421
    397    398    423    422
    398    399    424    423
    399    375    400    424
    400    401    426    425
    401    402    427    426
    402    403    428    427
    403    404    429    428
    404    405    430    429
    405    406    431    430
    406    407    432    431
    407    408    433    432
    408    409    434    433
    409    410    435    434
    410    411    436    435
    411    412    437    436
    412    413    438    437
    413    414    439    438
    414    415    440    439
    415    416    441    440
    416    417    442    441
    417    418    443    442
    418    419    444    443
    419    420    445    444
    420    421    446    445
    421    422    447    446
    422    423    448    447
    423    424    449    448
    424    400    425    449
    425    426    451    450
    426    427    452    451
    427    428    453    452
    428    429    454    453
    429    430    455    454
    430    431    456    455
    431    432    457    456
    432    433    458    457
    433    434    459    458
    434    435    460    459
    435    436    461    460
    436    437    462    461
    437    438    463    462
    438    439    464    463
    439    440    465    464
    440    441    466    465
    441    442    467    466
    442    443    468    467
    443    444    469    468
    444    445    470    469
    445    446    471    470
    446    447    472    471
    447    448    473    472
    448    449    474    473
    449    425    450    474
    450    451    476    475
    451    452    477    476
    452    453    478    477
    453    454    479    478
    454    455    480    479
    455    456    481    480
    456    457    482    481
    457    458    483    482
    458    459    484    483
    459    460    485    484
    460    461    486    485
    461    462    487    486
    462    463    488    487
    463    464    489    488
    464    465    490    489
    465    466    491    490
    466    467    492    491
    467    468    493    492
    468    469    494    493
    469    470    495    494
    470    471    496    495
    471    472    497    496
    472    473    498    497
    473    474    499    498
    474    450    475    499
    475    476    501    500
    476    477    502    501
    477    478    503    502
    478    479    504    503
    479    480    505    504
    480    481    506    505
    481    482    507    506
    482    483    508    507
    483    484    509    508
    484    485    510    509
    485    486    511    510
    486    487    512    511
    487    488    513    512
    488    489    514    513
    489    490    515    514
    490    491    516    515
    491    492    517    516
    492    493    518    517
    493    494    519    518
    494    495    520    519
    495    496    521    520
    496    497    522    521
    497    498    523    522
    498    499    524    523
    499    475    500    524
    500    501    526    525
    501    502    527    526
    502    503    528    527
    503    504    529    528
    504    505    530    529
    505    506    531    530
    506    507    532    531
    507    508    533    532
    508    509    534    533
    509    510    535    534
    510    511    536    535
    511    512    537    536
    512    513    538    537
    513    514    539    538
    514    515    540    539
    515    516    541    540
    516    517    542    541
    517    518    543    542
    518    519    544    543
    519    520    545    544
    520    521    546    545
    521    522    547    546
    522    523    548    547
    523    524    549    548
    524    500    525    549
    525    526    551    550
    526    527    552    551
    527    528    553    552
    528    529    554    553
    529    530    555    554
    530    531    556    555
    531    532    557    556
    532    533    558    557
    533    534    559    558
    534    535    560    559
    535    536    561    560
    536    537    562    561
    537    538    563    562
    538    539    564    563
    539    540    565    564
    540    541    566    565
    541    542    567    566
    542    543    568    567
    543    544    569    568
    544    545    570    569
    545    546    571    570
    546    547    572    571
    547    548    573    572
    548    549    574    573
    549    525    550    574
    550    551    576    575
    551    552    577    576
    552    553    578    577
    553    554    579    578
    554    555    580    579
    555    556    581    580
    556    557    582    581
    557    558    583    582
    558    559    584    583
    559    560    585    584
    560    561    586    585
    561    562    587    586
    562    563    588    587
    563    564    589    588
    564    565    590    589
    565    566    591    590
    566    567    592    591
    567    568    593    592
    568    569    594    593
    569    570    595    594
    570    571    596    595
    571    572    597    596
    572    573    598    597
    573    574    599    598
    574    550    575    599
    575    576    601    600
    576    577    602    601
    577    578    603    602
    578    579    604    603
    579    580    605    604
    580    581    606    605
    581    582    607    606
    582    583    608    607
    583    584    609    608
    584    585    610    609
    585    586    611    610
    586    587    612    611
    587    588    613    612
    588    589    614    613
    589    590    615    614
    590    591    616    615
    591    592    617    616
    592    593    618    617
    593    594    619    618
    594    595    620    619
    595    596    621    620
    596    597    622    621
    597    598    623    622
    598    599    624    623
    599    575    600    624
        </DataArray>
        <DataArray type="Int32" Name="offsets" format="ascii">
      4
      8
     12
     16
     20
     24
     28
     32
     36
     40
     44
     48
     52
     56
     60
     64
     68
     72
     76
     80
     84
     88
     92
     96
    100
    104
    108
    112
    116
    120
    124
    128
    132
    136
    140
    144
    148
    152
    156
    160
    164
    168
    172
    176
    180
    184
    188
    192
    196
    200
    204
    208
    212
    216
    220
    224
    228
    232
    236
    240
    244
    248
    252
    256
    260
    264
    268
    272
    276
    280
    284
    288
    292
    296
    300
    304
    308
    312
    316
    320
    324
    328
    332
    336
    340
    344
    348
    352
    356
    360
    364
    368
    372
    376
    380
    384
    388
    392
    396
    400
    404
    408
    412
    416
    420
    424
    428
    432
    436
    440
    444
    448
    452
    456
    460
    464
    468
    472
    476
    480
    484
    488
    492
    496
    500
    504
    508
    512
    516
    520
    524
    528
    532
    536
    540
    544
    548
    552
    556
    560
    564
    568
    572
    576
    580
    584
    588
    592
    596
    600
    604
    608
    612
    616
    620
    624
    628
    632
    636
    640
    644
    648
    652
    656
    660
    664
    668
    672
    676
    680
    684
    688
    692
    696
    700
    704
    708
    712
    716
    720
    724
    728
    732
    736
    740
    744
    748
    752
    756
    760
    764
    768
    772
    776
    780
    784
    788
    792
    796
    800
    804
    808
    812
    816
    820
    824
    828
    832
    836
    840
    844
    848
    852
    856
    860
    864
    868
    872
    876
    880
    884
    888
    892
    896
    900
    904
    908
    912
    916
    920
    924
    928
    932
    936
    940
    944
    948
    952
    956
    960
    964
    968
    972
    976
    980
    984
    988
    992
    996
   1000
   1004
   1008
   1012
   1016
   1020
   1024
   1028
   1032
   1036
   1040
   1044
   1048
   1052
   1056
   1060
   1064
   1068
   1072
   1076
   1080
   1084
   1088
   1092
   1096
   1100
   1104
   1108
   1112
   1116
   1120
   1124
   1128
   1132
   1136
   1140
   1144
   1148
   1152
   1156
   1160
   1164
   1168
   1172
   1176
   1180
   1184
   1188
   1192
   1196
   1200
   1204
   1208
   1212
   1216
   1220
   1224
   1228
   1232
   1236
   1240
   1244
   1248
   1252
   1256
   1260
   1264
   1268
   1272
   1276
   1280
   1284
   1288
   1292
   1296
   1300
   1304
   1308
   1312
   1316
   1320
   1324
   1328
   1332
   1336
   1340
   1344
   1348
   1352
   1356
   1360
   1364
   1368
   1372
   1376
   1380
   1384
   1388
   1392
   1396
   1400
   1404
   1408
   1412
   1416
   1420
   1424
   1428
   1432
   1436
   1440
   1444
   1448
   1452
   1456
   1460
   1464
   1468
   1472
   1476
   1480
   1484
   1488
   1492
   1496
   1500
   1504
   1508
   1512
   1516
   1520
   1524
   1528
   1532
   1536
   1540
   1544
   1548
   1552
   1556
   1560
   1564
   1568
   1572
   1576
   1580
   1584
   1588
   1592
   1596
   1600
   1604
   1608
   1612
   1616
   1620
   1624
   1628
   1632
   1636
   1640
   1644
   1648
   1652
   1656
   1660
   1664
   1668
   1672
   1676
   1680
   1684
   1688
   1692
   1696
   1700
   1704
   1708
   1712
   1716
   1720
   1724
   1728
   1732
   1736
   1740
   1744
   1748
   1752
   1756
   1760
   1764
   1768
   1772
   1776
   1780
   1784
   1788
   1792
   1796
   1800
   1804
   1808
   1812
   1816
   1820
   1824
   1828
   1832
   1836
   1840
   1844
   1848
   1852
   1856
   1860
   1864
   1868
   1872
   1876
   1880
   1884
   1888
   1892
   1896
   1900
   1904
   1908
   1912
   1916
   1920
   1924
   1928
   1932
   1936
   1940
   1944
   1948
   1952
   1956
   1960
   1964
   1968
   1972
   1976
   1980
   1984
   1988
   1992
   1996
   2000
   2004
   2008
   2012
   2016
   2020
   2024
   2028
   2032
   2036
   2040
   2044
   2048
   2052
   2056
   2060
   2064
   2068
   2072
   2076
   2080
   2084
   2088
   2092
   2096
   2100
   2104
   2108
   2112
   2116
   2120
   2124
   2128
   2132
   2136
   2140
   2144
   2148
   2152
   2156
   2160
   2164
   2168
   2172
   2176
   2180
   2184
   2188
   2192
   2196
   2200
   2204
   2208
   2212
   2216
   2220
   2224
   2228
   2232
   2236
   2240
   2244
   2248
   2252
   2256
   2260
   2264
   2268
   2272
   2276
   2280
   2284
   2288
   2292
   2296
   2300
   2304
   2308
   2312
   2316
   2320
   2324
   2328
   2332
   2336
   2340
   2344
   2348
   2352
   2356
   2360
   2364
   2368
   2372
   2376
   2380
   2384
   2388
   2392
   2396
   2400
        </DataArray>
      </Polys>
    </Piece>
  </PolyData>
</VTKFile>
