<?xml version="1.0"?>
<VTKFile type="PolyData" version="0.1" byte_order="LittleEndian">
  <PolyData>
    <Piece NumberOfPoints="     19" NumberOfVerts="  0" NumberOfLines="     18"
           NumberOfStrips="  0" NumberOfPolys="      0">
      <Points>
        <DataArray type="Float32" NumberOfComponents="3" format="ascii">
                      -5.16586                       0.95462                      88.85493
                      -5.31760                       1.82704                      87.81390
                      -5.63803                       3.64417                      85.79470
                      -5.96650                       5.49556                      83.80522
                      -6.38189                       7.83033                      81.33608
                      -6.83579                      10.52319                      78.27597
                      -7.27305                      13.11650                      75.13045
                      -7.71271                      15.70776                      71.98356
                      -8.15250                      18.29564                      68.83388
                      -8.59313                      20.88159                      65.68271
                      -9.03573                      23.46840                      62.53255
                      -9.47965                      26.05493                      59.38234
                      -9.92554                      28.64118                      56.23218
                     -10.37410                      31.22716                      53.08219
                     -10.82359                      33.81304                      49.93224
                     -11.19881                      35.96788                      47.30729
                     -11.49997                      37.68561                      45.20242
                     -11.80548                      39.36089                      43.06280
                     -11.95659                      40.23061                      42.01956
        </DataArray>
      </Points>
      <PointData>
        <DataArray type="Float32" Name="TranslationalVelocity" NumberOfComponents="3" format="ascii">
                       0.26426                       3.66902                       3.02049
                       0.50576                       7.00493                       5.78089
                       1.00878                      13.48256                      11.53044
                       1.52129                      19.86834                      17.38841
                       2.16760                      27.79589                      24.77579
                       2.91304                      37.60398                      33.29625
                       3.63093                      47.67772                      41.50170
                       4.34824                      57.75643                      49.70064
                       5.06462                      67.84403                      57.88891
                       5.78047                      77.93656                      66.07107
                       6.49655                      88.02647                      74.25595
                       7.21256                      98.11687                      82.43996
                       7.92849                     108.20766                      90.62306
                       8.64434                     118.29868                      98.80531
                       9.36017                     128.38981                     106.98723
                       9.95668                     136.79923                     113.80534
                      10.43218                     143.54256                     119.24037
                      10.89593                     150.39708                     124.54109
                      11.13669                     153.73980                     127.29296
        </DataArray>
        <DataArray type="Float32" Name="RotationalVelocity" NumberOfComponents="3" format="ascii">
                       3.16408                      -0.00000                      -0.27682
                       3.16408                      -0.00000                      -0.27682
                       3.16408                      -0.00000                      -0.27682
                       3.16408                      -0.00000                      -0.27682
                       3.16408                      -0.00000                      -0.27682
                       3.16408                      -0.00000                      -0.27682
                       3.16408                      -0.00000                      -0.27682
                       3.16408                      -0.00000                      -0.27682
                       3.16408                      -0.00000                      -0.27682
                       3.16408                      -0.00000                      -0.27682
                       3.16408                      -0.00000                      -0.27682
                       3.16408                      -0.00000                      -0.27682
                       3.16408                      -0.00000                      -0.27682
                       3.16408                      -0.00000                      -0.27682
                       3.16408                      -0.00000                      -0.27682
                       3.16408                      -0.00000                      -0.27682
                       3.16408                      -0.00000                      -0.27682
                       3.16408                      -0.00000                      -0.27682
                       3.16408                      -0.00000                      -0.27682
        </DataArray>
        <DataArray type="Float32" Name="TranslationalAcceleration" NumberOfComponents="3" format="ascii">
                       1.01603                      -9.62511                      11.61331
                       1.93982                     -18.42144                      22.17225
                       3.73367                     -36.74369                      42.67604
                       5.50211                     -55.41175                      62.88936
                       7.69752                     -78.95387                      87.98309
                      10.41365                    -106.10595                     119.02861
                      13.20328                    -132.25330                     150.91420
                      15.99429                    -158.37994                     182.81553
                      18.78775                    -184.47250                     214.74496
                      21.58258                    -210.54560                     246.68998
                      24.37668                    -236.62736                     278.62672
                      27.17092                    -262.70635                     310.56500
                      29.96526                    -288.78244                     342.50454
                      32.75967                    -314.85583                     374.44477
                      35.55411                    -340.92815                     406.38537
                      37.88285                    -362.65461                     433.00298
                      39.75021                    -379.97370                     454.34703
                      41.64834                    -396.86440                     476.04270
                      42.57401                    -405.63351                     486.62320
        </DataArray>
        <DataArray type="Float32" Name="OrientationX" NumberOfComponents="3" format="ascii">
                       0.97845                       0.20448                       0.02874
                       0.97845                       0.20448                       0.02874
                       0.97845                       0.20448                       0.02874
                       0.97845                       0.20448                       0.02874
                       0.97845                       0.20448                       0.02874
                       0.98351                       0.18065                       0.00814
                       0.98654                       0.16335                      -0.00671
                       0.98876                       0.14818                      -0.01969
                       0.99068                       0.13208                      -0.03339
                       0.99218                       0.11546                      -0.04746
                       0.99316                       0.09969                      -0.06075
                       0.99372                       0.08401                      -0.07390
                       0.99387                       0.06977                      -0.08579
                       0.99375                       0.05895                      -0.09479
                       0.99344                       0.04830                      -0.10363
                       0.99304                       0.03939                      -0.11100
                       0.99265                       0.03276                      -0.11647
                       0.99242                       0.02921                      -0.11939
                       0.99242                       0.02921                      -0.11939
        </DataArray>
        <DataArray type="Float32" Name="OrientationY" NumberOfComponents="3" format="ascii">
                       0.17439                      -0.74375                      -0.64531
                       0.17439                      -0.74375                      -0.64531
                       0.17439                      -0.74375                      -0.64531
                       0.17439                      -0.74375                      -0.64531
                       0.17439                      -0.74375                      -0.64531
                       0.14309                      -0.74990                      -0.64589
                       0.12043                      -0.75385                      -0.64591
                       0.10059                      -0.75698                      -0.64565
                       0.07958                      -0.75996                      -0.64508
                       0.05793                      -0.76266                      -0.64420
                       0.03744                      -0.76488                      -0.64308
                       0.01710                      -0.76676                      -0.64170
                      -0.00134                      -0.76819                      -0.64022
                      -0.01532                      -0.76909                      -0.63895
                      -0.02907                      -0.76984                      -0.63758
                      -0.04057                      -0.77034                      -0.63634
                      -0.04911                      -0.77065                      -0.63536
                      -0.05368                      -0.77080                      -0.63482
                      -0.05368                      -0.77080                      -0.63482
        </DataArray>
        <DataArray type="Float32" Name="OrientationZ" NumberOfComponents="3" format="ascii">
                      -0.11057                       0.63641                      -0.76338
                      -0.11057                       0.63641                      -0.76338
                      -0.11057                       0.63641                      -0.76338
                      -0.11057                       0.63641                      -0.76338
                      -0.11057                       0.63641                      -0.76338
                      -0.11057                       0.63641                      -0.76338
                      -0.11057                       0.63641                      -0.76338
                      -0.11057                       0.63641                      -0.76338
                      -0.11057                       0.63641                      -0.76338
                      -0.11057                       0.63641                      -0.76338
                      -0.11057                       0.63641                      -0.76338
                      -0.11057                       0.63641                      -0.76338
                      -0.11057                       0.63641                      -0.76338
                      -0.11057                       0.63641                      -0.76338
                      -0.11057                       0.63641                      -0.76338
                      -0.11057                       0.63641                      -0.76338
                      -0.11057                       0.63641                      -0.76338
                      -0.11057                       0.63641                      -0.76338
                      -0.11057                       0.63641                      -0.76338
        </DataArray>
        <DataArray type="Float32" Name="Force" NumberOfComponents="3" format="ascii">
                      -0.96146                     -13.34915                     -10.98957
                     148.86113                     -83.19831                     -90.92223
                     246.47783                    -291.84095                    -279.00148
                     254.85985                    -476.16347                    -433.88035
                    1173.56863                     188.34356                     -12.97033
                     980.28637                     111.74085                     -48.83571
                     775.20213                      23.20967                     -92.93605
                    1588.42799                     116.74556                    -132.75061
                    2524.26031                     178.95289                    -216.44208
                    3429.23460                     200.22876                    -329.78733
                    5879.62007                     273.58875                    -623.55887
                    7671.03593                     275.97071                    -881.05346
                    9389.59413                     309.10787                   -1102.35507
                   11561.87435                     319.36137                   -1408.45424
                   14147.00602                     333.51787                   -1771.09967
                   15782.66855                     308.67748                   -2028.72847
                   14476.82452                     103.47923                   -2010.64982
                   15693.46015                     387.70297                   -1949.92550
                   14717.85542                     258.22282                   -1916.55670
        </DataArray>
        <DataArray type="Float32" Name="Moment" NumberOfComponents="3" format="ascii">
                       0.00000                       0.00000                       0.00000
                       0.00000                       0.00000                       0.00000
                       0.00000                       0.00000                       0.00000
                       0.00000                       0.00000                       0.00000
                     152.18058                    -875.88499                    1050.63332
                     311.64726                   -1793.70556                    2151.56883
                     432.30206                   -2488.14190                    2984.55259
                     731.05078                   -4207.60908                    5047.07169
                    1078.38385                   -6206.70655                    7445.01030
                    1238.26725                   -7126.92558                    8548.82277
                    1398.60098                   -8049.73651                    9655.74427
                    1503.08745                   -8651.11503                   10377.10417
                    1169.69240                   -6732.23867                    8075.39163
                    1184.71816                   -6818.72041                    8179.12740
                    1167.05209                   -6717.04218                    8057.16329
                    1152.19185                   -6631.51317                    7954.57033
                     995.29728                   -5728.49651                    6871.39228
                     537.52215                   -3093.74278                    3710.97726
                     546.88285                   -3147.61886                    3775.60218
        </DataArray>
      </PointData>
      <Lines>
        <DataArray type="Int32" Name="connectivity" format="ascii">
      0      1
      1      2
      2      3
      3      4
      4      5
      5      6
      6      7
      7      8
      8      9
      9     10
     10     11
     11     12
     12     13
     13     14
     14     15
     15     16
     16     17
     17     18
        </DataArray>
        <DataArray type="Int32" Name="offsets" format="ascii">
      2
      4
      6
      8
     10
     12
     14
     16
     18
     20
     22
     24
     26
     28
     30
     32
     34
     36
        </DataArray>
      </Lines>
    </Piece>
  </PolyData>
</VTKFile>
