<?xml version="1.0"?>
<VTKFile type="PolyData" version="0.1" byte_order="LittleEndian">
  <PolyData>
    <Piece NumberOfPoints="    625" NumberOfVerts="  0" NumberOfLines="      0"
           NumberOfStrips="  0" NumberOfPolys="    600">
      <Points>
        <DataArray type="Float32" NumberOfComponents="3" format="ascii">
                      -4.89507                       0.89472                      91.19937
                      -4.89507                       0.89472                      91.19937
                      -4.89507                       0.89472                      91.19937
                      -4.89507                       0.89472                      91.19937
                      -4.89507                       0.89472                      91.19937
                      -4.89507                       0.89472                      91.19937
                      -4.89507                       0.89472                      91.19937
                      -4.89507                       0.89472                      91.19937
                      -4.89507                       0.89472                      91.19937
                      -4.89507                       0.89472                      91.19937
                      -4.89507                       0.89472                      91.19937
                      -4.89507                       0.89472                      91.19937
                      -4.89507                       0.89472                      91.19937
                      -4.89507                       0.89472                      91.19937
                      -4.89507                       0.89472                      91.19937
                      -4.89507                       0.89472                      91.19937
                      -4.89507                       0.89472                      91.19937
                      -4.89507                       0.89472                      91.19937
                      -4.89507                       0.89472                      91.19937
                      -4.89507                       0.89472                      91.19937
                      -4.89507                       0.89472                      91.19937
                      -4.89507                       0.89472                      91.19937
                      -4.89507                       0.89472                      91.19937
                      -4.89507                       0.89472                      91.19937
                      -4.89507                       0.89472                      91.19937
                      -4.30662                       0.82016                      91.04717
                      -4.31763                       0.70050                      91.13740
                      -4.36547                       0.58836                      91.22524
                      -4.44714                       0.49078                      91.30518
                      -4.55751                       0.41390                      91.37219
                      -4.68963                       0.36255                      91.42205
                      -4.83521                       0.33995                      91.45165
                      -4.98511                       0.34752                      91.45912
                      -5.12989                       0.38479                      91.44398
                      -5.26047                       0.44942                      91.40719
                      -5.36864                       0.53734                      91.35107
                      -5.44760                       0.64303                      91.27913
                      -5.49240                       0.75985                      91.19590
                      -5.50021                       0.88046                      91.10661
                      -5.47055                       0.99728                      91.01687
                      -5.40528                       1.10298                      90.93231
                      -5.30850                       1.19090                      90.85826
                      -5.18629                       1.25552                      90.79935
                      -5.04633                       1.29279                      90.75930
                      -4.89742                       1.30037                      90.74063
                      -4.74891                       1.27777                      90.74449
                      -4.61013                       1.22641                      90.77066
                      -4.48981                       1.14953                      90.81749
                      -4.39550                       1.05196                      90.88203
                      -4.33313                       0.93982                      90.96023
                      -4.08656                       0.74560                      90.92721
                      -4.10179                       0.58009                      91.05200
                      -4.16796                       0.42499                      91.17350
                      -4.28092                       0.29003                      91.28406
                      -4.43357                       0.18369                      91.37674
                      -4.61632                       0.11266                      91.44572
                      -4.81767                       0.08140                      91.48665
                      -5.02499                       0.09188                      91.49698
                      -5.22525                       0.14343                      91.47604
                      -5.40586                       0.23282                      91.42516
                      -5.55547                       0.35442                      91.34753
                      -5.66469                       0.50061                      91.24804
                      -5.72664                       0.66219                      91.13292
                      -5.73745                       0.82901                      91.00942
                      -5.69642                       0.99059                      90.88529
                      -5.60614                       1.13677                      90.76834
                      -5.47228                       1.25838                      90.66591
                      -5.30326                       1.34776                      90.58444
                      -5.10968                       1.39931                      90.52905
                      -4.90371                       1.40979                      90.50322
                      -4.69831                       1.37853                      90.50856
                      -4.50636                       1.30750                      90.54476
                      -4.33994                       1.20117                      90.60952
                      -4.20949                       1.06621                      90.69879
                      -4.12323                       0.91110                      90.80695
                      -3.93292                       0.67104                      90.81305
                      -3.95115                       0.47300                      90.96238
                      -4.03033                       0.28740                      91.10777
                      -4.16550                       0.12591                      91.24006
                      -4.34815                      -0.00133                      91.35096
                      -4.56682                      -0.08632                      91.43350
                      -4.80776                      -0.12373                      91.48248
                      -5.05584                      -0.11119                      91.49483
                      -5.29547                      -0.04951                      91.46978
                      -5.51158                       0.05745                      91.40890
                      -5.69060                       0.20296                      91.31601
                      -5.82129                       0.37789                      91.19695
                      -5.89543                       0.57123                      91.05921
                      -5.90835                       0.77084                      90.91143
                      -5.85926                       0.96419                      90.76290
                      -5.75124                       1.13911                      90.62296
                      -5.59106                       1.28462                      90.50039
                      -5.38880                       1.39158                      90.40291
                      -5.15717                       1.45327                      90.33662
                      -4.91072                       1.46580                      90.30571
                      -4.66493                       1.42840                      90.31211
                      -4.43525                       1.34340                      90.35542
                      -4.23611                       1.21617                      90.43292
                      -4.08003                       1.05467                      90.53973
                      -3.97680                       0.86908                      90.66916
                      -3.81627                       0.59648                      90.70214
                      -3.83680                       0.37331                      90.87041
                      -3.92603                       0.16417                      91.03424
                      -4.07835                      -0.01781                      91.18332
                      -4.28418                      -0.16120                      91.30829
                      -4.53059                      -0.25697                      91.40130
                      -4.80210                      -0.29912                      91.45649
                      -5.08166                      -0.28500                      91.47041
                      -5.35168                      -0.21548                      91.44218
                      -5.59521                      -0.09496                      91.37358
                      -5.79695                       0.06902                      91.26890
                      -5.94422                       0.26613                      91.13474
                      -6.02776                       0.48401                      90.97952
                      -6.04233                       0.70895                      90.81299
                      -5.98701                       0.92682                      90.64562
                      -5.86528                       1.12394                      90.48792
                      -5.68478                       1.28791                      90.34981
                      -5.45686                       1.40844                      90.23995
                      -5.19584                       1.47795                      90.16526
                      -4.91812                       1.49207                      90.13043
                      -4.64115                       1.44992                      90.13764
                      -4.38233                       1.35415                      90.18644
                      -4.15792                       1.21077                      90.27377
                      -3.98204                       1.02879                      90.39414
                      -3.86571                       0.81964                      90.53998
                      -3.72508                       0.52192                      90.59345
                      -3.74746                       0.27873                      90.77682
                      -3.84469                       0.05082                      90.95535
                      -4.01067                      -0.14749                      91.11781
                      -4.23497                      -0.30374                      91.25399
                      -4.50350                      -0.40810                      91.35534
                      -4.79937                      -0.45404                      91.41549
                      -5.10400                      -0.43864                      91.43066
                      -5.39826                      -0.36290                      91.39990
                      -5.66364                      -0.23155                      91.32513
                      -5.88348                      -0.05287                      91.21107
                      -6.04396                       0.16193                      91.06487
                      -6.13500                       0.39936                      90.89572
                      -6.15087                       0.64448                      90.71425
                      -6.09059                       0.88190                      90.53186
                      -5.95793                       1.09670                      90.36001
                      -5.76124                       1.27539                      90.20950
                      -5.51287                       1.40673                      90.08979
                      -5.22843                       1.48248                      90.00840
                      -4.92579                       1.49787                      89.97044
                      -4.62397                       1.45194                      89.97830
                      -4.34193                       1.34757                      90.03148
                      -4.09739                       1.19133                      90.12665
                      -3.90572                       0.99302                      90.25781
                      -3.77896                       0.76511                      90.41674
                      -3.65344                       0.44736                      90.48647
                      -3.67730                       0.18806                      90.68199
                      -3.78098                      -0.05494                      90.87234
                      -3.95795                      -0.26638                      91.04555
                      -4.19711                      -0.43298                      91.19075
                      -4.48341                      -0.54426                      91.29882
                      -4.79888                      -0.59323                      91.36295
                      -5.12369                      -0.57682                      91.37913
                      -5.43743                      -0.49606                      91.34633
                      -5.72039                      -0.35602                      91.26661
                      -5.95479                      -0.16549                      91.14499
                      -6.12589                       0.06353                      90.98911
                      -6.22296                       0.31668                      90.80876
                      -6.23989                       0.57804                      90.61527
                      -6.17561                       0.83118                      90.42080
                      -6.03417                       1.06021                      90.23757
                      -5.82446                       1.25073                      90.07710
                      -5.55964                       1.39077                      89.94946
                      -5.25636                       1.47154                      89.86267
                      -4.93368                       1.48795                      89.82220
                      -4.61187                       1.43897                      89.83058
                      -4.31114                       1.32769                      89.88728
                      -4.05041                       1.16110                      89.98875
                      -3.84605                       0.94966                      90.12861
                      -3.71089                       0.70665                      90.29806
                      -3.59788                       0.37280                      90.38089
                      -3.62293                       0.10062                      90.58613
                      -3.73175                      -0.15446                      90.78594
                      -3.91752                      -0.37641                      90.96776
                      -4.16856                      -0.55128                      91.12018
                      -4.46909                      -0.66809                      91.23361
                      -4.80024                      -0.71950                      91.30093
                      -5.14119                      -0.70227                      91.31791
                      -5.47052                      -0.61750                      91.28348
                      -5.76754                      -0.47050                      91.19980
                      -6.01358                      -0.27051                      91.07214
                      -6.19319                      -0.03010                      90.90851
                      -6.29508                       0.23563                      90.71920
                      -6.31285                       0.50997                      90.51609
                      -6.24538                       0.77569                      90.31196
                      -6.09692                       1.01610                      90.11963
                      -5.87678                       1.21609                      89.95118
                      -5.59880                       1.36309                      89.81720
                      -5.28045                       1.44787                      89.72610
                      -4.94173                       1.46510                      89.68362
                      -4.60393                       1.41369                      89.69241
                      -4.28827                       1.29688                      89.75194
                      -4.01457                       1.12201                      89.85845
                      -3.80006                       0.90006                      90.00525
                      -3.65819                       0.64498                      90.18313
                      -3.55619                       0.29824                      90.27653
                      -3.58217                       0.01595                      90.48939
                      -3.69504                      -0.24860                      90.69662
                      -3.88770                      -0.47878                      90.88519
                      -4.14806                      -0.66015                      91.04327
                      -4.45975                      -0.78130                      91.16091
                      -4.80319                      -0.83461                      91.23073
                      -5.15680                      -0.81675                      91.24834
                      -5.49835                      -0.72882                      91.21263
                      -5.80640                      -0.57636                      91.12585
                      -6.06158                      -0.36895                      90.99345
                      -6.24786                      -0.11962                      90.82374
                      -6.35353                       0.15597                      90.62740
                      -6.37196                       0.44050                      90.41675
                      -6.30199                       0.71609                      90.20504
                      -6.14801                       0.96543                      90.00557
                      -5.91970                       1.17284                      89.83087
                      -5.63140                       1.32530                      89.69191
                      -5.30123                       1.41322                      89.59744
                      -4.94994                       1.43109                      89.55337
                      -4.59959                       1.37777                      89.56250
                      -4.27221                       1.25663                      89.62423
                      -3.98836                       1.07526                      89.73469
                      -3.76587                       0.84507                      89.88695
                      -3.61874                       0.58052                      90.07142
                      -3.52693                       0.22368                      90.17326
                      -3.55360                      -0.06622                      90.39186
                      -3.66952                      -0.33791                      90.60468
                      -3.86738                      -0.57431                      90.79834
                      -4.13476                      -0.76057                      90.96068
                      -4.45486                      -0.88498                      91.08150
                      -4.80757                      -0.93974                      91.15320
                      -5.17071                      -0.92139                      91.17129
                      -5.52149                      -0.83109                      91.13461
                      -5.83784                      -0.67452                      91.04549
                      -6.09991                      -0.46151                      90.90952
                      -6.29121                      -0.20545                      90.73523
                      -6.39974                       0.07758                      90.53359
                      -6.41866                       0.36978                      90.31726
                      -6.34680                       0.65281                      90.09984
                      -6.18867                       0.90887                      89.89499
                      -5.95420                       1.12188                      89.71557
                      -5.65812                       1.27845                      89.57287
                      -5.31905                       1.36875                      89.47584
                      -4.95827                       1.38709                      89.43059
                      -4.59848                       1.33234                      89.43996
                      -4.26226                       1.20792                      89.50336
                      -3.97075                       1.02167                      89.61680
                      -3.74226                       0.78527                      89.77316
                      -3.59116                       0.51358                      89.96262
                      -3.50912                       0.14912                      90.07099
                      -3.53629                      -0.14610                      90.29360
                      -3.65433                      -0.42277                      90.51032
                      -3.85582                      -0.66351                      90.70754
                      -4.12811                      -0.85319                      90.87286
                      -4.45408                      -0.97989                      90.99589
                      -4.81326                      -1.03564                      91.06891
                      -5.18307                      -1.01696                      91.08733
                      -5.54028                      -0.92501                      91.04999
                      -5.86244                      -0.76556                      90.95923
                      -6.12932                      -0.54864                      90.82076
                      -6.32413                      -0.28788                      90.64327
                      -6.43465                       0.00034                      90.43793
                      -6.45392                       0.29790                      90.21764
                      -6.38074                       0.58612                      89.99623
                      -6.21971                       0.84688                      89.78761
                      -5.98093                       1.06380                      89.60490
                      -5.67942                       1.22324                      89.45958
                      -5.33413                       1.31520                      89.36077
                      -4.96673                       1.33388                      89.31469
                      -4.60033                       1.27812                      89.32423
                      -4.25795                       1.15143                      89.38879
                      -3.96109                       0.96175                      89.50432
                      -3.72841                       0.72101                      89.66355
                      -3.57453                       0.44434                      89.85648
                      -3.50216                       0.07456                      89.96967
                      -3.52962                      -0.22381                      90.19465
                      -3.64892                      -0.50343                      90.41369
                      -3.85256                      -0.74673                      90.61300
                      -4.12775                      -0.93843                      90.78008
                      -4.45720                      -1.06648                      90.90443
                      -4.82020                      -1.12283                      90.97823
                      -5.19395                      -1.10395                      90.99684
                      -5.55497                      -1.01101                      90.95910
                      -5.88057                      -0.84987                      90.86737
                      -6.15028                      -0.63064                      90.72743
                      -6.34718                      -0.36710                      90.54805
                      -6.45887                      -0.07581                      90.34052
                      -6.47835                       0.22493                      90.11788
                      -6.40439                       0.51622                      89.89411
                      -6.24164                       0.77976                      89.68327
                      -6.00032                       0.99899                      89.49861
                      -5.69560                       1.16013                      89.35174
                      -5.34662                       1.25307                      89.25188
                      -4.97531                       1.27195                      89.20531
                      -4.60501                       1.21560                      89.21495
                      -4.25897                       1.08755                      89.28020
                      -3.95895                       0.89585                      89.39696
                      -3.72379                       0.65255                      89.55789
                      -3.56827                       0.37293                      89.75288
                      -3.50571                       0.00000                      89.86927
                      -3.53326                      -0.29941                      90.09504
                      -3.65298                      -0.58000                      90.31483
                      -3.85733                      -0.82416                      90.51485
                      -4.13348                      -1.01652                      90.68251
                      -4.46408                      -1.14502                      90.80729
                      -4.82835                      -1.20157                      90.88135
                      -5.20340                      -1.18262                      90.90002
                      -5.56568                      -1.08936                      90.86215
                      -5.89241                      -0.92766                      90.77010
                      -6.16307                      -0.70766                      90.62967
                      -6.36065                      -0.44320                      90.44967
                      -6.47274                      -0.15089                      90.24142
                      -6.49228                       0.15089                      90.01800
                      -6.41806                       0.44320                      89.79344
                      -6.25474                       0.70766                      89.58187
                      -6.01258                       0.92766                      89.39657
                      -5.70680                       1.08936                      89.24918
                      -5.35660                       1.18262                      89.14898
                      -4.98400                       1.20157                      89.10224
                      -4.61240                       1.14502                      89.11192
                      -4.26516                       1.01652                      89.17739
                      -3.96409                       0.82416                      89.29456
                      -3.72811                       0.58000                      89.45605
                      -3.57205                       0.29941                      89.65172
                      -3.51965                      -0.07456                      89.76978
                      -3.54711                      -0.37293                      89.99476
                      -3.66641                      -0.65255                      90.21379
                      -3.87005                      -0.89585                      90.41311
                      -4.14524                      -1.08755                      90.58019
                      -4.47468                      -1.21560                      90.70454
                      -4.83769                      -1.27195                      90.77833
                      -5.21144                      -1.25307                      90.79695
                      -5.57246                      -1.16013                      90.75920
                      -5.89805                      -0.99899                      90.66748
                      -6.16777                      -0.77976                      90.52753
                      -6.36466                      -0.51622                      90.34816
                      -6.47636                      -0.22493                      90.14063
                      -6.49584                       0.07581                      89.91799
                      -6.42188                       0.36710                      89.69421
                      -6.25912                       0.63064                      89.48338
                      -6.01780                       0.84987                      89.29872
                      -5.71308                       1.01101                      89.15185
                      -5.36411                       1.10395                      89.05199
                      -4.99280                       1.12283                      89.00542
                      -4.62249                       1.06648                      89.01506
                      -4.27646                       0.93843                      89.08031
                      -3.97644                       0.74673                      89.19706
                      -3.74128                       0.50343                      89.35799
                      -3.58576                       0.22381                      89.55298
                      -3.54410                      -0.14912                      89.67120
                      -3.57127                      -0.44434                      89.89381
                      -3.68930                      -0.72101                      90.11054
                      -3.89080                      -0.96175                      90.30775
                      -4.16309                      -1.15143                      90.47307
                      -4.48906                      -1.27812                      90.59611
                      -4.84824                      -1.33388                      90.66913
                      -5.21805                      -1.31520                      90.68754
                      -5.57526                      -1.22324                      90.65020
                      -5.89742                      -1.06380                      90.55944
                      -6.16429                      -0.84688                      90.42097
                      -6.35911                      -0.58612                      90.24349
                      -6.46963                      -0.29790                      90.03815
                      -6.48890                      -0.00034                      89.81785
                      -6.41572                       0.28788                      89.59644
                      -6.25468                       0.54864                      89.38782
                      -6.01591                       0.76556                      89.20511
                      -5.71440                       0.92501                      89.05979
                      -5.36910                       1.01696                      88.96099
                      -5.00171                       1.03564                      88.91490
                      -4.63531                       0.97989                      88.92444
                      -4.29293                       0.85319                      88.98901
                      -3.99607                       0.66351                      89.10453
                      -3.76339                       0.42277                      89.26376
                      -3.60951                       0.14610                      89.45669
                      -3.57939                      -0.22368                      89.57358
                      -3.60607                      -0.51358                      89.79218
                      -3.72198                      -0.78527                      90.00500
                      -3.91985                      -1.02167                      90.19866
                      -4.18723                      -1.20792                      90.36100
                      -4.50733                      -1.33234                      90.48182
                      -4.86003                      -1.38709                      90.55352
                      -5.22318                      -1.36875                      90.57160
                      -5.57395                      -1.27845                      90.53493
                      -5.89031                      -1.12188                      90.44581
                      -6.15237                      -0.90887                      90.30983
                      -6.34368                      -0.65281                      90.13555
                      -6.45220                      -0.36978                      89.93391
                      -6.47113                      -0.07758                      89.71758
                      -6.39927                       0.20545                      89.50016
                      -6.24113                       0.46151                      89.29531
                      -6.00666                       0.67452                      89.11589
                      -5.71059                       0.83109                      88.97319
                      -5.37151                       0.92139                      88.87616
                      -5.01074                       0.93974                      88.83091
                      -4.65094                       0.88498                      88.84028
                      -4.31473                       0.76057                      88.90367
                      -4.02322                       0.57431                      89.01712
                      -3.79473                       0.33791                      89.17348
                      -3.64362                       0.06622                      89.36294
                      -3.62615                      -0.29824                      89.47696
                      -3.65212                      -0.58052                      89.68981
                      -3.76499                      -0.84507                      89.89704
                      -3.95766                      -1.07526                      90.08562
                      -4.21801                      -1.25663                      90.24369
                      -4.52970                      -1.37777                      90.36133
                      -4.87314                      -1.43109                      90.43115
                      -5.22675                      -1.41322                      90.44876
                      -5.56831                      -1.32530                      90.41305
                      -5.87635                      -1.17284                      90.32627
                      -6.13153                      -0.96543                      90.19387
                      -6.31781                      -0.71609                      90.02417
                      -6.42349                      -0.44050                      89.82782
                      -6.44192                      -0.15597                      89.61718
                      -6.37194                       0.11962                      89.40547
                      -6.21796                       0.36895                      89.20599
                      -5.98965                       0.57636                      89.03129
                      -5.70135                       0.72882                      88.89234
                      -5.37118                       0.81675                      88.79786
                      -5.01989                       0.83461                      88.75380
                      -4.66955                       0.78130                      88.76292
                      -4.34216                       0.66015                      88.82465
                      -4.05831                       0.47878                      88.93512
                      -3.83583                       0.24860                      89.08737
                      -3.68869                      -0.01595                      89.27185
                      -3.68532                      -0.37280                      89.38142
                      -3.71037                      -0.64498                      89.58666
                      -3.81920                      -0.90006                      89.78647
                      -4.00496                      -1.12201                      89.96829
                      -4.25600                      -1.29688                      90.12071
                      -4.55653                      -1.41369                      90.23414
                      -4.88768                      -1.46510                      90.30146
                      -5.22863                      -1.44787                      90.31844
                      -5.55796                      -1.36309                      90.28401
                      -5.85498                      -1.21609                      90.20034
                      -6.10102                      -1.01610                      90.07267
                      -6.28063                      -0.77570                      89.90904
                      -6.38253                      -0.50997                      89.71973
                      -6.40030                      -0.23563                      89.51662
                      -6.33283                       0.03010                      89.31249
                      -6.18436                       0.27051                      89.12016
                      -5.96422                       0.47050                      88.95171
                      -5.68624                       0.61750                      88.81773
                      -5.36789                       0.70227                      88.72663
                      -5.02918                       0.71950                      88.68415
                      -4.69137                       0.66809                      88.69295
                      -4.37571                       0.55128                      88.75247
                      -4.10202                       0.37641                      88.85898
                      -3.88750                       0.15446                      89.00578
                      -3.74563                      -0.10062                      89.18366
                      -3.75837                      -0.44736                      89.28710
                      -3.78223                      -0.70665                      89.48262
                      -3.88591                      -0.94966                      89.67297
                      -4.06288                      -1.16110                      89.84619
                      -4.30204                      -1.32769                      89.99139
                      -4.58834                      -1.43897                      90.09945
                      -4.90381                      -1.48795                      90.16359
                      -5.22862                      -1.47154                      90.17976
                      -5.54236                      -1.39077                      90.14696
                      -5.82532                      -1.25073                      90.06725
                      -6.05972                      -1.06021                      89.94563
                      -6.23082                      -0.83118                      89.78974
                      -6.32789                      -0.57804                      89.60939
                      -6.34482                      -0.31668                      89.41590
                      -6.28055                      -0.06353                      89.22143
                      -6.13911                       0.16549                      89.03821
                      -5.92939                       0.35602                      88.87773
                      -5.66457                       0.49606                      88.75009
                      -5.36129                       0.57682                      88.66331
                      -5.03861                       0.59323                      88.62284
                      -4.71680                       0.54426                      88.63122
                      -4.41608                       0.43298                      88.68792
                      -4.15534                       0.26638                      88.78939
                      -3.95098                       0.05494                      88.92924
                      -3.81582                      -0.18806                      89.09870
                      -3.84750                      -0.52192                      89.19419
                      -3.86988                      -0.76511                      89.37756
                      -3.96711                      -0.99302                      89.55609
                      -4.13309                      -1.19133                      89.71855
                      -4.35739                      -1.34757                      89.85473
                      -4.62591                      -1.45194                      89.95608
                      -4.92179                      -1.49787                      90.01623
                      -5.22642                      -1.48248                      90.03140
                      -5.52067                      -1.40673                      90.00064
                      -5.78606                      -1.27539                      89.92588
                      -6.00590                      -1.09670                      89.81181
                      -6.16638                      -0.88190                      89.66561
                      -6.25741                      -0.64448                      89.49646
                      -6.27329                      -0.39936                      89.31499
                      -6.21301                      -0.16193                      89.13260
                      -6.08035                       0.05287                      88.96075
                      -5.88366                       0.23155                      88.81025
                      -5.63529                       0.36290                      88.69053
                      -5.35085                       0.43864                      88.60914
                      -5.04821                       0.45404                      88.57118
                      -4.74639                       0.40810                      88.57904
                      -4.46435                       0.30374                      88.63222
                      -4.21981                       0.14749                      88.72739
                      -4.02814                      -0.05082                      88.85856
                      -3.90138                      -0.27873                      89.01748
                      -3.95618                      -0.59648                      89.10298
                      -3.97671                      -0.81964                      89.27126
                      -4.06594                      -1.02879                      89.43509
                      -4.21826                      -1.21077                      89.58417
                      -4.42409                      -1.35415                      89.70914
                      -4.67050                      -1.44992                      89.80215
                      -4.94201                      -1.49207                      89.85734
                      -5.22156                      -1.47795                      89.87126
                      -5.49159                      -1.40844                      89.84303
                      -5.73512                      -1.28791                      89.77443
                      -5.93686                      -1.12394                      89.66975
                      -6.08412                      -0.92682                      89.53559
                      -6.16767                      -0.70895                      89.38037
                      -6.18224                      -0.48401                      89.21384
                      -6.12692                      -0.26613                      89.04647
                      -6.00518                      -0.06902                      88.88877
                      -5.82469                       0.09496                      88.75065
                      -5.59677                       0.21548                      88.64080
                      -5.33575                       0.28500                      88.56611
                      -5.05803                       0.29912                      88.53128
                      -4.78106                       0.25697                      88.53849
                      -4.52224                       0.16120                      88.58729
                      -4.29783                       0.01781                      88.67462
                      -4.12194                      -0.16417                      88.79499
                      -4.00562                      -0.37331                      88.94083
                      -4.09032                      -0.67104                      89.01401
                      -4.10854                      -0.86908                      89.16334
                      -4.18773                      -1.05467                      89.30872
                      -4.32289                      -1.21617                      89.44102
                      -4.50555                      -1.34340                      89.55192
                      -4.72422                      -1.42840                      89.63445
                      -4.96516                      -1.46580                      89.68343
                      -5.21324                      -1.45327                      89.69579
                      -5.45286                      -1.39158                      89.67074
                      -5.66897                      -1.28462                      89.60985
                      -5.84800                      -1.13911                      89.51697
                      -5.97869                      -0.96419                      89.39791
                      -6.05282                      -0.77084                      89.26016
                      -6.06575                      -0.57123                      89.11238
                      -6.01666                      -0.37789                      88.96385
                      -5.90863                      -0.20296                      88.82391
                      -5.74846                      -0.05745                      88.70135
                      -5.54620                       0.04951                      88.60386
                      -5.31457                       0.11119                      88.53758
                      -5.06811                       0.12373                      88.50667
                      -4.82233                       0.08632                      88.51307
                      -4.59265                       0.00133                      88.55638
                      -4.39351                      -0.12591                      88.63387
                      -4.23742                      -0.28740                      88.74069
                      -4.13420                      -0.47300                      88.87011
                      -4.26144                      -0.74560                      88.92827
                      -4.27667                      -0.91110                      89.05307
                      -4.34285                      -1.06621                      89.17456
                      -4.45581                      -1.20117                      89.28512
                      -4.60846                      -1.30750                      89.37780
                      -4.79120                      -1.37853                      89.44678
                      -4.99256                      -1.40979                      89.48771
                      -5.19988                      -1.39931                      89.49804
                      -5.40013                      -1.34776                      89.47710
                      -5.58074                      -1.25838                      89.42622
                      -5.73036                      -1.13677                      89.34859
                      -5.83957                      -0.99059                      89.24910
                      -5.90153                      -0.82901                      89.13398
                      -5.91233                      -0.66219                      89.01048
                      -5.87131                      -0.50061                      88.88635
                      -5.78103                      -0.35442                      88.76940
                      -5.64717                      -0.23282                      88.66697
                      -5.47814                      -0.14343                      88.58550
                      -5.28456                      -0.09188                      88.53011
                      -5.07860                      -0.08140                      88.50428
                      -4.87319                      -0.11266                      88.50963
                      -4.68124                      -0.18369                      88.54582
                      -4.51482                      -0.29003                      88.61058
                      -4.38438                      -0.42499                      88.69985
                      -4.29811                      -0.58009                      88.80801
                      -4.49899                      -0.82016                      88.84834
                      -4.51000                      -0.93982                      88.93857
                      -4.55785                      -1.05196                      89.02641
                      -4.63952                      -1.14953                      89.10635
                      -4.74988                      -1.22641                      89.17335
                      -4.88200                      -1.27777                      89.22322
                      -5.02759                      -1.30037                      89.25282
                      -5.17748                      -1.29279                      89.26028
                      -5.32226                      -1.25552                      89.24515
                      -5.45284                      -1.19090                      89.20836
                      -5.56101                      -1.10298                      89.15223
                      -5.63998                      -0.99728                      89.08030
                      -5.68477                      -0.88046                      88.99707
                      -5.69258                      -0.75985                      88.90778
                      -5.66292                      -0.64303                      88.81803
                      -5.59765                      -0.53734                      88.73348
                      -5.50087                      -0.44942                      88.65942
                      -5.37866                      -0.38479                      88.60052
                      -5.23870                      -0.34752                      88.56047
                      -5.08979                      -0.33995                      88.54179
                      -4.94128                      -0.36255                      88.54566
                      -4.80251                      -0.41390                      88.57183
                      -4.68218                      -0.49078                      88.61865
                      -4.58787                      -0.58836                      88.68319
                      -4.52550                      -0.70050                      88.76139
                      -5.10493                      -0.89472                      88.80064
                      -5.10493                      -0.89472                      88.80064
                      -5.10493                      -0.89472                      88.80064
                      -5.10493                      -0.89472                      88.80064
                      -5.10493                      -0.89472                      88.80064
                      -5.10493                      -0.89472                      88.80064
                      -5.10493                      -0.89472                      88.80064
                      -5.10493                      -0.89472                      88.80064
                      -5.10493                      -0.89472                      88.80064
                      -5.10493                      -0.89472                      88.80064
                      -5.10493                      -0.89472                      88.80064
                      -5.10493                      -0.89472                      88.80064
                      -5.10493                      -0.89472                      88.80064
                      -5.10493                      -0.89472                      88.80064
                      -5.10493                      -0.89472                      88.80064
                      -5.10493                      -0.89472                      88.80064
                      -5.10493                      -0.89472                      88.80064
                      -5.10493                      -0.89472                      88.80064
                      -5.10493                      -0.89472                      88.80064
                      -5.10493                      -0.89472                      88.80064
                      -5.10493                      -0.89472                      88.80064
                      -5.10493                      -0.89472                      88.80064
                      -5.10493                      -0.89472                      88.80064
                      -5.10493                      -0.89472                      88.80064
                      -5.10493                      -0.89472                      88.80064
        </DataArray>
      </Points>
      <Polys>
        <DataArray type="Int32" Name="connectivity" format="ascii">
      0      1     26     25
      1      2     27     26
      2      3     28     27
      3      4     29     28
      4      5     30     29
      5      6     31     30
      6      7     32     31
      7      8     33     32
      8      9     34     33
      9     10     35     34
     10     11     36     35
     11     12     37     36
     12     13     38     37
     13     14     39     38
     14     15     40     39
     15     16     41     40
     16     17     42     41
     17     18     43     42
     18     19     44     43
     19     20     45     44
     20     21     46     45
     21     22     47     46
     22     23     48     47
     23     24     49     48
     24      0     25     49
     25     26     51     50
     26     27     52     51
     27     28     53     52
     28     29     54     53
     29     30     55     54
     30     31     56     55
     31     32     57     56
     32     33     58     57
     33     34     59     58
     34     35     60     59
     35     36     61     60
     36     37     62     61
     37     38     63     62
     38     39     64     63
     39     40     65     64
     40     41     66     65
     41     42     67     66
     42     43     68     67
     43     44     69     68
     44     45     70     69
     45     46     71     70
     46     47     72     71
     47     48     73     72
     48     49     74     73
     49     25     50     74
     50     51     76     75
     51     52     77     76
     52     53     78     77
     53     54     79     78
     54     55     80     79
     55     56     81     80
     56     57     82     81
     57     58     83     82
     58     59     84     83
     59     60     85     84
     60     61     86     85
     61     62     87     86
     62     63     88     87
     63     64     89     88
     64     65     90     89
     65     66     91     90
     66     67     92     91
     67     68     93     92
     68     69     94     93
     69     70     95     94
     70     71     96     95
     71     72     97     96
     72     73     98     97
     73     74     99     98
     74     50     75     99
     75     76    101    100
     76     77    102    101
     77     78    103    102
     78     79    104    103
     79     80    105    104
     80     81    106    105
     81     82    107    106
     82     83    108    107
     83     84    109    108
     84     85    110    109
     85     86    111    110
     86     87    112    111
     87     88    113    112
     88     89    114    113
     89     90    115    114
     90     91    116    115
     91     92    117    116
     92     93    118    117
     93     94    119    118
     94     95    120    119
     95     96    121    120
     96     97    122    121
     97     98    123    122
     98     99    124    123
     99     75    100    124
    100    101    126    125
    101    102    127    126
    102    103    128    127
    103    104    129    128
    104    105    130    129
    105    106    131    130
    106    107    132    131
    107    108    133    132
    108    109    134    133
    109    110    135    134
    110    111    136    135
    111    112    137    136
    112    113    138    137
    113    114    139    138
    114    115    140    139
    115    116    141    140
    116    117    142    141
    117    118    143    142
    118    119    144    143
    119    120    145    144
    120    121    146    145
    121    122    147    146
    122    123    148    147
    123    124    149    148
    124    100    125    149
    125    126    151    150
    126    127    152    151
    127    128    153    152
    128    129    154    153
    129    130    155    154
    130    131    156    155
    131    132    157    156
    132    133    158    157
    133    134    159    158
    134    135    160    159
    135    136    161    160
    136    137    162    161
    137    138    163    162
    138    139    164    163
    139    140    165    164
    140    141    166    165
    141    142    167    166
    142    143    168    167
    143    144    169    168
    144    145    170    169
    145    146    171    170
    146    147    172    171
    147    148    173    172
    148    149    174    173
    149    125    150    174
    150    151    176    175
    151    152    177    176
    152    153    178    177
    153    154    179    178
    154    155    180    179
    155    156    181    180
    156    157    182    181
    157    158    183    182
    158    159    184    183
    159    160    185    184
    160    161    186    185
    161    162    187    186
    162    163    188    187
    163    164    189    188
    164    165    190    189
    165    166    191    190
    166    167    192    191
    167    168    193    192
    168    169    194    193
    169    170    195    194
    170    171    196    195
    171    172    197    196
    172    173    198    197
    173    174    199    198
    174    150    175    199
    175    176    201    200
    176    177    202    201
    177    178    203    202
    178    179    204    203
    179    180    205    204
    180    181    206    205
    181    182    207    206
    182    183    208    207
    183    184    209    208
    184    185    210    209
    185    186    211    210
    186    187    212    211
    187    188    213    212
    188    189    214    213
    189    190    215    214
    190    191    216    215
    191    192    217    216
    192    193    218    217
    193    194    219    218
    194    195    220    219
    195    196    221    220
    196    197    222    221
    197    198    223    222
    198    199    224    223
    199    175    200    224
    200    201    226    225
    201    202    227    226
    202    203    228    227
    203    204    229    228
    204    205    230    229
    205    206    231    230
    206    207    232    231
    207    208    233    232
    208    209    234    233
    209    210    235    234
    210    211    236    235
    211    212    237    236
    212    213    238    237
    213    214    239    238
    214    215    240    239
    215    216    241    240
    216    217    242    241
    217    218    243    242
    218    219    244    243
    219    220    245    244
    220    221    246    245
    221    222    247    246
    222    223    248    247
    223    224    249    248
    224    200    225    249
    225    226    251    250
    226    227    252    251
    227    228    253    252
    228    229    254    253
    229    230    255    254
    230    231    256    255
    231    232    257    256
    232    233    258    257
    233    234    259    258
    234    235    260    259
    235    236    261    260
    236    237    262    261
    237    238    263    262
    238    239    264    263
    239    240    265    264
    240    241    266    265
    241    242    267    266
    242    243    268    267
    243    244    269    268
    244    245    270    269
    245    246    271    270
    246    247    272    271
    247    248    273    272
    248    249    274    273
    249    225    250    274
    250    251    276    275
    251    252    277    276
    252    253    278    277
    253    254    279    278
    254    255    280    279
    255    256    281    280
    256    257    282    281
    257    258    283    282
    258    259    284    283
    259    260    285    284
    260    261    286    285
    261    262    287    286
    262    263    288    287
    263    264    289    288
    264    265    290    289
    265    266    291    290
    266    267    292    291
    267    268    293    292
    268    269    294    293
    269    270    295    294
    270    271    296    295
    271    272    297    296
    272    273    298    297
    273    274    299    298
    274    250    275    299
    275    276    301    300
    276    277    302    301
    277    278    303    302
    278    279    304    303
    279    280    305    304
    280    281    306    305
    281    282    307    306
    282    283    308    307
    283    284    309    308
    284    285    310    309
    285    286    311    310
    286    287    312    311
    287    288    313    312
    288    289    314    313
    289    290    315    314
    290    291    316    315
    291    292    317    316
    292    293    318    317
    293    294    319    318
    294    295    320    319
    295    296    321    320
    296    297    322    321
    297    298    323    322
    298    299    324    323
    299    275    300    324
    300    301    326    325
    301    302    327    326
    302    303    328    327
    303    304    329    328
    304    305    330    329
    305    306    331    330
    306    307    332    331
    307    308    333    332
    308    309    334    333
    309    310    335    334
    310    311    336    335
    311    312    337    336
    312    313    338    337
    313    314    339    338
    314    315    340    339
    315    316    341    340
    316    317    342    341
    317    318    343    342
    318    319    344    343
    319    320    345    344
    320    321    346    345
    321    322    347    346
    322    323    348    347
    323    324    349    348
    324    300    325    349
    325    326    351    350
    326    327    352    351
    327    328    353    352
    328    329    354    353
    329    330    355    354
    330    331    356    355
    331    332    357    356
    332    333    358    357
    333    334    359    358
    334    335    360    359
    335    336    361    360
    336    337    362    361
    337    338    363    362
    338    339    364    363
    339    340    365    364
    340    341    366    365
    341    342    367    366
    342    343    368    367
    343    344    369    368
    344    345    370    369
    345    346    371    370
    346    347    372    371
    347    348    373    372
    348    349    374    373
    349    325    350    374
    350    351    376    375
    351    352    377    376
    352    353    378    377
    353    354    379    378
    354    355    380    379
    355    356    381    380
    356    357    382    381
    357    358    383    382
    358    359    384    383
    359    360    385    384
    360    361    386    385
    361    362    387    386
    362    363    388    387
    363    364    389    388
    364    365    390    389
    365    366    391    390
    366    367    392    391
    367    368    393    392
    368    369    394    393
    369    370    395    394
    370    371    396    395
    371    372    397    396
    372    373    398    397
    373    374    399    398
    374    350    375    399
    375    376    401    400
    376    377    402    401
    377    378    403    402
    378    379    404    403
    379    380    405    404
    380    381    406    405
    381    382    407    406
    382    383    408    407
    383    384    409    408
    384    385    410    409
    385    386    411    410
    386    387    412    411
    387    388    413    412
    388    389    414    413
    389    390    415    414
    390    391    416    415
    391    392    417    416
    392    393    418    417
    393    394    419    418
    394    395    420    419
    395    396    421    420
    396    397    422    421
    397    398    423    422
    398    399    424    423
    399    375    400    424
    400    401    426    425
    401    402    427    426
    402    403    428    427
    403    404    429    428
    404    405    430    429
    405    406    431    430
    406    407    432    431
    407    408    433    432
    408    409    434    433
    409    410    435    434
    410    411    436    435
    411    412    437    436
    412    413    438    437
    413    414    439    438
    414    415    440    439
    415    416    441    440
    416    417    442    441
    417    418    443    442
    418    419    444    443
    419    420    445    444
    420    421    446    445
    421    422    447    446
    422    423    448    447
    423    424    449    448
    424    400    425    449
    425    426    451    450
    426    427    452    451
    427    428    453    452
    428    429    454    453
    429    430    455    454
    430    431    456    455
    431    432    457    456
    432    433    458    457
    433    434    459    458
    434    435    460    459
    435    436    461    460
    436    437    462    461
    437    438    463    462
    438    439    464    463
    439    440    465    464
    440    441    466    465
    441    442    467    466
    442    443    468    467
    443    444    469    468
    444    445    470    469
    445    446    471    470
    446    447    472    471
    447    448    473    472
    448    449    474    473
    449    425    450    474
    450    451    476    475
    451    452    477    476
    452    453    478    477
    453    454    479    478
    454    455    480    479
    455    456    481    480
    456    457    482    481
    457    458    483    482
    458    459    484    483
    459    460    485    484
    460    461    486    485
    461    462    487    486
    462    463    488    487
    463    464    489    488
    464    465    490    489
    465    466    491    490
    466    467    492    491
    467    468    493    492
    468    469    494    493
    469    470    495    494
    470    471    496    495
    471    472    497    496
    472    473    498    497
    473    474    499    498
    474    450    475    499
    475    476    501    500
    476    477    502    501
    477    478    503    502
    478    479    504    503
    479    480    505    504
    480    481    506    505
    481    482    507    506
    482    483    508    507
    483    484    509    508
    484    485    510    509
    485    486    511    510
    486    487    512    511
    487    488    513    512
    488    489    514    513
    489    490    515    514
    490    491    516    515
    491    492    517    516
    492    493    518    517
    493    494    519    518
    494    495    520    519
    495    496    521    520
    496    497    522    521
    497    498    523    522
    498    499    524    523
    499    475    500    524
    500    501    526    525
    501    502    527    526
    502    503    528    527
    503    504    529    528
    504    505    530    529
    505    506    531    530
    506    507    532    531
    507    508    533    532
    508    509    534    533
    509    510    535    534
    510    511    536    535
    511    512    537    536
    512    513    538    537
    513    514    539    538
    514    515    540    539
    515    516    541    540
    516    517    542    541
    517    518    543    542
    518    519    544    543
    519    520    545    544
    520    521    546    545
    521    522    547    546
    522    523    548    547
    523    524    549    548
    524    500    525    549
    525    526    551    550
    526    527    552    551
    527    528    553    552
    528    529    554    553
    529    530    555    554
    530    531    556    555
    531    532    557    556
    532    533    558    557
    533    534    559    558
    534    535    560    559
    535    536    561    560
    536    537    562    561
    537    538    563    562
    538    539    564    563
    539    540    565    564
    540    541    566    565
    541    542    567    566
    542    543    568    567
    543    544    569    568
    544    545    570    569
    545    546    571    570
    546    547    572    571
    547    548    573    572
    548    549    574    573
    549    525    550    574
    550    551    576    575
    551    552    577    576
    552    553    578    577
    553    554    579    578
    554    555    580    579
    555    556    581    580
    556    557    582    581
    557    558    583    582
    558    559    584    583
    559    560    585    584
    560    561    586    585
    561    562    587    586
    562    563    588    587
    563    564    589    588
    564    565    590    589
    565    566    591    590
    566    567    592    591
    567    568    593    592
    568    569    594    593
    569    570    595    594
    570    571    596    595
    571    572    597    596
    572    573    598    597
    573    574    599    598
    574    550    575    599
    575    576    601    600
    576    577    602    601
    577    578    603    602
    578    579    604    603
    579    580    605    604
    580    581    606    605
    581    582    607    606
    582    583    608    607
    583    584    609    608
    584    585    610    609
    585    586    611    610
    586    587    612    611
    587    588    613    612
    588    589    614    613
    589    590    615    614
    590    591    616    615
    591    592    617    616
    592    593    618    617
    593    594    619    618
    594    595    620    619
    595    596    621    620
    596    597    622    621
    597    598    623    622
    598    599    624    623
    599    575    600    624
        </DataArray>
        <DataArray type="Int32" Name="offsets" format="ascii">
      4
      8
     12
     16
     20
     24
     28
     32
     36
     40
     44
     48
     52
     56
     60
     64
     68
     72
     76
     80
     84
     88
     92
     96
    100
    104
    108
    112
    116
    120
    124
    128
    132
    136
    140
    144
    148
    152
    156
    160
    164
    168
    172
    176
    180
    184
    188
    192
    196
    200
    204
    208
    212
    216
    220
    224
    228
    232
    236
    240
    244
    248
    252
    256
    260
    264
    268
    272
    276
    280
    284
    288
    292
    296
    300
    304
    308
    312
    316
    320
    324
    328
    332
    336
    340
    344
    348
    352
    356
    360
    364
    368
    372
    376
    380
    384
    388
    392
    396
    400
    404
    408
    412
    416
    420
    424
    428
    432
    436
    440
    444
    448
    452
    456
    460
    464
    468
    472
    476
    480
    484
    488
    492
    496
    500
    504
    508
    512
    516
    520
    524
    528
    532
    536
    540
    544
    548
    552
    556
    560
    564
    568
    572
    576
    580
    584
    588
    592
    596
    600
    604
    608
    612
    616
    620
    624
    628
    632
    636
    640
    644
    648
    652
    656
    660
    664
    668
    672
    676
    680
    684
    688
    692
    696
    700
    704
    708
    712
    716
    720
    724
    728
    732
    736
    740
    744
    748
    752
    756
    760
    764
    768
    772
    776
    780
    784
    788
    792
    796
    800
    804
    808
    812
    816
    820
    824
    828
    832
    836
    840
    844
    848
    852
    856
    860
    864
    868
    872
    876
    880
    884
    888
    892
    896
    900
    904
    908
    912
    916
    920
    924
    928
    932
    936
    940
    944
    948
    952
    956
    960
    964
    968
    972
    976
    980
    984
    988
    992
    996
   1000
   1004
   1008
   1012
   1016
   1020
   1024
   1028
   1032
   1036
   1040
   1044
   1048
   1052
   1056
   1060
   1064
   1068
   1072
   1076
   1080
   1084
   1088
   1092
   1096
   1100
   1104
   1108
   1112
   1116
   1120
   1124
   1128
   1132
   1136
   1140
   1144
   1148
   1152
   1156
   1160
   1164
   1168
   1172
   1176
   1180
   1184
   1188
   1192
   1196
   1200
   1204
   1208
   1212
   1216
   1220
   1224
   1228
   1232
   1236
   1240
   1244
   1248
   1252
   1256
   1260
   1264
   1268
   1272
   1276
   1280
   1284
   1288
   1292
   1296
   1300
   1304
   1308
   1312
   1316
   1320
   1324
   1328
   1332
   1336
   1340
   1344
   1348
   1352
   1356
   1360
   1364
   1368
   1372
   1376
   1380
   1384
   1388
   1392
   1396
   1400
   1404
   1408
   1412
   1416
   1420
   1424
   1428
   1432
   1436
   1440
   1444
   1448
   1452
   1456
   1460
   1464
   1468
   1472
   1476
   1480
   1484
   1488
   1492
   1496
   1500
   1504
   1508
   1512
   1516
   1520
   1524
   1528
   1532
   1536
   1540
   1544
   1548
   1552
   1556
   1560
   1564
   1568
   1572
   1576
   1580
   1584
   1588
   1592
   1596
   1600
   1604
   1608
   1612
   1616
   1620
   1624
   1628
   1632
   1636
   1640
   1644
   1648
   1652
   1656
   1660
   1664
   1668
   1672
   1676
   1680
   1684
   1688
   1692
   1696
   1700
   1704
   1708
   1712
   1716
   1720
   1724
   1728
   1732
   1736
   1740
   1744
   1748
   1752
   1756
   1760
   1764
   1768
   1772
   1776
   1780
   1784
   1788
   1792
   1796
   1800
   1804
   1808
   1812
   1816
   1820
   1824
   1828
   1832
   1836
   1840
   1844
   1848
   1852
   1856
   1860
   1864
   1868
   1872
   1876
   1880
   1884
   1888
   1892
   1896
   1900
   1904
   1908
   1912
   1916
   1920
   1924
   1928
   1932
   1936
   1940
   1944
   1948
   1952
   1956
   1960
   1964
   1968
   1972
   1976
   1980
   1984
   1988
   1992
   1996
   2000
   2004
   2008
   2012
   2016
   2020
   2024
   2028
   2032
   2036
   2040
   2044
   2048
   2052
   2056
   2060
   2064
   2068
   2072
   2076
   2080
   2084
   2088
   2092
   2096
   2100
   2104
   2108
   2112
   2116
   2120
   2124
   2128
   2132
   2136
   2140
   2144
   2148
   2152
   2156
   2160
   2164
   2168
   2172
   2176
   2180
   2184
   2188
   2192
   2196
   2200
   2204
   2208
   2212
   2216
   2220
   2224
   2228
   2232
   2236
   2240
   2244
   2248
   2252
   2256
   2260
   2264
   2268
   2272
   2276
   2280
   2284
   2288
   2292
   2296
   2300
   2304
   2308
   2312
   2316
   2320
   2324
   2328
   2332
   2336
   2340
   2344
   2348
   2352
   2356
   2360
   2364
   2368
   2372
   2376
   2380
   2384
   2388
   2392
   2396
   2400
        </DataArray>
      </Polys>
    </Piece>
  </PolyData>
</VTKFile>
