<?xml version="1.0"?>
<VTKFile type="PolyData" version="0.1" byte_order="LittleEndian">
  <PolyData>
    <Piece NumberOfPoints="    625" NumberOfVerts="  0" NumberOfLines="      0"
           NumberOfStrips="  0" NumberOfPolys="    600">
      <Points>
        <DataArray type="Float32" NumberOfComponents="3" format="ascii">
                      -5.13024                      -0.12988                      88.51132
                      -5.13024                      -0.12988                      88.51132
                      -5.13024                      -0.12988                      88.51132
                      -5.13024                      -0.12988                      88.51132
                      -5.13024                      -0.12988                      88.51132
                      -5.13024                      -0.12988                      88.51132
                      -5.13024                      -0.12988                      88.51132
                      -5.13024                      -0.12988                      88.51132
                      -5.13024                      -0.12988                      88.51132
                      -5.13024                      -0.12988                      88.51132
                      -5.13024                      -0.12988                      88.51132
                      -5.13024                      -0.12988                      88.51132
                      -5.13024                      -0.12988                      88.51132
                      -5.13024                      -0.12988                      88.51132
                      -5.13024                      -0.12988                      88.51132
                      -5.13024                      -0.12988                      88.51132
                      -5.13024                      -0.12988                      88.51132
                      -5.13024                      -0.12988                      88.51132
                      -5.13024                      -0.12988                      88.51132
                      -5.13024                      -0.12988                      88.51132
                      -5.13024                      -0.12988                      88.51132
                      -5.13024                      -0.12988                      88.51132
                      -5.13024                      -0.12988                      88.51132
                      -5.13024                      -0.12988                      88.51132
                      -5.13024                      -0.12988                      88.51132
                      -4.52219                      -0.11906                      88.58313
                      -4.54208                       0.02947                      88.57191
                      -4.59824                       0.16866                      88.56468
                      -4.68715                       0.28977                      88.56190
                      -4.80322                       0.38520                      88.56372
                      -4.93915                       0.44894                      88.57006
                      -5.08641                       0.47699                      88.58049
                      -5.23574                       0.46759                      88.59438
                      -5.37776                       0.42133                      88.61084
                      -5.50354                       0.34111                      88.62884
                      -5.60519                       0.23198                      88.64726
                      -5.67632                       0.10080                      88.66492
                      -5.71245                      -0.04421                      88.68074
                      -5.71131                      -0.19391                      88.69370
                      -5.67298                      -0.33891                      88.70300
                      -5.59987                      -0.47010                      88.70804
                      -5.49657                      -0.57923                      88.70853
                      -5.36957                      -0.65945                      88.70442
                      -5.22685                      -0.70571                      88.69596
                      -5.07738                      -0.71511                      88.68371
                      -4.93054                      -0.68706                      88.66841
                      -4.79558                      -0.62331                      88.65104
                      -4.68095                      -0.52789                      88.63269
                      -4.59388                      -0.40678                      88.61451
                      -4.53983                      -0.26758                      88.59763
                      -4.28254                      -0.10824                      88.68717
                      -4.31004                       0.09719                      88.67165
                      -4.38772                       0.28971                      88.66165
                      -4.51069                       0.45723                      88.65780
                      -4.67123                       0.58922                      88.66033
                      -4.85924                       0.67738                      88.66908
                      -5.06292                       0.71618                      88.68352
                      -5.26946                       0.70318                      88.70272
                      -5.46589                       0.63919                      88.72549
                      -5.63987                       0.52824                      88.75039
                      -5.78046                       0.37730                      88.77586
                      -5.87884                       0.19585                      88.80030
                      -5.92881                      -0.00470                      88.82217
                      -5.92724                      -0.21177                      88.84010
                      -5.87423                      -0.41232                      88.85296
                      -5.77311                      -0.59377                      88.85994
                      -5.63023                      -0.74471                      88.86061
                      -5.45457                      -0.85566                      88.85492
                      -5.25717                      -0.91965                      88.84323
                      -5.05043                      -0.93265                      88.82628
                      -4.84734                      -0.89385                      88.80513
                      -4.66066                      -0.80569                      88.78110
                      -4.50212                      -0.67370                      88.75572
                      -4.38169                      -0.50618                      88.73057
                      -4.30693                      -0.31366                      88.70723
                      -4.10930                      -0.09741                      88.79702
                      -4.14222                       0.14840                      88.77845
                      -4.23516                       0.37877                      88.76649
                      -4.38231                       0.57922                      88.76187
                      -4.57440                       0.73715                      88.76490
                      -4.79938                       0.84264                      88.77538
                      -5.04309                       0.88907                      88.79265
                      -5.29024                       0.87351                      88.81563
                      -5.52529                       0.79695                      88.84287
                      -5.73347                       0.66419                      88.87267
                      -5.90170                       0.48357                      88.90315
                      -6.01941                       0.26645                      88.93239
                      -6.07921                       0.02647                      88.95856
                      -6.07733                      -0.22129                      88.98001
                      -6.01390                      -0.46128                      88.99540
                      -5.89290                      -0.67840                      89.00375
                      -5.72193                      -0.85901                      89.00456
                      -5.51174                      -0.99177                      88.99775
                      -5.27553                      -1.06833                      88.98376
                      -5.02815                      -1.08389                      88.96348
                      -4.78514                      -1.03746                      88.93817
                      -4.56176                      -0.93197                      88.90942
                      -4.37206                      -0.77404                      88.87904
                      -4.22795                      -0.57359                      88.84895
                      -4.13849                      -0.34322                      88.82102
                      -3.97305                      -0.08659                      88.91011
                      -4.01014                       0.19041                      88.88918
                      -4.11488                       0.45001                      88.87570
                      -4.28069                       0.67588                      88.87050
                      -4.49716                       0.85385                      88.87391
                      -4.75068                       0.97273                      88.88572
                      -5.02532                       1.02505                      88.90518
                      -5.30382                       1.00752                      88.93108
                      -5.56869                       0.92124                      88.96178
                      -5.80328                       0.77164                      88.99535
                      -5.99286                       0.56811                      89.02970
                      -6.12550                       0.32344                      89.06265
                      -6.19288                       0.05301                      89.09214
                      -6.19077                      -0.22619                      89.11631
                      -6.11929                      -0.49662                      89.13365
                      -5.98294                      -0.74128                      89.14307
                      -5.79028                      -0.94481                      89.14397
                      -5.55342                      -1.09442                      89.13630
                      -5.28724                      -1.18069                      89.12054
                      -5.00847                      -1.19823                      89.09768
                      -4.73463                      -1.14591                      89.06916
                      -4.48291                      -1.02703                      89.03676
                      -4.26914                      -0.84906                      89.00254
                      -4.10675                      -0.62318                      88.96862
                      -4.00594                      -0.36359                      88.93715
                      -3.86226                      -0.07576                      89.02542
                      -3.90268                       0.22609                      89.00262
                      -4.01682                       0.50898                      88.98793
                      -4.19751                       0.75512                      88.98226
                      -4.43340                       0.94906                      88.98598
                      -4.70966                       1.07860                      88.99884
                      -5.00894                       1.13561                      89.02005
                      -5.31243                       1.11651                      89.04827
                      -5.60107                       1.02249                      89.08173
                      -5.85671                       0.85946                      89.11832
                      -6.06329                       0.63767                      89.15574
                      -6.20784                       0.37106                      89.19165
                      -6.28127                       0.07636                      89.22378
                      -6.27897                      -0.22789                      89.25013
                      -6.20107                      -0.52258                      89.26902
                      -6.05249                      -0.78920                      89.27929
                      -5.84254                      -1.01099                      89.28027
                      -5.58443                      -1.17402                      89.27191
                      -5.29437                      -1.26804                      89.25474
                      -4.99059                      -1.28714                      89.22982
                      -4.69217                      -1.23013                      89.19874
                      -4.41787                      -1.10059                      89.16344
                      -4.18492                      -0.90665                      89.12614
                      -4.00796                      -0.66050                      89.08918
                      -3.89811                      -0.37762                      89.05489
                      -3.77103                      -0.06494                      89.14244
                      -3.81412                       0.25690                      89.11814
                      -3.93582                       0.55852                      89.10247
                      -4.12848                       0.82097                      89.09643
                      -4.37999                       1.02775                      89.10039
                      -4.67455                       1.16588                      89.11411
                      -4.99365                       1.22666                      89.13672
                      -5.31724                       1.20629                      89.16681
                      -5.62499                       1.10605                      89.20248
                      -5.89756                       0.93223                      89.24149
                      -6.11783                       0.69575                      89.28140
                      -6.27195                       0.41147                      89.31968
                      -6.35024                       0.09726                      89.35395
                      -6.34778                      -0.22714                      89.38203
                      -6.26473                      -0.54135                      89.40218
                      -6.10630                      -0.82563                      89.41312
                      -5.88246                      -1.06211                      89.41417
                      -5.60725                      -1.23593                      89.40526
                      -5.29798                      -1.33618                      89.38695
                      -4.97408                      -1.35655                      89.36039
                      -4.65590                      -1.29576                      89.32725
                      -4.36343                      -1.15764                      89.28961
                      -4.11506                      -0.95085                      89.24984
                      -3.92638                      -0.68841                      89.21043
                      -3.80925                      -0.38679                      89.17387
                      -3.69587                      -0.05412                      89.26088
                      -3.74110                       0.28372                      89.23536
                      -3.86885                       0.60033                      89.21891
                      -4.07108                       0.87582                      89.21257
                      -4.33509                       1.09287                      89.21673
                      -4.64429                       1.23786                      89.23113
                      -4.97924                       1.30167                      89.25487
                      -5.31892                       1.28029                      89.28645
                      -5.64196                       1.17506                      89.32389
                      -5.92807                       0.99260                      89.36485
                      -6.15929                       0.74437                      89.40673
                      -6.32107                       0.44597                      89.44692
                      -6.40325                       0.11614                      89.48289
                      -6.40067                      -0.22438                      89.51237
                      -6.31349                      -0.55420                      89.53352
                      -6.14719                      -0.85260                      89.54500
                      -5.91222                      -1.10083                      89.54610
                      -5.62334                      -1.28330                      89.53675
                      -5.29870                      -1.38852                      89.51753
                      -4.95870                      -1.40990                      89.48965
                      -4.62471                      -1.34610                      89.45486
                      -4.31771                      -1.20111                      89.41535
                      -4.05699                      -0.98405                      89.37360
                      -3.85894                      -0.70856                      89.33224
                      -3.73599                      -0.39195                      89.29386
                      -3.63458                      -0.04329                      89.38052
                      -3.68150                       0.30709                      89.35406
                      -3.81399                       0.63545                      89.33700
                      -4.02373                       0.92117                      89.33042
                      -4.29754                       1.14628                      89.33473
                      -4.61821                       1.29665                      89.34967
                      -4.96561                       1.36283                      89.37429
                      -5.31789                       1.34065                      89.40705
                      -5.65292                       1.23152                      89.44588
                      -5.94966                       1.04228                      89.48835
                      -6.18946                       0.78484                      89.53179
                      -6.35724                       0.47536                      89.57347
                      -6.44248                       0.13329                      89.61077
                      -6.43980                      -0.21988                      89.64135
                      -6.34939                      -0.56195                      89.66328
                      -6.17691                      -0.87143                      89.67520
                      -5.93321                      -1.12887                      89.67634
                      -5.63361                      -1.31811                      89.66664
                      -5.29692                      -1.42724                      89.64670
                      -4.94430                      -1.44942                      89.61778
                      -4.59791                      -1.38324                      89.58171
                      -4.27951                      -1.23287                      89.54073
                      -4.00911                      -1.00775                      89.49743
                      -3.80370                      -0.72204                      89.45453
                      -3.67619                      -0.39367                      89.41473
                      -3.58572                      -0.03247                      89.50125
                      -3.63390                       0.32736                      89.47407
                      -3.76996                       0.66459                      89.45655
                      -3.98536                       0.95801                      89.44980
                      -4.26656                       1.18920                      89.45423
                      -4.59589                       1.34363                      89.46957
                      -4.95265                       1.41159                      89.49485
                      -5.31444                       1.38881                      89.52849
                      -5.65851                       1.27674                      89.56837
                      -5.96326                       1.08240                      89.61199
                      -6.20952                       0.81800                      89.65660
                      -6.38184                       0.50017                      89.69941
                      -6.46937                       0.14888                      89.73772
                      -6.46662                      -0.21382                      89.76912
                      -6.37377                      -0.56512                      89.79165
                      -6.19664                      -0.88295                      89.80388
                      -5.94637                      -1.14734                      89.80505
                      -5.63868                      -1.34168                      89.79509
                      -5.29291                      -1.45376                      89.77461
                      -4.93077                      -1.47653                      89.74492
                      -4.57504                      -1.40857                      89.70786
                      -4.24805                      -1.25414                      89.66578
                      -3.97036                      -1.02295                      89.62132
                      -3.75940                      -0.72953                      89.57726
                      -3.62845                      -0.39230                      89.53638
                      -3.54832                      -0.02165                      89.62298
                      -3.59738                       0.34479                      89.59531
                      -3.73594                       0.68820                      89.57747
                      -3.95529                       0.98701                      89.57059
                      -4.24165                       1.22244                      89.57510
                      -4.57702                       1.37970                      89.59072
                      -4.94033                       1.44891                      89.61647
                      -5.30876                       1.42572                      89.65073
                      -5.65915                       1.31158                      89.69134
                      -5.96948                       1.11368                      89.73576
                      -6.22027                       0.84443                      89.78119
                      -6.39574                       0.52077                      89.82478
                      -6.48488                       0.16303                      89.86379
                      -6.48208                      -0.20632                      89.89577
                      -6.38752                      -0.56407                      89.91871
                      -6.20715                      -0.88773                      89.93117
                      -5.95228                      -1.15697                      89.93236
                      -5.63895                      -1.35488                      89.92221
                      -5.28683                      -1.46901                      89.90136
                      -4.91805                      -1.49220                      89.87112
                      -4.55579                      -1.42300                      89.83339
                      -4.22280                      -1.26573                      89.79054
                      -3.94001                      -1.03030                      89.74526
                      -3.72519                      -0.73149                      89.70039
                      -3.59183                      -0.38808                      89.65876
                      -3.52176                      -0.01082                      89.74567
                      -3.57135                       0.35952                      89.71770
                      -3.71139                       0.70659                      89.69967
                      -3.93307                       1.00858                      89.69271
                      -4.22248                       1.24652                      89.69727
                      -4.56143                       1.40546                      89.71306
                      -4.92861                       1.47541                      89.73908
                      -5.30096                       1.45197                      89.77370
                      -5.65509                       1.33662                      89.81475
                      -5.96873                       1.13660                      89.85964
                      -6.22219                       0.86449                      89.90556
                      -6.39953                       0.53738                      89.94961
                      -6.48962                       0.17582                      89.98904
                      -6.48679                      -0.19747                      90.02136
                      -6.39123                      -0.55902                      90.04454
                      -6.20893                      -0.88614                      90.05713
                      -5.95135                      -1.15825                      90.05834
                      -5.63467                      -1.35826                      90.04808
                      -5.27880                      -1.47361                      90.02701
                      -4.90609                      -1.49705                      89.99645
                      -4.53997                      -1.42711                      89.95832
                      -4.20343                      -1.26817                      89.91501
                      -3.91763                      -1.03023                      89.86924
                      -3.70052                      -0.72824                      89.82390
                      -3.56574                      -0.38116                      89.78183
                      -3.50571                       0.00000                      89.86927
                      -3.55547                       0.37163                      89.84120
                      -3.69600                       0.71992                      89.82311
                      -3.91846                       1.02296                      89.81613
                      -4.20888                       1.26174                      89.82071
                      -4.54901                       1.42123                      89.83655
                      -4.91747                       1.49142                      89.86266
                      -5.29112                       1.46790                      89.89740
                      -5.64648                       1.35214                      89.93859
                      -5.96122                       1.15143                      89.98364
                      -6.21556                       0.87837                      90.02972
                      -6.39353                       0.55011                      90.07393
                      -6.48393                       0.18729                      90.11349
                      -6.48109                      -0.18729                      90.14592
                      -6.38519                      -0.55011                      90.16919
                      -6.20225                      -0.87837                      90.18182
                      -5.94378                      -1.15143                      90.18303
                      -5.62600                      -1.35214                      90.17274
                      -5.26888                      -1.46790                      90.15160
                      -4.89488                      -1.49142                      90.12093
                      -4.52747                      -1.42123                      90.08266
                      -4.18976                      -1.26174                      90.03920
                      -3.90296                      -1.02296                      89.99327
                      -3.68509                      -0.71992                      89.94777
                      -3.54984                      -0.37163                      89.90555
                      -3.50005                       0.01082                      89.99378
                      -3.54964                       0.38116                      89.96581
                      -3.68968                       0.72824                      89.94778
                      -3.91137                       1.03023                      89.94083
                      -4.20078                       1.26817                      89.94539
                      -4.53972                       1.42711                      89.96117
                      -4.90690                       1.49705                      89.98720
                      -5.27926                       1.47361                      90.02182
                      -5.63338                       1.35826                      90.06286
                      -5.94702                       1.15825                      90.10775
                      -6.20048                       0.88613                      90.15367
                      -6.37782                       0.55902                      90.19773
                      -6.46791                       0.19747                      90.23715
                      -6.46509                      -0.17582                      90.26947
                      -6.36952                      -0.53738                      90.29266
                      -6.18722                      -0.86449                      90.30525
                      -5.92964                      -1.13660                      90.30645
                      -5.61297                      -1.33662                      90.29620
                      -5.25710                      -1.45197                      90.27513
                      -4.88439                      -1.47541                      90.24456
                      -4.51826                      -1.40546                      90.20643
                      -4.18173                      -1.24652                      90.16312
                      -3.89592                      -1.00858                      90.11735
                      -3.67881                      -0.70659                      90.07201
                      -3.54403                      -0.35952                      90.02994
                      -3.50490                       0.02165                      90.11921
                      -3.55397                       0.38808                      90.09153
                      -3.69253                       0.73149                      90.07370
                      -3.91188                       1.03030                      90.06682
                      -4.19824                       1.26573                      90.07133
                      -4.53361                       1.42300                      90.08695
                      -4.89692                       1.49220                      90.11270
                      -5.26534                       1.46901                      90.14695
                      -5.61573                       1.35488                      90.18757
                      -5.92607                       1.15697                      90.23198
                      -6.17685                       0.88773                      90.27741
                      -6.35233                       0.56407                      90.32100
                      -6.44147                       0.20632                      90.36002
                      -6.43867                      -0.16303                      90.39200
                      -6.34411                      -0.52077                      90.41493
                      -6.16373                      -0.84443                      90.42739
                      -5.90887                      -1.11368                      90.42858
                      -5.59553                      -1.31158                      90.41844
                      -5.24342                      -1.42572                      90.39759
                      -4.87464                      -1.44891                      90.36735
                      -4.51238                      -1.37970                      90.32962
                      -4.17939                      -1.22244                      90.28676
                      -3.89660                      -0.98701                      90.24148
                      -3.68177                      -0.68820                      90.19662
                      -3.54842                      -0.34479                      90.15499
                      -3.52060                       0.03247                      90.24559
                      -3.56878                       0.39230                      90.21841
                      -3.70484                       0.72953                      90.20089
                      -3.92024                       1.02295                      90.19414
                      -4.20144                       1.25414                      90.19857
                      -4.53077                       1.40857                      90.21391
                      -4.88753                       1.47653                      90.23919
                      -5.24932                       1.45376                      90.27283
                      -5.59339                       1.34168                      90.31271
                      -5.89814                       1.14734                      90.35633
                      -6.14440                       0.88295                      90.40094
                      -6.31671                       0.56512                      90.44375
                      -6.40425                       0.21382                      90.48206
                      -6.40150                      -0.14888                      90.51346
                      -6.30865                      -0.50017                      90.53598
                      -6.13152                      -0.81800                      90.54822
                      -5.88125                      -1.08240                      90.54939
                      -5.57356                      -1.27674                      90.53943
                      -5.22779                      -1.38881                      90.51895
                      -4.86565                      -1.41159                      90.48926
                      -4.50992                      -1.34363                      90.45220
                      -4.18293                      -1.18920                      90.41012
                      -3.90523                      -0.95801                      90.36566
                      -3.69428                      -0.66459                      90.32160
                      -3.56333                      -0.32736                      90.28072
                      -3.54775                       0.04329                      90.37297
                      -3.59467                       0.39367                      90.34651
                      -3.72716                       0.72204                      90.32945
                      -3.93690                       1.00775                      90.32287
                      -4.21071                       1.23287                      90.32719
                      -4.53138                       1.38324                      90.34212
                      -4.87878                       1.44942                      90.36674
                      -5.23106                       1.42724                      90.39950
                      -5.56610                       1.31811                      90.43833
                      -5.86283                       1.12887                      90.48080
                      -6.10263                       0.87143                      90.52424
                      -6.27041                       0.56195                      90.56592
                      -6.35565                       0.21988                      90.60323
                      -6.35297                      -0.13329                      90.63380
                      -6.26256                      -0.47536                      90.65574
                      -6.09008                      -0.78484                      90.66765
                      -5.84639                      -1.04228                      90.66879
                      -5.54678                      -1.23152                      90.65909
                      -5.21009                      -1.34065                      90.63915
                      -4.85747                      -1.36283                      90.61024
                      -4.51108                      -1.29665                      90.57416
                      -4.19269                      -1.14628                      90.53318
                      -3.92229                      -0.92117                      90.48989
                      -3.71688                      -0.63545                      90.44699
                      -3.58936                      -0.30709                      90.40718
                      -3.58733                       0.05412                      90.50144
                      -3.63257                       0.39195                      90.47592
                      -3.76032                       0.70856                      90.45948
                      -3.96255                       0.98405                      90.45314
                      -4.22655                       1.20111                      90.45730
                      -4.53575                       1.34610                      90.47170
                      -4.87071                       1.40990                      90.49544
                      -5.21038                       1.38852                      90.52702
                      -5.53342                       1.28330                      90.56446
                      -5.81954                       1.10083                      90.60541
                      -6.05075                       0.85260                      90.64730
                      -6.21253                       0.55420                      90.68749
                      -6.29471                       0.22438                      90.72345
                      -6.29213                      -0.11614                      90.75294
                      -6.20495                      -0.44597                      90.77408
                      -6.03865                      -0.74437                      90.78557
                      -5.80368                      -0.99260                      90.78667
                      -5.51480                      -1.17506                      90.77732
                      -5.19016                      -1.28029                      90.75809
                      -4.85017                      -1.30167                      90.73021
                      -4.51618                      -1.23786                      90.69543
                      -4.20918                      -1.09287                      90.65592
                      -3.94846                      -0.87582                      90.61417
                      -3.75040                      -0.60033                      90.57281
                      -3.62745                      -0.28372                      90.53443
                      -3.64078                       0.06494                      90.63112
                      -3.68388                       0.38679                      90.60682
                      -3.80558                       0.68841                      90.59115
                      -3.99824                       0.95085                      90.58510
                      -4.24975                       1.15764                      90.58907
                      -4.54431                       1.29576                      90.60279
                      -4.86341                       1.35655                      90.62540
                      -5.18700                       1.33618                      90.65549
                      -5.49475                       1.23593                      90.69116
                      -5.76732                       1.06211                      90.73017
                      -5.98759                       0.82563                      90.77008
                      -6.14171                       0.54135                      90.80836
                      -6.22000                       0.22714                      90.84263
                      -6.21754                      -0.09726                      90.87071
                      -6.13449                      -0.41147                      90.89086
                      -5.97606                      -0.69575                      90.90180
                      -5.75221                      -0.93223                      90.90285
                      -5.47701                      -1.10605                      90.89394
                      -5.16774                      -1.20629                      90.87563
                      -4.84384                      -1.22666                      90.84907
                      -4.52566                      -1.16588                      90.81593
                      -4.23319                      -1.02775                      90.77829
                      -3.98481                      -0.82097                      90.73852
                      -3.79613                      -0.55852                      90.69911
                      -3.67900                      -0.25690                      90.66255
                      -3.71031                       0.07576                      90.76221
                      -3.75073                       0.37762                      90.73941
                      -3.86487                       0.66050                      90.72472
                      -4.04556                       0.90665                      90.71905
                      -4.28145                       1.10059                      90.72277
                      -4.55771                       1.23013                      90.73564
                      -4.85699                       1.28714                      90.75685
                      -5.16048                       1.26804                      90.78507
                      -5.44912                       1.17402                      90.81852
                      -5.70476                       1.01099                      90.85511
                      -5.91134                       0.78920                      90.89253
                      -6.05589                       0.52258                      90.92844
                      -6.12932                       0.22789                      90.96058
                      -6.12702                      -0.07636                      90.98692
                      -6.04912                      -0.37106                      91.00582
                      -5.90054                      -0.63767                      91.01608
                      -5.69059                      -0.85946                      91.01706
                      -5.43248                      -1.02249                      91.00870
                      -5.14242                      -1.11651                      90.99153
                      -4.83864                      -1.13561                      90.96662
                      -4.54022                      -1.07860                      90.93554
                      -4.26592                      -0.94906                      90.90024
                      -4.03297                      -0.75512                      90.86293
                      -3.85601                      -0.50898                      90.82598
                      -3.74616                      -0.22609                      90.79169
                      -3.79939                       0.08659                      90.89501
                      -3.83648                       0.36359                      90.87409
                      -3.94122                       0.62318                      90.86061
                      -4.10704                       0.84906                      90.85541
                      -4.32350                       1.02703                      90.85882
                      -4.57702                       1.14591                      90.87063
                      -4.85166                       1.19823                      90.89009
                      -5.13016                       1.18069                      90.91598
                      -5.39503                       1.09442                      90.94668
                      -5.62962                       0.94481                      90.98026
                      -5.81920                       0.74128                      91.01460
                      -5.95184                       0.49662                      91.04755
                      -6.01923                       0.22619                      91.07704
                      -6.01711                      -0.05301                      91.10122
                      -5.94563                      -0.32344                      91.11856
                      -5.80928                      -0.56811                      91.12798
                      -5.61662                      -0.77164                      91.12888
                      -5.37976                      -0.92124                      91.12121
                      -5.11359                      -1.00752                      91.10545
                      -4.83482                      -1.02505                      91.08259
                      -4.56097                      -0.97273                      91.05406
                      -4.30926                      -0.85385                      91.02167
                      -4.09549                      -0.67588                      90.98744
                      -3.93310                      -0.45001                      90.95353
                      -3.83229                      -0.19041                      90.92206
                      -3.91394                       0.09741                      91.03004
                      -3.94685                       0.34322                      91.01147
                      -4.03980                       0.57359                      90.99951
                      -4.18695                       0.77404                      90.99489
                      -4.37904                       0.93197                      90.99792
                      -4.60401                       1.03746                      91.00840
                      -4.84773                       1.08389                      91.02567
                      -5.09488                       1.06833                      91.04865
                      -5.32993                       0.99177                      91.07589
                      -5.53811                       0.85901                      91.10569
                      -5.70634                       0.67840                      91.13617
                      -5.82405                       0.46128                      91.16541
                      -5.88384                       0.22129                      91.19158
                      -5.88197                      -0.02647                      91.21303
                      -5.81854                      -0.26645                      91.22842
                      -5.69754                      -0.48357                      91.23677
                      -5.52657                      -0.66419                      91.23757
                      -5.31638                      -0.79695                      91.23077
                      -5.08017                      -0.87351                      91.21678
                      -4.83279                      -0.88907                      91.19650
                      -4.58977                      -0.84264                      91.17119
                      -4.36640                      -0.73715                      91.14244
                      -4.17669                      -0.57922                      91.11206
                      -4.03259                      -0.37877                      91.08197
                      -3.94313                      -0.14840                      91.05404
                      -4.06546                       0.10824                      91.16830
                      -4.09297                       0.31366                      91.15279
                      -4.17065                       0.50618                      91.14279
                      -4.29362                       0.67370                      91.13893
                      -4.45416                       0.80569                      91.14146
                      -4.64217                       0.89385                      91.15022
                      -4.84585                       0.93265                      91.16465
                      -5.05239                       0.91965                      91.18386
                      -5.24882                       0.85566                      91.20662
                      -5.42280                       0.74471                      91.23153
                      -5.56339                       0.59377                      91.25699
                      -5.66177                       0.41232                      91.28143
                      -5.71174                       0.21177                      91.30330
                      -5.71017                       0.00470                      91.32123
                      -5.65716                      -0.19585                      91.33409
                      -5.55604                      -0.37730                      91.34107
                      -5.41316                      -0.52824                      91.34174
                      -5.23750                      -0.63919                      91.33605
                      -5.04010                      -0.70318                      91.32437
                      -4.83336                      -0.71618                      91.30741
                      -4.63027                      -0.67738                      91.28626
                      -4.44359                      -0.58922                      91.26224
                      -4.28505                      -0.45723                      91.23685
                      -4.16462                      -0.28971                      91.21170
                      -4.08986                      -0.09719                      91.18836
                      -4.28341                       0.11906                      91.31238
                      -4.30330                       0.26758                      91.30116
                      -4.35946                       0.40678                      91.29393
                      -4.44837                       0.52789                      91.29114
                      -4.56444                       0.62331                      91.29297
                      -4.70037                       0.68706                      91.29930
                      -4.84763                       0.71511                      91.30974
                      -4.99696                       0.70571                      91.32362
                      -5.13898                       0.65945                      91.34008
                      -5.26477                       0.57923                      91.35809
                      -5.36641                       0.47010                      91.37650
                      -5.43754                       0.33891                      91.39417
                      -5.47367                       0.19391                      91.40998
                      -5.47253                       0.04421                      91.42294
                      -5.43421                      -0.10080                      91.43224
                      -5.36110                      -0.23198                      91.43729
                      -5.25779                      -0.34111                      91.43777
                      -5.13079                      -0.42133                      91.43366
                      -4.98807                      -0.46759                      91.42521
                      -4.83860                      -0.47699                      91.41295
                      -4.69176                      -0.44894                      91.39766
                      -4.55680                      -0.38520                      91.38029
                      -4.44218                      -0.28977                      91.36194
                      -4.35510                      -0.16866                      91.34375
                      -4.30105                      -0.02947                      91.32688
                      -4.86976                       0.12988                      91.48868
                      -4.86976                       0.12988                      91.48868
                      -4.86976                       0.12988                      91.48868
                      -4.86976                       0.12988                      91.48868
                      -4.86976                       0.12988                      91.48868
                      -4.86976                       0.12988                      91.48868
                      -4.86976                       0.12988                      91.48868
                      -4.86976                       0.12988                      91.48868
                      -4.86976                       0.12988                      91.48868
                      -4.86976                       0.12988                      91.48868
                      -4.86976                       0.12988                      91.48868
                      -4.86976                       0.12988                      91.48868
                      -4.86976                       0.12988                      91.48868
                      -4.86976                       0.12988                      91.48868
                      -4.86976                       0.12988                      91.48868
                      -4.86976                       0.12988                      91.48868
                      -4.86976                       0.12988                      91.48868
                      -4.86976                       0.12988                      91.48868
                      -4.86976                       0.12988                      91.48868
                      -4.86976                       0.12988                      91.48868
                      -4.86976                       0.12988                      91.48868
                      -4.86976                       0.12988                      91.48868
                      -4.86976                       0.12988                      91.48868
                      -4.86976                       0.12988                      91.48868
                      -4.86976                       0.12988                      91.48868
        </DataArray>
      </Points>
      <Polys>
        <DataArray type="Int32" Name="connectivity" format="ascii">
      0      1     26     25
      1      2     27     26
      2      3     28     27
      3      4     29     28
      4      5     30     29
      5      6     31     30
      6      7     32     31
      7      8     33     32
      8      9     34     33
      9     10     35     34
     10     11     36     35
     11     12     37     36
     12     13     38     37
     13     14     39     38
     14     15     40     39
     15     16     41     40
     16     17     42     41
     17     18     43     42
     18     19     44     43
     19     20     45     44
     20     21     46     45
     21     22     47     46
     22     23     48     47
     23     24     49     48
     24      0     25     49
     25     26     51     50
     26     27     52     51
     27     28     53     52
     28     29     54     53
     29     30     55     54
     30     31     56     55
     31     32     57     56
     32     33     58     57
     33     34     59     58
     34     35     60     59
     35     36     61     60
     36     37     62     61
     37     38     63     62
     38     39     64     63
     39     40     65     64
     40     41     66     65
     41     42     67     66
     42     43     68     67
     43     44     69     68
     44     45     70     69
     45     46     71     70
     46     47     72     71
     47     48     73     72
     48     49     74     73
     49     25     50     74
     50     51     76     75
     51     52     77     76
     52     53     78     77
     53     54     79     78
     54     55     80     79
     55     56     81     80
     56     57     82     81
     57     58     83     82
     58     59     84     83
     59     60     85     84
     60     61     86     85
     61     62     87     86
     62     63     88     87
     63     64     89     88
     64     65     90     89
     65     66     91     90
     66     67     92     91
     67     68     93     92
     68     69     94     93
     69     70     95     94
     70     71     96     95
     71     72     97     96
     72     73     98     97
     73     74     99     98
     74     50     75     99
     75     76    101    100
     76     77    102    101
     77     78    103    102
     78     79    104    103
     79     80    105    104
     80     81    106    105
     81     82    107    106
     82     83    108    107
     83     84    109    108
     84     85    110    109
     85     86    111    110
     86     87    112    111
     87     88    113    112
     88     89    114    113
     89     90    115    114
     90     91    116    115
     91     92    117    116
     92     93    118    117
     93     94    119    118
     94     95    120    119
     95     96    121    120
     96     97    122    121
     97     98    123    122
     98     99    124    123
     99     75    100    124
    100    101    126    125
    101    102    127    126
    102    103    128    127
    103    104    129    128
    104    105    130    129
    105    106    131    130
    106    107    132    131
    107    108    133    132
    108    109    134    133
    109    110    135    134
    110    111    136    135
    111    112    137    136
    112    113    138    137
    113    114    139    138
    114    115    140    139
    115    116    141    140
    116    117    142    141
    117    118    143    142
    118    119    144    143
    119    120    145    144
    120    121    146    145
    121    122    147    146
    122    123    148    147
    123    124    149    148
    124    100    125    149
    125    126    151    150
    126    127    152    151
    127    128    153    152
    128    129    154    153
    129    130    155    154
    130    131    156    155
    131    132    157    156
    132    133    158    157
    133    134    159    158
    134    135    160    159
    135    136    161    160
    136    137    162    161
    137    138    163    162
    138    139    164    163
    139    140    165    164
    140    141    166    165
    141    142    167    166
    142    143    168    167
    143    144    169    168
    144    145    170    169
    145    146    171    170
    146    147    172    171
    147    148    173    172
    148    149    174    173
    149    125    150    174
    150    151    176    175
    151    152    177    176
    152    153    178    177
    153    154    179    178
    154    155    180    179
    155    156    181    180
    156    157    182    181
    157    158    183    182
    158    159    184    183
    159    160    185    184
    160    161    186    185
    161    162    187    186
    162    163    188    187
    163    164    189    188
    164    165    190    189
    165    166    191    190
    166    167    192    191
    167    168    193    192
    168    169    194    193
    169    170    195    194
    170    171    196    195
    171    172    197    196
    172    173    198    197
    173    174    199    198
    174    150    175    199
    175    176    201    200
    176    177    202    201
    177    178    203    202
    178    179    204    203
    179    180    205    204
    180    181    206    205
    181    182    207    206
    182    183    208    207
    183    184    209    208
    184    185    210    209
    185    186    211    210
    186    187    212    211
    187    188    213    212
    188    189    214    213
    189    190    215    214
    190    191    216    215
    191    192    217    216
    192    193    218    217
    193    194    219    218
    194    195    220    219
    195    196    221    220
    196    197    222    221
    197    198    223    222
    198    199    224    223
    199    175    200    224
    200    201    226    225
    201    202    227    226
    202    203    228    227
    203    204    229    228
    204    205    230    229
    205    206    231    230
    206    207    232    231
    207    208    233    232
    208    209    234    233
    209    210    235    234
    210    211    236    235
    211    212    237    236
    212    213    238    237
    213    214    239    238
    214    215    240    239
    215    216    241    240
    216    217    242    241
    217    218    243    242
    218    219    244    243
    219    220    245    244
    220    221    246    245
    221    222    247    246
    222    223    248    247
    223    224    249    248
    224    200    225    249
    225    226    251    250
    226    227    252    251
    227    228    253    252
    228    229    254    253
    229    230    255    254
    230    231    256    255
    231    232    257    256
    232    233    258    257
    233    234    259    258
    234    235    260    259
    235    236    261    260
    236    237    262    261
    237    238    263    262
    238    239    264    263
    239    240    265    264
    240    241    266    265
    241    242    267    266
    242    243    268    267
    243    244    269    268
    244    245    270    269
    245    246    271    270
    246    247    272    271
    247    248    273    272
    248    249    274    273
    249    225    250    274
    250    251    276    275
    251    252    277    276
    252    253    278    277
    253    254    279    278
    254    255    280    279
    255    256    281    280
    256    257    282    281
    257    258    283    282
    258    259    284    283
    259    260    285    284
    260    261    286    285
    261    262    287    286
    262    263    288    287
    263    264    289    288
    264    265    290    289
    265    266    291    290
    266    267    292    291
    267    268    293    292
    268    269    294    293
    269    270    295    294
    270    271    296    295
    271    272    297    296
    272    273    298    297
    273    274    299    298
    274    250    275    299
    275    276    301    300
    276    277    302    301
    277    278    303    302
    278    279    304    303
    279    280    305    304
    280    281    306    305
    281    282    307    306
    282    283    308    307
    283    284    309    308
    284    285    310    309
    285    286    311    310
    286    287    312    311
    287    288    313    312
    288    289    314    313
    289    290    315    314
    290    291    316    315
    291    292    317    316
    292    293    318    317
    293    294    319    318
    294    295    320    319
    295    296    321    320
    296    297    322    321
    297    298    323    322
    298    299    324    323
    299    275    300    324
    300    301    326    325
    301    302    327    326
    302    303    328    327
    303    304    329    328
    304    305    330    329
    305    306    331    330
    306    307    332    331
    307    308    333    332
    308    309    334    333
    309    310    335    334
    310    311    336    335
    311    312    337    336
    312    313    338    337
    313    314    339    338
    314    315    340    339
    315    316    341    340
    316    317    342    341
    317    318    343    342
    318    319    344    343
    319    320    345    344
    320    321    346    345
    321    322    347    346
    322    323    348    347
    323    324    349    348
    324    300    325    349
    325    326    351    350
    326    327    352    351
    327    328    353    352
    328    329    354    353
    329    330    355    354
    330    331    356    355
    331    332    357    356
    332    333    358    357
    333    334    359    358
    334    335    360    359
    335    336    361    360
    336    337    362    361
    337    338    363    362
    338    339    364    363
    339    340    365    364
    340    341    366    365
    341    342    367    366
    342    343    368    367
    343    344    369    368
    344    345    370    369
    345    346    371    370
    346    347    372    371
    347    348    373    372
    348    349    374    373
    349    325    350    374
    350    351    376    375
    351    352    377    376
    352    353    378    377
    353    354    379    378
    354    355    380    379
    355    356    381    380
    356    357    382    381
    357    358    383    382
    358    359    384    383
    359    360    385    384
    360    361    386    385
    361    362    387    386
    362    363    388    387
    363    364    389    388
    364    365    390    389
    365    366    391    390
    366    367    392    391
    367    368    393    392
    368    369    394    393
    369    370    395    394
    370    371    396    395
    371    372    397    396
    372    373    398    397
    373    374    399    398
    374    350    375    399
    375    376    401    400
    376    377    402    401
    377    378    403    402
    378    379    404    403
    379    380    405    404
    380    381    406    405
    381    382    407    406
    382    383    408    407
    383    384    409    408
    384    385    410    409
    385    386    411    410
    386    387    412    411
    387    388    413    412
    388    389    414    413
    389    390    415    414
    390    391    416    415
    391    392    417    416
    392    393    418    417
    393    394    419    418
    394    395    420    419
    395    396    421    420
    396    397    422    421
    397    398    423    422
    398    399    424    423
    399    375    400    424
    400    401    426    425
    401    402    427    426
    402    403    428    427
    403    404    429    428
    404    405    430    429
    405    406    431    430
    406    407    432    431
    407    408    433    432
    408    409    434    433
    409    410    435    434
    410    411    436    435
    411    412    437    436
    412    413    438    437
    413    414    439    438
    414    415    440    439
    415    416    441    440
    416    417    442    441
    417    418    443    442
    418    419    444    443
    419    420    445    444
    420    421    446    445
    421    422    447    446
    422    423    448    447
    423    424    449    448
    424    400    425    449
    425    426    451    450
    426    427    452    451
    427    428    453    452
    428    429    454    453
    429    430    455    454
    430    431    456    455
    431    432    457    456
    432    433    458    457
    433    434    459    458
    434    435    460    459
    435    436    461    460
    436    437    462    461
    437    438    463    462
    438    439    464    463
    439    440    465    464
    440    441    466    465
    441    442    467    466
    442    443    468    467
    443    444    469    468
    444    445    470    469
    445    446    471    470
    446    447    472    471
    447    448    473    472
    448    449    474    473
    449    425    450    474
    450    451    476    475
    451    452    477    476
    452    453    478    477
    453    454    479    478
    454    455    480    479
    455    456    481    480
    456    457    482    481
    457    458    483    482
    458    459    484    483
    459    460    485    484
    460    461    486    485
    461    462    487    486
    462    463    488    487
    463    464    489    488
    464    465    490    489
    465    466    491    490
    466    467    492    491
    467    468    493    492
    468    469    494    493
    469    470    495    494
    470    471    496    495
    471    472    497    496
    472    473    498    497
    473    474    499    498
    474    450    475    499
    475    476    501    500
    476    477    502    501
    477    478    503    502
    478    479    504    503
    479    480    505    504
    480    481    506    505
    481    482    507    506
    482    483    508    507
    483    484    509    508
    484    485    510    509
    485    486    511    510
    486    487    512    511
    487    488    513    512
    488    489    514    513
    489    490    515    514
    490    491    516    515
    491    492    517    516
    492    493    518    517
    493    494    519    518
    494    495    520    519
    495    496    521    520
    496    497    522    521
    497    498    523    522
    498    499    524    523
    499    475    500    524
    500    501    526    525
    501    502    527    526
    502    503    528    527
    503    504    529    528
    504    505    530    529
    505    506    531    530
    506    507    532    531
    507    508    533    532
    508    509    534    533
    509    510    535    534
    510    511    536    535
    511    512    537    536
    512    513    538    537
    513    514    539    538
    514    515    540    539
    515    516    541    540
    516    517    542    541
    517    518    543    542
    518    519    544    543
    519    520    545    544
    520    521    546    545
    521    522    547    546
    522    523    548    547
    523    524    549    548
    524    500    525    549
    525    526    551    550
    526    527    552    551
    527    528    553    552
    528    529    554    553
    529    530    555    554
    530    531    556    555
    531    532    557    556
    532    533    558    557
    533    534    559    558
    534    535    560    559
    535    536    561    560
    536    537    562    561
    537    538    563    562
    538    539    564    563
    539    540    565    564
    540    541    566    565
    541    542    567    566
    542    543    568    567
    543    544    569    568
    544    545    570    569
    545    546    571    570
    546    547    572    571
    547    548    573    572
    548    549    574    573
    549    525    550    574
    550    551    576    575
    551    552    577    576
    552    553    578    577
    553    554    579    578
    554    555    580    579
    555    556    581    580
    556    557    582    581
    557    558    583    582
    558    559    584    583
    559    560    585    584
    560    561    586    585
    561    562    587    586
    562    563    588    587
    563    564    589    588
    564    565    590    589
    565    566    591    590
    566    567    592    591
    567    568    593    592
    568    569    594    593
    569    570    595    594
    570    571    596    595
    571    572    597    596
    572    573    598    597
    573    574    599    598
    574    550    575    599
    575    576    601    600
    576    577    602    601
    577    578    603    602
    578    579    604    603
    579    580    605    604
    580    581    606    605
    581    582    607    606
    582    583    608    607
    583    584    609    608
    584    585    610    609
    585    586    611    610
    586    587    612    611
    587    588    613    612
    588    589    614    613
    589    590    615    614
    590    591    616    615
    591    592    617    616
    592    593    618    617
    593    594    619    618
    594    595    620    619
    595    596    621    620
    596    597    622    621
    597    598    623    622
    598    599    624    623
    599    575    600    624
        </DataArray>
        <DataArray type="Int32" Name="offsets" format="ascii">
      4
      8
     12
     16
     20
     24
     28
     32
     36
     40
     44
     48
     52
     56
     60
     64
     68
     72
     76
     80
     84
     88
     92
     96
    100
    104
    108
    112
    116
    120
    124
    128
    132
    136
    140
    144
    148
    152
    156
    160
    164
    168
    172
    176
    180
    184
    188
    192
    196
    200
    204
    208
    212
    216
    220
    224
    228
    232
    236
    240
    244
    248
    252
    256
    260
    264
    268
    272
    276
    280
    284
    288
    292
    296
    300
    304
    308
    312
    316
    320
    324
    328
    332
    336
    340
    344
    348
    352
    356
    360
    364
    368
    372
    376
    380
    384
    388
    392
    396
    400
    404
    408
    412
    416
    420
    424
    428
    432
    436
    440
    444
    448
    452
    456
    460
    464
    468
    472
    476
    480
    484
    488
    492
    496
    500
    504
    508
    512
    516
    520
    524
    528
    532
    536
    540
    544
    548
    552
    556
    560
    564
    568
    572
    576
    580
    584
    588
    592
    596
    600
    604
    608
    612
    616
    620
    624
    628
    632
    636
    640
    644
    648
    652
    656
    660
    664
    668
    672
    676
    680
    684
    688
    692
    696
    700
    704
    708
    712
    716
    720
    724
    728
    732
    736
    740
    744
    748
    752
    756
    760
    764
    768
    772
    776
    780
    784
    788
    792
    796
    800
    804
    808
    812
    816
    820
    824
    828
    832
    836
    840
    844
    848
    852
    856
    860
    864
    868
    872
    876
    880
    884
    888
    892
    896
    900
    904
    908
    912
    916
    920
    924
    928
    932
    936
    940
    944
    948
    952
    956
    960
    964
    968
    972
    976
    980
    984
    988
    992
    996
   1000
   1004
   1008
   1012
   1016
   1020
   1024
   1028
   1032
   1036
   1040
   1044
   1048
   1052
   1056
   1060
   1064
   1068
   1072
   1076
   1080
   1084
   1088
   1092
   1096
   1100
   1104
   1108
   1112
   1116
   1120
   1124
   1128
   1132
   1136
   1140
   1144
   1148
   1152
   1156
   1160
   1164
   1168
   1172
   1176
   1180
   1184
   1188
   1192
   1196
   1200
   1204
   1208
   1212
   1216
   1220
   1224
   1228
   1232
   1236
   1240
   1244
   1248
   1252
   1256
   1260
   1264
   1268
   1272
   1276
   1280
   1284
   1288
   1292
   1296
   1300
   1304
   1308
   1312
   1316
   1320
   1324
   1328
   1332
   1336
   1340
   1344
   1348
   1352
   1356
   1360
   1364
   1368
   1372
   1376
   1380
   1384
   1388
   1392
   1396
   1400
   1404
   1408
   1412
   1416
   1420
   1424
   1428
   1432
   1436
   1440
   1444
   1448
   1452
   1456
   1460
   1464
   1468
   1472
   1476
   1480
   1484
   1488
   1492
   1496
   1500
   1504
   1508
   1512
   1516
   1520
   1524
   1528
   1532
   1536
   1540
   1544
   1548
   1552
   1556
   1560
   1564
   1568
   1572
   1576
   1580
   1584
   1588
   1592
   1596
   1600
   1604
   1608
   1612
   1616
   1620
   1624
   1628
   1632
   1636
   1640
   1644
   1648
   1652
   1656
   1660
   1664
   1668
   1672
   1676
   1680
   1684
   1688
   1692
   1696
   1700
   1704
   1708
   1712
   1716
   1720
   1724
   1728
   1732
   1736
   1740
   1744
   1748
   1752
   1756
   1760
   1764
   1768
   1772
   1776
   1780
   1784
   1788
   1792
   1796
   1800
   1804
   1808
   1812
   1816
   1820
   1824
   1828
   1832
   1836
   1840
   1844
   1848
   1852
   1856
   1860
   1864
   1868
   1872
   1876
   1880
   1884
   1888
   1892
   1896
   1900
   1904
   1908
   1912
   1916
   1920
   1924
   1928
   1932
   1936
   1940
   1944
   1948
   1952
   1956
   1960
   1964
   1968
   1972
   1976
   1980
   1984
   1988
   1992
   1996
   2000
   2004
   2008
   2012
   2016
   2020
   2024
   2028
   2032
   2036
   2040
   2044
   2048
   2052
   2056
   2060
   2064
   2068
   2072
   2076
   2080
   2084
   2088
   2092
   2096
   2100
   2104
   2108
   2112
   2116
   2120
   2124
   2128
   2132
   2136
   2140
   2144
   2148
   2152
   2156
   2160
   2164
   2168
   2172
   2176
   2180
   2184
   2188
   2192
   2196
   2200
   2204
   2208
   2212
   2216
   2220
   2224
   2228
   2232
   2236
   2240
   2244
   2248
   2252
   2256
   2260
   2264
   2268
   2272
   2276
   2280
   2284
   2288
   2292
   2296
   2300
   2304
   2308
   2312
   2316
   2320
   2324
   2328
   2332
   2336
   2340
   2344
   2348
   2352
   2356
   2360
   2364
   2368
   2372
   2376
   2380
   2384
   2388
   2392
   2396
   2400
        </DataArray>
      </Polys>
    </Piece>
  </PolyData>
</VTKFile>
