<?xml version="1.0"?>
<VTKFile type="PolyData" version="0.1" byte_order="LittleEndian">
  <PolyData>
    <Piece NumberOfPoints="     19" NumberOfVerts="  0" NumberOfLines="     18"
           NumberOfStrips="  0" NumberOfPolys="      0">
      <Points>
        <DataArray type="Float32" NumberOfComponents="3" format="ascii">
                      -4.95096                       0.72669                      91.31131
                      -4.90694                       1.38577                      92.50779
                      -4.83726                       2.62061                      94.94749
                      -4.77629                       3.81601                      97.40937
                      -4.70526                       5.28674                     100.50003
                      -4.57324                       7.17785                     104.13708
                      -4.42269                       9.18318                     107.71014
                      -4.27454                      11.19072                     111.28207
                      -4.12645                      13.20209                     114.85187
                      -3.97917                      15.21562                     118.42050
                      -3.83389                      17.22806                     121.98982
                      -3.68994                      19.24075                     125.55904
                      -3.54796                      21.25366                     129.12822
                      -3.40867                      23.26673                     132.69741
                      -3.27032                      25.27988                     136.26660
                      -3.15566                      26.95755                     139.24095
                      -3.06482                      28.30657                     141.61658
                      -2.97762                      29.70369                     143.96570
                      -2.93294                      30.36575                     145.16038
        </DataArray>
      </Points>
      <PointData>
        <DataArray type="Float32" Name="TranslationalVelocity" NumberOfComponents="3" format="ascii">
                       0.12600                      -2.60731                       1.44019
                       0.24028                      -4.98619                       2.74638
                       0.45439                      -9.83339                       5.19365
                       0.66166                     -14.72304                       7.56276
                       0.91667                     -20.86060                      10.47753
                       1.24456                     -28.09158                      14.22542
                       1.59227                     -35.19895                      18.19969
                       1.94035                     -42.30366                      22.17833
                       2.28910                     -49.40415                      26.16458
                       2.63823                     -56.50219                      30.15509
                       2.98716                     -63.60123                      34.14345
                       3.33614                     -70.69986                      38.13230
                       3.68516                     -77.79806                      42.12158
                       4.03421                     -84.89581                      46.11119
                       4.38326                     -91.99339                      50.10094
                       4.67416                     -97.90799                      53.42585
                       4.90806                    -102.63189                      56.09941
                       5.15031                    -107.30261                      58.86827
                       5.26510                    -109.67804                      60.18038
        </DataArray>
        <DataArray type="Float32" Name="RotationalVelocity" NumberOfComponents="3" format="ascii">
                       1.98185                      -0.00000                      -0.17339
                       1.98185                      -0.00000                      -0.17339
                       1.98185                      -0.00000                      -0.17339
                       1.98185                      -0.00000                      -0.17339
                       1.98185                      -0.00000                      -0.17339
                       1.98185                      -0.00000                      -0.17339
                       1.98185                      -0.00000                      -0.17339
                       1.98185                      -0.00000                      -0.17339
                       1.98185                      -0.00000                      -0.17339
                       1.98185                      -0.00000                      -0.17339
                       1.98185                      -0.00000                      -0.17339
                       1.98185                      -0.00000                      -0.17339
                       1.98185                      -0.00000                      -0.17339
                       1.98185                      -0.00000                      -0.17339
                       1.98185                      -0.00000                      -0.17339
                       1.98185                      -0.00000                      -0.17339
                       1.98185                      -0.00000                      -0.17339
                       1.98185                      -0.00000                      -0.17339
                       1.98185                      -0.00000                      -0.17339
        </DataArray>
        <DataArray type="Float32" Name="TranslationalAcceleration" NumberOfComponents="3" format="ascii">
                      -0.44831                      -2.95402                      -5.12425
                      -0.85737                      -5.63363                      -9.79978
                      -1.69142                     -10.66576                     -19.33306
                      -2.53304                     -15.54309                     -28.95280
                      -3.58961                     -21.54741                     -41.02939
                      -4.83358                     -29.24819                     -55.24808
                      -6.05553                     -37.39733                     -69.21503
                      -7.27701                     -45.55513                     -83.17657
                      -8.49773                     -53.72800                     -97.12952
                      -9.71802                     -61.90930                    -111.07750
                     -10.93849                     -70.08636                    -125.02751
                     -12.15889                     -78.26436                    -138.97671
                     -13.37921                     -86.44322                    -152.92503
                     -14.59945                     -94.62272                    -166.87246
                     -15.81966                    -102.80250                    -180.81954
                     -16.83649                    -109.61921                    -192.44200
                     -17.64858                    -115.09956                    -201.72414
                     -18.45119                    -120.76867                    -210.89804
                     -18.85963                    -123.45998                    -215.56658
        </DataArray>
        <DataArray type="Float32" Name="OrientationX" NumberOfComponents="3" format="ascii">
                       0.98148                      -0.18073                       0.06344
                       0.98148                      -0.18073                       0.06344
                       0.98148                      -0.18073                       0.06344
                       0.98148                      -0.18073                       0.06344
                       0.98148                      -0.18073                       0.06344
                       0.98701                      -0.15333                       0.04806
                       0.99036                      -0.13348                       0.03693
                       0.99287                      -0.11609                       0.02720
                       0.99508                      -0.09766                       0.01690
                       0.99688                      -0.07866                       0.00630
                       0.99815                      -0.06065                      -0.00372
                       0.99899                      -0.04277                      -0.01366
                       0.99939                      -0.02656                      -0.02266
                       0.99946                      -0.01425                      -0.02948
                       0.99934                      -0.00215                      -0.03619
                       0.99909                       0.00798                      -0.04179
                       0.99882                       0.01550                      -0.04595
                       0.99865                       0.01953                      -0.04818
                       0.99865                       0.01953                      -0.04818
        </DataArray>
        <DataArray type="Float32" Name="OrientationY" NumberOfComponents="3" format="ascii">
                       0.18873                       0.85594                      -0.48140
                       0.18873                       0.85594                      -0.48140
                       0.18873                       0.85594                      -0.48140
                       0.18873                       0.85594                      -0.48140
                       0.18873                       0.85594                      -0.48140
                       0.15732                       0.86127                      -0.48318
                       0.13458                       0.86457                      -0.48415
                       0.11466                       0.86708                      -0.48480
                       0.09356                       0.86935                      -0.48527
                       0.07182                       0.87127                      -0.48552
                       0.05122                       0.87271                      -0.48555
                       0.03077                       0.87377                      -0.48537
                       0.01224                       0.87441                      -0.48503
                      -0.00182                       0.87470                      -0.48467
                      -0.01566                       0.87481                      -0.48421
                      -0.02722                       0.87478                      -0.48376
                      -0.03581                       0.87468                      -0.48338
                      -0.04042                       0.87460                      -0.48317
                      -0.04042                       0.87460                      -0.48317
        </DataArray>
        <DataArray type="Float32" Name="OrientationZ" NumberOfComponents="3" format="ascii">
                       0.03270                       0.48446                       0.87420
                       0.03270                       0.48446                       0.87420
                       0.03270                       0.48446                       0.87420
                       0.03270                       0.48446                       0.87420
                       0.03270                       0.48446                       0.87420
                       0.03270                       0.48446                       0.87420
                       0.03270                       0.48446                       0.87420
                       0.03270                       0.48446                       0.87420
                       0.03270                       0.48446                       0.87420
                       0.03270                       0.48446                       0.87420
                       0.03270                       0.48446                       0.87420
                       0.03270                       0.48446                       0.87420
                       0.03270                       0.48446                       0.87420
                       0.03270                       0.48446                       0.87420
                       0.03270                       0.48446                       0.87420
                       0.03270                       0.48446                       0.87420
                       0.03270                       0.48446                       0.87420
                       0.03270                       0.48446                       0.87420
                       0.03270                       0.48446                       0.87420
        </DataArray>
        <DataArray type="Float32" Name="Force" NumberOfComponents="3" format="ascii">
                      -0.28030                       5.80018                      -3.20382
                     168.09661                      68.18693                     -44.07446
                     221.64233                     181.42512                    -108.83068
                     207.02387                     257.20298                    -150.27794
                    1882.00349                    -528.62857                     222.56105
                    2177.15870                    -456.02026                     171.28416
                    2518.00452                    -416.87369                     136.84193
                    3451.96143                    -471.45361                     132.15689
                    3911.01738                    -412.93404                      82.55740
                    4706.23363                    -400.07623                      45.68938
                    6205.89087                    -389.67940                     -16.16225
                    7304.03376                    -340.23676                     -84.63460
                    8972.96788                    -380.27141                    -124.86975
                   10136.98997                    -338.25670                    -191.68976
                   11346.61312                    -291.96209                    -262.58713
                   12294.98331                    -240.31279                    -326.68058
                   12550.08679                    -187.57160                    -365.44965
                    9632.84292                    -135.00537                    -285.47004
                    5795.32994                     191.85775                    -323.07849
        </DataArray>
        <DataArray type="Float32" Name="Moment" NumberOfComponents="3" format="ascii">
                       0.00000                       0.00000                       0.00000
                       0.00000                       0.00000                       0.00000
                       0.00000                       0.00000                       0.00000
                       0.00000                       0.00000                       0.00000
                     -26.09944                    -386.70785                    -697.81111
                     -48.06644                    -712.18652                   -1285.13469
                     -64.36377                    -953.65937                   -1720.87046
                     -98.95951                   -1466.25447                   -2645.84407
                    -138.69539                   -2055.00948                   -3708.24763
                    -157.77218                   -2337.66464                   -4218.29653
                    -173.91136                   -2576.79431                   -4649.80404
                    -185.79256                   -2752.83458                   -4967.46726
                    -157.79306                   -2337.97407                   -4218.85490
                    -159.64973                   -2365.48389                   -4268.49614
                    -157.35500                   -2331.48341                   -4207.14255
                    -151.44048                   -2243.84967                   -4049.00819
                    -136.02555                   -2015.45113                   -3636.86491
                     -69.25691                   -1026.15954                   -1851.69642
                     -63.25415                    -937.21843                   -1691.20291
        </DataArray>
      </PointData>
      <Lines>
        <DataArray type="Int32" Name="connectivity" format="ascii">
      0      1
      1      2
      2      3
      3      4
      4      5
      5      6
      6      7
      7      8
      8      9
      9     10
     10     11
     11     12
     12     13
     13     14
     14     15
     15     16
     16     17
     17     18
        </DataArray>
        <DataArray type="Int32" Name="offsets" format="ascii">
      2
      4
      6
      8
     10
     12
     14
     16
     18
     20
     22
     24
     26
     28
     30
     32
     34
     36
        </DataArray>
      </Lines>
    </Piece>
  </PolyData>
</VTKFile>
