<?xml version="1.0"?>
<VTKFile type="PolyData" version="0.1" byte_order="LittleEndian">
  <PolyData>
    <Piece NumberOfPoints="     19" NumberOfVerts="  0" NumberOfLines="     18"
           NumberOfStrips="  0" NumberOfPolys="      0">
      <Points>
        <DataArray type="Float32" NumberOfComponents="3" format="ascii">
                      -5.08923                       1.47294                      89.73078
                      -5.17105                       2.81559                      89.48894
                      -5.34884                       5.51726                      89.10011
                      -5.53334                       8.22673                      88.75618
                      -5.76798                      11.61830                      88.35309
                      -6.00918                      15.66407                      87.72425
                      -6.23759                      19.68693                      86.96582
                      -6.46849                      23.70921                      86.20508
                      -6.69965                      27.73069                      85.44003
                      -6.93173                      31.75168                      84.67263
                      -7.16574                      35.77281                      83.90658
                      -7.40109                      39.79382                      83.14035
                      -7.63842                      43.81469                      82.37402
                      -7.87844                      47.83540                      81.60770
                      -8.11940                      51.85605                      80.84136
                      -8.32083                      55.20659                      80.20274
                      -8.48320                      57.88548                      79.68416
                      -8.65160                      60.55418                      79.11183
                      -8.73289                      61.89613                      78.86655
        </DataArray>
      </Points>
      <PointData>
        <DataArray type="Float32" Name="TranslationalVelocity" NumberOfComponents="3" format="ascii">
                       0.19273                       0.41432                       2.20292
                       0.36841                       0.78672                       4.21097
                       0.72192                       1.39152                       8.25157
                       1.07645                       1.93004                      12.30384
                       1.52023                       2.56361                      17.37625
                       2.04960                       3.53564                      23.42707
                       2.57598                       4.69984                      29.44363
                       3.10229                       5.86781                      35.45933
                       3.62849                       7.04226                      41.47382
                       4.15463                       8.22035                      47.48759
                       4.68078                       9.39666                      53.50156
                       5.20692                      10.57342                      59.51535
                       5.73304                      11.75059                      65.52894
                       6.25914                      12.92811                      71.54228
                       6.78523                      14.10576                      77.55554
                       7.22364                      15.08724                      82.56658
                       7.57417                      15.88407                      86.57311
                       7.92336                      16.76208                      90.56440
                       8.09895                      17.13955                      92.57140
        </DataArray>
        <DataArray type="Float32" Name="RotationalVelocity" NumberOfComponents="3" format="ascii">
                       1.49559                      -0.00000                      -0.13085
                       1.49559                      -0.00000                      -0.13085
                       1.49559                      -0.00000                      -0.13085
                       1.49559                      -0.00000                      -0.13085
                       1.49559                      -0.00000                      -0.13085
                       1.49559                      -0.00000                      -0.13085
                       1.49559                      -0.00000                      -0.13085
                       1.49559                      -0.00000                      -0.13085
                       1.49559                      -0.00000                      -0.13085
                       1.49559                      -0.00000                      -0.13085
                       1.49559                      -0.00000                      -0.13085
                       1.49559                      -0.00000                      -0.13085
                       1.49559                      -0.00000                      -0.13085
                       1.49559                      -0.00000                      -0.13085
                       1.49559                      -0.00000                      -0.13085
                       1.49559                      -0.00000                      -0.13085
                       1.49559                      -0.00000                      -0.13085
                       1.49559                      -0.00000                      -0.13085
                       1.49559                      -0.00000                      -0.13085
        </DataArray>
        <DataArray type="Float32" Name="TranslationalAcceleration" NumberOfComponents="3" format="ascii">
                       0.06600                      -3.29454                       0.75444
                       0.12548                      -6.29797                       1.43427
                       0.22625                     -12.35031                       2.58603
                       0.31840                     -18.42429                       3.63938
                       0.42846                     -26.02986                       4.89730
                       0.58804                     -35.08922                       6.72130
                       0.77258                     -44.08518                       8.83059
                       0.95761                     -53.07961                      10.94548
                       1.14347                     -62.07184                      13.06998
                       1.32982                     -71.06275                      15.19988
                       1.51593                     -80.05407                      17.32714
                       1.70210                     -89.04510                      19.45505
                       1.88832                     -98.03579                      21.58357
                       2.07458                    -107.02610                      23.71258
                       2.26087                    -116.01626                      25.84181
                       2.41611                    -123.50805                      27.61630
                       2.54182                    -129.49729                      29.05318
                       2.67808                    -135.45860                      30.61054
                       2.73821                    -138.46015                      31.29788
        </DataArray>
        <DataArray type="Float32" Name="OrientationX" NumberOfComponents="3" format="ascii">
                       0.98756                       0.08411                       0.13287
                       0.98756                       0.08411                       0.13287
                       0.98756                       0.08411                       0.13287
                       0.98756                       0.08411                       0.13287
                       0.98756                       0.08411                       0.13287
                       0.99170                       0.07867                       0.10170
                       0.99406                       0.07469                       0.07917
                       0.99569                       0.07119                       0.05946
                       0.99698                       0.06745                       0.03861
                       0.99783                       0.06358                       0.01714
                       0.99820                       0.05989                      -0.00318
                       0.99815                       0.05621                      -0.02331
                       0.99774                       0.05285                      -0.04156
                       0.99720                       0.05029                      -0.05538
                       0.99648                       0.04776                      -0.06897
                       0.99572                       0.04564                      -0.08032
                       0.99508                       0.04406                      -0.08875
                       0.99470                       0.04321                      -0.09326
                       0.99470                       0.04321                      -0.09326
        </DataArray>
        <DataArray type="Float32" Name="OrientationY" NumberOfComponents="3" format="ascii">
                       0.14557                      -0.16934                      -0.97475
                       0.14557                      -0.16934                      -0.97475
                       0.14557                      -0.16934                      -0.97475
                       0.14557                      -0.16934                      -0.97475
                       0.14557                      -0.16934                      -0.97475
                       0.11399                      -0.17194                      -0.97849
                       0.09115                      -0.17370                      -0.98057
                       0.07116                      -0.17517                      -0.98196
                       0.05002                      -0.17664                      -0.98300
                       0.02824                      -0.17807                      -0.98361
                       0.00763                      -0.17934                      -0.98376
                      -0.01281                      -0.18053                      -0.98349
                      -0.03132                      -0.18155                      -0.98288
                      -0.04535                      -0.18227                      -0.98220
                      -0.05915                      -0.18295                      -0.98134
                      -0.07068                      -0.18349                      -0.98048
                      -0.07924                      -0.18388                      -0.97975
                      -0.08383                      -0.18408                      -0.97933
                      -0.08383                      -0.18408                      -0.97933
        </DataArray>
        <DataArray type="Float32" Name="OrientationZ" NumberOfComponents="3" format="ascii">
                      -0.05949                       0.98196                      -0.17948
                      -0.05949                       0.98196                      -0.17948
                      -0.05949                       0.98196                      -0.17948
                      -0.05949                       0.98196                      -0.17948
                      -0.05949                       0.98196                      -0.17948
                      -0.05949                       0.98196                      -0.17948
                      -0.05949                       0.98196                      -0.17948
                      -0.05949                       0.98196                      -0.17948
                      -0.05949                       0.98196                      -0.17948
                      -0.05949                       0.98196                      -0.17948
                      -0.05949                       0.98196                      -0.17948
                      -0.05949                       0.98196                      -0.17948
                      -0.05949                       0.98196                      -0.17948
                      -0.05949                       0.98196                      -0.17948
                      -0.05949                       0.98196                      -0.17948
                      -0.05949                       0.98196                      -0.17948
                      -0.05949                       0.98196                      -0.17948
                      -0.05949                       0.98196                      -0.17948
                      -0.05949                       0.98196                      -0.17948
        </DataArray>
        <DataArray type="Float32" Name="Force" NumberOfComponents="3" format="ascii">
                      -0.13886                      -0.29852                      -1.58723
                     155.20645                      -1.22843                     -58.16416
                     185.68125                     -13.94326                    -137.83015
                     161.87203                     -23.56697                    -182.59159
                    1810.51815                     207.37967                     534.51392
                    2254.08849                     237.87423                     554.33350
                    2567.84180                     241.63816                     470.93299
                    3274.98745                     281.65927                     455.51190
                    3538.70171                     277.45710                     345.11288
                    4097.25754                     300.18563                     284.33115
                    5092.11415                     348.27576                     217.69520
                    5870.87885                     380.24275                     134.47041
                    6997.40182                     442.47378                     101.56095
                    7730.63837                     471.60185                      17.89430
                    8411.77388                     496.15703                     -73.52259
                    8825.49162                     504.34238                    -165.86599
                    8722.50640                     484.14470                    -242.23657
                    6459.98628                     352.00160                    -215.30175
                    3244.55292                     131.83866                    -354.09557
        </DataArray>
        <DataArray type="Float32" Name="Moment" NumberOfComponents="3" format="ascii">
                       0.00000                       0.00000                       0.00000
                       0.00000                       0.00000                       0.00000
                       0.00000                       0.00000                       0.00000
                       0.00000                       0.00000                       0.00000
                      32.96722                    -544.18251                      99.46353
                      57.70471                    -952.51876                     174.09762
                      76.54212                   -1263.46358                     230.93088
                     111.99789                   -1848.72410                     337.90249
                     151.32852                   -2497.94603                     456.56471
                     170.95702                   -2821.94926                     515.78474
                     185.66392                   -3064.71273                     560.15609
                     197.87549                   -3266.28649                     596.99894
                     174.86466                   -2886.45183                     527.57427
                     175.90530                   -2903.62939                     530.71391
                     172.08517                   -2840.57145                     519.18843
                     164.71869                   -2718.97455                     496.96343
                     146.94819                   -2425.64094                     443.34907
                      74.21579                   -1225.06351                     223.91227
                      64.73102                   -1068.50047                     195.29630
        </DataArray>
      </PointData>
      <Lines>
        <DataArray type="Int32" Name="connectivity" format="ascii">
      0      1
      1      2
      2      3
      3      4
      4      5
      5      6
      6      7
      7      8
      8      9
      9     10
     10     11
     11     12
     12     13
     13     14
     14     15
     15     16
     16     17
     17     18
        </DataArray>
        <DataArray type="Int32" Name="offsets" format="ascii">
      2
      4
      6
      8
     10
     12
     14
     16
     18
     20
     22
     24
     26
     28
     30
     32
     34
     36
        </DataArray>
      </Lines>
    </Piece>
  </PolyData>
</VTKFile>
