<?xml version="1.0"?>
<VTKFile type="PolyData" version="0.1" byte_order="LittleEndian">
  <PolyData>
    <Piece NumberOfPoints="     19" NumberOfVerts="  0" NumberOfLines="     18"
           NumberOfStrips="  0" NumberOfPolys="      0">
      <Points>
        <DataArray type="Float32" NumberOfComponents="3" format="ascii">
                      -5.19478                      -0.18563                      88.52433
                      -5.37310                      -0.35133                      87.17948
                      -5.75295                      -0.58867                      84.48111
                      -6.14380                      -0.78145                      81.77859
                      -6.63894                      -0.99584                      78.39788
                      -7.17911                      -1.39535                      74.35184
                      -7.69402                      -1.92402                      70.31871
                      -8.21117                      -2.45524                      66.28619
                      -8.72815                      -2.99080                      62.25420
                      -9.24581                      -3.52882                      58.22261
                      -9.76551                      -4.06566                      54.19114
                     -10.28651                      -4.60279                      50.15988
                     -10.80946                      -5.14021                      46.12891
                     -11.33506                      -5.67786                      42.09833
                     -11.86159                      -6.21561                      38.06787
                     -12.30100                      -6.66381                      34.70922
                     -12.65298                      -7.03020                      32.02340
                     -13.00567                      -7.45118                      29.34455
                     -13.18313                      -7.62030                      28.00011
        </DataArray>
      </Points>
      <PointData>
        <DataArray type="Float32" Name="TranslationalVelocity" NumberOfComponents="3" format="ascii">
                      -0.05037                       4.62942                      -0.57569
                      -0.09533                       8.84866                      -1.08961
                      -0.15972                      17.32032                      -1.82566
                      -0.21203                      25.80783                      -2.42356
                      -0.27020                      36.42694                      -3.08844
                      -0.37861                      49.12170                      -4.32748
                      -0.52205                      61.76955                      -5.96706
                      -0.66619                      74.41611                      -7.61455
                      -0.81150                      87.06099                      -9.27553
                      -0.95749                      99.70482                     -10.94412
                      -1.10315                     112.34883                     -12.60902
                      -1.24889                     124.99254                     -14.27485
                      -1.39471                     137.63587                     -15.94158
                      -1.54059                     150.27875                     -17.60903
                      -1.68650                     162.92146                     -19.27679
                      -1.80811                     173.45704                     -20.66679
                      -1.90752                     181.88220                     -21.80310
                      -2.02175                     190.28596                     -23.10872
                      -2.06764                     194.50367                     -23.63322
        </DataArray>
        <DataArray type="Float32" Name="RotationalVelocity" NumberOfComponents="3" format="ascii">
                       3.10135                      -0.00000                      -0.27133
                       3.10135                      -0.00000                      -0.27133
                       3.10135                      -0.00000                      -0.27133
                       3.10135                      -0.00000                      -0.27133
                       3.10135                      -0.00000                      -0.27133
                       3.10135                      -0.00000                      -0.27133
                       3.10135                      -0.00000                      -0.27133
                       3.10135                      -0.00000                      -0.27133
                       3.10135                      -0.00000                      -0.27133
                       3.10135                      -0.00000                      -0.27133
                       3.10135                      -0.00000                      -0.27133
                       3.10135                      -0.00000                      -0.27133
                       3.10135                      -0.00000                      -0.27133
                       3.10135                      -0.00000                      -0.27133
                       3.10135                      -0.00000                      -0.27133
                       3.10135                      -0.00000                      -0.27133
                       3.10135                      -0.00000                      -0.27133
                       3.10135                      -0.00000                      -0.27133
                       3.10135                      -0.00000                      -0.27133
        </DataArray>
        <DataArray type="Float32" Name="TranslationalAcceleration" NumberOfComponents="3" format="ascii">
                       1.25602                       1.80729                      14.35643
                       2.40076                       3.42079                      27.44085
                       4.69929                       5.73604                      53.71312
                       7.00214                       7.61957                      80.03482
                       9.88335                       9.71617                     112.96719
                      13.32766                      13.61077                     152.33587
                      16.75919                      18.75701                     191.55839
                      20.19036                      23.92795                     230.77686
                      23.62107                      29.14107                     269.99010
                      27.05150                      34.37795                     309.20008
                      30.48198                      39.60332                     348.41063
                      33.91238                      44.83159                     387.62025
                      37.34267                      50.06265                     426.82869
                      40.77284                      55.29599                     466.03571
                      44.20297                      60.53028                     505.24221
                      47.06140                      64.89281                     537.91428
                      49.34725                      68.45882                     564.04162
                      51.62726                      72.55388                     590.10230
                      52.77158                      74.20044                     603.18197
        </DataArray>
        <DataArray type="Float32" Name="OrientationX" NumberOfComponents="3" format="ascii">
                       0.96236                       0.22315                      -0.15510
                       0.96236                       0.22315                      -0.15510
                       0.96236                       0.22315                      -0.15510
                       0.96236                       0.22315                      -0.15510
                       0.96236                       0.22315                      -0.15510
                       0.96949                       0.19220                      -0.15215
                       0.97402                       0.16975                      -0.14992
                       0.97755                       0.15008                      -0.14791
                       0.98085                       0.12923                      -0.14572
                       0.98378                       0.10772                      -0.14341
                       0.98613                       0.08733                      -0.14115
                       0.98804                       0.06708                      -0.13886
                       0.98941                       0.04870                      -0.13672
                       0.99023                       0.03475                      -0.13508
                       0.99084                       0.02102                      -0.13343
                       0.99120                       0.00954                      -0.13204
                       0.99138                       0.00100                      -0.13099
                       0.99145                      -0.00357                      -0.13042
                       0.99145                      -0.00357                      -0.13042
        </DataArray>
        <DataArray type="Float32" Name="OrientationY" NumberOfComponents="3" format="ascii">
                       0.23873                      -0.96690                       0.09012
                       0.23873                      -0.96690                       0.09012
                       0.23873                      -0.96690                       0.09012
                       0.23873                      -0.96690                       0.09012
                       0.23873                      -0.96690                       0.09012
                       0.20791                      -0.97352                       0.09502
                       0.18555                      -0.97769                       0.09849
                       0.16595                      -0.98090                       0.10148
                       0.14517                      -0.98386                       0.10460
                       0.12372                      -0.98645                       0.10776
                       0.10338                      -0.98846                       0.11069
                       0.08317                      -0.99004                       0.11356
                       0.06483                      -0.99112                       0.11612
                       0.05091                      -0.99170                       0.11803
                       0.03720                      -0.99209                       0.11989
                       0.02573                      -0.99227                       0.12142
                       0.01720                      -0.99231                       0.12255
                       0.01263                      -0.99231                       0.12316
                       0.01263                      -0.99231                       0.12316
        </DataArray>
        <DataArray type="Float32" Name="OrientationZ" NumberOfComponents="3" format="ascii">
                      -0.12986                      -0.12375                      -0.98378
                      -0.12986                      -0.12375                      -0.98378
                      -0.12986                      -0.12375                      -0.98378
                      -0.12986                      -0.12375                      -0.98378
                      -0.12986                      -0.12375                      -0.98378
                      -0.12986                      -0.12375                      -0.98378
                      -0.12986                      -0.12375                      -0.98378
                      -0.12986                      -0.12375                      -0.98378
                      -0.12986                      -0.12375                      -0.98378
                      -0.12986                      -0.12375                      -0.98378
                      -0.12986                      -0.12375                      -0.98378
                      -0.12986                      -0.12375                      -0.98378
                      -0.12986                      -0.12375                      -0.98378
                      -0.12986                      -0.12375                      -0.98378
                      -0.12986                      -0.12375                      -0.98378
                      -0.12986                      -0.12375                      -0.98378
                      -0.12986                      -0.12375                      -0.98378
                      -0.12986                      -0.12375                      -0.98378
                      -0.12986                      -0.12375                      -0.98378
        </DataArray>
        <DataArray type="Float32" Name="Force" NumberOfComponents="3" format="ascii">
                       0.27519                     -25.29433                       3.14549
                     154.91424                    -138.25650                      -3.05666
                     257.44940                    -431.69009                      20.32051
                     272.31555                    -663.19730                      47.47987
                    1187.96030                     168.73325                    -178.03192
                     894.72605                      77.94146                    -127.90516
                     662.63962                     -20.05396                     -84.94355
                    1476.92824                      57.94242                    -202.23815
                    2356.87322                      94.58789                    -322.99757
                    3232.15294                      86.62331                    -437.52963
                    5611.38307                      76.62155                    -750.32175
                    7333.54266                       7.40446                    -968.93402
                    9036.48255                     -15.01192                   -1190.89648
                   11103.32766                     -90.21204                   -1454.25344
                   13562.13412                    -176.60632                   -1767.93983
                   12677.66593                    -405.54951                   -1622.39394
                   14316.51518                    -444.63881                   -1833.79934
                   14843.56131                    -201.44181                   -1933.95976
                   14276.28349                    -270.37629                   -1850.40965
        </DataArray>
        <DataArray type="Float32" Name="Moment" NumberOfComponents="3" format="ascii">
                       0.00000                       0.00000                       0.00000
                       0.00000                       0.00000                       0.00000
                       0.00000                       0.00000                       0.00000
                       0.00000                       0.00000                       0.00000
                     168.14393                     160.23960                    1273.85060
                     337.92979                     322.04396                    2560.14040
                     468.16987                     446.16154                    3546.83313
                     810.26552                     772.17552                    6138.53392
                    1230.11576                    1172.28890                    9319.29980
                    1412.83333                    1346.41704                   10703.55955
                    1594.18219                    1519.24082                   12077.45009
                    1712.19071                    1631.70184                   12971.47713
                    1328.17041                    1265.73407                   10062.15723
                    1344.70228                    1281.48878                   10187.40189
                    1324.48946                    1262.22615                   10034.27051
                    1258.76878                    1199.59496                    9536.37371
                    1138.16773                    1084.66328                    8622.70581
                     607.26045                     578.71357                    4600.57693
                     622.90090                     593.61877                    4719.06820
        </DataArray>
      </PointData>
      <Lines>
        <DataArray type="Int32" Name="connectivity" format="ascii">
      0      1
      1      2
      2      3
      3      4
      4      5
      5      6
      6      7
      7      8
      8      9
      9     10
     10     11
     11     12
     12     13
     13     14
     14     15
     15     16
     16     17
     17     18
        </DataArray>
        <DataArray type="Int32" Name="offsets" format="ascii">
      2
      4
      6
      8
     10
     12
     14
     16
     18
     20
     22
     24
     26
     28
     30
     32
     34
     36
        </DataArray>
      </Lines>
    </Piece>
  </PolyData>
</VTKFile>
