<?xml version="1.0"?>
<VTKFile type="PolyData" version="0.1" byte_order="LittleEndian">
  <PolyData>
    <Piece NumberOfPoints="    625" NumberOfVerts="  0" NumberOfLines="      0"
           NumberOfStrips="  0" NumberOfPolys="    600">
      <Points>
        <DataArray type="Float32" NumberOfComponents="3" format="ascii">
                      -5.11717                       0.66535                      88.66076
                      -5.11717                       0.66535                      88.66076
                      -5.11717                       0.66535                      88.66076
                      -5.11717                       0.66535                      88.66076
                      -5.11717                       0.66535                      88.66076
                      -5.11717                       0.66535                      88.66076
                      -5.11717                       0.66535                      88.66076
                      -5.11717                       0.66535                      88.66076
                      -5.11717                       0.66535                      88.66076
                      -5.11717                       0.66535                      88.66076
                      -5.11717                       0.66535                      88.66076
                      -5.11717                       0.66535                      88.66076
                      -5.11717                       0.66535                      88.66076
                      -5.11717                       0.66535                      88.66076
                      -5.11717                       0.66535                      88.66076
                      -5.11717                       0.66535                      88.66076
                      -5.11717                       0.66535                      88.66076
                      -5.11717                       0.66535                      88.66076
                      -5.11717                       0.66535                      88.66076
                      -5.11717                       0.66535                      88.66076
                      -5.11717                       0.66535                      88.66076
                      -5.11717                       0.66535                      88.66076
                      -5.11717                       0.66535                      88.66076
                      -5.11717                       0.66535                      88.66076
                      -5.11717                       0.66535                      88.66076
                      -4.51021                       0.60990                      88.72011
                      -4.52321                       0.74352                      88.78763
                      -4.57291                       0.86874                      88.85419
                      -4.65620                       0.97770                      88.91561
                      -4.76784                       1.06354                      88.96802
                      -4.90082                       1.12089                      89.00815
                      -5.04678                       1.14612                      89.03345
                      -5.19654                       1.13767                      89.04236
                      -5.34071                       1.09605                      89.03429
                      -5.47022                       1.02388                      89.00977
                      -5.57693                       0.92571                      88.97033
                      -5.65413                       0.80769                      88.91845
                      -5.69699                       0.67724                      88.85740
                      -5.70280                       0.54257                      88.79100
                      -5.67120                       0.41212                      88.72342
                      -5.60417                       0.29410                      88.65893
                      -5.50593                       0.19592                      88.60156
                      -5.38265                       0.12376                      88.55492
                      -5.24207                       0.08214                      88.52195
                      -5.09304                       0.07369                      88.50471
                      -4.94490                       0.09892                      88.50428
                      -4.80698                       0.15627                      88.52071
                      -4.68793                       0.24211                      88.55294
                      -4.59524                       0.35107                      88.59896
                      -4.53473                       0.47629                      88.65588
                      -4.27164                       0.55446                      88.81170
                      -4.28962                       0.73927                      88.90509
                      -4.35837                       0.91246                      88.99715
                      -4.47357                       1.06316                      89.08209
                      -4.62798                       1.18190                      89.15459
                      -4.81191                       1.26121                      89.21009
                      -5.01379                       1.29612                      89.24509
                      -5.22093                       1.28442                      89.25740
                      -5.42033                       1.22686                      89.24625
                      -5.59946                       1.12705                      89.21233
                      -5.74705                       0.99126                      89.15779
                      -5.85384                       0.82802                      89.08603
                      -5.91311                       0.64760                      89.00158
                      -5.92115                       0.46132                      88.90974
                      -5.87744                       0.28090                      88.81628
                      -5.78473                       0.11766                      88.72707
                      -5.64885                      -0.01813                      88.64772
                      -5.47834                      -0.11794                      88.58322
                      -5.28391                      -0.17550                      88.53761
                      -5.07777                      -0.18720                      88.51376
                      -4.87288                      -0.15229                      88.51318
                      -4.68211                      -0.07298                      88.53589
                      -4.51746                       0.04575                      88.58048
                      -4.38925                       0.19646                      88.64413
                      -4.30556                       0.36965                      88.72285
                      -4.09950                       0.49901                      88.90910
                      -4.12101                       0.72015                      89.02084
                      -4.20327                       0.92739                      89.13100
                      -4.34112                       1.10772                      89.23265
                      -4.52589                       1.24980                      89.31940
                      -4.74597                       1.34470                      89.38580
                      -4.98754                       1.38647                      89.42769
                      -5.23540                       1.37247                      89.44242
                      -5.47400                       1.30360                      89.42907
                      -5.68834                       1.18416                      89.38849
                      -5.86495                       1.02168                      89.32322
                      -5.99273                       0.82635                      89.23736
                      -6.06366                       0.61046                      89.13631
                      -6.07327                       0.38756                      89.02641
                      -6.02097                       0.17167                      88.91458
                      -5.91004                      -0.02365                      88.80783
                      -5.74745                      -0.18614                      88.71288
                      -5.54342                      -0.30557                      88.63570
                      -5.31076                      -0.37445                      88.58112
                      -5.06410                      -0.38844                      88.55259
                      -4.81893                      -0.34668                      88.55189
                      -4.59066                      -0.25177                      88.57907
                      -4.39364                      -0.10970                      88.63242
                      -4.24023                       0.07063                      88.70859
                      -4.14009                       0.27787                      88.80278
                      -3.96433                       0.44357                      89.00973
                      -3.98858                       0.69276                      89.13565
                      -4.08128                       0.92630                      89.25979
                      -4.23662                       1.12950                      89.37433
                      -4.44483                       1.28961                      89.47209
                      -4.69283                       1.39655                      89.54692
                      -4.96504                       1.44362                      89.59411
                      -5.24436                       1.42785                      89.61072
                      -5.51323                       1.35023                      89.59568
                      -5.75476                       1.21564                      89.54995
                      -5.95377                       1.03254                      89.47639
                      -6.09777                       0.81244                      89.37964
                      -6.17769                       0.56915                      89.26577
                      -6.18853                       0.31798                      89.14193
                      -6.12959                       0.07470                      89.01591
                      -6.00459                      -0.14541                      88.89562
                      -5.82137                      -0.32851                      88.78862
                      -5.59145                      -0.46310                      88.70165
                      -5.32927                      -0.54071                      88.64015
                      -5.05132                      -0.55648                      88.60799
                      -4.77504                      -0.50942                      88.60721
                      -4.51781                      -0.40247                      88.63783
                      -4.29579                      -0.24237                      88.69795
                      -4.12292                      -0.03916                      88.78378
                      -4.01007                       0.19437                      88.88993
                      -3.85464                       0.38812                      89.11259
                      -3.88105                       0.65967                      89.24981
                      -3.98207                       0.91416                      89.38508
                      -4.15135                       1.13560                      89.50990
                      -4.37824                       1.31007                      89.61643
                      -4.64850                       1.42661                      89.69798
                      -4.94513                       1.47790                      89.74941
                      -5.24951                       1.46071                      89.76750
                      -5.54251                       1.37613                      89.75111
                      -5.80571                       1.22947                      89.70128
                      -6.02258                       1.02994                      89.62112
                      -6.17949                       0.79009                      89.51569
                      -6.26659                       0.52498                      89.39160
                      -6.27840                       0.25127                      89.25665
                      -6.21417                      -0.01385                      89.11932
                      -6.07795                      -0.25370                      88.98824
                      -5.87829                      -0.45323                      88.87165
                      -5.62774                      -0.59989                      88.77686
                      -5.34204                      -0.68447                      88.70985
                      -5.03915                      -0.70166                      88.67481
                      -4.73809                      -0.65037                      88.67395
                      -4.45778                      -0.53383                      88.70732
                      -4.21583                      -0.35936                      88.77284
                      -4.02746                      -0.13792                      88.86637
                      -3.90448                       0.11657                      88.98204
                      -3.76449                       0.33267                      89.21716
                      -3.79266                       0.62221                      89.36347
                      -3.90037                       0.89356                      89.50770
                      -4.08085                       1.12966                      89.64079
                      -4.32277                       1.31569                      89.75437
                      -4.61093                       1.43994                      89.84132
                      -4.92721                       1.49463                      89.89616
                      -5.25174                       1.47630                      89.91545
                      -5.56414                       1.38612                      89.89797
                      -5.84478                       1.22975                      89.84484
                      -6.07601                       1.01700                      89.75937
                      -6.24332                       0.76126                      89.64696
                      -6.33618                       0.47859                      89.51465
                      -6.34877                       0.18676                      89.37076
                      -6.28029                      -0.09591                      89.22434
                      -6.13505                      -0.35166                      89.08458
                      -5.92217                      -0.56440                      88.96026
                      -5.65502                      -0.72077                      88.85920
                      -5.35040                      -0.81095                      88.78775
                      -5.02745                      -0.82928                      88.75039
                      -4.70645                      -0.77459                      88.74947
                      -4.40758                      -0.65034                      88.78506
                      -4.14961                      -0.46431                      88.85491
                      -3.94875                      -0.22821                      88.95463
                      -3.81764                       0.04314                      89.07797
                      -3.69042                       0.27723                      89.32314
                      -3.71999                       0.58115                      89.47672
                      -3.83305                       0.86598                      89.62812
                      -4.02250                       1.11382                      89.76782
                      -4.27644                       1.30909                      89.88705
                      -4.57892                       1.43952                      89.97831
                      -4.91092                       1.49692                      90.03587
                      -5.25158                       1.47769                      90.05612
                      -5.57950                       1.38302                      90.03778
                      -5.87408                       1.21888                      89.98200
                      -6.11680                       0.99556                      89.89230
                      -6.29242                       0.72712                      89.77429
                      -6.38990                       0.43040                      89.63541
                      -6.40312                       0.12406                      89.48437
                      -6.33124                      -0.17266                      89.33067
                      -6.17878                      -0.44111                      89.18397
                      -5.95532                      -0.66442                      89.05347
                      -5.67490                      -0.82856                      88.94739
                      -5.35514                      -0.92323                      88.87239
                      -5.01614                      -0.94246                      88.83317
                      -4.67919                      -0.88506                      88.83221
                      -4.36546                      -0.75463                      88.86956
                      -4.09468                      -0.55936                      88.94288
                      -3.88384                      -0.31152                      89.04756
                      -3.74621                      -0.02670                      89.17703
                      -3.63023                       0.22178                      89.43033
                      -3.66089                       0.53699                      89.58961
                      -3.77815                       0.83239                      89.74663
                      -3.97464                       1.08943                      89.89152
                      -4.23801                       1.29195                      90.01517
                      -4.55171                       1.42723                      90.10983
                      -4.89603                       1.48676                      90.16953
                      -5.24934                       1.46681                      90.19053
                      -5.58944                       1.36863                      90.17150
                      -5.89495                       1.19839                      90.11366
                      -6.14669                       0.96679                      90.02062
                      -6.32883                       0.68837                      89.89823
                      -6.42993                       0.38064                      89.75419
                      -6.44363                       0.06293                      89.59755
                      -6.36908                      -0.24481                      89.43814
                      -6.21096                      -0.52322                      89.28599
                      -5.97921                      -0.75482                      89.15065
                      -5.68838                      -0.92506                      89.04063
                      -5.35675                      -1.02324                      88.96284
                      -5.00516                      -1.04319                      88.92217
                      -4.65570                      -0.98366                      88.92117
                      -4.33033                      -0.84838                      88.95991
                      -4.04949                      -0.64586                      89.03596
                      -3.83083                      -0.38883                      89.14452
                      -3.68808                      -0.09343                      89.27879
                      -3.58245                       0.16634                      89.53861
                      -3.61394                       0.49005                      89.70219
                      -3.73437                       0.79342                      89.86344
                      -3.93615                       1.05739                      90.01224
                      -4.20663                       1.26538                      90.13923
                      -4.52879                       1.40430                      90.23644
                      -4.88241                       1.46544                      90.29775
                      -5.24525                       1.44495                      90.31931
                      -5.59452                       1.34413                      90.29978
                      -5.90828                       1.16929                      90.24037
                      -6.16681                       0.93144                      90.14482
                      -6.35386                       0.64552                      90.01914
                      -6.45769                       0.32948                      89.87121
                      -6.47176                       0.00319                      89.71034
                      -6.39520                      -0.31284                      89.54663
                      -6.23282                      -0.59877                      89.39038
                      -5.99481                      -0.83662                      89.25139
                      -5.69613                      -1.01145                      89.13840
                      -5.35556                      -1.11228                      89.05851
                      -4.99448                      -1.13277                      89.01674
                      -4.63559                      -1.07163                      89.01572
                      -4.30144                      -0.93270                      89.05550
                      -4.01303                      -0.72472                      89.13359
                      -3.78847                      -0.46075                      89.24509
                      -3.64187                      -0.15738                      89.38298
                      -3.54614                       0.11089                      89.64789
                      -3.57821                       0.44054                      89.81447
                      -3.70084                       0.74948                      89.97868
                      -3.90633                       1.01830                      90.13021
                      -4.18177                       1.23010                      90.25953
                      -4.50985                       1.37157                      90.35852
                      -4.86995                       1.43383                      90.42096
                      -5.23945                       1.41297                      90.44292
                      -5.59513                       1.31029                      90.42303
                      -5.91465                       1.13225                      90.36253
                      -6.17792                       0.89004                      90.26523
                      -6.36841                       0.59886                      90.13724
                      -6.47414                       0.27703                      89.98660
                      -6.48847                      -0.05524                      89.82277
                      -6.41050                      -0.37708                      89.65606
                      -6.24514                      -0.66825                      89.49694
                      -6.00276                      -0.91047                      89.35540
                      -5.69861                      -1.08851                      89.24033
                      -5.35178                      -1.19119                      89.15898
                      -4.98408                      -1.21205                      89.11644
                      -4.61861                      -1.14979                      89.11540
                      -4.27832                      -1.00831                      89.15592
                      -3.98461                      -0.79652                      89.23544
                      -3.75593                      -0.52770                      89.34899
                      -3.60665                      -0.21876                      89.48941
                      -3.52067                       0.05545                      89.75812
                      -3.55308                       0.38861                      89.92648
                      -3.67702                       0.70084                      90.09244
                      -3.88470                       0.97252                      90.24558
                      -4.16308                       1.18658                      90.37628
                      -4.49465                       1.32956                      90.47633
                      -4.85859                       1.39249                      90.53943
                      -5.23203                       1.37140                      90.56162
                      -5.59150                       1.26763                      90.54152
                      -5.91442                       1.08769                      90.48038
                      -6.18050                       0.84289                      90.38204
                      -6.37302                       0.54862                      90.25268
                      -6.47987                       0.22335                      90.10044
                      -6.49436                      -0.11246                      89.93487
                      -6.41556                      -0.43773                      89.76638
                      -6.24843                      -0.73200                      89.60556
                      -6.00348                      -0.97680                      89.46251
                      -5.69608                      -1.15674                      89.34622
                      -5.34556                      -1.26051                      89.26400
                      -4.97394                      -1.28160                      89.22101
                      -4.60457                      -1.21867                      89.21996
                      -4.26066                      -1.07569                      89.26090
                      -3.96382                      -0.86163                      89.34128
                      -3.73270                      -0.58995                      89.45603
                      -3.58182                      -0.27772                      89.59795
                      -3.50571                       0.00000                      89.86927
                      -3.53823                       0.33433                      90.03821
                      -3.66261                       0.64765                      90.20476
                      -3.87101                       0.92028                      90.35843
                      -4.15036                       1.13508                      90.48959
                      -4.48309                       1.27856                      90.58998
                      -4.84830                       1.34171                      90.65330
                      -5.22304                       1.32055                      90.67558
                      -5.58377                       1.21642                      90.65540
                      -5.90782                       1.03585                      90.59405
                      -6.17482                       0.79020                      90.49536
                      -6.36801                       0.49489                      90.36556
                      -6.47524                       0.16849                      90.21278
                      -6.48978                      -0.16849                      90.04663
                      -6.41071                      -0.49489                      89.87756
                      -6.24299                      -0.79020                      89.71617
                      -5.99718                      -1.03585                      89.57263
                      -5.68871                      -1.21642                      89.45593
                      -5.33697                      -1.32055                      89.37342
                      -4.96405                      -1.34171                      89.33028
                      -4.59339                      -1.27856                      89.32923
                      -4.24828                      -1.13508                      89.37032
                      -3.95041                      -0.92028                      89.45097
                      -3.71848                      -0.64765                      89.56613
                      -3.56708                      -0.33433                      89.70854
                      -3.50114                      -0.05545                      89.98133
                      -3.53355                       0.27772                      90.14968
                      -3.65749                       0.58995                      90.31565
                      -3.86518                       0.86163                      90.46879
                      -4.14355                       1.07569                      90.59949
                      -4.47512                       1.21867                      90.69953
                      -4.83906                       1.28160                      90.76264
                      -5.21250                       1.26051                      90.78483
                      -5.57197                       1.15674                      90.76473
                      -5.89490                       0.97680                      90.70358
                      -6.16097                       0.73200                      90.60524
                      -6.35349                       0.43773                      90.47589
                      -6.46035                       0.11246                      90.32364
                      -6.47483                      -0.22335                      90.15807
                      -6.39603                      -0.54862                      89.98959
                      -6.22891                      -0.84289                      89.82877
                      -5.98395                      -1.08769                      89.68572
                      -5.67655                      -1.26763                      89.56943
                      -5.32603                      -1.37140                      89.48721
                      -4.95441                      -1.39249                      89.44422
                      -4.58504                      -1.32956                      89.44316
                      -4.24113                      -1.18658                      89.48411
                      -3.94429                      -0.97252                      89.56449
                      -3.71317                      -0.70084                      89.67924
                      -3.56230                      -0.38861                      89.82116
                      -3.50708                      -0.11089                      90.09431
                      -3.53915                       0.21876                      90.26089
                      -3.66178                       0.52770                      90.42510
                      -3.86728                       0.79652                      90.57663
                      -4.14271                       1.00831                      90.70595
                      -4.47079                       1.14979                      90.80494
                      -4.83089                       1.21205                      90.86737
                      -5.20039                       1.19119                      90.88934
                      -5.55608                       1.08851                      90.86944
                      -5.87559                       0.91047                      90.80895
                      -6.13886                       0.66825                      90.71164
                      -6.32935                       0.37708                      90.58365
                      -6.43508                       0.05524                      90.43301
                      -6.44941                      -0.27703                      90.26919
                      -6.37145                      -0.59886                      90.10248
                      -6.20608                      -0.89004                      89.94335
                      -5.96370                      -1.13225                      89.80181
                      -5.65955                      -1.31029                      89.68675
                      -5.31272                      -1.41297                      89.60539
                      -4.94502                      -1.43383                      89.56286
                      -4.57955                      -1.37157                      89.56182
                      -4.23927                      -1.23010                      89.60233
                      -3.94556                      -1.01830                      89.68186
                      -3.71688                      -0.74948                      89.79540
                      -3.56759                      -0.44054                      89.93583
                      -3.52387                      -0.16634                      90.20823
                      -3.55536                       0.15738                      90.37181
                      -3.67578                       0.46075                      90.53307
                      -3.87757                       0.72472                      90.68186
                      -4.14804                       0.93270                      90.80885
                      -4.47021                       1.07163                      90.90606
                      -4.82382                       1.13277                      90.96737
                      -5.18667                       1.11228                      90.98894
                      -5.53594                       1.01145                      90.96940
                      -5.84970                       0.83662                      90.90999
                      -6.10823                       0.59877                      90.81445
                      -6.29528                       0.31284                      90.68876
                      -6.39910                      -0.00319                      90.54083
                      -6.41318                      -0.32948                      90.37996
                      -6.33662                      -0.64552                      90.21626
                      -6.17423                      -0.93144                      90.06000
                      -5.93622                      -1.16929                      89.92101
                      -5.63755                      -1.34413                      89.80802
                      -5.29697                      -1.44495                      89.72813
                      -4.93590                      -1.46544                      89.68636
                      -4.57701                      -1.40430                      89.68534
                      -4.24286                      -1.26538                      89.72512
                      -3.95444                      -1.05739                      89.80322
                      -3.72988                      -0.79342                      89.91471
                      -3.58329                      -0.49005                      90.05261
                      -3.55211                      -0.22178                      90.32316
                      -3.58278                       0.09343                      90.48244
                      -3.70004                       0.38883                      90.63946
                      -3.89652                       0.64586                      90.78435
                      -4.15989                       0.84838                      90.90800
                      -4.47359                       0.98366                      91.00266
                      -4.81792                       1.04319                      91.06236
                      -5.17123                       1.02324                      91.08336
                      -5.51133                       0.92506                      91.06434
                      -5.81684                       0.75482                      91.00649
                      -6.06858                       0.52322                      90.91345
                      -6.25072                       0.24481                      90.79107
                      -6.35182                      -0.06293                      90.64703
                      -6.36552                      -0.38064                      90.49038
                      -6.29097                      -0.68837                      90.33098
                      -6.13285                      -0.96679                      90.17882
                      -5.90109                      -1.19839                      90.04348
                      -5.61027                      -1.36863                      89.93346
                      -5.27864                      -1.46681                      89.85567
                      -4.92705                      -1.48676                      89.81500
                      -4.57759                      -1.42723                      89.81400
                      -4.25222                      -1.29195                      89.85274
                      -3.97138                      -1.08943                      89.92879
                      -3.75271                      -0.83239                      90.03736
                      -3.60997                      -0.53699                      90.17163
                      -3.59278                      -0.27723                      90.43918
                      -3.62235                       0.02670                      90.59276
                      -3.73541                       0.31152                      90.74415
                      -3.92486                       0.55936                      90.88386
                      -4.17880                       0.75463                      91.00308
                      -4.48128                       0.88506                      91.09435
                      -4.81327                       0.94246                      91.15191
                      -5.15394                       0.92323                      91.17216
                      -5.48186                       0.82856                      91.15382
                      -5.77644                       0.66442                      91.09804
                      -6.01916                       0.44111                      91.00833
                      -6.19478                       0.17266                      90.89033
                      -6.29226                      -0.12406                      90.75145
                      -6.30548                      -0.43040                      90.60041
                      -6.23359                      -0.72712                      90.44671
                      -6.08113                      -0.99556                      90.30001
                      -5.85768                      -1.21888                      90.16951
                      -5.57726                      -1.38302                      90.06343
                      -5.25750                      -1.47769                      89.98842
                      -4.91850                      -1.49692                      89.94921
                      -4.58155                      -1.43952                      89.94825
                      -4.26782                      -1.30909                      89.98560
                      -3.99704                      -1.11382                      90.05892
                      -3.78620                      -0.86598                      90.16360
                      -3.64857                      -0.58115                      90.29307
                      -3.64732                      -0.33267                      90.55641
                      -3.67549                      -0.04314                      90.70272
                      -3.78320                       0.22821                      90.84695
                      -3.96368                       0.46431                      90.98004
                      -4.20560                       0.65034                      91.09362
                      -4.49376                       0.77459                      91.18056
                      -4.81004                       0.82928                      91.23540
                      -5.13458                       0.81095                      91.25469
                      -5.44697                       0.72077                      91.23722
                      -5.72761                       0.56440                      91.18408
                      -5.95884                       0.35165                      91.09862
                      -6.12615                       0.09591                      90.98620
                      -6.21901                      -0.18676                      90.85390
                      -6.23160                      -0.47859                      90.71001
                      -6.16312                      -0.76126                      90.56358
                      -6.01788                      -1.01701                      90.42382
                      -5.80500                      -1.22975                      90.29951
                      -5.53786                      -1.38612                      90.19845
                      -5.23324                      -1.47630                      90.12699
                      -4.91028                      -1.49463                      90.08963
                      -4.58928                      -1.43994                      90.08872
                      -4.29041                      -1.31569                      90.12430
                      -4.03244                      -1.12966                      90.19415
                      -3.83159                      -0.89356                      90.29388
                      -3.70047                      -0.62221                      90.41721
                      -3.71794                      -0.38812                      90.67504
                      -3.74436                      -0.11657                      90.81227
                      -3.84538                       0.13792                      90.94754
                      -4.01465                       0.35936                      91.07236
                      -4.24154                       0.53383                      91.17889
                      -4.51180                       0.65037                      91.26043
                      -4.80843                       0.70166                      91.31186
                      -5.11281                       0.68447                      91.32995
                      -5.40581                       0.59989                      91.31357
                      -5.66901                       0.45323                      91.26373
                      -5.88588                       0.25370                      91.18358
                      -6.04280                       0.01385                      91.07814
                      -6.12989                      -0.25127                      90.95405
                      -6.14170                      -0.52498                      90.81910
                      -6.07747                      -0.79009                      90.68178
                      -5.94125                      -1.02994                      90.55070
                      -5.74159                      -1.22947                      90.43410
                      -5.49104                      -1.37613                      90.33932
                      -5.20535                      -1.46071                      90.27230
                      -4.90245                      -1.47790                      90.23726
                      -4.60139                      -1.42661                      90.23640
                      -4.32108                      -1.31007                      90.26978
                      -4.07914                      -1.13560                      90.33529
                      -3.89076                      -0.91416                      90.42882
                      -3.76778                      -0.65967                      90.54450
                      -3.80811                      -0.44357                      90.79539
                      -3.83235                      -0.19437                      90.92131
                      -3.92505                       0.03916                      91.04545
                      -4.08039                       0.24237                      91.15999
                      -4.28860                       0.40247                      91.25775
                      -4.53660                       0.50942                      91.33258
                      -4.80882                       0.55648                      91.37978
                      -5.08813                       0.54071                      91.39638
                      -5.35700                       0.46310                      91.38134
                      -5.59853                       0.32851                      91.33561
                      -5.79755                       0.14541                      91.26205
                      -5.94154                      -0.07470                      91.16530
                      -6.02147                      -0.31798                      91.05143
                      -6.03230                      -0.56915                      90.92759
                      -5.97337                      -0.81244                      90.80157
                      -5.84836                      -1.03254                      90.68128
                      -5.66514                      -1.21564                      90.57429
                      -5.43522                      -1.35023                      90.48731
                      -5.17305                      -1.42785                      90.42581
                      -4.89509                      -1.44362                      90.39366
                      -4.61882                      -1.39655                      90.39287
                      -4.36159                      -1.28961                      90.42349
                      -4.13957                      -1.12950                      90.48361
                      -3.96670                      -0.92630                      90.56944
                      -3.85385                      -0.69276                      90.67559
                      -3.92374                      -0.49901                      90.91797
                      -3.94526                      -0.27787                      91.02971
                      -4.02752                      -0.07063                      91.13987
                      -4.16537                       0.10970                      91.24152
                      -4.35014                       0.25177                      91.32827
                      -4.57022                       0.34668                      91.39467
                      -4.81178                       0.38844                      91.43656
                      -5.05965                       0.37445                      91.45129
                      -5.29825                       0.30557                      91.43794
                      -5.51259                       0.18614                      91.39736
                      -5.68920                       0.02365                      91.33209
                      -5.81698                      -0.17167                      91.24623
                      -5.88790                      -0.38756                      91.14518
                      -5.89752                      -0.61046                      91.03528
                      -5.84522                      -0.82635                      90.92345
                      -5.73429                      -1.02168                      90.81670
                      -5.57170                      -1.18416                      90.72175
                      -5.36766                      -1.30360                      90.64457
                      -5.13501                      -1.37247                      90.58999
                      -4.88834                      -1.38647                      90.56146
                      -4.64318                      -1.34470                      90.56076
                      -4.41491                      -1.24980                      90.58794
                      -4.21788                      -1.10772                      90.64129
                      -4.06448                      -0.92739                      90.71745
                      -3.96433                      -0.72015                      90.81165
                      -4.07636                      -0.55446                      91.04378
                      -4.09434                      -0.36965                      91.13716
                      -4.16309                      -0.19646                      91.22922
                      -4.27829                      -0.04575                      91.31417
                      -4.43270                       0.07298                      91.38667
                      -4.61663                       0.15229                      91.44216
                      -4.81850                       0.18720                      91.47717
                      -5.02565                       0.17550                      91.48948
                      -5.22505                       0.11794                      91.47833
                      -5.40417                       0.01813                      91.44441
                      -5.55177                      -0.11766                      91.38986
                      -5.65856                      -0.28090                      91.31811
                      -5.71783                      -0.46132                      91.23366
                      -5.72587                      -0.64760                      91.14182
                      -5.68216                      -0.82802                      91.04836
                      -5.58945                      -0.99126                      90.95915
                      -5.45357                      -1.12705                      90.87980
                      -5.28306                      -1.22686                      90.81529
                      -5.08862                      -1.28442                      90.76969
                      -4.88249                      -1.29612                      90.74584
                      -4.67760                      -1.26121                      90.74526
                      -4.48683                      -1.18190                      90.76797
                      -4.32217                      -1.06316                      90.81255
                      -4.19397                      -0.91246                      90.87621
                      -4.11028                      -0.73927                      90.95493
                      -4.29540                      -0.60990                      91.17540
                      -4.30840                      -0.47629                      91.24292
                      -4.35810                      -0.35107                      91.30948
                      -4.44139                      -0.24211                      91.37089
                      -4.55303                      -0.15627                      91.42331
                      -4.68601                      -0.09892                      91.46343
                      -4.83197                      -0.07369                      91.48874
                      -4.98173                      -0.08214                      91.49764
                      -5.12590                      -0.12376                      91.48958
                      -5.25541                      -0.19592                      91.46506
                      -5.36212                      -0.29410                      91.42562
                      -5.43933                      -0.41212                      91.37374
                      -5.48218                      -0.54257                      91.31268
                      -5.48799                      -0.67724                      91.24628
                      -5.45639                      -0.80769                      91.17871
                      -5.38936                      -0.92571                      91.11421
                      -5.29112                      -1.02388                      91.05684
                      -5.16784                      -1.09605                      91.01021
                      -5.02726                      -1.13767                      90.97723
                      -4.87823                      -1.14612                      90.95999
                      -4.73009                      -1.12089                      90.95957
                      -4.59217                      -1.06354                      90.97599
                      -4.47312                      -0.97770                      91.00822
                      -4.38043                      -0.86874                      91.05425
                      -4.31992                      -0.74352                      91.11116
                      -4.88283                      -0.66535                      91.33925
                      -4.88283                      -0.66535                      91.33925
                      -4.88283                      -0.66535                      91.33925
                      -4.88283                      -0.66535                      91.33925
                      -4.88283                      -0.66535                      91.33925
                      -4.88283                      -0.66535                      91.33925
                      -4.88283                      -0.66535                      91.33925
                      -4.88283                      -0.66535                      91.33925
                      -4.88283                      -0.66535                      91.33925
                      -4.88283                      -0.66535                      91.33925
                      -4.88283                      -0.66535                      91.33925
                      -4.88283                      -0.66535                      91.33925
                      -4.88283                      -0.66535                      91.33925
                      -4.88283                      -0.66535                      91.33925
                      -4.88283                      -0.66535                      91.33925
                      -4.88283                      -0.66535                      91.33925
                      -4.88283                      -0.66535                      91.33925
                      -4.88283                      -0.66535                      91.33925
                      -4.88283                      -0.66535                      91.33925
                      -4.88283                      -0.66535                      91.33925
                      -4.88283                      -0.66535                      91.33925
                      -4.88283                      -0.66535                      91.33925
                      -4.88283                      -0.66535                      91.33925
                      -4.88283                      -0.66535                      91.33925
                      -4.88283                      -0.66535                      91.33925
        </DataArray>
      </Points>
      <Polys>
        <DataArray type="Int32" Name="connectivity" format="ascii">
      0      1     26     25
      1      2     27     26
      2      3     28     27
      3      4     29     28
      4      5     30     29
      5      6     31     30
      6      7     32     31
      7      8     33     32
      8      9     34     33
      9     10     35     34
     10     11     36     35
     11     12     37     36
     12     13     38     37
     13     14     39     38
     14     15     40     39
     15     16     41     40
     16     17     42     41
     17     18     43     42
     18     19     44     43
     19     20     45     44
     20     21     46     45
     21     22     47     46
     22     23     48     47
     23     24     49     48
     24      0     25     49
     25     26     51     50
     26     27     52     51
     27     28     53     52
     28     29     54     53
     29     30     55     54
     30     31     56     55
     31     32     57     56
     32     33     58     57
     33     34     59     58
     34     35     60     59
     35     36     61     60
     36     37     62     61
     37     38     63     62
     38     39     64     63
     39     40     65     64
     40     41     66     65
     41     42     67     66
     42     43     68     67
     43     44     69     68
     44     45     70     69
     45     46     71     70
     46     47     72     71
     47     48     73     72
     48     49     74     73
     49     25     50     74
     50     51     76     75
     51     52     77     76
     52     53     78     77
     53     54     79     78
     54     55     80     79
     55     56     81     80
     56     57     82     81
     57     58     83     82
     58     59     84     83
     59     60     85     84
     60     61     86     85
     61     62     87     86
     62     63     88     87
     63     64     89     88
     64     65     90     89
     65     66     91     90
     66     67     92     91
     67     68     93     92
     68     69     94     93
     69     70     95     94
     70     71     96     95
     71     72     97     96
     72     73     98     97
     73     74     99     98
     74     50     75     99
     75     76    101    100
     76     77    102    101
     77     78    103    102
     78     79    104    103
     79     80    105    104
     80     81    106    105
     81     82    107    106
     82     83    108    107
     83     84    109    108
     84     85    110    109
     85     86    111    110
     86     87    112    111
     87     88    113    112
     88     89    114    113
     89     90    115    114
     90     91    116    115
     91     92    117    116
     92     93    118    117
     93     94    119    118
     94     95    120    119
     95     96    121    120
     96     97    122    121
     97     98    123    122
     98     99    124    123
     99     75    100    124
    100    101    126    125
    101    102    127    126
    102    103    128    127
    103    104    129    128
    104    105    130    129
    105    106    131    130
    106    107    132    131
    107    108    133    132
    108    109    134    133
    109    110    135    134
    110    111    136    135
    111    112    137    136
    112    113    138    137
    113    114    139    138
    114    115    140    139
    115    116    141    140
    116    117    142    141
    117    118    143    142
    118    119    144    143
    119    120    145    144
    120    121    146    145
    121    122    147    146
    122    123    148    147
    123    124    149    148
    124    100    125    149
    125    126    151    150
    126    127    152    151
    127    128    153    152
    128    129    154    153
    129    130    155    154
    130    131    156    155
    131    132    157    156
    132    133    158    157
    133    134    159    158
    134    135    160    159
    135    136    161    160
    136    137    162    161
    137    138    163    162
    138    139    164    163
    139    140    165    164
    140    141    166    165
    141    142    167    166
    142    143    168    167
    143    144    169    168
    144    145    170    169
    145    146    171    170
    146    147    172    171
    147    148    173    172
    148    149    174    173
    149    125    150    174
    150    151    176    175
    151    152    177    176
    152    153    178    177
    153    154    179    178
    154    155    180    179
    155    156    181    180
    156    157    182    181
    157    158    183    182
    158    159    184    183
    159    160    185    184
    160    161    186    185
    161    162    187    186
    162    163    188    187
    163    164    189    188
    164    165    190    189
    165    166    191    190
    166    167    192    191
    167    168    193    192
    168    169    194    193
    169    170    195    194
    170    171    196    195
    171    172    197    196
    172    173    198    197
    173    174    199    198
    174    150    175    199
    175    176    201    200
    176    177    202    201
    177    178    203    202
    178    179    204    203
    179    180    205    204
    180    181    206    205
    181    182    207    206
    182    183    208    207
    183    184    209    208
    184    185    210    209
    185    186    211    210
    186    187    212    211
    187    188    213    212
    188    189    214    213
    189    190    215    214
    190    191    216    215
    191    192    217    216
    192    193    218    217
    193    194    219    218
    194    195    220    219
    195    196    221    220
    196    197    222    221
    197    198    223    222
    198    199    224    223
    199    175    200    224
    200    201    226    225
    201    202    227    226
    202    203    228    227
    203    204    229    228
    204    205    230    229
    205    206    231    230
    206    207    232    231
    207    208    233    232
    208    209    234    233
    209    210    235    234
    210    211    236    235
    211    212    237    236
    212    213    238    237
    213    214    239    238
    214    215    240    239
    215    216    241    240
    216    217    242    241
    217    218    243    242
    218    219    244    243
    219    220    245    244
    220    221    246    245
    221    222    247    246
    222    223    248    247
    223    224    249    248
    224    200    225    249
    225    226    251    250
    226    227    252    251
    227    228    253    252
    228    229    254    253
    229    230    255    254
    230    231    256    255
    231    232    257    256
    232    233    258    257
    233    234    259    258
    234    235    260    259
    235    236    261    260
    236    237    262    261
    237    238    263    262
    238    239    264    263
    239    240    265    264
    240    241    266    265
    241    242    267    266
    242    243    268    267
    243    244    269    268
    244    245    270    269
    245    246    271    270
    246    247    272    271
    247    248    273    272
    248    249    274    273
    249    225    250    274
    250    251    276    275
    251    252    277    276
    252    253    278    277
    253    254    279    278
    254    255    280    279
    255    256    281    280
    256    257    282    281
    257    258    283    282
    258    259    284    283
    259    260    285    284
    260    261    286    285
    261    262    287    286
    262    263    288    287
    263    264    289    288
    264    265    290    289
    265    266    291    290
    266    267    292    291
    267    268    293    292
    268    269    294    293
    269    270    295    294
    270    271    296    295
    271    272    297    296
    272    273    298    297
    273    274    299    298
    274    250    275    299
    275    276    301    300
    276    277    302    301
    277    278    303    302
    278    279    304    303
    279    280    305    304
    280    281    306    305
    281    282    307    306
    282    283    308    307
    283    284    309    308
    284    285    310    309
    285    286    311    310
    286    287    312    311
    287    288    313    312
    288    289    314    313
    289    290    315    314
    290    291    316    315
    291    292    317    316
    292    293    318    317
    293    294    319    318
    294    295    320    319
    295    296    321    320
    296    297    322    321
    297    298    323    322
    298    299    324    323
    299    275    300    324
    300    301    326    325
    301    302    327    326
    302    303    328    327
    303    304    329    328
    304    305    330    329
    305    306    331    330
    306    307    332    331
    307    308    333    332
    308    309    334    333
    309    310    335    334
    310    311    336    335
    311    312    337    336
    312    313    338    337
    313    314    339    338
    314    315    340    339
    315    316    341    340
    316    317    342    341
    317    318    343    342
    318    319    344    343
    319    320    345    344
    320    321    346    345
    321    322    347    346
    322    323    348    347
    323    324    349    348
    324    300    325    349
    325    326    351    350
    326    327    352    351
    327    328    353    352
    328    329    354    353
    329    330    355    354
    330    331    356    355
    331    332    357    356
    332    333    358    357
    333    334    359    358
    334    335    360    359
    335    336    361    360
    336    337    362    361
    337    338    363    362
    338    339    364    363
    339    340    365    364
    340    341    366    365
    341    342    367    366
    342    343    368    367
    343    344    369    368
    344    345    370    369
    345    346    371    370
    346    347    372    371
    347    348    373    372
    348    349    374    373
    349    325    350    374
    350    351    376    375
    351    352    377    376
    352    353    378    377
    353    354    379    378
    354    355    380    379
    355    356    381    380
    356    357    382    381
    357    358    383    382
    358    359    384    383
    359    360    385    384
    360    361    386    385
    361    362    387    386
    362    363    388    387
    363    364    389    388
    364    365    390    389
    365    366    391    390
    366    367    392    391
    367    368    393    392
    368    369    394    393
    369    370    395    394
    370    371    396    395
    371    372    397    396
    372    373    398    397
    373    374    399    398
    374    350    375    399
    375    376    401    400
    376    377    402    401
    377    378    403    402
    378    379    404    403
    379    380    405    404
    380    381    406    405
    381    382    407    406
    382    383    408    407
    383    384    409    408
    384    385    410    409
    385    386    411    410
    386    387    412    411
    387    388    413    412
    388    389    414    413
    389    390    415    414
    390    391    416    415
    391    392    417    416
    392    393    418    417
    393    394    419    418
    394    395    420    419
    395    396    421    420
    396    397    422    421
    397    398    423    422
    398    399    424    423
    399    375    400    424
    400    401    426    425
    401    402    427    426
    402    403    428    427
    403    404    429    428
    404    405    430    429
    405    406    431    430
    406    407    432    431
    407    408    433    432
    408    409    434    433
    409    410    435    434
    410    411    436    435
    411    412    437    436
    412    413    438    437
    413    414    439    438
    414    415    440    439
    415    416    441    440
    416    417    442    441
    417    418    443    442
    418    419    444    443
    419    420    445    444
    420    421    446    445
    421    422    447    446
    422    423    448    447
    423    424    449    448
    424    400    425    449
    425    426    451    450
    426    427    452    451
    427    428    453    452
    428    429    454    453
    429    430    455    454
    430    431    456    455
    431    432    457    456
    432    433    458    457
    433    434    459    458
    434    435    460    459
    435    436    461    460
    436    437    462    461
    437    438    463    462
    438    439    464    463
    439    440    465    464
    440    441    466    465
    441    442    467    466
    442    443    468    467
    443    444    469    468
    444    445    470    469
    445    446    471    470
    446    447    472    471
    447    448    473    472
    448    449    474    473
    449    425    450    474
    450    451    476    475
    451    452    477    476
    452    453    478    477
    453    454    479    478
    454    455    480    479
    455    456    481    480
    456    457    482    481
    457    458    483    482
    458    459    484    483
    459    460    485    484
    460    461    486    485
    461    462    487    486
    462    463    488    487
    463    464    489    488
    464    465    490    489
    465    466    491    490
    466    467    492    491
    467    468    493    492
    468    469    494    493
    469    470    495    494
    470    471    496    495
    471    472    497    496
    472    473    498    497
    473    474    499    498
    474    450    475    499
    475    476    501    500
    476    477    502    501
    477    478    503    502
    478    479    504    503
    479    480    505    504
    480    481    506    505
    481    482    507    506
    482    483    508    507
    483    484    509    508
    484    485    510    509
    485    486    511    510
    486    487    512    511
    487    488    513    512
    488    489    514    513
    489    490    515    514
    490    491    516    515
    491    492    517    516
    492    493    518    517
    493    494    519    518
    494    495    520    519
    495    496    521    520
    496    497    522    521
    497    498    523    522
    498    499    524    523
    499    475    500    524
    500    501    526    525
    501    502    527    526
    502    503    528    527
    503    504    529    528
    504    505    530    529
    505    506    531    530
    506    507    532    531
    507    508    533    532
    508    509    534    533
    509    510    535    534
    510    511    536    535
    511    512    537    536
    512    513    538    537
    513    514    539    538
    514    515    540    539
    515    516    541    540
    516    517    542    541
    517    518    543    542
    518    519    544    543
    519    520    545    544
    520    521    546    545
    521    522    547    546
    522    523    548    547
    523    524    549    548
    524    500    525    549
    525    526    551    550
    526    527    552    551
    527    528    553    552
    528    529    554    553
    529    530    555    554
    530    531    556    555
    531    532    557    556
    532    533    558    557
    533    534    559    558
    534    535    560    559
    535    536    561    560
    536    537    562    561
    537    538    563    562
    538    539    564    563
    539    540    565    564
    540    541    566    565
    541    542    567    566
    542    543    568    567
    543    544    569    568
    544    545    570    569
    545    546    571    570
    546    547    572    571
    547    548    573    572
    548    549    574    573
    549    525    550    574
    550    551    576    575
    551    552    577    576
    552    553    578    577
    553    554    579    578
    554    555    580    579
    555    556    581    580
    556    557    582    581
    557    558    583    582
    558    559    584    583
    559    560    585    584
    560    561    586    585
    561    562    587    586
    562    563    588    587
    563    564    589    588
    564    565    590    589
    565    566    591    590
    566    567    592    591
    567    568    593    592
    568    569    594    593
    569    570    595    594
    570    571    596    595
    571    572    597    596
    572    573    598    597
    573    574    599    598
    574    550    575    599
    575    576    601    600
    576    577    602    601
    577    578    603    602
    578    579    604    603
    579    580    605    604
    580    581    606    605
    581    582    607    606
    582    583    608    607
    583    584    609    608
    584    585    610    609
    585    586    611    610
    586    587    612    611
    587    588    613    612
    588    589    614    613
    589    590    615    614
    590    591    616    615
    591    592    617    616
    592    593    618    617
    593    594    619    618
    594    595    620    619
    595    596    621    620
    596    597    622    621
    597    598    623    622
    598    599    624    623
    599    575    600    624
        </DataArray>
        <DataArray type="Int32" Name="offsets" format="ascii">
      4
      8
     12
     16
     20
     24
     28
     32
     36
     40
     44
     48
     52
     56
     60
     64
     68
     72
     76
     80
     84
     88
     92
     96
    100
    104
    108
    112
    116
    120
    124
    128
    132
    136
    140
    144
    148
    152
    156
    160
    164
    168
    172
    176
    180
    184
    188
    192
    196
    200
    204
    208
    212
    216
    220
    224
    228
    232
    236
    240
    244
    248
    252
    256
    260
    264
    268
    272
    276
    280
    284
    288
    292
    296
    300
    304
    308
    312
    316
    320
    324
    328
    332
    336
    340
    344
    348
    352
    356
    360
    364
    368
    372
    376
    380
    384
    388
    392
    396
    400
    404
    408
    412
    416
    420
    424
    428
    432
    436
    440
    444
    448
    452
    456
    460
    464
    468
    472
    476
    480
    484
    488
    492
    496
    500
    504
    508
    512
    516
    520
    524
    528
    532
    536
    540
    544
    548
    552
    556
    560
    564
    568
    572
    576
    580
    584
    588
    592
    596
    600
    604
    608
    612
    616
    620
    624
    628
    632
    636
    640
    644
    648
    652
    656
    660
    664
    668
    672
    676
    680
    684
    688
    692
    696
    700
    704
    708
    712
    716
    720
    724
    728
    732
    736
    740
    744
    748
    752
    756
    760
    764
    768
    772
    776
    780
    784
    788
    792
    796
    800
    804
    808
    812
    816
    820
    824
    828
    832
    836
    840
    844
    848
    852
    856
    860
    864
    868
    872
    876
    880
    884
    888
    892
    896
    900
    904
    908
    912
    916
    920
    924
    928
    932
    936
    940
    944
    948
    952
    956
    960
    964
    968
    972
    976
    980
    984
    988
    992
    996
   1000
   1004
   1008
   1012
   1016
   1020
   1024
   1028
   1032
   1036
   1040
   1044
   1048
   1052
   1056
   1060
   1064
   1068
   1072
   1076
   1080
   1084
   1088
   1092
   1096
   1100
   1104
   1108
   1112
   1116
   1120
   1124
   1128
   1132
   1136
   1140
   1144
   1148
   1152
   1156
   1160
   1164
   1168
   1172
   1176
   1180
   1184
   1188
   1192
   1196
   1200
   1204
   1208
   1212
   1216
   1220
   1224
   1228
   1232
   1236
   1240
   1244
   1248
   1252
   1256
   1260
   1264
   1268
   1272
   1276
   1280
   1284
   1288
   1292
   1296
   1300
   1304
   1308
   1312
   1316
   1320
   1324
   1328
   1332
   1336
   1340
   1344
   1348
   1352
   1356
   1360
   1364
   1368
   1372
   1376
   1380
   1384
   1388
   1392
   1396
   1400
   1404
   1408
   1412
   1416
   1420
   1424
   1428
   1432
   1436
   1440
   1444
   1448
   1452
   1456
   1460
   1464
   1468
   1472
   1476
   1480
   1484
   1488
   1492
   1496
   1500
   1504
   1508
   1512
   1516
   1520
   1524
   1528
   1532
   1536
   1540
   1544
   1548
   1552
   1556
   1560
   1564
   1568
   1572
   1576
   1580
   1584
   1588
   1592
   1596
   1600
   1604
   1608
   1612
   1616
   1620
   1624
   1628
   1632
   1636
   1640
   1644
   1648
   1652
   1656
   1660
   1664
   1668
   1672
   1676
   1680
   1684
   1688
   1692
   1696
   1700
   1704
   1708
   1712
   1716
   1720
   1724
   1728
   1732
   1736
   1740
   1744
   1748
   1752
   1756
   1760
   1764
   1768
   1772
   1776
   1780
   1784
   1788
   1792
   1796
   1800
   1804
   1808
   1812
   1816
   1820
   1824
   1828
   1832
   1836
   1840
   1844
   1848
   1852
   1856
   1860
   1864
   1868
   1872
   1876
   1880
   1884
   1888
   1892
   1896
   1900
   1904
   1908
   1912
   1916
   1920
   1924
   1928
   1932
   1936
   1940
   1944
   1948
   1952
   1956
   1960
   1964
   1968
   1972
   1976
   1980
   1984
   1988
   1992
   1996
   2000
   2004
   2008
   2012
   2016
   2020
   2024
   2028
   2032
   2036
   2040
   2044
   2048
   2052
   2056
   2060
   2064
   2068
   2072
   2076
   2080
   2084
   2088
   2092
   2096
   2100
   2104
   2108
   2112
   2116
   2120
   2124
   2128
   2132
   2136
   2140
   2144
   2148
   2152
   2156
   2160
   2164
   2168
   2172
   2176
   2180
   2184
   2188
   2192
   2196
   2200
   2204
   2208
   2212
   2216
   2220
   2224
   2228
   2232
   2236
   2240
   2244
   2248
   2252
   2256
   2260
   2264
   2268
   2272
   2276
   2280
   2284
   2288
   2292
   2296
   2300
   2304
   2308
   2312
   2316
   2320
   2324
   2328
   2332
   2336
   2340
   2344
   2348
   2352
   2356
   2360
   2364
   2368
   2372
   2376
   2380
   2384
   2388
   2392
   2396
   2400
        </DataArray>
      </Polys>
    </Piece>
  </PolyData>
</VTKFile>
