<?xml version="1.0"?>
<VTKFile type="PolyData" version="0.1" byte_order="LittleEndian">
  <PolyData>
    <Piece NumberOfPoints="     19" NumberOfVerts="  0" NumberOfLines="     18"
           NumberOfStrips="  0" NumberOfPolys="      0">
      <Points>
        <DataArray type="Float32" NumberOfComponents="3" format="ascii">
                      -5.18299                      -0.64689                      88.65909
                      -5.35066                      -1.23317                      87.43596
                      -5.71176                      -2.31987                      84.95191
                      -6.08507                      -3.36593                      82.44992
                      -6.55900                      -4.64925                      79.31164
                      -7.06986                      -6.31928                      75.60059
                      -7.55196                      -8.10705                      71.94242
                      -8.03624                      -9.89710                      68.28565
                      -8.52023                     -11.69111                      64.63074
                      -9.00483                     -13.48734                      60.97699
                      -9.49151                     -15.28246                      57.32299
                      -9.97948                     -17.07783                      53.66929
                     -10.46939                     -18.87344                      50.01597
                     -10.96195                     -20.66923                      46.36309
                     -11.45542                     -22.46509                      42.71038
                     -11.86729                     -23.96170                      39.66652
                     -12.19703                     -25.16609                      37.23497
                     -12.52600                     -26.42008                      34.82724
                     -12.69272                     -27.00944                      33.60558
        </DataArray>
      </Points>
      <PointData>
        <DataArray type="Float32" Name="TranslationalVelocity" NumberOfComponents="3" format="ascii">
                      -0.18204                       4.36441                      -2.08067
                      -0.34701                       8.34567                      -3.96639
                      -0.65281                      16.43701                      -7.46165
                      -0.94717                      24.58949                     -10.82620
                      -1.30830                      34.81682                     -14.95389
                      -1.77824                      46.89682                     -20.32539
                      -2.28132                      58.79866                     -26.07557
                      -2.78504                      70.69661                     -31.83311
                      -3.28987                      82.58846                     -37.60337
                      -3.79533                      94.47677                     -43.38077
                      -4.30047                     106.36648                     -49.15461
                      -4.80569                     118.25558                     -54.92927
                      -5.31097                     130.14402                     -60.70467
                      -5.81630                     142.03177                     -66.48065
                      -6.32166                     153.91925                     -72.25687
                      -6.74280                     163.82542                     -77.07058
                      -7.08172                     171.73908                     -80.94438
                      -7.43459                     179.57588                     -84.97774
                      -7.60044                     183.55215                     -86.87337
        </DataArray>
        <DataArray type="Float32" Name="RotationalVelocity" NumberOfComponents="3" format="ascii">
                       3.21641                      -0.00000                      -0.28140
                       3.21641                      -0.00000                      -0.28140
                       3.21641                      -0.00000                      -0.28140
                       3.21641                      -0.00000                      -0.28140
                       3.21641                      -0.00000                      -0.28140
                       3.21641                      -0.00000                      -0.28140
                       3.21641                      -0.00000                      -0.28140
                       3.21641                      -0.00000                      -0.28140
                       3.21641                      -0.00000                      -0.28140
                       3.21641                      -0.00000                      -0.28140
                       3.21641                      -0.00000                      -0.28140
                       3.21641                      -0.00000                      -0.28140
                       3.21641                      -0.00000                      -0.28140
                       3.21641                      -0.00000                      -0.28140
                       3.21641                      -0.00000                      -0.28140
                       3.21641                      -0.00000                      -0.28140
                       3.21641                      -0.00000                      -0.28140
                       3.21641                      -0.00000                      -0.28140
                       3.21641                      -0.00000                      -0.28140
        </DataArray>
        <DataArray type="Float32" Name="TranslationalAcceleration" NumberOfComponents="3" format="ascii">
                       1.22804                       6.74594                      14.03657
                       2.34827                      12.85982                      26.84087
                       4.62500                      24.19257                      52.86396
                       6.91893                      35.10168                      79.08377
                       9.79670                      48.48535                     111.97676
                      13.19574                      65.90123                     150.82796
                      16.54462                      84.54436                     189.10590
                      19.89242                     103.21131                     227.37135
                      23.23849                     121.91950                     265.61718
                      26.58357                     140.65084                     303.85161
                      29.92904                     159.37062                     342.09053
                      33.27435                     178.09304                     380.32753
                      36.61946                     196.81791                     418.56237
                      39.96438                     215.54461                     456.79499
                      43.30923                     234.27212                     495.02676
                      46.09658                     249.87900                     526.88634
                      48.32329                     262.43851                     552.33773
                      50.52836                     275.51510                     577.54185
                      51.64719                     281.66110                     590.33010
        </DataArray>
        <DataArray type="Float32" Name="OrientationX" NumberOfComponents="3" format="ascii">
                       0.95652                       0.18931                      -0.22187
                       0.95652                       0.18931                      -0.22187
                       0.95652                       0.18931                      -0.22187
                       0.95652                       0.18931                      -0.22187
                       0.95652                       0.18931                      -0.22187
                       0.96449                       0.16107                      -0.20933
                       0.96962                       0.14061                      -0.20016
                       0.97368                       0.12268                      -0.19206
                       0.97755                       0.10369                      -0.18343
                       0.98107                       0.08409                      -0.17446
                       0.98396                       0.06553                      -0.16589
                       0.98642                       0.04710                      -0.15734
                       0.98829                       0.03037                      -0.14952
                       0.98948                       0.01769                      -0.14357
                       0.99046                       0.00520                      -0.13768
                       0.99114                      -0.00524                      -0.13273
                       0.99155                      -0.01300                      -0.12904
                       0.99175                      -0.01716                      -0.12706
                       0.99175                      -0.01716                      -0.12706
        </DataArray>
        <DataArray type="Float32" Name="OrientationY" NumberOfComponents="3" format="ascii">
                       0.26491                      -0.88214                       0.38942
                       0.26491                      -0.88214                       0.38942
                       0.26491                      -0.88214                       0.38942
                       0.26491                      -0.88214                       0.38942
                       0.26491                      -0.88214                       0.38942
                       0.23427                      -0.88773                       0.39630
                       0.21202                      -0.89120                       0.40101
                       0.19250                      -0.89385                       0.40495
                       0.17179                      -0.89625                       0.40893
                       0.15041                      -0.89830                       0.41284
                       0.13012                      -0.89984                       0.41635
                       0.10995                      -0.90100                       0.41966
                       0.09164                      -0.90172                       0.42251
                       0.07772                      -0.90205                       0.42457
                       0.06402                      -0.90221                       0.42651
                       0.05256                      -0.90221                       0.42808
                       0.04403                      -0.90213                       0.42921
                       0.03946                      -0.90206                       0.42980
                       0.03946                      -0.90206                       0.42980
        </DataArray>
        <DataArray type="Float32" Name="OrientationZ" NumberOfComponents="3" format="ascii">
                      -0.12200                      -0.43126                      -0.89394
                      -0.12200                      -0.43126                      -0.89394
                      -0.12200                      -0.43126                      -0.89394
                      -0.12200                      -0.43126                      -0.89394
                      -0.12200                      -0.43126                      -0.89394
                      -0.12200                      -0.43126                      -0.89394
                      -0.12200                      -0.43126                      -0.89394
                      -0.12200                      -0.43126                      -0.89394
                      -0.12200                      -0.43126                      -0.89394
                      -0.12200                      -0.43126                      -0.89394
                      -0.12200                      -0.43126                      -0.89394
                      -0.12200                      -0.43126                      -0.89394
                      -0.12200                      -0.43126                      -0.89394
                      -0.12200                      -0.43126                      -0.89394
                      -0.12200                      -0.43126                      -0.89394
                      -0.12200                      -0.43126                      -0.89394
                      -0.12200                      -0.43126                      -0.89394
                      -0.12200                      -0.43126                      -0.89394
                      -0.12200                      -0.43126                      -0.89394
        </DataArray>
        <DataArray type="Float32" Name="Force" NumberOfComponents="3" format="ascii">
                       1.19790                     -28.72037                      13.69202
                     172.32287                    -150.08027                      48.88604
                     302.69846                    -457.83973                     179.56541
                     329.28555                    -687.38573                     286.67641
                    1259.35868                     144.99264                    -241.81255
                     954.97805                      63.24603                    -160.83704
                     688.18113                     -33.00466                     -77.99340
                    1538.66218                      33.76508                    -226.26972
                    2486.52952                      59.49159                    -368.03592
                    3418.98859                      38.49095                    -485.15689
                    5964.21089                      -5.18600                    -811.43123
                    7812.06760                     -98.93539                   -1018.38009
                    9583.50667                    -149.81154                   -1235.58350
                   11809.82191                    -255.06245                   -1488.63176
                   14468.64043                    -377.47659                   -1792.42354
                   13518.39245                    -592.04191                   -1559.23140
                   15182.23790                    -654.55847                   -1756.13590
                   15997.57537                    -415.40642                   -1982.77818
                   15374.23121                    -479.91540                   -1866.58978
        </DataArray>
        <DataArray type="Float32" Name="Moment" NumberOfComponents="3" format="ascii">
                       0.00000                       0.00000                       0.00000
                       0.00000                       0.00000                       0.00000
                       0.00000                       0.00000                       0.00000
                       0.00000                       0.00000                       0.00000
                     177.10405                     626.07292                    1297.75516
                     356.63790                    1260.73534                    2613.31507
                     487.52986                    1723.44591                    3572.44461
                     833.99602                    2948.22358                    6111.22483
                    1253.24059                    4430.27705                    9183.29916
                    1435.66809                    5075.16870                   10520.06272
                    1618.31359                    5720.83097                   11858.42368
                    1736.33512                    6138.04383                   12723.24329
                    1346.54455                    4760.11189                    9866.99727
                    1362.27460                    4815.71852                    9982.26145
                    1340.48074                    4738.67597                    9822.56381
                    1271.54698                    4494.99121                    9317.44190
                    1149.29795                    4062.83388                    8421.64463
                     614.58253                    2172.58433                    4503.44112
                     629.80490                    2226.39628                    4614.98521
        </DataArray>
      </PointData>
      <Lines>
        <DataArray type="Int32" Name="connectivity" format="ascii">
      0      1
      1      2
      2      3
      3      4
      4      5
      5      6
      6      7
      7      8
      8      9
      9     10
     10     11
     11     12
     12     13
     13     14
     14     15
     15     16
     16     17
     17     18
        </DataArray>
        <DataArray type="Int32" Name="offsets" format="ascii">
      2
      4
      6
      8
     10
     12
     14
     16
     18
     20
     22
     24
     26
     28
     30
     32
     34
     36
        </DataArray>
      </Lines>
    </Piece>
  </PolyData>
</VTKFile>
