<?xml version="1.0"?>
<VTKFile type="PolyData" version="0.1" byte_order="LittleEndian">
  <PolyData>
    <Piece NumberOfPoints="     19" NumberOfVerts="  0" NumberOfLines="     18"
           NumberOfStrips="  0" NumberOfPolys="      0">
      <Points>
        <DataArray type="Float32" NumberOfComponents="3" format="ascii">
                      -5.03402                      -1.45530                      90.36186
                      -5.06612                      -2.78206                      90.68829
                      -5.16064                      -5.45713                      91.25125
                      -5.26952                      -8.14244                      91.77165
                      -5.41420                     -11.50527                      92.39675
                      -5.52301                     -15.50873                      93.28121
                      -5.59684                     -19.48220                      94.28962
                      -5.67273                     -23.45495                      95.30070
                      -5.74813                     -27.42666                      96.31601
                      -5.82402                     -31.39775                      97.33377
                      -5.90206                     -35.36904                      98.35054
                      -5.98139                     -39.34020                      99.36771
                      -6.06264                     -43.31120                     100.38532
                      -6.14654                     -47.28203                     101.40338
                      -6.23137                     -51.25280                     102.42161
                      -6.30269                     -54.56176                     103.27026
                      -6.35962                     -57.20696                     103.95685
                      -6.41320                     -59.83897                     104.69678
                      -6.44420                     -61.16485                     105.02646
        </DataArray>
      </Points>
      <PointData>
        <DataArray type="Float32" Name="TranslationalVelocity" NumberOfComponents="3" format="ascii">
                      -0.38821                      -1.09424                      -4.43725
                      -0.74213                      -2.08097                      -8.48258
                      -1.45572                      -3.77224                     -16.63892
                      -2.17204                      -5.32991                     -24.82650
                      -3.06909                      -7.19725                     -35.07986
                      -4.13704                      -9.86498                     -47.28653
                      -5.19698                     -12.91994                     -59.40173
                      -6.25673                     -15.98250                     -71.51475
                      -7.31621                     -19.05809                     -83.62461
                      -8.37551                     -22.14102                     -95.73257
                      -9.43488                     -25.22036                    -107.84113
                     -10.49420                     -28.30058                    -119.94929
                     -11.55349                     -31.38163                    -132.05698
                     -12.61273                     -34.46333                    -144.16414
                     -13.67195                     -37.54533                    -156.27111
                     -14.55463                     -40.11385                    -166.36022
                     -15.26025                     -42.19211                    -174.42550
                     -15.96236                     -44.43388                    -182.45059
                     -16.31604                     -45.43081                    -186.49322
        </DataArray>
        <DataArray type="Float32" Name="RotationalVelocity" NumberOfComponents="3" format="ascii">
                       3.04903                      -0.00000                      -0.26676
                       3.04903                      -0.00000                      -0.26676
                       3.04903                      -0.00000                      -0.26676
                       3.04903                      -0.00000                      -0.26676
                       3.04903                      -0.00000                      -0.26676
                       3.04903                      -0.00000                      -0.26676
                       3.04903                      -0.00000                      -0.26676
                       3.04903                      -0.00000                      -0.26676
                       3.04903                      -0.00000                      -0.26676
                       3.04903                      -0.00000                      -0.26676
                       3.04903                      -0.00000                      -0.26676
                       3.04903                      -0.00000                      -0.26676
                       3.04903                      -0.00000                      -0.26676
                       3.04903                      -0.00000                      -0.26676
                       3.04903                      -0.00000                      -0.26676
                       3.04903                      -0.00000                      -0.26676
                       3.04903                      -0.00000                      -0.26676
                       3.04903                      -0.00000                      -0.26676
                       3.04903                      -0.00000                      -0.26676
        </DataArray>
        <DataArray type="Float32" Name="TranslationalAcceleration" NumberOfComponents="3" format="ascii">
                      -0.29304                      13.62962                      -3.34947
                      -0.55730                      26.05543                      -6.36996
                      -1.01056                      51.10968                     -11.55077
                      -1.42819                      76.26031                     -16.32432
                      -1.92896                     107.75685                     -22.04814
                      -2.64374                     145.25232                     -30.21814
                      -3.46180                     182.46560                     -39.56856
                      -4.28188                     219.67219                     -48.94213
                      -5.10544                     256.86899                     -58.35545
                      -5.93095                     294.05995                     -67.79112
                      -6.75551                     331.25277                     -77.21585
                      -7.58030                     368.44436                     -86.64325
                      -8.40531                     405.63450                     -96.07318
                      -9.23050                     442.82302                    -105.50513
                     -10.05577                     480.01093                    -114.93794
                     -10.74354                     511.00076                    -122.79920
                     -11.30001                     535.77411                    -129.15970
                     -11.90009                     560.42349                    -136.01860
                     -12.16706                     572.84098                    -139.07018
        </DataArray>
        <DataArray type="Float32" Name="OrientationX" NumberOfComponents="3" format="ascii">
                       0.94992                      -0.09614                      -0.29733
                       0.94992                      -0.09614                      -0.29733
                       0.94992                      -0.09614                      -0.29733
                       0.94992                      -0.09614                      -0.29733
                       0.94992                      -0.09614                      -0.29733
                       0.95938                      -0.08899                      -0.26771
                       0.96559                      -0.08379                      -0.24619
                       0.97060                      -0.07920                      -0.22728
                       0.97547                      -0.07433                      -0.20721
                       0.98002                      -0.06927                      -0.18646
                       0.98389                      -0.06446                      -0.16676
                       0.98731                      -0.05967                      -0.14715
                       0.99006                      -0.05530                      -0.12933
                       0.99191                      -0.05198                      -0.11579
                       0.99355                      -0.04870                      -0.10244
                       0.99477                      -0.04595                      -0.09127
                       0.99559                      -0.04390                      -0.08295
                       0.99600                      -0.04280                      -0.07850
                       0.99600                      -0.04280                      -0.07850
        </DataArray>
        <DataArray type="Float32" Name="OrientationY" NumberOfComponents="3" format="ascii">
                       0.31167                       0.22241                       0.92379
                       0.31167                       0.22241                       0.92379
                       0.31167                       0.22241                       0.92379
                       0.31167                       0.22241                       0.92379
                       0.31167                       0.22241                       0.92379
                       0.28121                       0.22537                       0.93281
                       0.25906                       0.22736                       0.93872
                       0.23962                       0.22899                       0.94348
                       0.21896                       0.23062                       0.94809
                       0.19762                       0.23219                       0.95238
                       0.17734                       0.23357                       0.95603
                       0.15716                       0.23484                       0.95924
                       0.13882                       0.23591                       0.96181
                       0.12488                       0.23666                       0.96353
                       0.11114                       0.23736                       0.96504
                       0.09963                       0.23791                       0.96616
                       0.09107                       0.23829                       0.96691
                       0.08648                       0.23849                       0.96729
                       0.08648                       0.23849                       0.96729
        </DataArray>
        <DataArray type="Float32" Name="OrientationZ" NumberOfComponents="3" format="ascii">
                      -0.02268                      -0.97020                       0.24124
                      -0.02268                      -0.97020                       0.24124
                      -0.02268                      -0.97020                       0.24124
                      -0.02268                      -0.97020                       0.24124
                      -0.02268                      -0.97020                       0.24124
                      -0.02268                      -0.97020                       0.24124
                      -0.02268                      -0.97020                       0.24124
                      -0.02268                      -0.97020                       0.24124
                      -0.02268                      -0.97020                       0.24124
                      -0.02268                      -0.97020                       0.24124
                      -0.02268                      -0.97020                       0.24124
                      -0.02268                      -0.97020                       0.24124
                      -0.02268                      -0.97020                       0.24124
                      -0.02268                      -0.97020                       0.24124
                      -0.02268                      -0.97020                       0.24124
                      -0.02268                      -0.97020                       0.24124
                      -0.02268                      -0.97020                       0.24124
                      -0.02268                      -0.97020                       0.24124
                      -0.02268                      -0.97020                       0.24124
        </DataArray>
        <DataArray type="Float32" Name="Force" NumberOfComponents="3" format="ascii">
                       2.88241                       8.12463                      32.94614
                     213.90794                      30.63657                     143.32317
                     346.29363                      98.03518                     426.82937
                     369.88835                     151.03885                     642.21474
                    1465.20780                    -130.83277                    -388.42256
                    1295.86576                     -98.73624                    -275.25946
                    1241.11415                     -72.95561                    -176.72396
                    2266.97948                    -144.54433                    -368.18750
                    3166.43863                    -188.03884                    -458.54757
                    4199.74984                    -231.94062                    -537.96136
                    6665.65251                    -336.65194                    -727.24876
                    8497.07737                    -399.32300                    -807.11224
                   10445.78934                    -482.82482                    -959.72477
                   12612.71284                    -560.16876                   -1067.05650
                   15132.93856                    -650.41182                   -1193.04910
                   17482.29809                    -735.13807                   -1312.91865
                   19047.67646                    -783.71179                   -1361.09887
                   16529.22102                    -724.48819                   -1359.69216
                   13979.94905                    -548.70076                    -892.39301
        </DataArray>
        <DataArray type="Float32" Name="Moment" NumberOfComponents="3" format="ascii">
                       0.00000                       0.00000                       0.00000
                       0.00000                       0.00000                       0.00000
                       0.00000                       0.00000                       0.00000
                       0.00000                       0.00000                       0.00000
                      33.13736                    1417.52258                    -352.46483
                      62.61386                    2678.44398                    -665.99101
                      85.69482                    3665.78216                    -911.49114
                     144.47407                    6180.19266                   -1536.69548
                     214.60859                    9180.34922                   -2282.67983
                     245.60606                   10506.33349                   -2612.38380
                     275.74621                   11795.64398                   -2932.96889
                     295.67589                   12648.17933                   -3144.95050
                     229.92441                    9835.51691                   -2445.58628
                     232.58930                    9949.51347                   -2473.93135
                     230.15038                    9845.18310                   -2447.98976
                     223.39938                    9556.39439                   -2376.18289
                     203.13840                    8689.68711                   -2160.67745
                     106.99136                    4576.78827                   -1138.01142
                     105.92528                    4531.18441                   -1126.67209
        </DataArray>
      </PointData>
      <Lines>
        <DataArray type="Int32" Name="connectivity" format="ascii">
      0      1
      1      2
      2      3
      3      4
      4      5
      5      6
      6      7
      7      8
      8      9
      9     10
     10     11
     11     12
     12     13
     13     14
     14     15
     15     16
     16     17
     17     18
        </DataArray>
        <DataArray type="Int32" Name="offsets" format="ascii">
      2
      4
      6
      8
     10
     12
     14
     16
     18
     20
     22
     24
     26
     28
     30
     32
     34
     36
        </DataArray>
      </Lines>
    </Piece>
  </PolyData>
</VTKFile>
