<?xml version="1.0"?>
<VTKFile type="PolyData" version="0.1" byte_order="LittleEndian">
  <PolyData>
    <Piece NumberOfPoints="     19" NumberOfVerts="  0" NumberOfLines="     18"
           NumberOfStrips="  0" NumberOfPolys="      0">
      <Points>
        <DataArray type="Float32" NumberOfComponents="3" format="ascii">
                      -5.11197                      -1.39910                      89.47087
                      -5.21509                      -2.67260                      88.98564
                      -5.45126                      -5.18467                      87.92945
                      -5.70163                      -7.68025                      86.83265
                      -6.02307                     -10.78994                      85.43737
                      -6.34457                     -14.57495                      83.89069
                      -6.63158                     -18.40751                      82.46247
                      -6.92065                     -22.24091                      81.03688
                      -7.20924                     -26.07588                      79.61536
                      -7.49834                     -29.91172                      78.19621
                      -7.78957                     -33.74704                      76.77617
                      -8.08209                     -37.58242                      75.35656
                      -8.37653                     -41.41783                      73.93742
                      -8.67362                     -45.25322                      72.51879
                      -8.97162                     -49.08861                      71.10036
                      -9.22059                     -52.28479                      69.91845
                      -9.41967                     -54.84450                      68.98035
                      -9.61557                     -57.42386                      68.09356
                      -9.71759                     -58.69853                      67.61149
        </DataArray>
      </Points>
      <PointData>
        <DataArray type="Float32" Name="TranslationalVelocity" NumberOfComponents="3" format="ascii">
                      -0.38040                       1.67485                      -4.34802
                      -0.72665                       3.21085                      -8.30570
                      -1.40966                       6.55740                     -16.11253
                      -2.08819                      10.03402                     -23.86810
                      -2.93368                      14.45757                     -33.53216
                      -3.96279                      19.35164                     -45.29491
                      -5.00483                      23.86820                     -57.20548
                      -6.04710                      28.37713                     -69.11862
                      -7.08979                      32.87329                     -81.03666
                      -8.13272                      37.36221                     -92.95737
                      -9.17550                      41.85448                    -104.87650
                     -10.21831                      46.34579                    -116.79581
                     -11.26112                      50.83613                    -128.71520
                     -12.30393                      55.32560                    -140.63453
                     -13.34673                      59.81473                    -152.55386
                     -14.21575                      63.55548                    -162.48673
                     -14.91171                      66.52495                    -170.44158
                     -15.61301                      69.33411                    -178.45753
                     -15.95958                      70.86000                    -182.41886
        </DataArray>
        <DataArray type="Float32" Name="RotationalVelocity" NumberOfComponents="3" format="ascii">
                       3.10772                      -0.00000                      -0.27189
                       3.10772                      -0.00000                      -0.27189
                       3.10772                      -0.00000                      -0.27189
                       3.10772                      -0.00000                      -0.27189
                       3.10772                      -0.00000                      -0.27189
                       3.10772                      -0.00000                      -0.27189
                       3.10772                      -0.00000                      -0.27189
                       3.10772                      -0.00000                      -0.27189
                       3.10772                      -0.00000                      -0.27189
                       3.10772                      -0.00000                      -0.27189
                       3.10772                      -0.00000                      -0.27189
                       3.10772                      -0.00000                      -0.27189
                       3.10772                      -0.00000                      -0.27189
                       3.10772                      -0.00000                      -0.27189
                       3.10772                      -0.00000                      -0.27189
                       3.10772                      -0.00000                      -0.27189
                       3.10772                      -0.00000                      -0.27189
                       3.10772                      -0.00000                      -0.27189
                       3.10772                      -0.00000                      -0.27189
        </DataArray>
        <DataArray type="Float32" Name="TranslationalAcceleration" NumberOfComponents="3" format="ascii">
                       0.45447                      13.61987                       5.19457
                       0.87126                      26.01706                       9.95860
                       1.77953                      50.47224                      20.34010
                       2.72317                      74.76722                      31.12594
                       3.92387                     105.04091                      44.85002
                       5.25206                     141.88780                      60.03136
                       6.47758                     179.19665                      74.03910
                       7.70103                     216.51358                      88.02315
                       8.92100                     253.84581                     101.96751
                      10.13900                     291.18637                     115.88934
                      11.35792                     328.52200                     129.82162
                      12.57657                     365.85818                     143.75089
                      13.79496                     403.19462                     157.67714
                      15.01312                     440.53088                     171.60071
                      16.23118                     477.86713                     185.52319
                      17.24618                     508.98095                     197.12470
                      18.05189                     533.89876                     206.33399
                      18.81399                     559.00751                     215.04491
                      19.22804                     571.41612                     219.77751
        </DataArray>
        <DataArray type="Float32" Name="OrientationX" NumberOfComponents="3" format="ascii">
                       0.94847                       0.04284                      -0.31397
                       0.94847                       0.04284                      -0.31397
                       0.94847                       0.04284                      -0.31397
                       0.94847                       0.04284                      -0.31397
                       0.94847                       0.04284                      -0.31397
                       0.95781                       0.03139                      -0.28569
                       0.96394                       0.02312                      -0.26512
                       0.96887                       0.01589                      -0.24704
                       0.97366                       0.00824                      -0.22784
                       0.97814                       0.00037                      -0.20797
                       0.98193                      -0.00707                      -0.18909
                       0.98529                      -0.01445                      -0.17029
                       0.98797                      -0.02113                      -0.15319
                       0.98978                      -0.02619                      -0.14019
                       0.99137                      -0.03117                      -0.12737
                       0.99255                      -0.03532                      -0.11664
                       0.99334                      -0.03841                      -0.10864
                       0.99373                      -0.04006                      -0.10436
                       0.99373                      -0.04006                      -0.10436
        </DataArray>
        <DataArray type="Float32" Name="OrientationY" NumberOfComponents="3" format="ascii">
                       0.30796                      -0.35801                       0.88147
                       0.30796                      -0.35801                       0.88147
                       0.30796                      -0.35801                       0.88147
                       0.30796                      -0.35801                       0.88147
                       0.30796                      -0.35801                       0.88147
                       0.27755                      -0.35920                       0.89103
                       0.25545                      -0.35983                       0.89737
                       0.23603                      -0.36022                       0.90251
                       0.21542                      -0.36047                       0.90755
                       0.19411                      -0.36057                       0.91231
                       0.17387                      -0.36050                       0.91641
                       0.15374                      -0.36028                       0.92009
                       0.13543                      -0.35995                       0.92309
                       0.12152                      -0.35961                       0.92515
                       0.10781                      -0.35922                       0.92701
                       0.09633                      -0.35883                       0.92842
                       0.08779                      -0.35852                       0.92939
                       0.08321                      -0.35834                       0.92988
                       0.08321                      -0.35834                       0.92988
        </DataArray>
        <DataArray type="Float32" Name="OrientationZ" NumberOfComponents="3" format="ascii">
                      -0.07465                      -0.93273                      -0.35276
                      -0.07465                      -0.93273                      -0.35276
                      -0.07465                      -0.93273                      -0.35276
                      -0.07465                      -0.93273                      -0.35276
                      -0.07465                      -0.93273                      -0.35276
                      -0.07465                      -0.93273                      -0.35276
                      -0.07465                      -0.93273                      -0.35276
                      -0.07465                      -0.93273                      -0.35276
                      -0.07465                      -0.93273                      -0.35276
                      -0.07465                      -0.93273                      -0.35276
                      -0.07465                      -0.93273                      -0.35276
                      -0.07465                      -0.93273                      -0.35276
                      -0.07465                      -0.93273                      -0.35276
                      -0.07465                      -0.93273                      -0.35276
                      -0.07465                      -0.93273                      -0.35276
                      -0.07465                      -0.93273                      -0.35276
                      -0.07465                      -0.93273                      -0.35276
                      -0.07465                      -0.93273                      -0.35276
                      -0.07465                      -0.93273                      -0.35276
        </DataArray>
        <DataArray type="Float32" Name="Force" NumberOfComponents="3" format="ascii">
                       2.81838                     -12.40883                      32.21419
                     209.21603                     -67.75279                     134.87427
                     348.20942                    -187.52031                     422.14254
                     375.40735                    -270.36408                     635.43697
                    1397.44056                      33.08100                    -383.18885
                    1162.61433                       4.09574                    -256.85541
                    1031.87634                     -27.70679                    -145.09927
                    1969.64100                     -29.06745                    -339.94584
                    2880.57199                     -55.30566                    -463.33448
                    3866.29622                     -96.61836                    -562.69147
                    6355.03313                    -198.32081                    -820.42883
                    8201.95975                    -296.28580                    -952.23232
                   10082.66319                    -375.36146                   -1141.12938
                   12282.07747                    -487.89158                   -1309.01213
                   14862.96515                    -619.31333                   -1507.66812
                   17284.28212                    -741.57754                   -1696.77039
                   18883.11378                    -843.25380                   -1766.26038
                   16377.33403                    -664.37050                   -1708.99295
                   14467.61812                    -662.37433                   -1310.14805
        </DataArray>
        <DataArray type="Float32" Name="Moment" NumberOfComponents="3" format="ascii">
                       0.00000                       0.00000                       0.00000
                       0.00000                       0.00000                       0.00000
                       0.00000                       0.00000                       0.00000
                       0.00000                       0.00000                       0.00000
                     110.53323                    1381.11952                     522.33366
                     211.09392                    2637.63154                     997.54127
                     288.73708                    3607.78760                    1364.45026
                     487.59691                    6092.55355                    2304.17840
                     727.42656                    9089.23986                    3437.51270
                     832.52409                   10402.44000                    3934.15952
                     935.91200                   11694.27825                    4422.72738
                    1003.69227                   12541.19696                    4743.02851
                     779.41058                    9738.78332                    3683.16733
                     788.26653                    9849.43901                    3725.01685
                     778.89537                    9732.34577                    3680.73267
                     756.46098                    9452.02674                    3574.71719
                     686.49599                    8577.80986                    3244.09200
                     360.76265                    4507.75161                    1704.81290
                     361.65960                    4518.95911                    1709.05153
        </DataArray>
      </PointData>
      <Lines>
        <DataArray type="Int32" Name="connectivity" format="ascii">
      0      1
      1      2
      2      3
      3      4
      4      5
      5      6
      6      7
      7      8
      8      9
      9     10
     10     11
     11     12
     12     13
     13     14
     14     15
     15     16
     16     17
     17     18
        </DataArray>
        <DataArray type="Int32" Name="offsets" format="ascii">
      2
      4
      6
      8
     10
     12
     14
     16
     18
     20
     22
     24
     26
     28
     30
     32
     34
     36
        </DataArray>
      </Lines>
    </Piece>
  </PolyData>
</VTKFile>
