<?xml version="1.0"?>
<VTKFile type="PolyData" version="0.1" byte_order="LittleEndian">
  <PolyData>
    <Piece NumberOfPoints="     19" NumberOfVerts="  0" NumberOfLines="     18"
           NumberOfStrips="  0" NumberOfPolys="      0">
      <Points>
        <DataArray type="Float32" NumberOfComponents="3" format="ascii">
                      -5.16424                      -0.97667                      88.87344
                      -5.31489                      -1.86390                      87.84485
                      -5.64378                      -3.56587                      85.72897
                      -5.98574                      -5.23353                      83.58525
                      -6.42101                      -7.29766                      80.88891
                      -6.88270                      -9.88462                      77.73989
                      -7.31312                     -12.57087                      74.67239
                      -7.74567                     -15.25901                      71.60684
                      -8.17785                     -17.95049                      68.54413
                      -8.61060                     -20.64382                      65.48310
                      -9.04544                     -23.33619                      62.42156
                      -9.48157                     -26.02876                      59.36037
                      -9.91964                     -28.72150                      56.29961
                     -10.36035                     -31.41436                      53.23934
                     -10.80198                     -34.10727                      50.17925
                     -11.17064                     -36.35141                      47.62926
                     -11.46566                     -38.15267                      45.59452
                     -11.75886                     -39.99563                      43.59566
                     -11.90849                     -40.88544                      42.56929
        </DataArray>
      </Points>
      <PointData>
        <DataArray type="Float32" Name="TranslationalVelocity" NumberOfComponents="3" format="ascii">
                      -0.11588                       1.54722                      -1.32446
                      -0.22114                       2.95996                      -2.52764
                      -0.42307                       5.86833                      -4.83568
                      -0.62092                       8.81600                      -7.09719
                      -0.86582                      12.52414                      -9.89636
                      -1.17274                      16.84931                     -13.40453
                      -1.49145                      21.06021                     -17.04735
                      -1.81038                      25.26872                     -20.69274
                      -2.12971                      29.47334                     -24.34265
                      -2.44925                      33.67573                     -27.99508
                      -2.76868                      37.87909                     -31.64620
                      -3.08814                      42.08211                     -35.29760
                      -3.40762                      46.28478                     -38.94922
                      -3.72711                      50.48710                     -42.60101
                      -4.04660                      54.68929                     -46.25286
                      -4.31285                      58.19106                     -49.29614
                      -4.52656                      60.98537                     -51.73883
                      -4.74522                      63.73081                     -54.23806
                      -4.85079                      65.14043                     -55.44473
        </DataArray>
        <DataArray type="Float32" Name="RotationalVelocity" NumberOfComponents="3" format="ascii">
                       1.35610                      -0.00000                      -0.11864
                       1.35610                      -0.00000                      -0.11864
                       1.35610                      -0.00000                      -0.11864
                       1.35610                      -0.00000                      -0.11864
                       1.35610                      -0.00000                      -0.11864
                       1.35610                      -0.00000                      -0.11864
                       1.35610                      -0.00000                      -0.11864
                       1.35610                      -0.00000                      -0.11864
                       1.35610                      -0.00000                      -0.11864
                       1.35610                      -0.00000                      -0.11864
                       1.35610                      -0.00000                      -0.11864
                       1.35610                      -0.00000                      -0.11864
                       1.35610                      -0.00000                      -0.11864
                       1.35610                      -0.00000                      -0.11864
                       1.35610                      -0.00000                      -0.11864
                       1.35610                      -0.00000                      -0.11864
                       1.35610                      -0.00000                      -0.11864
                       1.35610                      -0.00000                      -0.11864
                       1.35610                      -0.00000                      -0.11864
        </DataArray>
        <DataArray type="Float32" Name="TranslationalAcceleration" NumberOfComponents="3" format="ascii">
                       0.17489                       1.92572                       1.99899
                       0.33462                       3.67564                       3.82471
                       0.66456                       7.04733                       7.59590
                       0.99946                      10.35839                      11.42387
                       1.42107                      14.46110                      16.24285
                       1.91123                      19.57885                      21.84549
                       2.38696                      24.87205                      27.28308
                       2.86239                      30.16857                      32.71724
                       3.33732                      35.47098                      38.14579
                       3.81198                      40.77666                      43.57112
                       4.28676                      46.08063                      48.99786
                       4.76149                      51.38495                      54.42413
                       5.23619                      56.68956                      59.84989
                       5.71084                      61.99435                      65.27518
                       6.18547                      67.29924                      70.70028
                       6.58100                      71.72007                      75.22112
                       6.89652                      75.26721                      78.82756
                       7.20587                      78.88796                      82.36348
                       7.36521                      80.64242                      84.18470
        </DataArray>
        <DataArray type="Float32" Name="OrientationX" NumberOfComponents="3" format="ascii">
                       0.95264                       0.14692                      -0.26626
                       0.95264                       0.14692                      -0.26626
                       0.95264                       0.14692                      -0.26626
                       0.95264                       0.14692                      -0.26626
                       0.95264                       0.14692                      -0.26626
                       0.96121                       0.12309                      -0.24685
                       0.96677                       0.10583                      -0.23270
                       0.97122                       0.09071                      -0.22024
                       0.97549                       0.07470                      -0.20698
                       0.97942                       0.05819                      -0.19324
                       0.98272                       0.04256                      -0.18016
                       0.98557                       0.02704                      -0.16712
                       0.98779                       0.01296                      -0.15525
                       0.98925                       0.00228                      -0.14620
                       0.99050                      -0.00822                      -0.13728
                       0.99140                      -0.01700                      -0.12980
                       0.99198                      -0.02353                      -0.12422
                       0.99226                      -0.02702                      -0.12123
                       0.99226                      -0.02702                      -0.12123
        </DataArray>
        <DataArray type="Float32" Name="OrientationY" NumberOfComponents="3" format="ascii">
                       0.28370                      -0.74463                       0.60419
                       0.28370                      -0.74463                       0.60419
                       0.28370                      -0.74463                       0.60419
                       0.28370                      -0.74463                       0.60419
                       0.28370                      -0.74463                       0.60419
                       0.25317                      -0.74893                       0.61237
                       0.23100                      -0.75157                       0.61789
                       0.21153                      -0.75354                       0.62244
                       0.19087                      -0.75530                       0.62697
                       0.16953                      -0.75675                       0.63134
                       0.14927                      -0.75779                       0.63520
                       0.12912                      -0.75850                       0.63875
                       0.11082                      -0.75887                       0.64174
                       0.09691                      -0.75898                       0.64386
                       0.08321                      -0.75894                       0.64583
                       0.07174                      -0.75879                       0.64737
                       0.06321                      -0.75862                       0.64846
                       0.05864                      -0.75850                       0.64903
                       0.05864                      -0.75850                       0.64903
        </DataArray>
        <DataArray type="Float32" Name="OrientationZ" NumberOfComponents="3" format="ascii">
                      -0.10949                      -0.65111                      -0.75104
                      -0.10949                      -0.65111                      -0.75104
                      -0.10949                      -0.65111                      -0.75104
                      -0.10949                      -0.65111                      -0.75104
                      -0.10949                      -0.65111                      -0.75104
                      -0.10949                      -0.65111                      -0.75104
                      -0.10949                      -0.65111                      -0.75104
                      -0.10949                      -0.65111                      -0.75104
                      -0.10949                      -0.65111                      -0.75104
                      -0.10949                      -0.65111                      -0.75104
                      -0.10949                      -0.65111                      -0.75104
                      -0.10949                      -0.65111                      -0.75104
                      -0.10949                      -0.65111                      -0.75104
                      -0.10949                      -0.65111                      -0.75104
                      -0.10949                      -0.65111                      -0.75104
                      -0.10949                      -0.65111                      -0.75104
                      -0.10949                      -0.65111                      -0.75104
                      -0.10949                      -0.65111                      -0.75104
                      -0.10949                      -0.65111                      -0.75104
        </DataArray>
        <DataArray type="Float32" Name="Force" NumberOfComponents="3" format="ascii">
                       0.48818                      -6.51836                       5.57988
                     143.55839                     -54.89388                      26.66070
                     202.20014                    -121.64356                      75.97962
                     188.14474                    -150.52599                     103.06820
                    1538.35241                     385.58447                    -558.55503
                    2136.30458                     538.03105                    -777.89252
                    2481.70534                     497.92535                    -793.47875
                    3116.77144                     509.99051                    -896.52421
                    3336.42312                     430.99498                    -860.06230
                    3803.80212                     402.05088                    -903.10808
                    4638.11739                     387.16133                   -1011.83364
                    5270.32636                     352.16301                   -1073.66116
                    6192.45095                     363.55564                   -1217.97353
                    6743.94575                     323.94286                   -1264.03333
                    7234.28805                     276.90834                   -1294.74353
                    7510.68473                     222.50812                   -1287.87717
                    7375.81204                     166.10590                   -1219.31665
                    5417.09891                      98.73421                    -875.35037
                    2762.87827                    -107.83809                    -309.30761
        </DataArray>
        <DataArray type="Float32" Name="Moment" NumberOfComponents="3" format="ascii">
                       0.00000                       0.00000                       0.00000
                       0.00000                       0.00000                       0.00000
                       0.00000                       0.00000                       0.00000
                       0.00000                       0.00000                       0.00000
                      48.86597                     290.58483                     335.18288
                      86.40928                     513.83867                     592.70102
                     124.81597                     742.22668                     856.14131
                     182.86085                    1087.39455                    1254.28446
                     243.33579                    1447.01291                    1669.09591
                     274.42199                    1631.86912                    1882.32328
                     292.19386                    1737.55075                    2004.22459
                     309.82454                    1842.39278                    2125.15745
                     276.89886                    1646.59799                    1899.31269
                     276.69862                    1645.40726                    1897.93921
                     269.07499                    1600.07281                    1845.64697
                     256.57128                    1525.71867                    1759.88118
                     228.75725                    1360.32064                    1569.09839
                     115.59455                     687.39087                     792.88946
                     101.48018                     603.45881                     696.07578
        </DataArray>
      </PointData>
      <Lines>
        <DataArray type="Int32" Name="connectivity" format="ascii">
      0      1
      1      2
      2      3
      3      4
      4      5
      5      6
      6      7
      7      8
      8      9
      9     10
     10     11
     11     12
     12     13
     13     14
     14     15
     15     16
     16     17
     17     18
        </DataArray>
        <DataArray type="Int32" Name="offsets" format="ascii">
      2
      4
      6
      8
     10
     12
     14
     16
     18
     20
     22
     24
     26
     28
     30
     32
     34
     36
        </DataArray>
      </Lines>
    </Piece>
  </PolyData>
</VTKFile>
