<?xml version="1.0"?>
<VTKFile type="PolyData" version="0.1" byte_order="LittleEndian">
  <PolyData>
    <Piece NumberOfPoints="     19" NumberOfVerts="  0" NumberOfLines="     18"
           NumberOfStrips="  0" NumberOfPolys="      0">
      <Points>
        <DataArray type="Float32" NumberOfComponents="3" format="ascii">
                      -5.07629                       1.49314                      89.87871
                      -5.14632                       2.85385                      89.77168
                      -5.30042                       5.58224                      89.65365
                      -5.46117                       8.31399                      89.58108
                      -5.66610                      11.73076                      89.51753
                      -5.87180                      15.82096                      89.29444
                      -6.06486                      19.90115                      88.94012
                      -6.26041                      23.98102                      88.58344
                      -6.45623                      28.06052                      88.22240
                      -6.65296                      32.13978                      87.85896
                      -6.85163                      36.21906                      87.49689
                      -7.05164                      40.29825                      87.13463
                      -7.25363                      44.37732                      86.77225
                      -7.45831                      48.45626                      86.40987
                      -7.66392                      52.53516                      86.04746
                      -7.83591                      55.93423                      85.74545
                      -7.97473                      58.65273                      85.49604
                      -8.11964                      61.36650                      85.19214
                      -8.18915                      62.72685                      85.08163
        </DataArray>
      </Points>
      <PointData>
        <DataArray type="Float32" Name="TranslationalVelocity" NumberOfComponents="3" format="ascii">
                       0.19617                       0.19217                       2.24219
                       0.37493                       0.36208                       4.28552
                       0.73339                       0.55957                       8.38265
                       1.09228                       0.68966                      12.48481
                       1.54117                       0.81203                      17.61564
                       2.07853                       1.17405                      23.75775
                       2.61458                       1.73149                      29.88482
                       3.15059                       2.29279                      36.01141
                       3.68655                       2.86068                      42.13745
                       4.22248                       3.43229                      48.26313
                       4.75841                       4.00210                      54.38882
                       5.29432                       4.57236                      60.51439
                       5.83023                       5.14307                      66.63979
                       6.36611                       5.71414                      72.76498
                       6.90199                       6.28537                      78.89010
                       7.34856                       6.76148                      83.99437
                       7.70571                       7.15425                      88.07665
                       8.06224                       7.62964                      92.15181
                       8.24096                       7.80472                      94.19460
        </DataArray>
        <DataArray type="Float32" Name="RotationalVelocity" NumberOfComponents="3" format="ascii">
                       1.50166                      -0.00000                      -0.13138
                       1.50166                      -0.00000                      -0.13138
                       1.50166                      -0.00000                      -0.13138
                       1.50166                      -0.00000                      -0.13138
                       1.50166                      -0.00000                      -0.13138
                       1.50166                      -0.00000                      -0.13138
                       1.50166                      -0.00000                      -0.13138
                       1.50166                      -0.00000                      -0.13138
                       1.50166                      -0.00000                      -0.13138
                       1.50166                      -0.00000                      -0.13138
                       1.50166                      -0.00000                      -0.13138
                       1.50166                      -0.00000                      -0.13138
                       1.50166                      -0.00000                      -0.13138
                       1.50166                      -0.00000                      -0.13138
                       1.50166                      -0.00000                      -0.13138
                       1.50166                      -0.00000                      -0.13138
                       1.50166                      -0.00000                      -0.13138
                       1.50166                      -0.00000                      -0.13138
                       1.50166                      -0.00000                      -0.13138
        </DataArray>
        <DataArray type="Float32" Name="TranslationalAcceleration" NumberOfComponents="3" format="ascii">
                       0.03714                      -3.38114                       0.42448
                       0.07030                      -6.46271                       0.80349
                       0.11797                     -12.65035                       1.34840
                       0.15682                     -18.84968                       1.79241
                       0.20010                     -26.60602                       2.28716
                       0.28023                     -35.87805                       3.20309
                       0.38596                     -45.11548                       4.41157
                       0.49220                     -54.35195                       5.62582
                       0.59929                     -63.58719                       6.84993
                       0.70687                     -72.82165                       8.07959
                       0.81422                     -82.05625                       9.30656
                       0.92162                     -91.29063                      10.53421
                       1.02909                    -100.52473                      11.76252
                       1.13660                    -109.75850                      12.99135
                       1.24412                    -118.99214                      14.22040
                       1.33374                    -126.68684                      15.24476
                       1.40699                    -132.84016                      16.08201
                       1.49106                    -138.97771                      17.04291
                       1.52490                    -142.05815                      17.42964
        </DataArray>
        <DataArray type="Float32" Name="OrientationX" NumberOfComponents="3" format="ascii">
                       0.98820                       0.06188                       0.14015
                       0.98820                       0.06188                       0.14015
                       0.98820                       0.06188                       0.14015
                       0.98820                       0.06188                       0.14015
                       0.98820                       0.06188                       0.14015
                       0.99230                       0.05952                       0.10860
                       0.99464                       0.05779                       0.08578
                       0.99625                       0.05625                       0.06581
                       0.99751                       0.05460                       0.04469
                       0.99834                       0.05287                       0.02294
                       0.99868                       0.05122                       0.00237
                       0.99861                       0.04956                      -0.01804
                       0.99818                       0.04803                      -0.03652
                       0.99762                       0.04687                      -0.05053
                       0.99688                       0.04571                      -0.06430
                       0.99612                       0.04474                      -0.07581
                       0.99546                       0.04401                      -0.08436
                       0.99508                       0.04362                      -0.08893
                       0.99508                       0.04362                      -0.08893
        </DataArray>
        <DataArray type="Float32" Name="OrientationY" NumberOfComponents="3" format="ascii">
                       0.14451                      -0.07278                      -0.98682
                       0.14451                      -0.07278                      -0.98682
                       0.14451                      -0.07278                      -0.98682
                       0.14451                      -0.07278                      -0.98682
                       0.14451                      -0.07278                      -0.98682
                       0.11291                      -0.07472                      -0.99079
                       0.09006                      -0.07607                      -0.99303
                       0.07006                      -0.07721                      -0.99455
                       0.04890                      -0.07839                      -0.99572
                       0.02711                      -0.07956                      -0.99646
                       0.00650                      -0.08064                      -0.99672
                      -0.01395                      -0.08167                      -0.99656
                      -0.03247                      -0.08257                      -0.99606
                      -0.04651                      -0.08324                      -0.99544
                      -0.06031                      -0.08388                      -0.99465
                      -0.07184                      -0.08441                      -0.99384
                      -0.08041                      -0.08479                      -0.99315
                      -0.08500                      -0.08499                      -0.99275
                      -0.08500                      -0.08499                      -0.99275
        </DataArray>
        <DataArray type="Float32" Name="OrientationZ" NumberOfComponents="3" format="ascii">
                      -0.05086                       0.99543                      -0.08086
                      -0.05086                       0.99543                      -0.08086
                      -0.05086                       0.99543                      -0.08086
                      -0.05086                       0.99543                      -0.08086
                      -0.05086                       0.99543                      -0.08086
                      -0.05086                       0.99543                      -0.08086
                      -0.05086                       0.99543                      -0.08086
                      -0.05086                       0.99543                      -0.08086
                      -0.05086                       0.99543                      -0.08086
                      -0.05086                       0.99543                      -0.08086
                      -0.05086                       0.99543                      -0.08086
                      -0.05086                       0.99543                      -0.08086
                      -0.05086                       0.99543                      -0.08086
                      -0.05086                       0.99543                      -0.08086
                      -0.05086                       0.99543                      -0.08086
                      -0.05086                       0.99543                      -0.08086
                      -0.05086                       0.99543                      -0.08086
                      -0.05086                       0.99543                      -0.08086
                      -0.05086                       0.99543                      -0.08086
        </DataArray>
        <DataArray type="Float32" Name="Force" NumberOfComponents="3" format="ascii">
                      -0.13955                      -0.13671                      -1.59507
                     155.55113                       3.22132                     -58.18197
                     186.16039                      -1.82155                    -139.51066
                     161.25188                      -6.80850                    -185.23251
                    1804.32687                     136.14394                     541.05139
                    2265.19670                     161.94759                     568.81949
                    2589.38858                     172.23930                     491.60397
                    3309.83043                     208.38914                     483.47074
                    3582.05501                     213.46285                     374.70826
                    4153.33113                     238.00945                     317.56091
                    5166.20455                     284.80654                     256.56488
                    5963.44787                     319.09295                     177.18792
                    7112.61058                     375.74333                     151.76301
                    7865.09263                     407.68367                      71.65958
                    8563.93366                     436.19544                     -16.91067
                    8986.72104                     450.33334                    -108.79311
                    8869.92429                     437.78228                    -189.83340
                    6558.75954                     320.60385                    -178.64153
                    3270.41564                     139.21819                    -343.21913
        </DataArray>
        <DataArray type="Float32" Name="Moment" NumberOfComponents="3" format="ascii">
                       0.00000                       0.00000                       0.00000
                       0.00000                       0.00000                       0.00000
                       0.00000                       0.00000                       0.00000
                       0.00000                       0.00000                       0.00000
                      28.08419                    -549.65274                      44.65165
                      49.01814                    -959.36387                      77.93499
                      65.65188                   -1284.91293                     104.38133
                      96.42541                   -1887.20057                     153.30884
                     130.41609                   -2552.45287                     207.35136
                     147.39294                   -2884.71714                     234.34321
                     160.03955                   -3132.23157                     254.45033
                     170.55698                   -3338.07464                     271.17222
                     150.96795                   -2954.68585                     240.02720
                     151.90070                   -2972.94125                     241.51020
                     148.62979                   -2908.92428                     236.30971
                     142.28603                   -2784.76671                     226.22363
                     126.88785                   -2483.39960                     201.74174
                      64.05983                   -1253.75406                     101.85011
                      55.76381                   -1091.38752                      88.66008
        </DataArray>
      </PointData>
      <Lines>
        <DataArray type="Int32" Name="connectivity" format="ascii">
      0      1
      1      2
      2      3
      3      4
      4      5
      5      6
      6      7
      7      8
      8      9
      9     10
     10     11
     11     12
     12     13
     13     14
     14     15
     15     16
     16     17
     17     18
        </DataArray>
        <DataArray type="Int32" Name="offsets" format="ascii">
      2
      4
      6
      8
     10
     12
     14
     16
     18
     20
     22
     24
     26
     28
     30
     32
     34
     36
        </DataArray>
      </Lines>
    </Piece>
  </PolyData>
</VTKFile>
