<?xml version="1.0"?>
<VTKFile type="PolyData" version="0.1" byte_order="LittleEndian">
  <PolyData>
    <Piece NumberOfPoints="     19" NumberOfVerts="  0" NumberOfLines="     18"
           NumberOfStrips="  0" NumberOfPolys="      0">
      <Points>
        <DataArray type="Float32" NumberOfComponents="3" format="ascii">
                      -5.15401                      -1.09865                      88.99043
                      -5.29536                      -2.09730                      88.06814
                      -5.60632                      -4.02942                      86.15711
                      -5.93068                      -5.93071                      84.21457
                      -6.34414                      -8.28895                      81.76753
                      -6.77862                     -11.21782                      78.92943
                      -7.18092                     -14.23588                      76.18348
                      -7.58532                     -17.25562                      73.43968
                      -7.98932                     -20.27835                      70.69908
                      -8.39386                     -23.30274                      67.96036
                      -8.80052                     -26.32626                      65.22102
                      -9.20846                     -29.34995                      62.48205
                      -9.61833                     -32.37378                      59.74354
                     -10.03085                     -35.39769                      57.00552
                     -10.44429                     -38.42164                      54.26768
                     -10.78946                     -40.94165                      51.98626
                     -11.06562                     -42.96298                      50.16699
                     -11.33958                     -45.02168                      48.38807
                     -11.47989                     -46.02263                      47.46828
        </DataArray>
      </Points>
      <PointData>
        <DataArray type="Float32" Name="TranslationalVelocity" NumberOfComponents="3" format="ascii">
                      -0.30924                       3.29137                      -3.53459
                      -0.59033                       6.29833                      -6.74745
                      -1.13416                      12.53405                     -12.96348
                      -1.66931                      18.87490                     -19.08032
                      -2.33309                      26.86393                     -26.66730
                      -3.15747                      36.11699                     -36.09007
                      -4.00696                      45.06451                     -45.79981
                      -4.85693                      54.00570                     -55.51495
                      -5.70773                      62.93652                     -65.23971
                      -6.55901                      71.86141                     -74.96981
                      -7.41004                      80.78891                     -84.69710
                      -8.26111                      89.71556                     -94.42493
                      -9.11223                      98.64130                    -104.15321
                      -9.96336                     107.56620                    -113.88177
                     -10.81451                     116.49075                    -123.61047
                     -11.52382                     123.92774                    -131.71787
                     -12.09276                     129.85842                    -138.22090
                     -12.67222                     135.65870                    -144.84418
                     -12.95396                     138.65736                    -148.06443
        </DataArray>
        <DataArray type="Float32" Name="RotationalVelocity" NumberOfComponents="3" format="ascii">
                       3.21721                      -0.00000                      -0.28147
                       3.21721                      -0.00000                      -0.28147
                       3.21721                      -0.00000                      -0.28147
                       3.21721                      -0.00000                      -0.28147
                       3.21721                      -0.00000                      -0.28147
                       3.21721                      -0.00000                      -0.28147
                       3.21721                      -0.00000                      -0.28147
                       3.21721                      -0.00000                      -0.28147
                       3.21721                      -0.00000                      -0.28147
                       3.21721                      -0.00000                      -0.28147
                       3.21721                      -0.00000                      -0.28147
                       3.21721                      -0.00000                      -0.28147
                       3.21721                      -0.00000                      -0.28147
                       3.21721                      -0.00000                      -0.28147
                       3.21721                      -0.00000                      -0.28147
                       3.21721                      -0.00000                      -0.28147
                       3.21721                      -0.00000                      -0.28147
                       3.21721                      -0.00000                      -0.28147
                       3.21721                      -0.00000                      -0.28147
        </DataArray>
        <DataArray type="Float32" Name="TranslationalAcceleration" NumberOfComponents="3" format="ascii">
                       0.92620                      11.46093                      10.58648
                       1.77236                      21.87866                      20.25819
                       3.52713                      42.03450                      40.31530
                       5.31150                      61.86887                      60.71073
                       7.55969                      86.47036                      86.40764
                      10.16355                     117.02411                     116.16988
                      12.68139                     148.50793                     144.94891
                      15.19744                     180.00928                     173.70758
                      17.71058                     211.54177                     202.43288
                      20.22205                     243.09158                     231.13909
                      22.73425                     274.63229                     259.85372
                      25.24622                     306.17475                     288.56559
                      27.75793                     337.71870                     317.27455
                      30.26940                     369.26352                     345.98078
                      32.78077                     400.80878                     374.68592
                      34.87354                     427.09700                     398.60642
                      36.54244                     448.18302                     417.68196
                      38.17462                     469.65879                     436.33789
                      39.01845                     480.10047                     445.98288
        </DataArray>
        <DataArray type="Float32" Name="OrientationX" NumberOfComponents="3" format="ascii">
                       0.95130                       0.12543                      -0.28161
                       0.95130                       0.12543                      -0.28161
                       0.95130                       0.12543                      -0.28161
                       0.95130                       0.12543                      -0.28161
                       0.95130                       0.12543                      -0.28161
                       0.96009                       0.10402                      -0.25965
                       0.96582                       0.08851                      -0.24365
                       0.97040                       0.07493                      -0.22957
                       0.97482                       0.06056                      -0.21460
                       0.97891                       0.04574                      -0.19910
                       0.98235                       0.03170                      -0.18435
                       0.98534                       0.01777                      -0.16965
                       0.98770                       0.00514                      -0.15627
                       0.98926                      -0.00443                      -0.14608
                       0.99061                      -0.01386                      -0.13603
                       0.99159                      -0.02173                      -0.12761
                       0.99223                      -0.02759                      -0.12134
                       0.99254                      -0.03072                      -0.11798
                       0.99254                      -0.03072                      -0.11798
        </DataArray>
        <DataArray type="Float32" Name="OrientationY" NumberOfComponents="3" format="ascii">
                       0.29068                      -0.66919                       0.68388
                       0.29068                      -0.66919                       0.68388
                       0.29068                      -0.66919                       0.68388
                       0.29068                      -0.66919                       0.68388
                       0.29068                      -0.66919                       0.68388
                       0.26018                      -0.67285                       0.69252
                       0.23803                      -0.67506                       0.69831
                       0.21858                      -0.67670                       0.70306
                       0.19794                      -0.67814                       0.70778
                       0.17661                      -0.67930                       0.71229
                       0.15636                      -0.68010                       0.71625
                       0.13622                      -0.68061                       0.71987
                       0.11792                      -0.68082                       0.72290
                       0.10401                      -0.68082                       0.72502
                       0.09031                      -0.68070                       0.72698
                       0.07884                      -0.68049                       0.72850
                       0.07031                      -0.68028                       0.72957
                       0.06573                      -0.68014                       0.73012
                       0.06573                      -0.68014                       0.73012
        </DataArray>
        <DataArray type="Float32" Name="OrientationZ" NumberOfComponents="3" format="ascii">
                      -0.10267                      -0.73243                      -0.67305
                      -0.10267                      -0.73243                      -0.67305
                      -0.10267                      -0.73243                      -0.67305
                      -0.10267                      -0.73243                      -0.67305
                      -0.10267                      -0.73243                      -0.67305
                      -0.10267                      -0.73243                      -0.67305
                      -0.10267                      -0.73243                      -0.67305
                      -0.10267                      -0.73243                      -0.67305
                      -0.10267                      -0.73243                      -0.67305
                      -0.10267                      -0.73243                      -0.67305
                      -0.10267                      -0.73243                      -0.67305
                      -0.10267                      -0.73243                      -0.67305
                      -0.10267                      -0.73243                      -0.67305
                      -0.10267                      -0.73243                      -0.67305
                      -0.10267                      -0.73243                      -0.67305
                      -0.10267                      -0.73243                      -0.67305
                      -0.10267                      -0.73243                      -0.67305
                      -0.10267                      -0.73243                      -0.67305
                      -0.10267                      -0.73243                      -0.67305
        </DataArray>
        <DataArray type="Float32" Name="Force" NumberOfComponents="3" format="ascii">
                       2.22762                     -23.70979                      25.46183
                     191.98491                    -123.94636                     105.59560
                     338.87905                    -361.73747                     341.95856
                     367.72306                    -529.58368                     520.21344
                    1306.70379                     100.25293                    -308.42855
                    1012.30946                      38.05796                    -195.83802
                     771.40792                     -29.47415                     -85.59949
                    1655.94042                       5.61688                    -258.71713
                    2614.11282                       5.62521                    -404.89017
                    3585.30951                     -27.53892                    -516.95081
                    6163.95812                    -108.15370                    -822.58237
                    8060.42975                    -213.44902                    -997.29351
                    9903.96672                    -283.08903                   -1202.73084
                   12184.24758                    -403.01000                   -1420.07394
                   14894.39321                    -543.32057                   -1680.80205
                   17448.83343                    -675.82669                   -1926.27116
                   15494.10398                    -779.06343                   -1515.74277
                   16548.05217                    -584.93373                   -1887.77412
                   15439.82115                    -639.28254                   -1659.57565
        </DataArray>
        <DataArray type="Float32" Name="Moment" NumberOfComponents="3" format="ascii">
                       0.00000                       0.00000                       0.00000
                       0.00000                       0.00000                       0.00000
                       0.00000                       0.00000                       0.00000
                       0.00000                       0.00000                       0.00000
                     153.53473                    1095.29139                    1006.49107
                     303.57180                    2165.63110                    1990.05341
                     414.31942                    2955.68632                    2716.05521
                     705.96903                    5036.26649                    4627.95315
                    1059.91534                    7561.26101                    6948.23473
                    1214.27969                    8662.47081                    7960.16438
                    1368.05050                    9759.44637                    8968.20308
                    1467.90246                   10471.77374                    9622.77878
                    1138.62709                    8122.77766                    7464.22664
                    1151.98321                    8218.05798                    7551.78214
                    1134.76381                    8095.21767                    7438.90107
                    1102.45682                    7864.74488                    7227.11376
                     971.81209                    6932.74696                    6370.67721
                     522.64381                    3728.45465                    3426.17165
                     531.66231                    3792.79112                    3485.29207
        </DataArray>
      </PointData>
      <Lines>
        <DataArray type="Int32" Name="connectivity" format="ascii">
      0      1
      1      2
      2      3
      3      4
      4      5
      5      6
      6      7
      7      8
      8      9
      9     10
     10     11
     11     12
     12     13
     13     14
     14     15
     15     16
     16     17
     17     18
        </DataArray>
        <DataArray type="Int32" Name="offsets" format="ascii">
      2
      4
      6
      8
     10
     12
     14
     16
     18
     20
     22
     24
     26
     28
     30
     32
     34
     36
        </DataArray>
      </Lines>
    </Piece>
  </PolyData>
</VTKFile>
