<?xml version="1.0"?>
<VTKFile type="PolyData" version="0.1" byte_order="LittleEndian">
  <PolyData>
    <Piece NumberOfPoints="     19" NumberOfVerts="  0" NumberOfLines="     18"
           NumberOfStrips="  0" NumberOfPolys="      0">
      <Points>
        <DataArray type="Float32" NumberOfComponents="3" format="ascii">
                      -5.18912                      -0.47285                      88.58910
                      -5.36233                      -0.90040                      87.30260
                      -5.73356                      -1.66531                      84.70281
                      -6.11653                      -2.38754                      82.09028
                      -6.60228                      -3.26484                      78.81695
                      -7.12878                      -4.45409                      74.92718
                      -7.62784                      -5.76705                      71.07519
                      -8.12910                      -7.08243                      67.22430
                      -8.63011                      -8.40197                      63.37478
                      -9.13176                      -9.72385                      59.52613
                      -9.63548                     -11.04458                      55.67736
                     -10.14049                     -12.36558                      51.82886
                     -10.64745                     -13.68684                      47.98071
                     -11.15705                     -15.00830                      44.13298
                     -11.66758                     -16.32985                      40.28541
                     -12.09366                     -17.43120                      37.07917
                     -12.43484                     -18.31976                      34.51678
                     -12.77581                     -19.26052                      31.97187
                     -12.94811                     -19.69131                      30.68644
        </DataArray>
      </Points>
      <PointData>
        <DataArray type="Float32" Name="TranslationalVelocity" NumberOfComponents="3" format="ascii">
                      -0.03265                       1.12672                      -0.37323
                      -0.06218                       2.15416                      -0.71071
                      -0.11500                       4.23188                      -1.31448
                      -0.16488                       6.32046                      -1.88455
                      -0.22546                       8.93774                      -2.57703
                      -0.30759                      12.04440                      -3.51574
                      -0.39826                      15.11935                      -4.55209
                      -0.48909                      18.19357                      -5.59036
                      -0.58022                      21.26671                      -6.63191
                      -0.67150                      24.33920                      -7.67530
                      -0.76271                      27.41192                      -8.71779
                      -0.85393                      30.48452                      -9.76049
                      -0.94517                      33.55698                     -10.80340
                      -1.03643                      36.62929                     -11.84646
                      -1.12769                      39.70154                     -12.88960
                      -1.20375                      42.26174                     -13.75893
                      -1.26511                      44.30786                     -14.46029
                      -1.33008                      46.34018                     -15.20286
                      -1.35983                      47.36670                     -15.54290
        </DataArray>
        <DataArray type="Float32" Name="RotationalVelocity" NumberOfComponents="3" format="ascii">
                       0.78933                      -0.00000                      -0.06906
                       0.78933                      -0.00000                      -0.06906
                       0.78933                      -0.00000                      -0.06906
                       0.78933                      -0.00000                      -0.06906
                       0.78933                      -0.00000                      -0.06906
                       0.78933                      -0.00000                      -0.06906
                       0.78933                      -0.00000                      -0.06906
                       0.78933                      -0.00000                      -0.06906
                       0.78933                      -0.00000                      -0.06906
                       0.78933                      -0.00000                      -0.06906
                       0.78933                      -0.00000                      -0.06906
                       0.78933                      -0.00000                      -0.06906
                       0.78933                      -0.00000                      -0.06906
                       0.78933                      -0.00000                      -0.06906
                       0.78933                      -0.00000                      -0.06906
                       0.78933                      -0.00000                      -0.06906
                       0.78933                      -0.00000                      -0.06906
                       0.78933                      -0.00000                      -0.06906
                       0.78933                      -0.00000                      -0.06906
        </DataArray>
        <DataArray type="Float32" Name="TranslationalAcceleration" NumberOfComponents="3" format="ascii">
                       0.07436                       0.41575                       0.84997
                       0.14220                       0.79258                       1.62534
                       0.28011                       1.49205                       3.20163
                       0.41908                       2.16585                       4.79006
                       0.59342                       2.99281                       6.78287
                       0.79930                       4.06724                       9.13599
                       1.00208                       5.21600                      11.45378
                       1.20479                       6.36620                      13.77079
                       1.40739                       7.51889                      16.08659
                       1.60994                       8.67299                      18.40169
                       1.81251                       9.82639                      20.71707
                       2.01507                      10.97994                      23.03233
                       2.21762                      12.13365                      25.34746
                       2.42015                      13.28746                      27.66246
                       2.62268                      14.44133                      29.97740
                       2.79146                      15.40292                      31.90650
                       2.92628                      16.17667                      33.44755
                       3.05977                      16.98174                      34.97336
                       3.12752                      17.36051                      35.74774
        </DataArray>
        <DataArray type="Float32" Name="OrientationX" NumberOfComponents="3" format="ascii">
                       0.95868                       0.20503                      -0.19722
                       0.95868                       0.20503                      -0.19722
                       0.95868                       0.20503                      -0.19722
                       0.95868                       0.20503                      -0.19722
                       0.95868                       0.20503                      -0.19722
                       0.96633                       0.17537                      -0.18830
                       0.97123                       0.15387                      -0.18175
                       0.97509                       0.13503                      -0.17595
                       0.97875                       0.11506                      -0.16975
                       0.98204                       0.09447                      -0.16329
                       0.98473                       0.07495                      -0.15711
                       0.98698                       0.05557                      -0.15092
                       0.98867                       0.03799                      -0.14525
                       0.98971                       0.02464                      -0.14092
                       0.99056                       0.01151                      -0.13663
                       0.99111                       0.00053                      -0.13303
                       0.99144                      -0.00764                      -0.13033
                       0.99159                      -0.01201                      -0.12889
                       0.99159                      -0.01201                      -0.12889
        </DataArray>
        <DataArray type="Float32" Name="OrientationY" NumberOfComponents="3" format="ascii">
                       0.25502                      -0.92660                       0.27636
                       0.25502                      -0.92660                       0.27636
                       0.25502                      -0.92660                       0.27636
                       0.25502                      -0.92660                       0.27636
                       0.25502                      -0.92660                       0.27636
                       0.22431                      -0.93267                       0.28251
                       0.20203                      -0.93646                       0.28676
                       0.18248                      -0.93936                       0.29036
                       0.16174                      -0.94201                       0.29403
                       0.14033                      -0.94430                       0.29766
                       0.12003                      -0.94605                       0.30097
                       0.09985                      -0.94739                       0.30412
                       0.08152                      -0.94825                       0.30687
                       0.06760                      -0.94869                       0.30888
                       0.05390                      -0.94894                       0.31080
                       0.04243                      -0.94901                       0.31236
                       0.03390                      -0.94898                       0.31350
                       0.02934                      -0.94894                       0.31409
                       0.02934                      -0.94894                       0.31409
        </DataArray>
        <DataArray type="Float32" Name="OrientationZ" NumberOfComponents="3" format="ascii">
                      -0.12608                      -0.31523                      -0.94060
                      -0.12608                      -0.31523                      -0.94060
                      -0.12608                      -0.31523                      -0.94060
                      -0.12608                      -0.31523                      -0.94060
                      -0.12608                      -0.31523                      -0.94060
                      -0.12608                      -0.31523                      -0.94060
                      -0.12608                      -0.31523                      -0.94060
                      -0.12608                      -0.31523                      -0.94060
                      -0.12608                      -0.31523                      -0.94060
                      -0.12608                      -0.31523                      -0.94060
                      -0.12608                      -0.31523                      -0.94060
                      -0.12608                      -0.31523                      -0.94060
                      -0.12608                      -0.31523                      -0.94060
                      -0.12608                      -0.31523                      -0.94060
                      -0.12608                      -0.31523                      -0.94060
                      -0.12608                      -0.31523                      -0.94060
                      -0.12608                      -0.31523                      -0.94060
                      -0.12608                      -0.31523                      -0.94060
                      -0.12608                      -0.31523                      -0.94060
        </DataArray>
        <DataArray type="Float32" Name="Force" NumberOfComponents="3" format="ascii">
                       0.07936                      -2.73840                       0.90711
                     122.56719                     -35.48119                      -4.53773
                     152.47289                     -74.13583                       4.40841
                     131.15779                     -87.24677                      11.65947
                    1074.25250                     328.77605                    -254.17824
                    1145.50888                     312.88330                    -258.40314
                    1437.00556                     399.80797                    -326.60713
                    1591.18027                     448.76217                    -363.67914
                    1789.93973                     490.94319                    -404.45731
                    2064.99354                     511.92868                    -448.35851
                    2366.59832                     567.96677                    -507.56608
                    2684.48452                     581.60063                    -554.74469
                    3361.68119                     636.37103                    -663.87164
                    3606.86043                     633.03284                    -695.61663
                    3784.99305                     614.39852                    -713.24838
                    3861.95173                     563.29834                    -706.43822
                    3737.69864                     483.62891                    -663.08302
                    2673.25930                     304.05357                    -460.22315
                     935.72677                     -25.19667                    -116.98014
        </DataArray>
        <DataArray type="Float32" Name="Moment" NumberOfComponents="3" format="ascii">
                       0.00000                       0.00000                       0.00000
                       0.00000                       0.00000                       0.00000
                       0.00000                       0.00000                       0.00000
                       0.00000                       0.00000                       0.00000
                      58.16668                     145.43408                     433.95117
                      71.94540                     179.88498                     536.74696
                      75.30979                     188.29695                     561.84689
                      86.61569                     216.56508                     646.19430
                      79.76297                     199.43124                     595.06976
                      82.08748                     205.24321                     612.41172
                      77.67157                     194.20211                     579.46690
                      85.74815                     214.39597                     639.72203
                     107.11256                     267.81339                     799.11076
                     106.09091                     265.25895                     791.48873
                     102.93876                     257.37763                     767.97217
                      98.28607                     245.74451                     733.26090
                      88.04150                     220.13003                     656.83153
                      44.75821                     111.90888                     333.91754
                      39.62006                      99.06198                     295.58454
        </DataArray>
      </PointData>
      <Lines>
        <DataArray type="Int32" Name="connectivity" format="ascii">
      0      1
      1      2
      2      3
      3      4
      4      5
      5      6
      6      7
      7      8
      8      9
      9     10
     10     11
     11     12
     12     13
     13     14
     14     15
     15     16
     16     17
     17     18
        </DataArray>
        <DataArray type="Int32" Name="offsets" format="ascii">
      2
      4
      6
      8
     10
     12
     14
     16
     18
     20
     22
     24
     26
     28
     30
     32
     34
     36
        </DataArray>
      </Lines>
    </Piece>
  </PolyData>
</VTKFile>
