<?xml version="1.0"?>
<VTKFile type="PolyData" version="0.1" byte_order="LittleEndian">
  <PolyData>
    <Piece NumberOfPoints="     19" NumberOfVerts="  0" NumberOfLines="     18"
           NumberOfStrips="  0" NumberOfPolys="      0">
      <Points>
        <DataArray type="Float32" NumberOfComponents="3" format="ascii">
                      -5.12596                      -1.32642                      89.31098
                      -5.24180                      -2.53332                      88.68023
                      -5.50303                      -4.90212                      87.33771
                      -5.77826                      -7.24965                      85.95679
                      -6.13065                     -10.17141                      84.20768
                      -6.48993                     -13.74612                      82.22924
                      -6.81527                     -17.38227                      80.36286
                      -7.14269                     -21.01953                      78.49901
                      -7.46964                     -24.65884                      76.63901
                      -7.79711                     -28.29926                      74.78127
                      -8.12671                     -31.93906                      72.92271
                      -8.45759                     -35.57895                      71.06455
                      -8.79040                     -39.21891                      69.20688
                      -9.12585                     -42.85888                      67.34971
                      -9.46223                     -46.49886                      65.49274
                      -9.74317                     -49.53221                      63.94537
                      -9.96785                     -51.96250                      62.71453
                     -10.18960                     -54.41834                      61.53236
                     -10.30436                     -55.62680                      60.90461
        </DataArray>
      </Points>
      <PointData>
        <DataArray type="Float32" Name="TranslationalVelocity" NumberOfComponents="3" format="ascii">
                      -0.33781                       2.03783                      -3.86118
                      -0.64518                       3.90343                      -7.37448
                      -1.24847                       7.87803                     -14.27004
                      -1.84633                      11.96796                     -21.10367
                      -2.59044                      17.14938                     -29.60891
                      -3.50085                      23.00010                     -40.01487
                      -4.42690                      28.51595                     -50.59966
                      -5.35323                      34.02500                     -61.18770
                      -6.28008                      39.52271                     -71.78169
                      -7.20722                      45.01398                     -82.37895
                      -8.13420                      50.50819                     -92.97437
                      -9.06121                      56.00153                    -103.57007
                      -9.98823                      61.49397                    -114.16595
                     -10.91525                      66.98560                    -124.76187
                     -11.84228                      72.47691                    -135.35783
                     -12.61481                      77.05284                    -144.18790
                     -13.23375                      80.69301                    -151.26245
                     -13.85920                      84.19079                    -158.41139
                     -14.16697                      86.04739                    -161.92919
        </DataArray>
        <DataArray type="Float32" Name="RotationalVelocity" NumberOfComponents="3" format="ascii">
                       2.91099                      -0.00000                      -0.25468
                       2.91099                      -0.00000                      -0.25468
                       2.91099                      -0.00000                      -0.25468
                       2.91099                      -0.00000                      -0.25468
                       2.91099                      -0.00000                      -0.25468
                       2.91099                      -0.00000                      -0.25468
                       2.91099                      -0.00000                      -0.25468
                       2.91099                      -0.00000                      -0.25468
                       2.91099                      -0.00000                      -0.25468
                       2.91099                      -0.00000                      -0.25468
                       2.91099                      -0.00000                      -0.25468
                       2.91099                      -0.00000                      -0.25468
                       2.91099                      -0.00000                      -0.25468
                       2.91099                      -0.00000                      -0.25468
                       2.91099                      -0.00000                      -0.25468
                       2.91099                      -0.00000                      -0.25468
                       2.91099                      -0.00000                      -0.25468
                       2.91099                      -0.00000                      -0.25468
                       2.91099                      -0.00000                      -0.25468
        </DataArray>
        <DataArray type="Float32" Name="TranslationalAcceleration" NumberOfComponents="3" format="ascii">
                       0.51717                      11.33690                       5.91129
                       0.99064                      21.65241                      11.32309
                       1.99964                      41.90040                      22.85595
                       3.03803                      61.96737                      34.72488
                       4.35362                      86.94350                      49.76209
                       5.83877                     117.49856                      66.73740
                       7.23855                     148.57640                      82.73695
                       8.63659                     179.66370                      98.71667
                      10.03174                     210.76841                     114.66335
                      11.42525                     241.88269                     130.59126
                      12.81952                     272.99159                     146.52776
                      14.21356                     304.10129                     162.46170
                      15.60737                     335.21152                     178.39303
                      17.00097                     366.32187                     194.32202
                      18.39450                     397.43232                     210.25005
                      19.55572                     423.35800                     223.52294
                      20.47946                     444.12922                     234.08131
                      21.36690                     465.11789                     244.22479
                      21.83808                     475.44656                     249.61037
        </DataArray>
        <DataArray type="Float32" Name="OrientationX" NumberOfComponents="3" format="ascii">
                       0.94904                       0.06955                      -0.30738
                       0.94904                       0.06955                      -0.30738
                       0.94904                       0.06955                      -0.30738
                       0.94904                       0.06955                      -0.30738
                       0.94904                       0.06955                      -0.30738
                       0.95825                       0.05478                      -0.28064
                       0.96428                       0.04410                      -0.26118
                       0.96913                       0.03476                      -0.24407
                       0.97383                       0.02487                      -0.22589
                       0.97821                       0.01468                      -0.20709
                       0.98192                       0.00504                      -0.18921
                       0.98519                      -0.00452                      -0.17140
                       0.98779                      -0.01318                      -0.15520
                       0.98954                      -0.01975                      -0.14288
                       0.99107                      -0.02620                      -0.13074
                       0.99220                      -0.03159                      -0.12056
                       0.99296                      -0.03560                      -0.11299
                       0.99333                      -0.03775                      -0.10893
                       0.99333                      -0.03775                      -0.10893
        </DataArray>
        <DataArray type="Float32" Name="OrientationY" NumberOfComponents="3" format="ascii">
                       0.30376                      -0.46175                       0.83338
                       0.30376                      -0.46175                       0.83338
                       0.30376                      -0.46175                       0.83338
                       0.30376                      -0.46175                       0.83338
                       0.30376                      -0.46175                       0.83338
                       0.27333                      -0.46374                       0.84276
                       0.25121                      -0.46488                       0.84899
                       0.23179                      -0.46567                       0.85406
                       0.21117                      -0.46630                       0.85905
                       0.18986                      -0.46673                       0.86378
                       0.16963                      -0.46694                       0.86787
                       0.14949                      -0.46694                       0.87156
                       0.13119                      -0.46678                       0.87459
                       0.11728                      -0.46655                       0.87669
                       0.10357                      -0.46623                       0.87858
                       0.09210                      -0.46589                       0.88004
                       0.08356                      -0.46560                       0.88104
                       0.07898                      -0.46543                       0.88155
                       0.07898                      -0.46543                       0.88155
        </DataArray>
        <DataArray type="Float32" Name="OrientationZ" NumberOfComponents="3" format="ascii">
                      -0.08397                      -0.88428                      -0.45935
                      -0.08397                      -0.88428                      -0.45935
                      -0.08397                      -0.88428                      -0.45935
                      -0.08397                      -0.88428                      -0.45935
                      -0.08397                      -0.88428                      -0.45935
                      -0.08397                      -0.88428                      -0.45935
                      -0.08397                      -0.88428                      -0.45935
                      -0.08397                      -0.88428                      -0.45935
                      -0.08397                      -0.88428                      -0.45935
                      -0.08397                      -0.88428                      -0.45935
                      -0.08397                      -0.88428                      -0.45935
                      -0.08397                      -0.88428                      -0.45935
                      -0.08397                      -0.88428                      -0.45935
                      -0.08397                      -0.88428                      -0.45935
                      -0.08397                      -0.88428                      -0.45935
                      -0.08397                      -0.88428                      -0.45935
                      -0.08397                      -0.88428                      -0.45935
                      -0.08397                      -0.88428                      -0.45935
                      -0.08397                      -0.88428                      -0.45935
        </DataArray>
        <DataArray type="Float32" Name="Force" NumberOfComponents="3" format="ascii">
                       2.36083                     -14.24162                      26.98438
                     198.21099                     -78.63992                     115.15152
                     327.75065                    -217.00962                     357.84025
                     348.77370                    -309.88871                     532.79479
                    1497.35321                      86.42130                    -440.09764
                    1337.80327                      41.58375                    -324.61534
                    1275.02961                      -1.22936                    -230.72187
                    2209.82806                       9.21680                    -421.72208
                    2994.58504                     -16.57320                    -515.53642
                    3906.27836                     -54.63422                    -608.93356
                    6158.03680                    -142.79267                    -850.86781
                    7821.80421                    -234.35121                    -978.76590
                    9620.38757                    -302.86800                   -1175.66647
                   11577.64365                    -405.35691                   -1336.17567
                   13856.47090                    -523.11542                   -1526.07650
                   15979.68064                    -628.81769                   -1710.73784
                   17353.01294                    -721.00463                   -1784.33170
                   14910.42203                    -548.27133                   -1670.32293
                   12687.40540                    -572.74080                   -1216.82754
        </DataArray>
        <DataArray type="Float32" Name="Moment" NumberOfComponents="3" format="ascii">
                       0.00000                       0.00000                       0.00000
                       0.00000                       0.00000                       0.00000
                       0.00000                       0.00000                       0.00000
                       0.00000                       0.00000                       0.00000
                     118.36350                    1246.41139                     647.46644
                     216.03415                    2274.91954                    1181.73989
                     291.86453                    3073.44147                    1596.54366
                     488.82520                    5147.51017                    2673.94867
                     723.99436                    7623.92844                    3960.35998
                     827.57039                    8714.62230                    4526.93670
                     928.22735                    9774.57735                    5077.54569
                     995.10571                   10478.83119                    5443.38054
                     773.60849                    8146.38350                    4231.75683
                     783.52324                    8250.78951                    4285.99204
                     775.29361                    8164.12849                    4240.97472
                     752.57413                    7924.88392                    4116.69567
                     684.59824                    7209.07272                    3744.85717
                     359.67884                    3787.55124                    1967.49831
                     356.93986                    3758.70873                    1952.51565
        </DataArray>
      </PointData>
      <Lines>
        <DataArray type="Int32" Name="connectivity" format="ascii">
      0      1
      1      2
      2      3
      3      4
      4      5
      5      6
      6      7
      7      8
      8      9
      9     10
     10     11
     11     12
     12     13
     13     14
     14     15
     15     16
     16     17
     17     18
        </DataArray>
        <DataArray type="Int32" Name="offsets" format="ascii">
      2
      4
      6
      8
     10
     12
     14
     16
     18
     20
     22
     24
     26
     28
     30
     32
     34
     36
        </DataArray>
      </Lines>
    </Piece>
  </PolyData>
</VTKFile>
