<?xml version="1.0"?>
<VTKFile type="PolyData" version="0.1" byte_order="LittleEndian">
  <PolyData>
    <Piece NumberOfPoints="     19" NumberOfVerts="  0" NumberOfLines="     18"
           NumberOfStrips="  0" NumberOfPolys="      0">
      <Points>
        <DataArray type="Float32" NumberOfComponents="3" format="ascii">
                      -5.17898                      -0.73534                      88.70492
                      -5.34302                      -1.40231                      87.52334
                      -5.69734                      -2.65323                      85.11679
                      -6.06410                      -3.86486                      82.68965
                      -6.52998                      -5.35596                      79.64336
                      -7.03044                      -7.27106                      76.05118
                      -7.50147                      -9.29997                      72.51955
                      -7.97466                     -11.33108                      68.98947
                      -8.44754                     -13.36601                      65.46151
                      -8.92103                     -15.40308                      61.93486
                      -9.39659                     -17.43908                      58.40788
                      -9.87345                     -19.47532                      54.88121
                     -10.35224                     -21.51178                      51.35494
                     -10.83368                     -23.54839                      47.82912
                     -11.31605                     -25.58509                      44.30348
                     -11.71865                     -27.28239                      41.36552
                     -12.04093                     -28.64708                      39.01914
                     -12.36217                     -30.05968                      36.69982
                     -12.52523                     -30.72963                      35.51992
        </DataArray>
      </Points>
      <PointData>
        <DataArray type="Float32" Name="TranslationalVelocity" NumberOfComponents="3" format="ascii">
                      -0.10540                       2.14737                      -1.20469
                      -0.20099                       4.10663                      -2.29738
                      -0.38029                       8.10002                      -4.34674
                      -0.55395                      12.12893                      -6.33173
                      -0.76768                      17.18639                      -8.77457
                      -1.04217                      23.14313                     -11.91205
                      -1.33298                      28.99645                     -15.23597
                      -1.62410                      34.84755                     -18.56350
                      -1.91577                      40.69511                     -21.89730
                      -2.20774                      46.54063                     -25.23460
                      -2.49956                      52.38699                     -28.57013
                      -2.79142                      58.23301                     -31.90607
                      -3.08331                      64.07866                     -35.24236
                      -3.37522                      69.92395                     -38.57891
                      -3.66714                      75.76909                     -41.91559
                      -3.91041                      80.63999                     -44.69624
                      -4.10602                      84.53022                     -46.93199
                      -4.30849                      88.37596                     -49.24624
                      -4.40451                      90.33235                     -50.34380
        </DataArray>
        <DataArray type="Float32" Name="RotationalVelocity" NumberOfComponents="3" format="ascii">
                       1.63828                      -0.00000                      -0.14333
                       1.63828                      -0.00000                      -0.14333
                       1.63828                      -0.00000                      -0.14333
                       1.63828                      -0.00000                      -0.14333
                       1.63828                      -0.00000                      -0.14333
                       1.63828                      -0.00000                      -0.14333
                       1.63828                      -0.00000                      -0.14333
                       1.63828                      -0.00000                      -0.14333
                       1.63828                      -0.00000                      -0.14333
                       1.63828                      -0.00000                      -0.14333
                       1.63828                      -0.00000                      -0.14333
                       1.63828                      -0.00000                      -0.14333
                       1.63828                      -0.00000                      -0.14333
                       1.63828                      -0.00000                      -0.14333
                       1.63828                      -0.00000                      -0.14333
                       1.63828                      -0.00000                      -0.14333
                       1.63828                      -0.00000                      -0.14333
                       1.63828                      -0.00000                      -0.14333
                       1.63828                      -0.00000                      -0.14333
        </DataArray>
        <DataArray type="Float32" Name="TranslationalAcceleration" NumberOfComponents="3" format="ascii">
                       0.30246                       2.09722                       3.45713
                       0.57845                       4.00004                       6.61176
                       1.14177                       7.58492                      13.05052
                       1.71047                      11.06533                      19.55072
                       2.42456                      15.35353                      27.71285
                       3.26448                      20.83389                      37.31317
                       4.08875                      26.61682                      46.73463
                       4.91269                      32.40558                      56.15226
                       5.73609                      38.20450                      65.56380
                       6.55918                      44.00911                      74.97181
                       7.38240                      49.81085                      84.38127
                       8.20558                      55.61323                      93.79016
                       9.02869                      61.41618                     103.19844
                       9.85176                      67.21955                     112.60610
                      10.67480                      73.02311                     122.01351
                      11.36066                      77.85957                     129.85295
                      11.90837                      81.74693                     136.11328
                      12.44935                      85.76163                     142.29677
                      12.72491                      87.67234                     145.44644
        </DataArray>
        <DataArray type="Float32" Name="OrientationX" NumberOfComponents="3" format="ascii">
                       0.95545                       0.17974                      -0.23410
                       0.95545                       0.17974                      -0.23410
                       0.95545                       0.17974                      -0.23410
                       0.95545                       0.17974                      -0.23410
                       0.95545                       0.17974                      -0.23410
                       0.96358                       0.15244                      -0.21972
                       0.96883                       0.13266                      -0.20922
                       0.97299                       0.11533                      -0.19996
                       0.97697                       0.09697                      -0.19008
                       0.98060                       0.07804                      -0.17983
                       0.98360                       0.06010                      -0.17006
                       0.98616                       0.04229                      -0.16030
                       0.98813                       0.02613                      -0.15140
                       0.98939                       0.01387                      -0.14461
                       0.99044                       0.00181                      -0.13791
                       0.99118                      -0.00828                      -0.13228
                       0.99164                      -0.01578                      -0.12809
                       0.99185                      -0.01979                      -0.12584
                       0.99185                      -0.01979                      -0.12584
        </DataArray>
        <DataArray type="Float32" Name="OrientationY" NumberOfComponents="3" format="ascii">
                       0.26995                      -0.85286                       0.44694
                       0.26995                      -0.85286                       0.44694
                       0.26995                      -0.85286                       0.44694
                       0.26995                      -0.85286                       0.44694
                       0.26995                      -0.85286                       0.44694
                       0.23933                      -0.85816                       0.45418
                       0.21710                      -0.86144                       0.45911
                       0.19760                      -0.86393                       0.46322
                       0.17691                      -0.86618                       0.46736
                       0.15554                      -0.86809                       0.47140
                       0.13526                      -0.86952                       0.47501
                       0.11509                      -0.87057                       0.47840
                       0.09678                      -0.87120                       0.48129
                       0.08287                      -0.87149                       0.48337
                       0.06917                      -0.87159                       0.48533
                       0.05770                      -0.87156                       0.48689
                       0.04917                      -0.87145                       0.48801
                       0.04460                      -0.87137                       0.48859
                       0.04460                      -0.87137                       0.48859
        </DataArray>
        <DataArray type="Float32" Name="OrientationZ" NumberOfComponents="3" format="ascii">
                      -0.11932                      -0.49023                      -0.86339
                      -0.11932                      -0.49023                      -0.86339
                      -0.11932                      -0.49023                      -0.86339
                      -0.11932                      -0.49023                      -0.86339
                      -0.11932                      -0.49023                      -0.86339
                      -0.11932                      -0.49023                      -0.86339
                      -0.11932                      -0.49023                      -0.86339
                      -0.11932                      -0.49023                      -0.86339
                      -0.11932                      -0.49023                      -0.86339
                      -0.11932                      -0.49023                      -0.86339
                      -0.11932                      -0.49023                      -0.86339
                      -0.11932                      -0.49023                      -0.86339
                      -0.11932                      -0.49023                      -0.86339
                      -0.11932                      -0.49023                      -0.86339
                      -0.11932                      -0.49023                      -0.86339
                      -0.11932                      -0.49023                      -0.86339
                      -0.11932                      -0.49023                      -0.86339
                      -0.11932                      -0.49023                      -0.86339
                      -0.11932                      -0.49023                      -0.86339
        </DataArray>
        <DataArray type="Float32" Name="Force" NumberOfComponents="3" format="ascii">
                       0.44705                      -9.10823                       5.10980
                     140.72248                     -69.03516                      19.74942
                     205.31075                    -167.39297                      66.66999
                     199.22002                    -220.78754                      97.82879
                    1713.07165                     545.17427                    -546.29721
                    2086.18196                     520.60471                    -583.91167
                    2371.17911                     468.71689                    -593.83755
                    3080.18330                     496.62201                    -707.66822
                    3347.26918                     418.37853                    -700.15415
                    3878.97475                     390.29987                    -757.69448
                    4905.58920                     372.38123                    -889.40137
                    5616.24503                     321.81066                    -958.90238
                    6703.57913                     334.97936                   -1116.65206
                    7371.99739                     282.81098                   -1179.40849
                    8057.52363                     230.25158                   -1244.30728
                    8607.43844                     182.54333                   -1293.21864
                    8738.23858                     140.53241                   -1287.44209
                    6670.32232                      97.26902                    -977.08569
                    4009.14641                    -134.36803                    -477.78197
        </DataArray>
        <DataArray type="Float32" Name="Moment" NumberOfComponents="3" format="ascii">
                       0.00000                       0.00000                       0.00000
                       0.00000                       0.00000                       0.00000
                       0.00000                       0.00000                       0.00000
                       0.00000                       0.00000                       0.00000
                      71.02077                     291.78193                     513.88815
                     145.25795                     596.77818                    1051.04946
                     189.66683                     779.22774                    1372.38076
                     271.25441                    1114.42240                    1962.72767
                     377.88444                    1552.50151                    2734.27535
                     424.27098                    1743.07613                    3069.91655
                     457.65351                    1880.22500                    3311.46400
                     485.31530                    1993.87076                    3511.61762
                     409.43633                    1682.12940                    2962.57679
                     410.38862                    1686.04179                    2969.46733
                     400.60958                    1645.86553                    2898.70863
                     384.24166                    1578.61953                    2780.27456
                     344.82593                    1416.68383                    2495.07240
                     175.56876                     721.30719                    1270.37072
                     160.58215                     659.73618                    1161.93148
        </DataArray>
      </PointData>
      <Lines>
        <DataArray type="Int32" Name="connectivity" format="ascii">
      0      1
      1      2
      2      3
      3      4
      4      5
      5      6
      6      7
      7      8
      8      9
      9     10
     10     11
     11     12
     12     13
     13     14
     14     15
     15     16
     16     17
     17     18
        </DataArray>
        <DataArray type="Int32" Name="offsets" format="ascii">
      2
      4
      6
      8
     10
     12
     14
     16
     18
     20
     22
     24
     26
     28
     30
     32
     34
     36
        </DataArray>
      </Lines>
    </Piece>
  </PolyData>
</VTKFile>
