<?xml version="1.0"?>
<VTKFile type="PolyData" version="0.1" byte_order="LittleEndian">
  <PolyData>
    <Piece NumberOfPoints="     19" NumberOfVerts="  0" NumberOfLines="     18"
           NumberOfStrips="  0" NumberOfPolys="      0">
      <Points>
        <DataArray type="Float32" NumberOfComponents="3" format="ascii">
                      -5.19560                      -0.08070                      88.51500
                      -5.37464                      -0.15079                      87.16189
                      -5.75536                      -0.19636                      84.45361
                      -6.14680                      -0.19715                      81.74430
                      -6.64252                      -0.17137                      78.35699
                      -7.18426                      -0.28343                      74.29302
                      -7.70153                      -0.52538                      70.23289
                      -8.22105                      -0.76990                      66.17320
                      -8.74044                      -1.01880                      62.11372
                      -9.26052                      -1.27017                      58.05448
                      -9.78263                      -1.52035                      53.99543
                     -10.30605                      -1.77084                      49.93658
                     -10.83141                      -2.02162                      45.87799
                     -11.35943                      -2.27265                      41.81977
                     -11.88838                      -2.52378                      37.76168
                     -12.32980                      -2.73312                      34.37999
                     -12.68344                      -2.90848                      31.67519
                     -13.03813                      -3.13879                      28.97352
                     -13.21634                      -3.21231                      27.62059
        </DataArray>
      </Points>
      <PointData>
        <DataArray type="Float32" Name="TranslationalVelocity" NumberOfComponents="3" format="ascii">
                      -0.01297                       2.76000                      -0.14828
                      -0.02424                       5.27501                      -0.27706
                      -0.03157                      10.31244                      -0.36080
                      -0.03169                      15.35347                      -0.36224
                      -0.02755                      21.65705                      -0.31487
                      -0.04556                      29.21131                      -0.52077
                      -0.08446                      36.75459                      -0.96534
                      -0.12376                      44.29743                      -1.41462
                      -0.16377                      51.83985                      -1.87196
                      -0.20418                      59.38196                      -2.33383
                      -0.24440                      66.92402                      -2.79351
                      -0.28467                      74.46595                      -3.25376
                      -0.32498                      82.00769                      -3.71455
                      -0.36533                      89.54919                      -4.17579
                      -0.40570                      97.09061                      -4.63722
                      -0.43936                     103.37512                      -5.02186
                      -0.46755                     108.40180                      -5.34408
                      -0.50457                     113.42290                      -5.76725
                      -0.51639                     115.93744                      -5.90234
        </DataArray>
        <DataArray type="Float32" Name="RotationalVelocity" NumberOfComponents="3" format="ascii">
                       1.83741                      -0.00000                      -0.16075
                       1.83741                      -0.00000                      -0.16075
                       1.83741                      -0.00000                      -0.16075
                       1.83741                      -0.00000                      -0.16075
                       1.83741                      -0.00000                      -0.16075
                       1.83741                      -0.00000                      -0.16075
                       1.83741                      -0.00000                      -0.16075
                       1.83741                      -0.00000                      -0.16075
                       1.83741                      -0.00000                      -0.16075
                       1.83741                      -0.00000                      -0.16075
                       1.83741                      -0.00000                      -0.16075
                       1.83741                      -0.00000                      -0.16075
                       1.83741                      -0.00000                      -0.16075
                       1.83741                      -0.00000                      -0.16075
                       1.83741                      -0.00000                      -0.16075
                       1.83741                      -0.00000                      -0.16075
                       1.83741                      -0.00000                      -0.16075
                       1.83741                      -0.00000                      -0.16075
                       1.83741                      -0.00000                      -0.16075
        </DataArray>
        <DataArray type="Float32" Name="TranslationalAcceleration" NumberOfComponents="3" format="ascii">
                       0.44320                       0.37571                       5.06582
                       0.84708                       0.70632                       9.68220
                       1.65659                       1.04602                      18.93496
                       2.46695                       1.23346                      28.19736
                       3.48042                       1.37683                      39.78137
                       4.69413                       2.03495                      53.65411
                       5.90530                       3.13454                      67.49792
                       7.11639                       4.24287                      81.34075
                       8.32739                       5.36608                      95.18250
                       9.53832                       6.49768                     109.02353
                      10.74926                       7.62524                     122.86456
                      11.96016                       8.75382                     136.70531
                      13.17104                       9.88341                     150.54570
                      14.38188                      11.01382                     164.38563
                      15.59270                      12.14458                     178.22539
                      16.60172                      13.08709                     189.75854
                      17.40874                      13.86793                     198.98279
                      18.21454                      14.83546                     208.19311
                      18.61832                      15.17775                     212.80841
        </DataArray>
        <DataArray type="Float32" Name="OrientationX" NumberOfComponents="3" format="ascii">
                       0.96375                       0.22757                      -0.13931
                       0.96375                       0.22757                      -0.13931
                       0.96375                       0.22757                      -0.13931
                       0.96375                       0.22757                      -0.13931
                       0.96375                       0.22757                      -0.13931
                       0.97068                       0.19644                      -0.13853
                       0.97507                       0.17386                      -0.13788
                       0.97848                       0.15408                      -0.13726
                       0.98165                       0.13311                      -0.13653
                       0.98446                       0.11147                      -0.13573
                       0.98668                       0.09096                      -0.13490
                       0.98846                       0.07058                      -0.13403
                       0.98972                       0.05209                      -0.13319
                       0.99045                       0.03806                      -0.13253
                       0.99097                       0.02424                      -0.13185
                       0.99127                       0.01269                      -0.13126
                       0.99140                       0.00410                      -0.13081
                       0.99144                      -0.00050                      -0.13056
                       0.99144                      -0.00050                      -0.13056
        </DataArray>
        <DataArray type="Float32" Name="OrientationY" NumberOfComponents="3" format="ascii">
                       0.23279                      -0.97228                       0.02218
                       0.23279                      -0.97228                       0.02218
                       0.23279                      -0.97228                       0.02218
                       0.23279                      -0.97228                       0.02218
                       0.23279                      -0.97228                       0.02218
                       0.20192                      -0.97904                       0.02661
                       0.17954                      -0.98330                       0.02979
                       0.15992                      -0.98659                       0.03255
                       0.13912                      -0.98964                       0.03546
                       0.11765                      -0.99231                       0.03843
                       0.09730                      -0.99440                       0.04122
                       0.07709                      -0.99605                       0.04398
                       0.05873                      -0.99719                       0.04646
                       0.04481                      -0.99783                       0.04832
                       0.03109                      -0.99826                       0.05015
                       0.01963                      -0.99847                       0.05168
                       0.01110                      -0.99854                       0.05280
                       0.00653                      -0.99855                       0.05341
                       0.00653                      -0.99855                       0.05341
        </DataArray>
        <DataArray type="Float32" Name="OrientationZ" NumberOfComponents="3" format="ascii">
                      -0.13040                      -0.05380                      -0.99000
                      -0.13040                      -0.05380                      -0.99000
                      -0.13040                      -0.05380                      -0.99000
                      -0.13040                      -0.05380                      -0.99000
                      -0.13040                      -0.05380                      -0.99000
                      -0.13040                      -0.05380                      -0.99000
                      -0.13040                      -0.05380                      -0.99000
                      -0.13040                      -0.05380                      -0.99000
                      -0.13040                      -0.05380                      -0.99000
                      -0.13040                      -0.05380                      -0.99000
                      -0.13040                      -0.05380                      -0.99000
                      -0.13040                      -0.05380                      -0.99000
                      -0.13040                      -0.05380                      -0.99000
                      -0.13040                      -0.05380                      -0.99000
                      -0.13040                      -0.05380                      -0.99000
                      -0.13040                      -0.05380                      -0.99000
                      -0.13040                      -0.05380                      -0.99000
                      -0.13040                      -0.05380                      -0.99000
                      -0.13040                      -0.05380                      -0.99000
        </DataArray>
        <DataArray type="Float32" Name="Force" NumberOfComponents="3" format="ascii">
                       0.04117                      -8.75965                       0.47061
                     129.08587                     -68.56146                     -13.27689
                     180.83372                    -182.38298                     -13.90744
                     174.82791                    -258.53378                      -8.97803
                    1511.17519                     521.61730                    -227.39411
                    1755.41622                     464.79701                    -256.47695
                    1999.54292                     420.72946                    -286.23776
                    2714.19186                     474.62156                    -383.29783
                    3029.20824                     414.54895                    -421.52623
                    3571.47117                     396.58557                    -491.97523
                    4683.71640                     390.62343                    -638.15275
                    5453.03269                     345.67455                    -737.04202
                    6563.64975                     359.47940                    -884.07929
                    7346.31243                     314.85391                    -984.74408
                    8190.37372                     271.14903                   -1093.54614
                    8927.14655                     235.13219                   -1188.63429
                    9272.14536                     210.98805                   -1232.76438
                    7339.28990                     179.34420                    -976.45495
                    5010.80338                     -80.50193                    -655.63280
        </DataArray>
        <DataArray type="Float32" Name="Moment" NumberOfComponents="3" format="ascii">
                       0.00000                       0.00000                       0.00000
                       0.00000                       0.00000                       0.00000
                       0.00000                       0.00000                       0.00000
                       0.00000                       0.00000                       0.00000
                      85.49500                      35.27368                     649.08140
                     166.34533                      68.63105                    1262.90025
                     223.13646                      92.06203                    1694.06072
                     334.43757                     137.98284                    2539.06307
                     479.94326                     198.01583                    3643.74789
                     545.29054                     224.97693                    4139.86701
                     596.27757                     246.01325                    4526.96255
                     636.92809                     262.78491                    4835.58284
                     519.49263                     214.33318                    3944.00826
                     525.37856                     216.76161                    3988.69450
                     517.87508                     213.66581                    3931.72781
                     500.81460                     206.62697                    3802.20398
                     453.18568                     186.97614                    3440.60333
                     233.62459                      96.38924                    1773.68701
                     219.56492                      90.58848                    1666.94540
        </DataArray>
      </PointData>
      <Lines>
        <DataArray type="Int32" Name="connectivity" format="ascii">
      0      1
      1      2
      2      3
      3      4
      4      5
      5      6
      6      7
      7      8
      8      9
      9     10
     10     11
     11     12
     12     13
     13     14
     14     15
     15     16
     16     17
     17     18
        </DataArray>
        <DataArray type="Int32" Name="offsets" format="ascii">
      2
      4
      6
      8
     10
     12
     14
     16
     18
     20
     22
     24
     26
     28
     30
     32
     34
     36
        </DataArray>
      </Lines>
    </Piece>
  </PolyData>
</VTKFile>
