<?xml version="1.0"?>
<VTKFile type="PolyData" version="0.1" byte_order="LittleEndian">
  <PolyData>
    <Piece NumberOfPoints="     19" NumberOfVerts="  0" NumberOfLines="     18"
           NumberOfStrips="  0" NumberOfPolys="      0">
      <Points>
        <DataArray type="Float32" NumberOfComponents="3" format="ascii">
                      -5.19177                       0.36886                      88.55877
                      -5.36724                       0.70827                      87.24656
                      -5.73832                       1.47860                      84.64834
                      -6.11896                       2.29226                      82.06249
                      -6.60048                       3.33525                      78.83749
                      -7.12891                       4.44872                      74.92561
                      -7.63627                       5.43643                      70.97874
                      -8.14596                       6.42161                      67.03154
                      -8.65562                       7.40254                      63.08324
                      -9.16603                       8.38107                      59.13443
                      -9.67845                       9.36072                      55.18617
                     -10.19219                      10.34006                      51.23800
                     -10.70788                      11.31908                      47.29002
                     -11.22623                      12.29784                      43.34232
                     -11.74551                      13.27648                      39.39472
                     -12.17888                      14.09195                      36.10508
                     -12.52628                      14.73665                      33.47156
                     -12.87617                      15.32799                      30.82472
                     -13.05089                      15.66405                      29.51166
        </DataArray>
      </Points>
      <PointData>
        <DataArray type="Float32" Name="TranslationalVelocity" NumberOfComponents="3" format="ascii">
                       0.10106                       4.56600                       1.15515
                       0.19406                       8.72346                       2.21807
                       0.40511                      16.96184                       4.63046
                       0.62804                      25.16413                       7.17857
                       0.91381                      35.39564                      10.44486
                       1.21888                      47.79108                      13.93186
                       1.48950                      60.29032                      17.02502
                       1.75942                      72.79126                      20.11026
                       2.02818                      85.29560                      23.18220
                       2.29628                      97.80177                      26.24660
                       2.56469                     110.30674                      29.31454
                       2.83301                     122.81178                      32.38149
                       3.10125                     135.31679                      35.44746
                       3.36941                     147.82164                      38.51258
                       3.63755                     160.32645                      41.57735
                       3.86097                     170.74719                      44.13114
                       4.03761                     179.08965                      46.15009
                       4.19963                     187.47450                      48.00199
                       4.29170                     191.63443                      49.05440
        </DataArray>
        <DataArray type="Float32" Name="RotationalVelocity" NumberOfComponents="3" format="ascii">
                       3.13165                      -0.00000                      -0.27398
                       3.13165                      -0.00000                      -0.27398
                       3.13165                      -0.00000                      -0.27398
                       3.13165                      -0.00000                      -0.27398
                       3.13165                      -0.00000                      -0.27398
                       3.13165                      -0.00000                      -0.27398
                       3.13165                      -0.00000                      -0.27398
                       3.13165                      -0.00000                      -0.27398
                       3.13165                      -0.00000                      -0.27398
                       3.13165                      -0.00000                      -0.27398
                       3.13165                      -0.00000                      -0.27398
                       3.13165                      -0.00000                      -0.27398
                       3.13165                      -0.00000                      -0.27398
                       3.13165                      -0.00000                      -0.27398
                       3.13165                      -0.00000                      -0.27398
                       3.13165                      -0.00000                      -0.27398
                       3.13165                      -0.00000                      -0.27398
                       3.13165                      -0.00000                      -0.27398
                       3.13165                      -0.00000                      -0.27398
        </DataArray>
        <DataArray type="Float32" Name="TranslationalAcceleration" NumberOfComponents="3" format="ascii">
                       1.25115                      -3.63898                      14.30071
                       2.39036                      -6.98750                      27.32189
                       4.64783                     -14.58884                      53.12496
                       6.89543                     -22.61855                      78.81515
                       9.69910                     -32.91176                     110.86118
                      13.09567                     -43.89853                     149.68417
                      16.52063                     -53.64231                     188.83171
                      19.94606                     -63.36113                     227.98454
                      23.37242                     -73.03796                     267.14802
                      26.79928                     -82.69100                     306.31720
                      30.22582                     -92.35519                     345.48265
                      33.65237                    -102.01627                     384.64831
                      37.07891                    -111.67427                     423.81387
                      40.50541                    -121.32958                     462.97893
                      43.93189                    -130.98378                     502.14385
                      46.78732                    -139.02835                     534.78149
                      49.07326                    -145.38802                     560.90994
                      51.37080                    -151.22048                     587.17094
                      52.51068                    -154.53583                     600.19985
        </DataArray>
        <DataArray type="Float32" Name="OrientationX" NumberOfComponents="3" format="ascii">
                       0.96987                       0.23355                      -0.06928
                       0.96987                       0.23355                      -0.06928
                       0.96987                       0.23355                      -0.06928
                       0.96987                       0.23355                      -0.06928
                       0.96987                       0.23355                      -0.06928
                       0.97599                       0.20342                      -0.07780
                       0.97979                       0.18157                      -0.08390
                       0.98268                       0.16241                      -0.08919
                       0.98531                       0.14209                      -0.09474
                       0.98755                       0.12113                      -0.10040
                       0.98923                       0.10125                      -0.10571
                       0.99048                       0.08149                      -0.11094
                       0.99126                       0.06356                      -0.11563
                       0.99162                       0.04995                      -0.11916
                       0.99178                       0.03654                      -0.12261
                       0.99177                       0.02533                      -0.12548
                       0.99168                       0.01700                      -0.12760
                       0.99160                       0.01253                      -0.12874
                       0.99160                       0.01253                      -0.12874
        </DataArray>
        <DataArray type="Float32" Name="OrientationY" NumberOfComponents="3" format="ascii">
                       0.20737                      -0.94074                      -0.26836
                       0.20737                      -0.94074                      -0.26836
                       0.20737                      -0.94074                      -0.26836
                       0.20737                      -0.94074                      -0.26836
                       0.20737                      -0.94074                      -0.26836
                       0.17632                      -0.94771                      -0.26601
                       0.15383                      -0.95214                      -0.26415
                       0.13411                      -0.95559                      -0.26241
                       0.11323                      -0.95882                      -0.26046
                       0.09169                      -0.96170                      -0.25833
                       0.07128                      -0.96399                      -0.25620
                       0.05102                      -0.96586                      -0.25398
                       0.03263                      -0.96721                      -0.25188
                       0.01869                      -0.96801                      -0.25023
                       0.00496                      -0.96860                      -0.24856
                      -0.00652                      -0.96896                      -0.24712
                      -0.01505                      -0.96914                      -0.24603
                      -0.01962                      -0.96921                      -0.24544
                      -0.01962                      -0.96921                      -0.24544
        </DataArray>
        <DataArray type="Float32" Name="OrientationZ" NumberOfComponents="3" format="ascii">
                      -0.12785                       0.24591                      -0.96082
                      -0.12785                       0.24591                      -0.96082
                      -0.12785                       0.24591                      -0.96082
                      -0.12785                       0.24591                      -0.96082
                      -0.12785                       0.24591                      -0.96082
                      -0.12785                       0.24591                      -0.96082
                      -0.12785                       0.24591                      -0.96082
                      -0.12785                       0.24591                      -0.96082
                      -0.12785                       0.24591                      -0.96082
                      -0.12785                       0.24591                      -0.96082
                      -0.12785                       0.24591                      -0.96082
                      -0.12785                       0.24591                      -0.96082
                      -0.12785                       0.24591                      -0.96082
                      -0.12785                       0.24591                      -0.96082
                      -0.12785                       0.24591                      -0.96082
                      -0.12785                       0.24591                      -0.96082
                      -0.12785                       0.24591                      -0.96082
                      -0.12785                       0.24591                      -0.96082
                      -0.12785                       0.24591                      -0.96082
        </DataArray>
        <DataArray type="Float32" Name="Force" NumberOfComponents="3" format="ascii">
                      -0.44185                     -19.96287                      -5.05038
                     146.23317                    -116.17009                     -49.18959
                     239.60638                    -378.11906                    -128.65534
                     252.69163                    -598.22874                    -186.72991
                    1023.09155                     158.79048                     -95.49268
                     760.68767                      69.47112                     -83.43706
                     489.83402                     -38.33662                     -74.98890
                    1248.46364                      54.96289                    -152.05363
                    2161.26553                     117.17054                    -257.58996
                    3044.76189                     127.61885                    -372.47385
                    5448.84515                     164.18594                    -683.00224
                    7200.07581                     127.31681                    -925.45691
                    8881.49325                     128.19069                   -1148.96253
                   11002.71758                      88.70256                   -1441.31881
                   13526.89391                      43.25638                   -1788.81672
                   12388.96437                    -200.24486                   -1699.72403
                   14433.78845                    -206.56956                   -1973.42688
                   14553.14065                       9.32092                   -1934.05426
                   14447.67341                     -33.90230                   -1931.08307
        </DataArray>
        <DataArray type="Float32" Name="Moment" NumberOfComponents="3" format="ascii">
                       0.00000                       0.00000                       0.00000
                       0.00000                       0.00000                       0.00000
                       0.00000                       0.00000                       0.00000
                       0.00000                       0.00000                       0.00000
                     160.11667                    -307.97569                    1203.34256
                     349.60544                    -672.44701                    2627.42855
                     488.14703                    -938.92420                    3668.62547
                     808.67974                   -1555.45139                    6077.56046
                    1227.45307                   -2360.93905                    9224.81408
                    1413.65124                   -2719.08109                   10624.16985
                    1591.03226                   -3060.26380                   11957.26107
                    1710.70450                   -3290.44684                   12856.64717
                    1329.02092                   -2556.29929                    9988.13826
                    1345.56509                   -2588.12108                   10112.47444
                    1324.46885                   -2547.54362                    9953.92754
                    1251.00672                   -2406.24322                    9401.82945
                    1132.97380                   -2179.21333                    8514.76357
                     603.92331                   -1161.61356                    4538.73180
                     620.83837                   -1194.14876                    4665.85544
        </DataArray>
      </PointData>
      <Lines>
        <DataArray type="Int32" Name="connectivity" format="ascii">
      0      1
      1      2
      2      3
      3      4
      4      5
      5      6
      6      7
      7      8
      8      9
      9     10
     10     11
     11     12
     12     13
     13     14
     14     15
     15     16
     16     17
     17     18
        </DataArray>
        <DataArray type="Int32" Name="offsets" format="ascii">
      2
      4
      6
      8
     10
     12
     14
     16
     18
     20
     22
     24
     26
     28
     30
     32
     34
     36
        </DataArray>
      </Lines>
    </Piece>
  </PolyData>
</VTKFile>
