<?xml version="1.0"?>
<VTKFile type="PolyData" version="0.1" byte_order="LittleEndian">
  <PolyData>
    <Piece NumberOfPoints="     19" NumberOfVerts="  0" NumberOfLines="     18"
           NumberOfStrips="  0" NumberOfPolys="      0">
      <Points>
        <DataArray type="Float32" NumberOfComponents="3" format="ascii">
                      -5.05792                      -1.49626                      90.08867
                      -5.11181                      -2.85970                      90.16609
                      -5.25011                      -5.59078                      90.22867
                      -5.40287                      -8.32388                      90.24754
                      -5.60245                     -11.74156                      90.24504
                      -5.77684                     -15.83707                      90.37986
                      -5.91596                     -19.92641                      90.64198
                      -6.05714                     -24.01551                      90.90686
                      -6.19781                     -28.10437                      91.17609
                      -6.33898                     -32.19306                      91.44784
                      -6.48228                     -36.28172                      91.71858
                      -6.62687                     -40.37032                      91.98975
                      -6.77339                     -44.45880                      92.26138
                      -6.92256                     -48.54716                      92.53348
                      -7.07265                     -52.63548                      92.80577
                      -7.19835                     -56.04241                      93.03280
                      -7.29877                     -58.76743                      93.22233
                      -7.39571                     -61.48933                      93.46671
                      -7.44848                     -62.85252                      93.54748
        </DataArray>
      </Points>
      <PointData>
        <DataArray type="Float32" Name="TranslationalVelocity" NumberOfComponents="3" format="ascii">
                      -0.41888                      -0.26750                      -4.78787
                      -0.80059                      -0.50017                      -9.15076
                      -1.56517                      -0.66168                     -17.88994
                      -2.33031                      -0.67931                     -26.63561
                      -3.28711                      -0.61542                     -37.57181
                      -4.43367                      -0.99803                     -50.67706
                      -5.57850                      -1.79783                     -63.76254
                      -6.72326                      -2.60589                     -76.84724
                      -7.86796                      -3.42802                     -89.93119
                      -9.01261                      -4.25808                    -103.01459
                     -10.15725                      -5.08431                    -116.09791
                     -11.30187                      -5.91153                    -129.18100
                     -12.44647                      -6.73970                    -142.26376
                     -13.59102                      -7.56865                    -155.34611
                     -14.73557                      -8.39793                    -168.42830
                     -15.68935                      -9.08921                    -179.33013
                     -16.45224                      -9.66758                    -188.04993
                     -17.21425                     -10.42241                    -196.75975
                     -17.59588                     -10.66612                    -201.12182
        </DataArray>
        <DataArray type="Float32" Name="RotationalVelocity" NumberOfComponents="3" format="ascii">
                       3.19990                      -0.00000                      -0.27996
                       3.19990                      -0.00000                      -0.27996
                       3.19990                      -0.00000                      -0.27996
                       3.19990                      -0.00000                      -0.27996
                       3.19990                      -0.00000                      -0.27996
                       3.19990                      -0.00000                      -0.27996
                       3.19990                      -0.00000                      -0.27996
                       3.19990                      -0.00000                      -0.27996
                       3.19990                      -0.00000                      -0.27996
                       3.19990                      -0.00000                      -0.27996
                       3.19990                      -0.00000                      -0.27996
                       3.19990                      -0.00000                      -0.27996
                       3.19990                      -0.00000                      -0.27996
                       3.19990                      -0.00000                      -0.27996
                       3.19990                      -0.00000                      -0.27996
                       3.19990                      -0.00000                      -0.27996
                       3.19990                      -0.00000                      -0.27996
                       3.19990                      -0.00000                      -0.27996
                       3.19990                      -0.00000                      -0.27996
        </DataArray>
        <DataArray type="Float32" Name="TranslationalAcceleration" NumberOfComponents="3" format="ascii">
                      -0.07516                      15.43782                      -0.85903
                      -0.14054                      29.50534                      -1.60633
                      -0.18624                      57.68378                      -2.12872
                      -0.19166                      85.88324                      -2.19073
                      -0.17439                     121.14592                      -1.99328
                      -0.28223                     163.40215                      -3.22595
                      -0.50687                     205.59439                      -5.79359
                      -0.73382                     247.78410                      -8.38766
                      -0.96471                     289.97135                     -11.02672
                      -1.19782                     332.15686                     -13.69118
                      -1.42986                     374.34213                     -16.34341
                      -1.66218                     416.52663                     -18.99878
                      -1.89476                     458.71007                     -21.65718
                      -2.12756                     500.89216                     -24.31810
                      -2.36045                     543.07378                     -26.98007
                      -2.55458                     578.22514                     -29.19904
                      -2.71699                     606.34082                     -31.05535
                      -2.92880                     634.42424                     -33.47629
                      -2.99727                     648.48912                     -34.25892
        </DataArray>
        <DataArray type="Float32" Name="OrientationX" NumberOfComponents="3" format="ascii">
                       0.94870                      -0.05517                      -0.31134
                       0.94870                      -0.05517                      -0.31134
                       0.94870                      -0.05517                      -0.31134
                       0.94870                      -0.05517                      -0.31134
                       0.94870                      -0.05517                      -0.31134
                       0.95822                      -0.05374                      -0.28093
                       0.96449                      -0.05267                      -0.25882
                       0.96954                      -0.05172                      -0.23940
                       0.97446                      -0.05069                      -0.21878
                       0.97905                      -0.04960                      -0.19746
                       0.98297                      -0.04855                      -0.17722
                       0.98644                      -0.04749                      -0.15707
                       0.98923                      -0.04652                      -0.13876
                       0.99112                      -0.04576                      -0.12484
                       0.99279                      -0.04502                      -0.11112
                       0.99403                      -0.04438                      -0.09963
                       0.99488                      -0.04391                      -0.09108
                       0.99530                      -0.04365                      -0.08650
                       0.99530                      -0.04365                      -0.08650
        </DataArray>
        <DataArray type="Float32" Name="OrientationY" NumberOfComponents="3" format="ascii">
                       0.31382                       0.04405                       0.94846
                       0.31382                       0.04405                       0.94846
                       0.31382                       0.04405                       0.94846
                       0.31382                       0.04405                       0.94846
                       0.31382                       0.04405                       0.94846
                       0.28340                       0.04579                       0.95791
                       0.26129                       0.04702                       0.96412
                       0.24186                       0.04806                       0.96912
                       0.22123                       0.04915                       0.97398
                       0.19990                       0.05025                       0.97853
                       0.17965                       0.05126                       0.98239
                       0.15949                       0.05224                       0.98582
                       0.14116                       0.05311                       0.98856
                       0.12723                       0.05376                       0.99042
                       0.11350                       0.05439                       0.99205
                       0.10200                       0.05491                       0.99327
                       0.09345                       0.05529                       0.99409
                       0.08886                       0.05549                       0.99450
                       0.08886                       0.05549                       0.99450
        </DataArray>
        <DataArray type="Float32" Name="OrientationZ" NumberOfComponents="3" format="ascii">
                      -0.03861                      -0.99750                       0.05911
                      -0.03861                      -0.99750                       0.05911
                      -0.03861                      -0.99750                       0.05911
                      -0.03861                      -0.99750                       0.05911
                      -0.03861                      -0.99750                       0.05911
                      -0.03861                      -0.99750                       0.05911
                      -0.03861                      -0.99750                       0.05911
                      -0.03861                      -0.99750                       0.05911
                      -0.03861                      -0.99750                       0.05911
                      -0.03861                      -0.99750                       0.05911
                      -0.03861                      -0.99750                       0.05911
                      -0.03861                      -0.99750                       0.05911
                      -0.03861                      -0.99750                       0.05911
                      -0.03861                      -0.99750                       0.05911
                      -0.03861                      -0.99750                       0.05911
                      -0.03861                      -0.99750                       0.05911
                      -0.03861                      -0.99750                       0.05911
                      -0.03861                      -0.99750                       0.05911
                      -0.03861                      -0.99750                       0.05911
        </DataArray>
        <DataArray type="Float32" Name="Force" NumberOfComponents="3" format="ascii">
                       3.23934                       2.06865                      37.02582
                     218.33268                       0.83341                     156.69549
                     359.70532                      14.19532                     474.54093
                     387.83502                      27.61129                     719.31978
                    1353.16009                     -73.20359                    -351.36850
                    1139.44926                     -57.86778                    -232.17964
                    1003.33391                     -45.74418                    -116.50747
                    1996.28789                     -95.80251                    -312.59962
                    2985.55565                    -141.42747                    -436.28412
                    4048.46398                    -187.96820                    -527.31532
                    6673.76199                    -302.88161                    -751.50606
                    8629.25370                    -384.47035                    -850.89096
                   10585.21968                    -469.59769                   -1009.68200
                   12921.16408                    -567.82477                   -1141.30868
                   15666.01044                    -683.33281                   -1297.43632
                   18239.08061                    -791.63504                   -1444.17870
                   19966.53679                    -862.00604                   -1503.22739
                   17456.93098                    -765.71037                   -1517.64320
                   15379.88428                    -660.54671                   -1099.82637
        </DataArray>
        <DataArray type="Float32" Name="Moment" NumberOfComponents="3" format="ascii">
                       0.00000                       0.00000                       0.00000
                       0.00000                       0.00000                       0.00000
                       0.00000                       0.00000                       0.00000
                       0.00000                       0.00000                       0.00000
                      58.11212                    1501.16993                     -88.95509
                     119.29377                    3081.63288                    -182.60887
                     164.38673                    4246.48776                    -251.63488
                     268.35477                    6932.22169                    -410.78390
                     403.04356                   10411.54328                    -616.95867
                     461.51895                   11922.09731                    -706.46984
                     515.58070                   13318.63683                    -789.22483
                     552.58396                   14274.51628                    -845.86755
                     428.12308                   11059.40506                    -655.34914
                     432.95901                   11184.32832                    -662.75174
                     427.42773                   11041.44258                    -654.28473
                     415.12122                   10723.53719                    -635.44655
                     376.80002                    9733.61237                    -576.78640
                     198.26847                    5121.73117                    -303.49934
                     198.54115                    5128.77515                    -303.91674
        </DataArray>
      </PointData>
      <Lines>
        <DataArray type="Int32" Name="connectivity" format="ascii">
      0      1
      1      2
      2      3
      3      4
      4      5
      5      6
      6      7
      7      8
      8      9
      9     10
     10     11
     11     12
     12     13
     13     14
     14     15
     15     16
     16     17
     17     18
        </DataArray>
        <DataArray type="Int32" Name="offsets" format="ascii">
      2
      4
      6
      8
     10
     12
     14
     16
     18
     20
     22
     24
     26
     28
     30
     32
     34
     36
        </DataArray>
      </Lines>
    </Piece>
  </PolyData>
</VTKFile>
