<?xml version="1.0"?>
<VTKFile type="PolyData" version="0.1" byte_order="LittleEndian">
  <PolyData>
    <Piece NumberOfPoints="     19" NumberOfVerts="  0" NumberOfLines="     18"
           NumberOfStrips="  0" NumberOfPolys="      0">
      <Points>
        <DataArray type="Float32" NumberOfComponents="3" format="ascii">
                      -5.17997                       0.71499                      88.69371
                      -5.34460                       1.36945                      87.50524
                      -5.69214                       2.76106                      85.17620
                      -6.04834                       4.19186                      82.86979
                      -6.49876                       6.00379                      80.00024
                      -6.99273                       8.05345                      76.48218
                      -7.46825                       9.98934                      72.89931
                      -7.94614                      11.92292                      69.31550
                      -8.42409                      13.85265                      65.72959
                      -8.90285                      15.78018                      62.14259
                      -9.38360                      17.70872                      58.55641
                      -9.86566                      19.63695                      54.97025
                     -10.34968                      21.56488                      51.38419
                     -10.83638                      23.49254                      47.79835
                     -11.32400                      25.42008                      44.21258
                     -11.73099                      27.02631                      41.22446
                     -12.05745                      28.30431                      38.83032
                     -12.38751                      29.53392                      36.41019
                     -12.55147                      30.18532                      35.22007
        </DataArray>
      </Points>
      <PointData>
        <DataArray type="Float32" Name="TranslationalVelocity" NumberOfComponents="3" format="ascii">
                       0.17847                       3.77198                       2.03997
                       0.34184                       7.20395                       3.90725
                       0.68921                      13.93583                       7.87773
                       1.04636                      20.60527                      11.96000
                       1.49866                      28.90497                      17.12972
                       2.01029                      39.06582                      22.97772
                       2.49352                      49.40699                      28.50111
                       2.97618                      59.75144                      34.01790
                       3.45788                      70.10189                      39.52370
                       3.93902                      80.45565                      45.02325
                       4.42042                      90.80756                      50.52565
                       4.90174                     101.15975                      56.02720
                       5.38299                     111.51213                      61.52788
                       5.86417                     121.86456                      67.02777
                       6.34532                     132.21704                      72.52734
                       6.74627                     140.84420                      77.11016
                       7.06528                     147.75653                      80.75647
                       7.37221                     154.74390                      84.26474
                       7.53481                     158.18042                      86.12328
        </DataArray>
        <DataArray type="Float32" Name="RotationalVelocity" NumberOfComponents="3" format="ascii">
                       2.85315                      -0.00000                      -0.24962
                       2.85315                      -0.00000                      -0.24962
                       2.85315                      -0.00000                      -0.24962
                       2.85315                      -0.00000                      -0.24962
                       2.85315                      -0.00000                      -0.24962
                       2.85315                      -0.00000                      -0.24962
                       2.85315                      -0.00000                      -0.24962
                       2.85315                      -0.00000                      -0.24962
                       2.85315                      -0.00000                      -0.24962
                       2.85315                      -0.00000                      -0.24962
                       2.85315                      -0.00000                      -0.24962
                       2.85315                      -0.00000                      -0.24962
                       2.85315                      -0.00000                      -0.24962
                       2.85315                      -0.00000                      -0.24962
                       2.85315                      -0.00000                      -0.24962
                       2.85315                      -0.00000                      -0.24962
                       2.85315                      -0.00000                      -0.24962
                       2.85315                      -0.00000                      -0.24962
                       2.85315                      -0.00000                      -0.24962
        </DataArray>
        <DataArray type="Float32" Name="TranslationalAcceleration" NumberOfComponents="3" format="ascii">
                       0.94268                      -5.84121                      10.77483
                       1.80039                     -11.18807                      20.57850
                       3.48297                     -22.56090                      39.81048
                       5.15002                     -34.25553                      58.86503
                       7.22462                     -49.06633                      82.57778
                       9.76417                     -65.81547                     111.60495
                      12.34855                     -81.63025                     141.14456
                      14.93374                     -97.42603                     170.69346
                      17.52043                    -113.19017                     200.25943
                      20.10794                    -128.93632                     229.83479
                      22.69499                    -144.69069                     259.40490
                      25.28211                    -160.44260                     288.97580
                      27.86927                    -176.19201                     318.54725
                      30.45645                    -191.93915                     348.11884
                      33.04364                    -207.68538                     377.69054
                      35.19966                    -220.80679                     402.33391
                      36.92710                    -231.24650                     422.07872
                      38.67321                    -241.28886                     442.03677
                      39.53205                    -246.61059                     451.85336
        </DataArray>
        <DataArray type="Float32" Name="OrientationX" NumberOfComponents="3" format="ascii">
                       0.97484                       0.22255                      -0.01249
                       0.97484                       0.22255                      -0.01249
                       0.97484                       0.22255                      -0.01249
                       0.97484                       0.22255                      -0.01249
                       0.97484                       0.22255                      -0.01249
                       0.98034                       0.19531                      -0.02816
                       0.98368                       0.17554                      -0.03944
                       0.98618                       0.15820                      -0.04927
                       0.98838                       0.13982                      -0.05964
                       0.99018                       0.12083                      -0.07028
                       0.99145                       0.10283                      -0.08031
                       0.99229                       0.08494                      -0.09022
                       0.99270                       0.06869                      -0.09916
                       0.99278                       0.05636                      -0.10593
                       0.99266                       0.04421                      -0.11256
                       0.99242                       0.03405                      -0.11809
                       0.99215                       0.02649                      -0.12219
                       0.99198                       0.02244                      -0.12438
                       0.99198                       0.02244                      -0.12438
        </DataArray>
        <DataArray type="Float32" Name="OrientationY" NumberOfComponents="3" format="ascii">
                       0.18786                      -0.85045                      -0.49137
                       0.18786                      -0.85045                      -0.49137
                       0.18786                      -0.85045                      -0.49137
                       0.18786                      -0.85045                      -0.49137
                       0.18786                      -0.85045                      -0.49137
                       0.15666                      -0.85712                      -0.49072
                       0.13407                      -0.86138                      -0.48994
                       0.11429                      -0.86474                      -0.48905
                       0.09333                      -0.86790                      -0.48789
                       0.07173                      -0.87074                      -0.48648
                       0.05127                      -0.87305                      -0.48492
                       0.03097                      -0.87498                      -0.48318
                       0.01255                      -0.87640                      -0.48142
                      -0.00141                      -0.87728                      -0.47998
                      -0.01515                      -0.87798                      -0.47846
                      -0.02664                      -0.87843                      -0.47713
                      -0.03518                      -0.87869                      -0.47610
                      -0.03975                      -0.87880                      -0.47553
                      -0.03975                      -0.87880                      -0.47553
        </DataArray>
        <DataArray type="Float32" Name="OrientationZ" NumberOfComponents="3" format="ascii">
                      -0.11998                       0.47666                      -0.87086
                      -0.11998                       0.47666                      -0.87086
                      -0.11998                       0.47666                      -0.87086
                      -0.11998                       0.47666                      -0.87086
                      -0.11998                       0.47666                      -0.87086
                      -0.11998                       0.47666                      -0.87086
                      -0.11998                       0.47666                      -0.87086
                      -0.11998                       0.47666                      -0.87086
                      -0.11998                       0.47666                      -0.87086
                      -0.11998                       0.47666                      -0.87086
                      -0.11998                       0.47666                      -0.87086
                      -0.11998                       0.47666                      -0.87086
                      -0.11998                       0.47666                      -0.87086
                      -0.11998                       0.47666                      -0.87086
                      -0.11998                       0.47666                      -0.87086
                      -0.11998                       0.47666                      -0.87086
                      -0.11998                       0.47666                      -0.87086
                      -0.11998                       0.47666                      -0.87086
                      -0.11998                       0.47666                      -0.87086
        </DataArray>
        <DataArray type="Float32" Name="Force" NumberOfComponents="3" format="ascii">
                      -0.60606                     -12.80886                      -6.92731
                     141.06540                     -83.79509                     -65.29868
                     227.48106                    -278.77735                    -183.92563
                     236.59454                    -446.55568                    -277.01305
                    1223.48065                     238.69228                     -37.90997
                    1130.85882                     165.53046                     -65.19411
                    1063.54853                      89.01182                     -97.80269
                    1889.66244                     185.41084                    -158.85128
                    2660.81171                     220.18463                    -246.05751
                    3481.77661                     232.07538                    -352.65154
                    5574.08893                     277.65998                    -615.95395
                    7097.06466                     261.49223                    -834.61983
                    8667.14178                     286.53715                   -1037.21738
                   10463.99456                     274.52297                   -1291.34121
                   12560.73501                     261.32167                   -1587.42958
                   14520.86734                     249.05032                   -1864.18880
                   15484.70517                     205.35091                   -2020.89281
                   13516.62731                     292.42496                   -1702.09642
                   11976.13114                     107.88073                   -1590.87459
        </DataArray>
        <DataArray type="Float32" Name="Moment" NumberOfComponents="3" format="ascii">
                       0.00000                       0.00000                       0.00000
                       0.00000                       0.00000                       0.00000
                       0.00000                       0.00000                       0.00000
                       0.00000                       0.00000                       0.00000
                     147.05968                    -584.25750                    1067.44799
                     291.71417                   -1158.95935                    2117.43764
                     401.13687                   -1593.68784                    2911.69370
                     651.52048                   -2588.44388                    4729.12921
                     975.17871                   -3874.31469                    7078.43617
                    1118.07522                   -4442.03222                    8115.66536
                    1250.37523                   -4967.65060                    9075.97871
                    1341.87717                   -5331.18121                    9740.15507
                    1042.32220                   -4141.07095                    7565.80421
                    1054.46900                   -4189.32928                    7653.97297
                    1043.05097                   -4143.96628                    7571.09402
                    1013.04947                   -4024.77250                    7353.32504
                     916.88338                   -3642.71153                    6655.29341
                     481.74807                   -1913.95033                    3496.81850
                     482.92071                   -1918.60914                    3505.33020
        </DataArray>
      </PointData>
      <Lines>
        <DataArray type="Int32" Name="connectivity" format="ascii">
      0      1
      1      2
      2      3
      3      4
      4      5
      5      6
      6      7
      7      8
      8      9
      9     10
     10     11
     11     12
     12     13
     13     14
     14     15
     15     16
     16     17
     17     18
        </DataArray>
        <DataArray type="Int32" Name="offsets" format="ascii">
      2
      4
      6
      8
     10
     12
     14
     16
     18
     20
     22
     24
     26
     28
     30
     32
     34
     36
        </DataArray>
      </Lines>
    </Piece>
  </PolyData>
</VTKFile>
