<?xml version="1.0"?>
<VTKFile type="PolyData" version="0.1" byte_order="LittleEndian">
  <PolyData>
    <Piece NumberOfPoints="     19" NumberOfVerts="  0" NumberOfLines="     18"
           NumberOfStrips="  0" NumberOfPolys="      0">
      <Points>
        <DataArray type="Float32" NumberOfComponents="3" format="ascii">
                      -5.14218                       1.21044                      89.12558
                      -5.27230                       2.31531                      88.33172
                      -5.54808                       4.58001                      86.82278
                      -5.83125                       6.87076                      85.35110
                      -6.18962                       9.74983                      83.53373
                      -6.57719                      13.12219                      81.23181
                      -6.95003                      16.41875                      78.82256
                      -7.32532                      19.71370                      76.41150
                      -7.70080                      23.00607                      73.99689
                      -8.07716                      26.29696                      71.58036
                      -8.45546                      29.58847                      69.16503
                      -8.83510                      32.87976                      66.74959
                      -9.21671                      36.17080                      64.33413
                      -9.60100                      39.46159                      61.91878
                      -9.98622                      42.75230                      59.50344
                     -10.30788                      45.49451                      57.49066
                     -10.56631                      47.68356                      55.87417
                     -10.82991                      49.84011                      54.21355
                     -10.95945                      50.94290                      53.41689
        </DataArray>
      </Points>
      <PointData>
        <DataArray type="Float32" Name="TranslationalVelocity" NumberOfComponents="3" format="ascii">
                       0.34249                       2.86823                       3.91470
                       0.65511                       5.47246                       7.48799
                       1.29591                      10.43061                      14.81228
                       1.94407                      15.27030                      22.22085
                       2.75870                      21.24930                      31.53209
                       3.71291                      28.80362                      42.43871
                       4.64566                      36.70091                      53.10015
                       5.57796                      44.60477                      63.75641
                       6.50954                      52.52014                      74.40433
                       7.44069                      60.44195                      85.04744
                       8.37202                      68.36047                      95.69258
                       9.30328                      76.27969                     106.33698
                      10.23448                      84.19954                     116.98059
                      11.16560                      92.11982                     127.62341
                      12.09670                     100.04030                     138.26593
                      12.87261                     106.64088                     147.13458
                      13.49199                     111.94193                     154.21420
                      14.10219                     117.38714                     161.18876
                      14.41422                     120.00029                     164.75532
        </DataArray>
        <DataArray type="Float32" Name="RotationalVelocity" NumberOfComponents="3" format="ascii">
                       3.23412                      -0.00000                      -0.28295
                       3.23412                      -0.00000                      -0.28295
                       3.23412                      -0.00000                      -0.28295
                       3.23412                      -0.00000                      -0.28295
                       3.23412                      -0.00000                      -0.28295
                       3.23412                      -0.00000                      -0.28295
                       3.23412                      -0.00000                      -0.28295
                       3.23412                      -0.00000                      -0.28295
                       3.23412                      -0.00000                      -0.28295
                       3.23412                      -0.00000                      -0.28295
                       3.23412                      -0.00000                      -0.28295
                       3.23412                      -0.00000                      -0.28295
                       3.23412                      -0.00000                      -0.28295
                       3.23412                      -0.00000                      -0.28295
                       3.23412                      -0.00000                      -0.28295
                       3.23412                      -0.00000                      -0.28295
                       3.23412                      -0.00000                      -0.28295
                       3.23412                      -0.00000                      -0.28295
                       3.23412                      -0.00000                      -0.28295
        </DataArray>
        <DataArray type="Float32" Name="TranslationalAcceleration" NumberOfComponents="3" format="ascii">
                       0.81173                     -12.75607                       9.27815
                       1.54875                     -24.39967                      17.70233
                       2.95197                     -48.26611                      33.74122
                       4.32168                     -72.40725                      49.39705
                       6.01384                    -102.74841                      68.73849
                       8.15180                    -138.28790                      93.17551
                      10.38679                    -173.02822                     118.72160
                      12.62365                    -207.75166                     144.28895
                      14.86376                    -242.44789                     169.89352
                      17.10569                    -277.12847                     195.51889
                      19.34669                    -311.81566                     221.13364
                      21.58789                    -346.50044                     246.75066
                      23.82926                    -381.18263                     272.36970
                      26.07076                    -415.86226                     297.99014
                      28.31231                    -450.54089                     323.61123
                      30.18033                    -479.43939                     344.96271
                      31.68056                    -502.50832                     362.11045
                      33.22158                    -525.23479                     379.72441
                      33.96112                    -536.85643                     388.17743
        </DataArray>
        <DataArray type="Float32" Name="OrientationX" NumberOfComponents="3" format="ascii">
                       0.98254                       0.16999                       0.07555
                       0.98254                       0.16999                       0.07555
                       0.98254                       0.16999                       0.07555
                       0.98254                       0.16999                       0.07555
                       0.98254                       0.16999                       0.07555
                       0.98715                       0.15186                       0.04971
                       0.98985                       0.13870                       0.03104
                       0.99178                       0.12714                       0.01473
                       0.99338                       0.11487                      -0.00252
                       0.99456                       0.10219                      -0.02025
                       0.99524                       0.09016                      -0.03702
                       0.99549                       0.07819                      -0.05363
                       0.99537                       0.06732                      -0.06866
                       0.99504                       0.05906                      -0.08004
                       0.99453                       0.05092                      -0.09122
                       0.99395                       0.04411                      -0.10056
                       0.99344                       0.03904                      -0.10749
                       0.99313                       0.03632                      -0.11120
                       0.99313                       0.03632                      -0.11120
        </DataArray>
        <DataArray type="Float32" Name="OrientationY" NumberOfComponents="3" format="ascii">
                       0.16007                      -0.56561                      -0.80899
                       0.16007                      -0.56561                      -0.80899
                       0.16007                      -0.56561                      -0.80899
                       0.16007                      -0.56561                      -0.80899
                       0.16007                      -0.56561                      -0.80899
                       0.12864                      -0.57075                      -0.81098
                       0.10590                      -0.57409                      -0.81191
                       0.08600                      -0.57676                      -0.81237
                       0.06493                      -0.57933                      -0.81250
                       0.04323                      -0.58170                      -0.81225
                       0.02269                      -0.58368                      -0.81166
                       0.00231                      -0.58541                      -0.81074
                      -0.01616                      -0.58676                      -0.80960
                      -0.03016                      -0.58765                      -0.80856
                      -0.04393                      -0.58841                      -0.80737
                      -0.05543                      -0.58896                      -0.80626
                      -0.06398                      -0.58932                      -0.80537
                      -0.06856                      -0.58949                      -0.80486
                      -0.06856                      -0.58949                      -0.80486
        </DataArray>
        <DataArray type="Float32" Name="OrientationZ" NumberOfComponents="3" format="ascii">
                      -0.09479                       0.80696                      -0.58295
                      -0.09479                       0.80696                      -0.58295
                      -0.09479                       0.80696                      -0.58295
                      -0.09479                       0.80696                      -0.58295
                      -0.09479                       0.80696                      -0.58295
                      -0.09479                       0.80696                      -0.58295
                      -0.09479                       0.80696                      -0.58295
                      -0.09479                       0.80696                      -0.58295
                      -0.09479                       0.80696                      -0.58295
                      -0.09479                       0.80696                      -0.58295
                      -0.09479                       0.80696                      -0.58295
                      -0.09479                       0.80696                      -0.58295
                      -0.09479                       0.80696                      -0.58295
                      -0.09479                       0.80696                      -0.58295
                      -0.09479                       0.80696                      -0.58295
                      -0.09479                       0.80696                      -0.58295
                      -0.09479                       0.80696                      -0.58295
                      -0.09479                       0.80696                      -0.58295
                      -0.09479                       0.80696                      -0.58295
        </DataArray>
        <DataArray type="Float32" Name="Force" NumberOfComponents="3" format="ascii">
                      -1.21441                     -10.17015                     -13.88072
                     159.98879                     -65.91014                    -117.25121
                     252.85100                    -230.22288                    -359.80293
                     255.15902                    -377.16044                    -563.57873
                    1116.01444                     138.84874                      10.73997
                     942.97306                      88.71211                     -30.52595
                     694.89255                      12.48576                     -95.70563
                    1511.55447                      95.91845                    -113.00156
                    2508.11548                     163.42138                    -181.60001
                    3461.07749                     196.04662                    -291.38925
                    6022.26664                     291.17719                    -576.15160
                    7904.56256                     320.97891                    -840.95864
                    9686.88082                     373.00620                   -1058.74328
                   11974.07968                     414.89428                   -1372.65663
                   14697.98509                     466.31439                   -1744.38344
                   16586.19358                     468.49357                   -2048.38878
                   14836.71273                     281.74272                   -2022.43658
                   16480.45042                     545.04647                   -1925.22548
                   15359.11085                     422.55605                   -1912.45535
        </DataArray>
        <DataArray type="Float32" Name="Moment" NumberOfComponents="3" format="ascii">
                       0.00000                       0.00000                       0.00000
                       0.00000                       0.00000                       0.00000
                       0.00000                       0.00000                       0.00000
                       0.00000                       0.00000                       0.00000
                     129.29767                   -1100.75459                     795.19069
                     280.79341                   -2390.48889                    1726.90127
                     388.69973                   -3309.13176                    2390.53353
                     639.77860                   -5446.65077                    3934.68807
                     967.72874                   -8238.60082                    5951.60691
                    1113.20075                   -9477.05299                    6846.27103
                    1250.96265                  -10649.86648                    7693.51743
                    1344.80306                  -11448.76150                    8270.64323
                    1044.61073                   -8893.12303                    6424.43707
                    1058.41856                   -9010.67376                    6509.35632
                    1042.90522                   -8878.60345                    6413.94805
                    1012.09678                   -8616.32083                    6224.47376
                     888.32620                   -7562.62024                    5463.27513
                     481.48429                   -4099.03794                    2961.16575
                     489.00433                   -4163.05864                    3007.41463
        </DataArray>
      </PointData>
      <Lines>
        <DataArray type="Int32" Name="connectivity" format="ascii">
      0      1
      1      2
      2      3
      3      4
      4      5
      5      6
      6      7
      7      8
      8      9
      9     10
     10     11
     11     12
     12     13
     13     14
     14     15
     15     16
     16     17
     17     18
        </DataArray>
        <DataArray type="Int32" Name="offsets" format="ascii">
      2
      4
      6
      8
     10
     12
     14
     16
     18
     20
     22
     24
     26
     28
     30
     32
     34
     36
        </DataArray>
      </Lines>
    </Piece>
  </PolyData>
</VTKFile>
