<?xml version="1.0"?>
<VTKFile type="PolyData" version="0.1" byte_order="LittleEndian">
  <PolyData>
    <Piece NumberOfPoints="     19" NumberOfVerts="  0" NumberOfLines="     18"
           NumberOfStrips="  0" NumberOfPolys="      0">
      <Points>
        <DataArray type="Float32" NumberOfComponents="3" format="ascii">
                      -4.96310                      -0.93483                      91.17249
                      -4.93048                      -1.78926                      92.23869
                      -4.89274                      -3.57144                      94.31335
                      -4.86803                      -5.38837                      96.36072
                      -4.84492                      -7.68034                      98.90368
                      -4.75660                     -10.32030                     102.04130
                      -4.63719                     -12.85929                     105.25845
                      -4.51992                     -15.39619                     108.47732
                      -4.40230                     -17.92968                     111.69891
                      -4.28525                     -20.46121                     114.92208
                      -4.17030                     -22.99361                     118.14462
                      -4.05666                     -25.52574                     121.36742
                      -3.94496                     -28.05757                     124.59051
                      -3.83592                     -30.58914                     127.81391
                      -3.72781                     -33.12060                     131.03741
                      -3.63835                     -35.23010                     133.72377
                      -3.56690                     -36.91147                     135.87775
                      -3.49378                     -38.54980                     138.06599
                      -3.46016                     -39.40149                     139.13421
        </DataArray>
      </Points>
      <PointData>
        <DataArray type="Float32" Name="TranslationalVelocity" NumberOfComponents="3" format="ascii">
                      -0.24839                      -3.57064                      -2.83908
                      -0.47541                      -6.81734                      -5.43397
                      -0.94894                     -13.12811                     -10.84644
                      -1.43170                     -19.35252                     -16.36445
                      -2.04069                     -27.08161                     -23.32516
                      -2.74213                     -36.63403                     -31.34269
                      -3.41675                     -46.43622                     -39.05358
                      -4.09081                     -56.24308                     -46.75816
                      -4.76396                     -66.05829                     -54.45234
                      -5.43660                     -75.87813                     -62.14059
                      -6.10946                     -85.69551                     -69.83148
                      -6.78226                     -95.51333                     -77.52153
                      -7.45497                    -105.33153                     -85.21070
                      -8.12761                    -115.14992                     -92.89906
                      -8.80023                    -124.96841                    -100.58709
                      -9.36073                    -133.15063                    -106.99364
                      -9.80747                    -139.71124                    -112.09994
                     -10.24278                    -146.37636                    -117.07554
                     -10.46908                    -149.62946                    -119.66213
        </DataArray>
        <DataArray type="Float32" Name="RotationalVelocity" NumberOfComponents="3" format="ascii">
                       3.03699                      -0.00000                      -0.26570
                       3.03699                      -0.00000                      -0.26570
                       3.03699                      -0.00000                      -0.26570
                       3.03699                      -0.00000                      -0.26570
                       3.03699                      -0.00000                      -0.26570
                       3.03699                      -0.00000                      -0.26570
                       3.03699                      -0.00000                      -0.26570
                       3.03699                      -0.00000                      -0.26570
                       3.03699                      -0.00000                      -0.26570
                       3.03699                      -0.00000                      -0.26570
                       3.03699                      -0.00000                      -0.26570
                       3.03699                      -0.00000                      -0.26570
                       3.03699                      -0.00000                      -0.26570
                       3.03699                      -0.00000                      -0.26570
                       3.03699                      -0.00000                      -0.26570
                       3.03699                      -0.00000                      -0.26570
                       3.03699                      -0.00000                      -0.26570
                       3.03699                      -0.00000                      -0.26570
                       3.03699                      -0.00000                      -0.26570
        </DataArray>
        <DataArray type="Float32" Name="TranslationalAcceleration" NumberOfComponents="3" format="ascii">
                      -0.94955                       8.67646                     -10.85341
                      -1.81296                      16.60673                     -20.72218
                      -3.49131                      33.14932                     -39.90586
                      -5.14675                      50.01519                     -58.82759
                      -7.20240                      71.29108                     -82.32382
                      -9.74282                      95.79507                    -111.36096
                     -12.34952                     119.35986                    -141.15565
                     -14.95746                     142.90530                    -170.96449
                     -17.56761                     166.41890                    -200.79867
                     -20.17899                     189.91432                    -230.64690
                     -22.78972                     213.41785                    -260.48764
                     -25.40056                     236.91880                    -290.32975
                     -28.01151                     260.41706                    -320.17297
                     -30.62250                     283.91282                    -350.01679
                     -33.23352                     307.40759                    -379.86093
                     -35.40941                     326.98612                    -404.73145
                     -37.15406                     342.59095                    -424.67288
                     -38.92644                     357.79543                    -444.93126
                     -39.79155                     365.70027                    -454.81944
        </DataArray>
        <DataArray type="Float32" Name="OrientationX" NumberOfComponents="3" format="ascii">
                       0.95890                      -0.20639                      -0.19473
                       0.95890                      -0.20639                      -0.19473
                       0.95890                      -0.20639                      -0.19473
                       0.95890                      -0.20639                      -0.19473
                       0.95890                      -0.20639                      -0.19473
                       0.96743                      -0.18222                      -0.17573
                       0.97297                      -0.16468                      -0.16192
                       0.97738                      -0.14929                      -0.14979
                       0.98162                      -0.13296                      -0.13691
                       0.98552                      -0.11611                      -0.12359
                       0.98877                      -0.10011                      -0.11094
                       0.99158                      -0.08422                      -0.09835
                       0.99377                      -0.06978                      -0.08691
                       0.99520                      -0.05881                      -0.07821
                       0.99642                      -0.04801                      -0.06964
                       0.99729                      -0.03898                      -0.06246
                       0.99785                      -0.03226                      -0.05712
                       0.99812                      -0.02866                      -0.05426
                       0.99812                      -0.02866                      -0.05426
        </DataArray>
        <DataArray type="Float32" Name="OrientationY" NumberOfComponents="3" format="ascii">
                       0.28268                       0.75432                       0.59253
                       0.28268                       0.75432                       0.59253
                       0.28268                       0.75432                       0.59253
                       0.28268                       0.75432                       0.59253
                       0.28268                       0.75432                       0.59253
                       0.25195                       0.76052                       0.59844
                       0.22963                       0.76451                       0.60232
                       0.21004                       0.76766                       0.60545
                       0.18925                       0.77066                       0.60850
                       0.16778                       0.77338                       0.61134
                       0.14740                       0.77561                       0.61376
                       0.12712                       0.77750                       0.61590
                       0.10871                       0.77893                       0.61762
                       0.09472                       0.77983                       0.61878
                       0.08093                       0.78057                       0.61981
                       0.06940                       0.78107                       0.62057
                       0.06081                       0.78138                       0.62109
                       0.05622                       0.78152                       0.62134
                       0.05622                       0.78152                       0.62134
        </DataArray>
        <DataArray type="Float32" Name="OrientationZ" NumberOfComponents="3" format="ascii">
                       0.02460                      -0.62322                       0.78166
                       0.02460                      -0.62322                       0.78166
                       0.02460                      -0.62322                       0.78166
                       0.02460                      -0.62322                       0.78166
                       0.02460                      -0.62322                       0.78166
                       0.02460                      -0.62322                       0.78166
                       0.02460                      -0.62322                       0.78166
                       0.02460                      -0.62322                       0.78166
                       0.02460                      -0.62322                       0.78166
                       0.02460                      -0.62322                       0.78166
                       0.02460                      -0.62322                       0.78166
                       0.02460                      -0.62322                       0.78166
                       0.02460                      -0.62322                       0.78166
                       0.02460                      -0.62322                       0.78166
                       0.02460                      -0.62322                       0.78166
                       0.02460                      -0.62322                       0.78166
                       0.02460                      -0.62322                       0.78166
                       0.02460                      -0.62322                       0.78166
                       0.02460                      -0.62322                       0.78166
        </DataArray>
        <DataArray type="Float32" Name="Force" NumberOfComponents="3" format="ascii">
                       1.60864                      23.12476                      18.38689
                     207.42975                     116.05569                      86.00371
                     330.34638                     342.15912                     262.40893
                     348.41584                     513.90638                     398.77538
                    1523.37825                    -287.53474                    -277.19677
                    1422.29182                    -205.91737                    -208.94136
                    1405.56871                    -131.52853                    -149.10438
                    2488.83556                    -256.05472                    -282.48231
                    3373.51442                    -290.26756                    -337.60292
                    4426.12325                    -318.07462                    -392.90122
                    6845.59571                    -378.36938                    -517.11993
                    8625.04072                    -373.04913                    -568.88054
                   10603.12741                    -431.65215                    -677.85918
                   12714.24639                    -438.14606                    -749.47768
                   15154.24598                    -446.54186                    -832.96306
                   17425.09950                    -456.31616                    -912.22419
                   18965.60852                    -442.42185                    -949.62888
                   16479.43242                    -527.64262                    -939.33129
                   13845.85181                    -231.30608                    -620.17665
        </DataArray>
        <DataArray type="Float32" Name="Moment" NumberOfComponents="3" format="ascii">
                       0.00000                       0.00000                       0.00000
                       0.00000                       0.00000                       0.00000
                       0.00000                       0.00000                       0.00000
                       0.00000                       0.00000                       0.00000
                     -36.17982                     916.57678                   -1149.59210
                     -70.45653                    1784.94051                   -2238.71428
                     -96.24859                    2438.35443                   -3058.24136
                    -156.08805                    3954.32279                   -4959.60444
                    -232.83191                    5898.54606                   -7398.09491
                    -266.46118                    6750.50750                   -8466.64493
                    -296.73794                    7517.53645                   -9428.67065
                    -317.96194                    8055.22366                  -10103.05056
                    -246.70661                    6250.04669                   -7838.95524
                    -249.78915                    6328.13959                   -7936.90119
                    -247.07719                    6259.43483                   -7850.73008
                    -239.74997                    6073.80763                   -7617.91208
                    -218.11731                    5525.76736                   -6930.54711
                    -114.96536                    2912.52382                   -3652.95573
                    -113.59418                    2877.78640                   -3609.38724
        </DataArray>
      </PointData>
      <Lines>
        <DataArray type="Int32" Name="connectivity" format="ascii">
      0      1
      1      2
      2      3
      3      4
      4      5
      5      6
      6      7
      7      8
      8      9
      9     10
     10     11
     11     12
     12     13
     13     14
     14     15
     15     16
     16     17
     17     18
        </DataArray>
        <DataArray type="Int32" Name="offsets" format="ascii">
      2
      4
      6
      8
     10
     12
     14
     16
     18
     20
     22
     24
     26
     28
     30
     32
     34
     36
        </DataArray>
      </Lines>
    </Piece>
  </PolyData>
</VTKFile>
