<?xml version="1.0"?>
<VTKFile type="PolyData" version="0.1" byte_order="LittleEndian">
  <PolyData>
    <Piece NumberOfPoints="     19" NumberOfVerts="  0" NumberOfLines="     18"
           NumberOfStrips="  0" NumberOfPolys="      0">
      <Points>
        <DataArray type="Float32" NumberOfComponents="3" format="ascii">
                      -5.05478                      -1.49381                      90.12462
                      -5.10580                      -2.85511                      90.23481
                      -5.23835                      -5.58418                      90.36304
                      -5.38536                      -8.31636                      90.44763
                      -5.57776                     -11.73351                      90.52731
                      -5.74353                     -15.82496                      90.76058
                      -5.87406                     -19.90710                      91.12095
                      -6.00664                     -23.98893                      91.48408
                      -6.13871                     -28.07042                      91.85156
                      -6.27129                     -32.15168                      92.22155
                      -6.40600                     -36.23295                      92.59053
                      -6.54199                     -40.31413                      92.95993
                      -6.67992                     -44.39521                      93.32979
                      -6.82049                     -48.47615                      93.70013
                      -6.96198                     -52.55704                      94.07065
                      -7.08052                     -55.95778                      94.37954
                      -7.17522                     -58.67766                      94.63454
                      -7.26644                     -61.39310                      94.94429
                      -7.31634                     -62.75406                      95.05783
        </DataArray>
      </Points>
      <PointData>
        <DataArray type="Float32" Name="TranslationalVelocity" NumberOfComponents="3" format="ascii">
                      -0.14486                      -0.13282                      -1.65579
                      -0.27687                      -0.25001                      -3.16469
                      -0.54153                      -0.37928                      -6.18967
                      -0.80648                      -0.45879                      -9.21810
                      -1.13786                      -0.52846                     -13.00578
                      -1.53463                      -0.77094                     -17.54087
                      -1.93049                      -1.15773                     -22.06563
                      -2.32633                      -1.54738                     -26.59006
                      -2.72213                      -1.94189                     -31.11411
                      -3.11791                      -2.33914                     -35.63790
                      -3.51369                      -2.73507                     -40.16170
                      -3.90947                      -3.13134                     -44.68541
                      -4.30523                      -3.52793                     -49.20900
                      -4.70098                      -3.92479                     -53.73244
                      -5.09672                      -4.32176                     -58.25582
                      -5.42651                      -4.65265                     -62.02531
                      -5.69027                      -4.92612                     -65.04010
                      -5.95360                      -5.26061                     -68.04998
                      -6.08558                      -5.38162                     -69.55851
        </DataArray>
        <DataArray type="Float32" Name="RotationalVelocity" NumberOfComponents="3" format="ascii">
                       1.10843                      -0.00000                      -0.09698
                       1.10843                      -0.00000                      -0.09698
                       1.10843                      -0.00000                      -0.09698
                       1.10843                      -0.00000                      -0.09698
                       1.10843                      -0.00000                      -0.09698
                       1.10843                      -0.00000                      -0.09698
                       1.10843                      -0.00000                      -0.09698
                       1.10843                      -0.00000                      -0.09698
                       1.10843                      -0.00000                      -0.09698
                       1.10843                      -0.00000                      -0.09698
                       1.10843                      -0.00000                      -0.09698
                       1.10843                      -0.00000                      -0.09698
                       1.10843                      -0.00000                      -0.09698
                       1.10843                      -0.00000                      -0.09698
                       1.10843                      -0.00000                      -0.09698
                       1.10843                      -0.00000                      -0.09698
                       1.10843                      -0.00000                      -0.09698
                       1.10843                      -0.00000                      -0.09698
                       1.10843                      -0.00000                      -0.09698
        </DataArray>
        <DataArray type="Float32" Name="TranslationalAcceleration" NumberOfComponents="3" format="ascii">
                      -0.02783                       1.83566                      -0.31813
                      -0.05282                       3.50888                      -0.60377
                      -0.09268                       6.87419                      -1.05930
                      -0.12774                      10.24848                      -1.46002
                      -0.16870                      14.47180                      -1.92819
                      -0.23316                      19.51208                      -2.66508
                      -0.31153                      24.52593                      -3.56085
                      -0.39018                      29.53911                      -4.45975
                      -0.46929                      34.55137                      -5.36400
                      -0.54867                      39.56305                      -6.27127
                      -0.62791                      44.57488                      -7.17707
                      -0.70719                      49.58658                      -8.08323
                      -0.78650                      54.59811                      -8.98975
                      -0.86584                      59.60944                      -9.89654
                      -0.94518                      64.62069                     -10.80346
                      -1.01131                      68.79673                     -11.55930
                      -1.06505                      72.13578                     -12.17361
                      -1.12467                      75.46303                     -12.85505
                      -1.15003                      77.13544                     -13.14488
        </DataArray>
        <DataArray type="Float32" Name="OrientationX" NumberOfComponents="3" format="ascii">
                       0.94882                      -0.06065                      -0.30995
                       0.94882                      -0.06065                      -0.30995
                       0.94882                      -0.06065                      -0.30995
                       0.94882                      -0.06065                      -0.30995
                       0.94882                      -0.06065                      -0.30995
                       0.95834                      -0.05846                      -0.27958
                       0.96460                      -0.05685                      -0.25750
                       0.96966                      -0.05542                      -0.23811
                       0.97457                      -0.05388                      -0.21752
                       0.97916                      -0.05228                      -0.19624
                       0.98308                      -0.05073                      -0.17603
                       0.98655                      -0.04918                      -0.15591
                       0.98933                      -0.04776                      -0.13762
                       0.99122                      -0.04667                      -0.12372
                       0.99288                      -0.04559                      -0.11003
                       0.99413                      -0.04468                      -0.09856
                       0.99497                      -0.04399                      -0.09002
                       0.99539                      -0.04363                      -0.08545
                       0.99539                      -0.04363                      -0.08545
        </DataArray>
        <DataArray type="Float32" Name="OrientationY" NumberOfComponents="3" format="ascii">
                       0.31371                       0.06751                       0.94712
                       0.31371                       0.06751                       0.94712
                       0.31371                       0.06751                       0.94712
                       0.31371                       0.06751                       0.94712
                       0.31371                       0.06751                       0.94712
                       0.28328                       0.06941                       0.95652
                       0.26116                       0.07073                       0.96270
                       0.24173                       0.07186                       0.96768
                       0.22110                       0.07302                       0.97251
                       0.19977                       0.07418                       0.97703
                       0.17951                       0.07524                       0.98087
                       0.15935                       0.07627                       0.98427
                       0.14102                       0.07717                       0.98699
                       0.12709                       0.07783                       0.98883
                       0.11336                       0.07847                       0.99045
                       0.10186                       0.07899                       0.99166
                       0.09331                       0.07937                       0.99247
                       0.08872                       0.07957                       0.99287
                       0.08872                       0.07957                       0.99287
        </DataArray>
        <DataArray type="Float32" Name="OrientationZ" NumberOfComponents="3" format="ascii">
                      -0.03652                      -0.99587                       0.08308
                      -0.03652                      -0.99587                       0.08308
                      -0.03652                      -0.99587                       0.08308
                      -0.03652                      -0.99587                       0.08308
                      -0.03652                      -0.99587                       0.08308
                      -0.03652                      -0.99587                       0.08308
                      -0.03652                      -0.99587                       0.08308
                      -0.03652                      -0.99587                       0.08308
                      -0.03652                      -0.99587                       0.08308
                      -0.03652                      -0.99587                       0.08308
                      -0.03652                      -0.99587                       0.08308
                      -0.03652                      -0.99587                       0.08308
                      -0.03652                      -0.99587                       0.08308
                      -0.03652                      -0.99587                       0.08308
                      -0.03652                      -0.99587                       0.08308
                      -0.03652                      -0.99587                       0.08308
                      -0.03652                      -0.99587                       0.08308
                      -0.03652                      -0.99587                       0.08308
                      -0.03652                      -0.99587                       0.08308
        </DataArray>
        <DataArray type="Float32" Name="Force" NumberOfComponents="3" format="ascii">
                       0.69224                       0.63468                       7.91230
                     168.72009                      -2.51428                      44.02278
                     207.14107                       0.97104                     102.68990
                     180.77699                       4.23674                     130.24787
                    1460.89776                    -108.16913                    -654.49360
                    1666.35566                    -124.35945                    -758.25914
                    2456.15719                    -188.59911                   -1181.14784
                    2936.07668                    -212.84997                   -1260.89522
                    3216.40207                    -223.49080                   -1265.22988
                    3966.17793                    -261.00091                   -1385.30110
                    4679.20975                    -294.46931                   -1473.07467
                    5354.37152                    -324.65522                   -1538.14664
                    5754.14568                    -339.78803                   -1543.82300
                    6224.39086                    -358.25461                   -1558.48589
                    6613.36004                    -371.55118                   -1546.90034
                    6822.62077                    -374.99413                   -1496.18978
                    6650.18055                    -357.84643                   -1366.43488
                    4802.06828                    -253.11422                    -923.34224
                    1882.06179                     -80.05192                    -132.32377
        </DataArray>
        <DataArray type="Float32" Name="Moment" NumberOfComponents="3" format="ascii">
                       0.00000                       0.00000                       0.00000
                       0.00000                       0.00000                       0.00000
                       0.00000                       0.00000                       0.00000
                       0.00000                       0.00000                       0.00000
                      20.57391                     561.07261                     -46.80620
                      18.15310                     495.05457                     -41.29880
                      24.41041                     665.69815                     -55.53435
                      35.20944                     960.19922                     -80.10243
                      48.57652                    1324.73385                    -110.51290
                      58.47375                    1594.64209                    -133.02938
                      62.76812                    1711.75428                    -142.79920
                      67.36891                    1837.22268                    -153.26611
                      62.52405                    1705.09808                    -142.24392
                      62.57521                    1706.49343                    -142.36032
                      60.79177                    1657.85698                    -138.30294
                      58.04055                    1582.82815                    -132.04383
                      52.00737                    1418.29696                    -118.31819
                      26.88341                     733.13965                     -61.16050
                      22.97228                     626.47869                     -52.26256
        </DataArray>
      </PointData>
      <Lines>
        <DataArray type="Int32" Name="connectivity" format="ascii">
      0      1
      1      2
      2      3
      3      4
      4      5
      5      6
      6      7
      7      8
      8      9
      9     10
     10     11
     11     12
     12     13
     13     14
     14     15
     15     16
     16     17
     17     18
        </DataArray>
        <DataArray type="Int32" Name="offsets" format="ascii">
      2
      4
      6
      8
     10
     12
     14
     16
     18
     20
     22
     24
     26
     28
     30
     32
     34
     36
        </DataArray>
      </Lines>
    </Piece>
  </PolyData>
</VTKFile>
