<?xml version="1.0"?>
<VTKFile type="PolyData" version="0.1" byte_order="LittleEndian">
  <PolyData>
    <Piece NumberOfPoints="     19" NumberOfVerts="  0" NumberOfLines="     18"
           NumberOfStrips="  0" NumberOfPolys="      0">
      <Points>
        <DataArray type="Float32" NumberOfComponents="3" format="ascii">
                      -4.95807                      -0.85761                      91.22994
                      -4.92086                      -1.64181                      92.34866
                      -4.87351                      -3.28723                      94.53319
                      -4.83899                      -4.96916                      96.69270
                      -4.80349                      -7.09341                      99.37721
                      -4.70094                      -9.52649                     102.67743
                      -4.56789                     -11.85353                     106.05055
                      -4.43699                     -14.17841                     109.42525
                      -4.30575                     -16.49969                     112.80245
                      -4.17510                     -18.81892                     116.18110
                      -4.04655                     -21.13908                     119.55917
                      -3.91930                     -23.45894                     122.93749
                      -3.79399                     -25.77852                     126.31608
                      -3.67135                     -28.09782                     129.69496
                      -3.54964                     -30.41701                     133.07394
                      -3.44884                     -32.34962                     135.88985
                      -3.36836                     -33.88917                     138.14707
                      -3.28645                     -35.38357                     140.43572
                      -3.24825                     -36.16491                     141.55628
        </DataArray>
      </Points>
      <PointData>
        <DataArray type="Float32" Name="TranslationalVelocity" NumberOfComponents="3" format="ascii">
                      -0.23210                      -3.81598                      -2.65288
                      -0.44433                      -7.28663                      -5.07868
                      -0.88963                     -14.05694                     -10.16855
                      -1.34482                     -20.74641                     -15.37133
                      -1.91971                     -29.06013                     -21.94239
                      -2.57818                     -39.29663                     -29.46873
                      -3.20795                     -49.76686                     -36.66709
                      -3.83714                     -60.24142                     -43.85874
                      -4.46536                     -70.72378                     -51.03926
                      -5.09302                     -81.21046                     -58.21346
                      -5.72093                     -91.69481                     -65.39050
                      -6.34876                    -102.17956                     -72.56666
                      -6.97651                    -112.66463                     -79.74190
                      -7.60419                    -123.14984                     -86.91630
                      -8.23184                    -133.63514                     -94.09037
                      -8.75487                    -142.37302                    -100.06860
                      -9.17152                    -149.37716                    -104.83097
                      -9.57595                    -156.47894                    -109.45366
                      -9.78741                    -159.95555                    -111.87061
        </DataArray>
        <DataArray type="Float32" Name="RotationalVelocity" NumberOfComponents="3" format="ascii">
                       3.09335                      -0.00000                      -0.27063
                       3.09335                      -0.00000                      -0.27063
                       3.09335                      -0.00000                      -0.27063
                       3.09335                      -0.00000                      -0.27063
                       3.09335                      -0.00000                      -0.27063
                       3.09335                      -0.00000                      -0.27063
                       3.09335                      -0.00000                      -0.27063
                       3.09335                      -0.00000                      -0.27063
                       3.09335                      -0.00000                      -0.27063
                       3.09335                      -0.00000                      -0.27063
                       3.09335                      -0.00000                      -0.27063
                       3.09335                      -0.00000                      -0.27063
                       3.09335                      -0.00000                      -0.27063
                       3.09335                      -0.00000                      -0.27063
                       3.09335                      -0.00000                      -0.27063
                       3.09335                      -0.00000                      -0.27063
                       3.09335                      -0.00000                      -0.27063
                       3.09335                      -0.00000                      -0.27063
                       3.09335                      -0.00000                      -0.27063
        </DataArray>
        <DataArray type="Float32" Name="TranslationalAcceleration" NumberOfComponents="3" format="ascii">
                      -1.03330                       8.25970                     -11.81066
                      -1.97309                      15.81247                     -22.55255
                      -3.80646                      31.66107                     -43.50800
                      -5.61796                      47.86182                     -64.21363
                      -7.86934                      68.32353                     -89.94702
                     -10.64130                      91.75815                    -121.63057
                     -13.47643                     114.16989                    -154.03631
                     -16.31274                     136.56067                    -186.45543
                     -19.15115                     158.91678                    -218.89867
                     -21.99074                     181.25314                    -251.35526
                     -24.82969                     203.59839                    -283.80463
                     -27.66875                     225.94088                    -316.25524
                     -30.50790                     248.28052                    -348.70684
                     -33.34708                     270.61753                    -381.15888
                     -36.18629                     292.95348                    -413.61119
                     -38.55233                     311.56630                    -440.65517
                     -40.44891                     326.39350                    -462.33313
                     -42.37188                     340.78509                    -484.31275
                     -43.31328                     348.31023                    -495.07305
        </DataArray>
        <DataArray type="Float32" Name="OrientationX" NumberOfComponents="3" format="ascii">
                       0.96007                      -0.21306                      -0.18129
                       0.96007                      -0.21306                      -0.18129
                       0.96007                      -0.21306                      -0.18129
                       0.96007                      -0.21306                      -0.18129
                       0.96007                      -0.21306                      -0.18129
                       0.96846                      -0.18768                      -0.16388
                       0.97390                      -0.16926                      -0.15122
                       0.97823                      -0.15310                      -0.14010
                       0.98237                      -0.13596                      -0.12829
                       0.98618                      -0.11826                      -0.11608
                       0.98934                      -0.10147                      -0.10448
                       0.99206                      -0.08478                      -0.09294
                       0.99416                      -0.06963                      -0.08244
                       0.99553                      -0.05812                      -0.07446
                       0.99668                      -0.04679                      -0.06660
                       0.99750                      -0.03731                      -0.06002
                       0.99802                      -0.03026                      -0.05512
                       0.99827                      -0.02648                      -0.05249
                       0.99827                      -0.02648                      -0.05249
        </DataArray>
        <DataArray type="Float32" Name="OrientationY" NumberOfComponents="3" format="ascii">
                       0.27835                       0.79229                       0.54296
                       0.27835                       0.79229                       0.54296
                       0.27835                       0.79229                       0.54296
                       0.27835                       0.79229                       0.54296
                       0.27835                       0.79229                       0.54296
                       0.24758                       0.79868                       0.54846
                       0.22524                       0.80279                       0.55209
                       0.20563                       0.80603                       0.55501
                       0.18482                       0.80909                       0.55786
                       0.16333                       0.81187                       0.56053
                       0.14294                       0.81414                       0.56281
                       0.12265                       0.81604                       0.56483
                       0.10423                       0.81748                       0.56645
                       0.09023                       0.81837                       0.56756
                       0.07645                       0.81910                       0.56853
                       0.06491                       0.81959                       0.56927
                       0.05632                       0.81988                       0.56976
                       0.05172                       0.82001                       0.57001
                       0.05172                       0.82001                       0.57001
        </DataArray>
        <DataArray type="Float32" Name="OrientationZ" NumberOfComponents="3" format="ascii">
                       0.02795                      -0.57174                       0.81996
                       0.02795                      -0.57174                       0.81996
                       0.02795                      -0.57174                       0.81996
                       0.02795                      -0.57174                       0.81996
                       0.02795                      -0.57174                       0.81996
                       0.02795                      -0.57174                       0.81996
                       0.02795                      -0.57174                       0.81996
                       0.02795                      -0.57174                       0.81996
                       0.02795                      -0.57174                       0.81996
                       0.02795                      -0.57174                       0.81996
                       0.02795                      -0.57174                       0.81996
                       0.02795                      -0.57174                       0.81996
                       0.02795                      -0.57174                       0.81996
                       0.02795                      -0.57174                       0.81996
                       0.02795                      -0.57174                       0.81996
                       0.02795                      -0.57174                       0.81996
                       0.02795                      -0.57174                       0.81996
                       0.02795                      -0.57174                       0.81996
                       0.02795                      -0.57174                       0.81996
        </DataArray>
        <DataArray type="Float32" Name="Force" NumberOfComponents="3" format="ascii">
                       1.49322                      24.55054                      17.06760
                     207.87951                     124.52049                      79.73886
                     332.29546                     369.31943                     246.19015
                     350.87560                     556.40176                     376.00481
                    1492.43219                    -280.75172                    -246.63619
                    1373.93861                    -196.29266                    -183.70564
                    1338.28860                    -115.85987                    -126.40653
                    2420.32913                    -243.14568                    -252.04499
                    3339.61019                    -281.51226                    -310.13398
                    4409.29227                    -307.60391                    -364.79089
                    6889.96230                    -363.76775                    -488.51485
                    8710.96983                    -351.25092                    -541.86254
                   10701.11272                    -403.03579                    -645.81182
                   12870.09926                    -402.04998                    -719.06189
                   15383.17327                    -401.14477                    -804.09757
                   17727.59715                    -402.01043                    -884.61900
                   19327.64339                    -376.18138                    -921.15216
                   16877.07570                    -490.60028                    -917.39760
                   14354.85999                    -199.97638                    -628.77403
        </DataArray>
        <DataArray type="Float32" Name="Moment" NumberOfComponents="3" format="ascii">
                       0.00000                       0.00000                       0.00000
                       0.00000                       0.00000                       0.00000
                       0.00000                       0.00000                       0.00000
                       0.00000                       0.00000                       0.00000
                     -41.68028                     852.56552                   -1222.70873
                     -82.06884                    1678.70930                   -2407.52467
                    -112.54435                    2302.08254                   -3301.53678
                    -182.92328                    3741.67586                   -5366.13273
                    -273.31014                    5590.52928                   -8017.66996
                    -312.92993                    6400.94779                   -9179.93348
                    -348.75381                    7133.72133                  -10230.84226
                    -373.74854                    7644.98569                  -10964.07318
                    -289.97834                    5931.47533                   -8506.63850
                    -293.25818                    5998.56422                   -8602.85418
                    -290.12454                    5934.46594                   -8510.92750
                    -281.55655                    5759.20862                   -8259.58181
                    -255.84443                    5233.27010                   -7505.30592
                    -134.95671                    2760.52482                   -3959.01279
                    -133.80634                    2736.99416                   -3925.26625
        </DataArray>
      </PointData>
      <Lines>
        <DataArray type="Int32" Name="connectivity" format="ascii">
      0      1
      1      2
      2      3
      3      4
      4      5
      5      6
      6      7
      7      8
      8      9
      9     10
     10     11
     11     12
     12     13
     13     14
     14     15
     15     16
     16     17
     17     18
        </DataArray>
        <DataArray type="Int32" Name="offsets" format="ascii">
      2
      4
      6
      8
     10
     12
     14
     16
     18
     20
     22
     24
     26
     28
     30
     32
     34
     36
        </DataArray>
      </Lines>
    </Piece>
  </PolyData>
</VTKFile>
