<?xml version="1.0"?>
<VTKFile type="PolyData" version="0.1" byte_order="LittleEndian">
  <PolyData>
    <Piece NumberOfPoints="    625" NumberOfVerts="  0" NumberOfLines="      0"
           NumberOfStrips="  0" NumberOfPolys="    600">
      <Points>
        <DataArray type="Float32" NumberOfComponents="3" format="ascii">
                      -5.04677                       1.40075                      89.46548
                      -5.04677                       1.40075                      89.46548
                      -5.04677                       1.40075                      89.46548
                      -5.04677                       1.40075                      89.46548
                      -5.04677                       1.40075                      89.46548
                      -5.04677                       1.40075                      89.46548
                      -5.04677                       1.40075                      89.46548
                      -5.04677                       1.40075                      89.46548
                      -5.04677                       1.40075                      89.46548
                      -5.04677                       1.40075                      89.46548
                      -5.04677                       1.40075                      89.46548
                      -5.04677                       1.40075                      89.46548
                      -5.04677                       1.40075                      89.46548
                      -5.04677                       1.40075                      89.46548
                      -5.04677                       1.40075                      89.46548
                      -5.04677                       1.40075                      89.46548
                      -5.04677                       1.40075                      89.46548
                      -5.04677                       1.40075                      89.46548
                      -5.04677                       1.40075                      89.46548
                      -5.04677                       1.40075                      89.46548
                      -5.04677                       1.40075                      89.46548
                      -5.04677                       1.40075                      89.46548
                      -5.04677                       1.40075                      89.46548
                      -5.04677                       1.40075                      89.46548
                      -5.04677                       1.40075                      89.46548
                      -4.44567                       1.28402                      89.45777
                      -4.45230                       1.33735                      89.59810
                      -4.49604                       1.38733                      89.73290
                      -4.57413                       1.43081                      89.85369
                      -4.68168                       1.46508                      89.95289
                      -4.81192                       1.48796                      90.02426
                      -4.95668                       1.49804                      90.06332
                      -5.10685                       1.49466                      90.06761
                      -5.25300                       1.47805                      90.03687
                      -5.38594                       1.44925                      89.97303
                      -5.49733                       1.41006                      89.88009
                      -5.58017                       1.36296                      89.76390
                      -5.62924                       1.31090                      89.63175
                      -5.64147                       1.25714                      89.49196
                      -5.61609                       1.20508                      89.35330
                      -5.55469                       1.15797                      89.22449
                      -5.46113                       1.11879                      89.11362
                      -5.34129                       1.08999                      89.02766
                      -5.20270                       1.07338                      88.97201
                      -5.05407                       1.07000                      88.95016
                      -4.90473                       1.08007                      88.96349
                      -4.76407                       1.10296                      89.01116
                      -4.64093                       1.13722                      89.09017
                      -4.54305                       1.18071                      89.19557
                      -4.47657                       1.23069                      89.32072
                      -4.21297                       1.16729                      89.48230
                      -4.22214                       1.24105                      89.67639
                      -4.28263                       1.31018                      89.86284
                      -4.39065                       1.37033                      90.02991
                      -4.53940                       1.41772                      90.16711
                      -4.71954                       1.44937                      90.26583
                      -4.91976                       1.46330                      90.31985
                      -5.12746                       1.45864                      90.32579
                      -5.32960                       1.43566                      90.28327
                      -5.51349                       1.39582                      90.19496
                      -5.66755                       1.34163                      90.06641
                      -5.78213                       1.27648                      89.90571
                      -5.85000                       1.20446                      89.72293
                      -5.86692                       1.13012                      89.52958
                      -5.83181                       1.05810                      89.33780
                      -5.74689                       0.99295                      89.15964
                      -5.61748                       0.93876                      89.00630
                      -5.45173                       0.89892                      88.88740
                      -5.26004                       0.87594                      88.81042
                      -5.05446                       0.87127                      88.78020
                      -4.84790                       0.88521                      88.79864
                      -4.65336                       0.91686                      88.86457
                      -4.48304                       0.96425                      88.97386
                      -4.34765                       1.02440                      89.11964
                      -4.25570                       1.09353                      89.29274
                      -4.04669                       1.05056                      89.51264
                      -4.05766                       1.13882                      89.74489
                      -4.13005                       1.22154                      89.96798
                      -4.25930                       1.29351                      90.16790
                      -4.43729                       1.35022                      90.33207
                      -4.65285                       1.38810                      90.45019
                      -4.89242                       1.40477                      90.51484
                      -5.14096                       1.39918                      90.52194
                      -5.38284                       1.37169                      90.47106
                      -5.60287                       1.32402                      90.36540
                      -5.78723                       1.25917                      90.21158
                      -5.92432                       1.18121                      90.01928
                      -6.00554                       1.09504                      89.80058
                      -6.02578                       1.00608                      89.56922
                      -5.98377                       0.91991                      89.33974
                      -5.88216                       0.84195                      89.12655
                      -5.72731                       0.77710                      88.94306
                      -5.52897                       0.72943                      88.80079
                      -5.29960                       0.70194                      88.70868
                      -5.05360                       0.69635                      88.67252
                      -4.80645                       0.71302                      88.69458
                      -4.57365                       0.75090                      88.77347
                      -4.36985                       0.80761                      88.90425
                      -4.20785                       0.87958                      89.07868
                      -4.09783                       0.96230                      89.28582
                      -3.91740                       0.93383                      89.54621
                      -3.92976                       1.03329                      89.80793
                      -4.01133                       1.12650                      90.05933
                      -4.15698                       1.20761                      90.28460
                      -4.35755                       1.27151                      90.46961
                      -4.60046                       1.31419                      90.60272
                      -4.87043                       1.33298                      90.67556
                      -5.15050                       1.32668                      90.68357
                      -5.42307                       1.29570                      90.62624
                      -5.67101                       1.24199                      90.50716
                      -5.87876                       1.16891                      90.33383
                      -6.03325                       1.08106                      90.11713
                      -6.12477                       0.98396                      89.87068
                      -6.14758                       0.88371                      89.60997
                      -6.10024                       0.78661                      89.35137
                      -5.98573                       0.69876                      89.11114
                      -5.81124                       0.62568                      88.90437
                      -5.58774                       0.57196                      88.74405
                      -5.32926                       0.54098                      88.64025
                      -5.05206                       0.53469                      88.59950
                      -4.77354                       0.55347                      88.62436
                      -4.51121                       0.59616                      88.71327
                      -4.28156                       0.66006                      88.86063
                      -4.09900                       0.74116                      89.05720
                      -3.97502                       0.83437                      89.29061
                      -3.81357                       0.81710                      89.58201
                      -3.82704                       0.92549                      89.86721
                      -3.91592                       1.02706                      90.14117
                      -4.07464                       1.11544                      90.38666
                      -4.29322                       1.18508                      90.58826
                      -4.55792                       1.23159                      90.73331
                      -4.85211                       1.25206                      90.81270
                      -5.15730                       1.24520                      90.82142
                      -5.45433                       1.21144                      90.75894
                      -5.72453                       1.15291                      90.62918
                      -5.95091                       1.07327                      90.44030
                      -6.11926                       0.97754                      90.20416
                      -6.21899                       0.87173                      89.93560
                      -6.24385                       0.76248                      89.65149
                      -6.19227                       0.65667                      89.36969
                      -6.06748                       0.56093                      89.10790
                      -5.87733                       0.48130                      88.88258
                      -5.63378                       0.42276                      88.70787
                      -5.35211                       0.38900                      88.59477
                      -5.05004                       0.38214                      88.55036
                      -4.74653                       0.40261                      88.57745
                      -4.46066                       0.44913                      88.67433
                      -4.21040                       0.51876                      88.83492
                      -4.01147                       0.60715                      89.04912
                      -3.87636                       0.70872                      89.30348
                      -3.72929                       0.70037                      89.61952
                      -3.74365                       0.81594                      89.92361
                      -3.83842                       0.92424                      90.21571
                      -4.00765                       1.01847                      90.47746
                      -4.24070                       1.09272                      90.69242
                      -4.52293                       1.14231                      90.84707
                      -4.83661                       1.16414                      90.93171
                      -5.16202                       1.15683                      90.94102
                      -5.47872                       1.12083                      90.87440
                      -5.76681                       1.05842                      90.73605
                      -6.00818                       0.97351                      90.53465
                      -6.18768                       0.87143                      90.28287
                      -6.29402                       0.75861                      89.99653
                      -6.32052                       0.64213                      89.69360
                      -6.26552                       0.52931                      89.39314
                      -6.13247                       0.42724                      89.11402
                      -5.92973                       0.34233                      88.87377
                      -5.67005                       0.27992                      88.68749
                      -5.36973                       0.24392                      88.56689
                      -5.04764                       0.23661                      88.51955
                      -4.72404                       0.25843                      88.54843
                      -4.41924                       0.30803                      88.65173
                      -4.15240                       0.38228                      88.82295
                      -3.94029                       0.47651                      89.05134
                      -3.79624                       0.58481                      89.32254
                      -3.66109                       0.58364                      89.65844
                      -3.67616                       0.70495                      89.97764
                      -3.77565                       0.81863                      90.28425
                      -3.95328                       0.91755                      90.55901
                      -4.19791                       0.99549                      90.78465
                      -4.49417                       1.04754                      90.94699
                      -4.82343                       1.07046                      91.03584
                      -5.16501                       1.06278                      91.04560
                      -5.49745                       1.02500                      90.97567
                      -5.79985                       0.95948                      90.83045
                      -6.05322                       0.87035                      90.61905
                      -6.24164                       0.76321                      90.35475
                      -6.35327                       0.64478                      90.05418
                      -6.38108                       0.52251                      89.73620
                      -6.32335                       0.40408                      89.42081
                      -6.18369                       0.29694                      89.12782
                      -5.97088                       0.20781                      88.87563
                      -5.69828                       0.14229                      88.68010
                      -5.38304                       0.10451                      88.55350
                      -5.04495                       0.09683                      88.50381
                      -4.70527                       0.11974                      88.53413
                      -4.38532                       0.17180                      88.64256
                      -4.10523                       0.24974                      88.82229
                      -3.88258                       0.34866                      89.06203
                      -3.73136                       0.46234                      89.34671
                      -3.60676                       0.46692                      89.69857
                      -3.62239                       0.59272                      90.02962
                      -3.72557                       0.71063                      90.34762
                      -3.90980                       0.81322                      90.63258
                      -4.16352                       0.89405                      90.86659
                      -4.47077                       0.94804                      91.03496
                      -4.81225                       0.97180                      91.12710
                      -5.16652                       0.96384                      91.13723
                      -5.51129                       0.92465                      91.06471
                      -5.82493                       0.85670                      90.91409
                      -6.08770                       0.76427                      90.69484
                      -6.28312                       0.65314                      90.42074
                      -6.39889                       0.53032                      90.10900
                      -6.42774                       0.40351                      89.77922
                      -6.36786                       0.28069                      89.45212
                      -6.22301                       0.16957                      89.14825
                      -6.00230                       0.07713                      88.88670
                      -5.71959                       0.00918                      88.68391
                      -5.39264                      -0.03001                      88.55261
                      -5.04200                      -0.03797                      88.50107
                      -4.68970                      -0.01421                      88.53252
                      -4.35788                       0.03979                      88.64498
                      -4.06739                       0.12062                      88.83138
                      -3.83647                       0.22321                      89.08002
                      -3.67964                       0.34111                      89.37526
                      -3.56485                       0.35019                      89.73979
                      -3.58091                       0.47939                      90.07977
                      -3.68687                       0.60047                      90.40635
                      -3.87607                       0.70583                      90.69899
                      -4.13663                       0.78884                      90.93932
                      -4.45217                       0.84429                      91.11223
                      -4.80287                       0.86869                      91.20686
                      -5.16669                       0.86052                      91.21727
                      -5.52077                       0.82027                      91.14279
                      -5.84286                       0.75049                      90.98810
                      -6.11273                       0.65556                      90.76294
                      -6.31342                       0.54144                      90.48144
                      -6.43231                       0.41530                      90.16129
                      -6.46194                       0.28507                      89.82262
                      -6.40045                       0.15893                      89.48669
                      -6.25169                       0.04481                      89.17462
                      -6.02502                      -0.05012                      88.90601
                      -5.73468                      -0.11990                      88.69775
                      -5.39892                      -0.16014                      88.56292
                      -5.03882                      -0.16832                      88.50998
                      -4.67701                      -0.14392                      88.54228
                      -4.33624                      -0.08847                      88.65777
                      -4.03791                      -0.00546                      88.84920
                      -3.80076                       0.09990                      89.10455
                      -3.63970                       0.22098                      89.40776
                      -3.53440                       0.23346                      89.78201
                      -3.55076                       0.36503                      90.12823
                      -3.65866                       0.48834                      90.46080
                      -3.85134                       0.59563                      90.75882
                      -4.11668                       0.68016                      91.00356
                      -4.43801                       0.73663                      91.17964
                      -4.79514                       0.76148                      91.27601
                      -5.16564                       0.75315                      91.28660
                      -5.52622                       0.71217                      91.21075
                      -5.85422                       0.64111                      91.05323
                      -6.12904                       0.54443                      90.82394
                      -6.33341                       0.42822                      90.53727
                      -6.45448                       0.29977                      90.21125
                      -6.48466                       0.16715                      89.86636
                      -6.42203                       0.03870                      89.52427
                      -6.27055                      -0.07752                      89.20647
                      -6.03972                      -0.17419                      88.93293
                      -5.74405                      -0.24525                      88.72085
                      -5.40212                      -0.28624                      88.58354
                      -5.03542                      -0.29456                      88.52964
                      -4.66698                      -0.26971                      88.56252
                      -4.31995                      -0.21325                      88.68013
                      -4.01614                      -0.12871                      88.87508
                      -3.77464                      -0.02142                      89.13511
                      -3.61063                       0.10188                      89.44389
                      -3.51480                       0.11673                      89.82518
                      -3.53133                       0.24970                      90.17509
                      -3.64038                       0.37432                      90.51120
                      -3.83511                       0.48276                      90.81240
                      -4.10328                       0.56819                      91.05974
                      -4.42804                       0.62526                      91.23771
                      -4.78898                       0.65038                      91.33510
                      -5.16342                       0.64196                      91.34580
                      -5.52784                       0.60054                      91.26915
                      -5.85934                       0.52872                      91.10995
                      -6.13709                       0.43102                      90.87821
                      -6.34364                       0.31357                      90.58849
                      -6.46600                       0.18374                      90.25899
                      -6.49650                       0.04971                      89.91043
                      -6.43321                      -0.08011                      89.56469
                      -6.28011                      -0.19756                      89.24350
                      -6.04682                      -0.29527                      88.96705
                      -5.74800                      -0.36708                      88.75271
                      -5.40243                      -0.40850                      88.61394
                      -5.03182                      -0.41692                      88.55946
                      -4.65945                      -0.39180                      88.59270
                      -4.30872                      -0.33474                      88.71156
                      -4.00168                      -0.24930                      88.90858
                      -3.75760                      -0.14087                      89.17139
                      -3.59184                      -0.01625                      89.48345
                      -3.50571                       0.00000                      89.86927
                      -3.52229                       0.13344                      90.22040
                      -3.63173                       0.25849                      90.55769
                      -3.82714                       0.36731                      90.85993
                      -4.09624                       0.45304                      91.10814
                      -4.42213                       0.51031                      91.28673
                      -4.78433                       0.53551                      91.38446
                      -5.16008                       0.52707                      91.39520
                      -5.52578                       0.48550                      91.31828
                      -5.85843                       0.41343                      91.15852
                      -6.13715                       0.31539                      90.92597
                      -6.34442                       0.19752                      90.63524
                      -6.46721                       0.06725                      90.30460
                      -6.49781                      -0.06725                      89.95481
                      -6.43430                      -0.19752                      89.60787
                      -6.28067                      -0.31539                      89.28556
                      -6.04656                      -0.41343                      89.00815
                      -5.74670                      -0.48550                      88.79306
                      -5.39992                      -0.52707                      88.65380
                      -5.02802                      -0.53551                      88.59913
                      -4.65435                      -0.51031                      88.63248
                      -4.30240                      -0.45304                      88.75176
                      -3.99428                      -0.36731                      88.94947
                      -3.74936                      -0.25849                      89.21319
                      -3.58302                      -0.13344                      89.52635
                      -3.50701                      -0.11673                      89.91427
                      -3.52354                       0.01625                      90.26418
                      -3.63259                       0.14087                      90.60029
                      -3.82732                       0.24930                      90.90148
                      -4.09549                       0.33474                      91.14883
                      -4.42024                       0.39180                      91.32679
                      -4.78118                       0.41692                      91.42419
                      -5.15563                       0.40850                      91.43489
                      -5.52005                       0.36708                      91.35824
                      -5.85155                       0.29527                      91.19904
                      -6.12930                       0.19756                      90.96730
                      -6.33584                       0.08011                      90.67758
                      -6.45821                      -0.04971                      90.34808
                      -6.48870                      -0.18375                      89.99952
                      -6.42541                      -0.31357                      89.65378
                      -6.27232                      -0.43102                      89.33259
                      -6.03903                      -0.52872                      89.05614
                      -5.74021                      -0.60054                      88.84180
                      -5.39464                      -0.64196                      88.70303
                      -5.02402                      -0.65038                      88.64855
                      -4.65165                      -0.62526                      88.68178
                      -4.30093                      -0.56819                      88.80065
                      -3.99388                      -0.48276                      88.99767
                      -3.74981                      -0.37432                      89.26047
                      -3.58405                      -0.24970                      89.57254
                      -3.51881                      -0.23346                      89.96019
                      -3.53517                      -0.10188                      90.30641
                      -3.64307                       0.02142                      90.63898
                      -3.83575                       0.12871                      90.93699
                      -4.10109                       0.21325                      91.18173
                      -4.42242                       0.26971                      91.35782
                      -4.77955                       0.29456                      91.45418
                      -5.15005                       0.28624                      91.46477
                      -5.51063                       0.24525                      91.38893
                      -5.83863                       0.17419                      91.23141
                      -6.11345                       0.07752                      91.00211
                      -6.31782                      -0.03870                      90.71545
                      -6.43889                      -0.16715                      90.38943
                      -6.46907                      -0.29977                      90.04453
                      -6.40644                      -0.42822                      89.70244
                      -6.25496                      -0.54443                      89.38464
                      -6.02413                      -0.64111                      89.11111
                      -5.72847                      -0.71217                      88.89903
                      -5.38654                      -0.75315                      88.76172
                      -5.01983                      -0.76148                      88.70781
                      -4.65139                      -0.73663                      88.74070
                      -4.30436                      -0.68016                      88.85831
                      -4.00055                      -0.59563                      89.05326
                      -3.75906                      -0.48834                      89.31329
                      -3.59504                      -0.36503                      89.62206
                      -3.54147                      -0.35019                      90.00705
                      -3.55753                      -0.22098                      90.34704
                      -3.66349                      -0.09990                      90.67361
                      -3.85269                       0.00546                      90.96626
                      -4.11325                       0.08847                      91.20659
                      -4.42879                       0.14392                      91.37950
                      -4.77949                       0.16832                      91.47413
                      -5.14331                       0.16014                      91.48453
                      -5.49739                       0.11990                      91.41005
                      -5.81948                       0.05012                      91.25537
                      -6.08935                      -0.04481                      91.03020
                      -6.29003                      -0.15893                      90.74870
                      -6.40893                      -0.28507                      90.42856
                      -6.43856                      -0.41530                      90.08988
                      -6.37706                      -0.54144                      89.75395
                      -6.22831                      -0.65556                      89.44188
                      -6.00164                      -0.75049                      89.17328
                      -5.71130                      -0.82027                      88.96501
                      -5.37553                      -0.86052                      88.83018
                      -5.01543                      -0.86869                      88.77725
                      -4.65363                      -0.84429                      88.80954
                      -4.31286                      -0.78884                      88.92503
                      -4.01453                      -0.70583                      89.11646
                      -3.77738                      -0.60047                      89.37181
                      -3.61632                      -0.47939                      89.67502
                      -3.57558                      -0.46692                      90.05492
                      -3.59122                      -0.34111                      90.38597
                      -3.69439                      -0.22321                      90.70397
                      -3.87863                      -0.12062                      90.98893
                      -4.13234                      -0.03979                      91.22294
                      -4.43959                       0.01421                      91.39131
                      -4.78108                       0.03797                      91.48346
                      -5.13534                       0.03001                      91.49358
                      -5.48012                      -0.00918                      91.42106
                      -5.79375                      -0.07713                      91.27044
                      -6.05653                      -0.16957                      91.05119
                      -6.25194                      -0.28069                      90.77709
                      -6.36771                      -0.40351                      90.46535
                      -6.39656                      -0.53032                      90.13557
                      -6.33668                      -0.65314                      89.80847
                      -6.19184                      -0.76427                      89.50460
                      -5.97112                      -0.85670                      89.24305
                      -5.68841                      -0.92465                      89.04026
                      -5.36146                      -0.96384                      88.90897
                      -5.01083                      -0.97180                      88.85742
                      -4.65853                      -0.94804                      88.88887
                      -4.32671                      -0.89405                      89.00133
                      -4.03621                      -0.81322                      89.18773
                      -3.80529                      -0.71063                      89.43637
                      -3.64847                      -0.59272                      89.73162
                      -3.62212                      -0.58364                      90.10388
                      -3.63719                      -0.46234                      90.42308
                      -3.73667                      -0.34866                      90.72969
                      -3.91431                      -0.24974                      91.00445
                      -4.15894                      -0.17180                      91.23009
                      -4.45520                      -0.11974                      91.39243
                      -4.78446                      -0.09683                      91.48127
                      -5.12604                      -0.10451                      91.49104
                      -5.45848                      -0.14229                      91.42111
                      -5.76088                      -0.20781                      91.27589
                      -6.01425                      -0.29694                      91.06449
                      -6.20267                      -0.40408                      90.80019
                      -6.31429                      -0.52251                      90.49962
                      -6.34211                      -0.64478                      90.18164
                      -6.28438                      -0.76321                      89.86625
                      -6.14472                      -0.87035                      89.57325
                      -5.93190                      -0.95948                      89.32107
                      -5.65931                      -1.02500                      89.12554
                      -5.34407                      -1.06278                      88.99894
                      -5.00598                      -1.07046                      88.94925
                      -4.66630                      -1.04754                      88.97957
                      -4.34635                      -0.99549                      89.08800
                      -4.06626                      -0.91755                      89.26773
                      -3.84361                      -0.81863                      89.50747
                      -3.69239                      -0.70495                      89.79215
                      -3.68252                      -0.70037                      90.15405
                      -3.69689                      -0.58481                      90.45814
                      -3.79166                      -0.47651                      90.75024
                      -3.96089                      -0.38228                      91.01199
                      -4.19394                      -0.30803                      91.22694
                      -4.47617                      -0.25843                      91.38160
                      -4.78984                      -0.23661                      91.46624
                      -5.11525                      -0.24392                      91.47554
                      -5.43195                      -0.27992                      91.40893
                      -5.72004                      -0.34233                      91.27057
                      -5.96142                      -0.42724                      91.06918
                      -6.14092                      -0.52931                      90.81740
                      -6.24726                      -0.64213                      90.53105
                      -6.27376                      -0.75861                      90.22813
                      -6.21876                      -0.87143                      89.92767
                      -6.08571                      -0.97351                      89.64854
                      -5.88297                      -1.05842                      89.40830
                      -5.62328                      -1.12083                      89.22202
                      -5.32296                      -1.15683                      89.10142
                      -5.00088                      -1.16414                      89.05408
                      -4.67727                      -1.14231                      89.08296
                      -4.37248                      -1.09272                      89.18626
                      -4.10564                      -1.01847                      89.35748
                      -3.89353                      -0.92424                      89.58587
                      -3.74947                      -0.81594                      89.85707
                      -3.75901                      -0.81710                      90.20563
                      -3.77248                      -0.70872                      90.49083
                      -3.86137                      -0.60715                      90.76478
                      -4.02008                      -0.51876                      91.01027
                      -4.23866                      -0.44913                      91.21188
                      -4.50336                      -0.40261                      91.35693
                      -4.79755                      -0.38214                      91.43631
                      -5.10274                      -0.38900                      91.44504
                      -5.39977                      -0.42276                      91.38256
                      -5.66997                      -0.48130                      91.25280
                      -5.89635                      -0.56093                      91.06392
                      -6.06470                      -0.65667                      90.82777
                      -6.16444                      -0.76248                      90.55921
                      -6.18929                      -0.87173                      90.27511
                      -6.13771                      -0.97754                      89.99331
                      -6.01292                      -1.07327                      89.73152
                      -5.82277                      -1.15291                      89.50619
                      -5.57922                      -1.21144                      89.33149
                      -5.29755                      -1.24520                      89.21838
                      -4.99548                      -1.25206                      89.17398
                      -4.69197                      -1.23159                      89.20107
                      -4.40610                      -1.18508                      89.29795
                      -4.15584                      -1.11544                      89.45854
                      -3.95691                      -1.02706                      89.67274
                      -3.82180                      -0.92549                      89.92710
                      -3.85504                      -0.93383                      90.25891
                      -3.86741                      -0.83437                      90.52063
                      -3.94897                      -0.74116                      90.77203
                      -4.09462                      -0.66006                      90.99731
                      -4.29520                      -0.59616                      91.18231
                      -4.53811                      -0.55347                      91.31542
                      -4.80807                      -0.53469                      91.38827
                      -5.08814                      -0.54098                      91.39627
                      -5.36071                      -0.57196                      91.33894
                      -5.60866                      -0.62568                      91.21986
                      -5.81640                      -0.69876                      91.04653
                      -5.97089                      -0.78661                      90.82984
                      -6.06242                      -0.88371                      90.58339
                      -6.08523                      -0.98396                      90.32267
                      -6.03789                      -1.08106                      90.06408
                      -5.92338                      -1.16891                      89.82384
                      -5.74889                      -1.24199                      89.61707
                      -5.52538                      -1.29570                      89.45675
                      -5.26691                      -1.32668                      89.35295
                      -4.98971                      -1.33298                      89.31221
                      -4.71119                      -1.31419                      89.33707
                      -4.44886                      -1.27151                      89.42597
                      -4.21920                      -1.20761                      89.57334
                      -4.03665                      -1.12650                      89.76990
                      -3.91267                      -1.03329                      90.00332
                      -3.97655                      -1.05056                      90.31443
                      -3.98752                      -0.96230                      90.54668
                      -4.05990                      -0.87958                      90.76977
                      -4.18915                      -0.80761                      90.96969
                      -4.36715                      -0.75090                      91.13386
                      -4.58270                      -0.71302                      91.25199
                      -4.82227                      -0.69635                      91.31663
                      -5.07081                      -0.70194                      91.32374
                      -5.31269                      -0.72943                      91.27286
                      -5.53273                      -0.77710                      91.16719
                      -5.71708                      -0.84195                      91.01337
                      -5.85417                      -0.91991                      90.82107
                      -5.93539                      -1.00608                      90.60237
                      -5.95564                      -1.09504                      90.37101
                      -5.91363                      -1.18121                      90.14153
                      -5.81201                      -1.25917                      89.92834
                      -5.65716                      -1.32402                      89.74485
                      -5.45882                      -1.37169                      89.60258
                      -5.22945                      -1.39918                      89.51047
                      -4.98346                      -1.40477                      89.47431
                      -4.73630                      -1.38810                      89.49637
                      -4.50351                      -1.35022                      89.57527
                      -4.29971                      -1.29351                      89.70604
                      -4.13770                      -1.22154                      89.88047
                      -4.02768                      -1.13882                      90.08761
                      -4.13503                      -1.16729                      90.37318
                      -4.14420                      -1.09353                      90.56727
                      -4.20469                      -1.02440                      90.75371
                      -4.31271                      -0.96425                      90.92079
                      -4.46146                      -0.91686                      91.05799
                      -4.64160                      -0.88521                      91.15671
                      -4.84181                      -0.87127                      91.21073
                      -5.04952                      -0.87594                      91.21667
                      -5.25166                      -0.89892                      91.17415
                      -5.43555                      -0.93876                      91.08584
                      -5.58961                      -0.99295                      90.95729
                      -5.70418                      -1.05810                      90.79659
                      -5.77206                      -1.13012                      90.61381
                      -5.78898                      -1.20446                      90.42046
                      -5.75387                      -1.27648                      90.22868
                      -5.66894                      -1.34163                      90.05052
                      -5.53954                      -1.39582                      89.89717
                      -5.37379                      -1.43566                      89.77828
                      -5.18210                      -1.45864                      89.70130
                      -4.97652                      -1.46330                      89.67108
                      -4.76996                      -1.44937                      89.68952
                      -4.57542                      -1.41772                      89.75545
                      -4.40510                      -1.37033                      89.86474
                      -4.26971                      -1.31018                      90.01052
                      -4.17776                      -1.24105                      90.18362
                      -4.35993                      -1.28402                      90.43774
                      -4.36656                      -1.23069                      90.57807
                      -4.41030                      -1.18071                      90.71287
                      -4.48839                      -1.13722                      90.83366
                      -4.59594                      -1.10296                      90.93286
                      -4.72619                      -1.08007                      91.00423
                      -4.87094                      -1.07000                      91.04329
                      -5.02111                      -1.07338                      91.04758
                      -5.16726                      -1.08999                      91.01684
                      -5.30021                      -1.11879                      90.95299
                      -5.41160                      -1.15797                      90.86005
                      -5.49443                      -1.20508                      90.74386
                      -5.54351                      -1.25714                      90.61172
                      -5.55574                      -1.31090                      90.47193
                      -5.53035                      -1.36296                      90.33327
                      -5.46895                      -1.41006                      90.20446
                      -5.37539                      -1.44925                      90.09359
                      -5.25555                      -1.47805                      90.00763
                      -5.11696                      -1.49466                      89.95197
                      -4.96833                      -1.49804                      89.93012
                      -4.81899                      -1.48796                      89.94345
                      -4.67833                      -1.46508                      89.99112
                      -4.55519                      -1.43081                      90.07014
                      -4.45731                      -1.38733                      90.17554
                      -4.39083                      -1.33735                      90.30069
                      -4.95324                      -1.40075                      90.53453
                      -4.95324                      -1.40075                      90.53453
                      -4.95324                      -1.40075                      90.53453
                      -4.95324                      -1.40075                      90.53453
                      -4.95324                      -1.40075                      90.53453
                      -4.95324                      -1.40075                      90.53453
                      -4.95324                      -1.40075                      90.53453
                      -4.95324                      -1.40075                      90.53453
                      -4.95324                      -1.40075                      90.53453
                      -4.95324                      -1.40075                      90.53453
                      -4.95324                      -1.40075                      90.53453
                      -4.95324                      -1.40075                      90.53453
                      -4.95324                      -1.40075                      90.53453
                      -4.95324                      -1.40075                      90.53453
                      -4.95324                      -1.40075                      90.53453
                      -4.95324                      -1.40075                      90.53453
                      -4.95324                      -1.40075                      90.53453
                      -4.95324                      -1.40075                      90.53453
                      -4.95324                      -1.40075                      90.53453
                      -4.95324                      -1.40075                      90.53453
                      -4.95324                      -1.40075                      90.53453
                      -4.95324                      -1.40075                      90.53453
                      -4.95324                      -1.40075                      90.53453
                      -4.95324                      -1.40075                      90.53453
                      -4.95324                      -1.40075                      90.53453
        </DataArray>
      </Points>
      <Polys>
        <DataArray type="Int32" Name="connectivity" format="ascii">
      0      1     26     25
      1      2     27     26
      2      3     28     27
      3      4     29     28
      4      5     30     29
      5      6     31     30
      6      7     32     31
      7      8     33     32
      8      9     34     33
      9     10     35     34
     10     11     36     35
     11     12     37     36
     12     13     38     37
     13     14     39     38
     14     15     40     39
     15     16     41     40
     16     17     42     41
     17     18     43     42
     18     19     44     43
     19     20     45     44
     20     21     46     45
     21     22     47     46
     22     23     48     47
     23     24     49     48
     24      0     25     49
     25     26     51     50
     26     27     52     51
     27     28     53     52
     28     29     54     53
     29     30     55     54
     30     31     56     55
     31     32     57     56
     32     33     58     57
     33     34     59     58
     34     35     60     59
     35     36     61     60
     36     37     62     61
     37     38     63     62
     38     39     64     63
     39     40     65     64
     40     41     66     65
     41     42     67     66
     42     43     68     67
     43     44     69     68
     44     45     70     69
     45     46     71     70
     46     47     72     71
     47     48     73     72
     48     49     74     73
     49     25     50     74
     50     51     76     75
     51     52     77     76
     52     53     78     77
     53     54     79     78
     54     55     80     79
     55     56     81     80
     56     57     82     81
     57     58     83     82
     58     59     84     83
     59     60     85     84
     60     61     86     85
     61     62     87     86
     62     63     88     87
     63     64     89     88
     64     65     90     89
     65     66     91     90
     66     67     92     91
     67     68     93     92
     68     69     94     93
     69     70     95     94
     70     71     96     95
     71     72     97     96
     72     73     98     97
     73     74     99     98
     74     50     75     99
     75     76    101    100
     76     77    102    101
     77     78    103    102
     78     79    104    103
     79     80    105    104
     80     81    106    105
     81     82    107    106
     82     83    108    107
     83     84    109    108
     84     85    110    109
     85     86    111    110
     86     87    112    111
     87     88    113    112
     88     89    114    113
     89     90    115    114
     90     91    116    115
     91     92    117    116
     92     93    118    117
     93     94    119    118
     94     95    120    119
     95     96    121    120
     96     97    122    121
     97     98    123    122
     98     99    124    123
     99     75    100    124
    100    101    126    125
    101    102    127    126
    102    103    128    127
    103    104    129    128
    104    105    130    129
    105    106    131    130
    106    107    132    131
    107    108    133    132
    108    109    134    133
    109    110    135    134
    110    111    136    135
    111    112    137    136
    112    113    138    137
    113    114    139    138
    114    115    140    139
    115    116    141    140
    116    117    142    141
    117    118    143    142
    118    119    144    143
    119    120    145    144
    120    121    146    145
    121    122    147    146
    122    123    148    147
    123    124    149    148
    124    100    125    149
    125    126    151    150
    126    127    152    151
    127    128    153    152
    128    129    154    153
    129    130    155    154
    130    131    156    155
    131    132    157    156
    132    133    158    157
    133    134    159    158
    134    135    160    159
    135    136    161    160
    136    137    162    161
    137    138    163    162
    138    139    164    163
    139    140    165    164
    140    141    166    165
    141    142    167    166
    142    143    168    167
    143    144    169    168
    144    145    170    169
    145    146    171    170
    146    147    172    171
    147    148    173    172
    148    149    174    173
    149    125    150    174
    150    151    176    175
    151    152    177    176
    152    153    178    177
    153    154    179    178
    154    155    180    179
    155    156    181    180
    156    157    182    181
    157    158    183    182
    158    159    184    183
    159    160    185    184
    160    161    186    185
    161    162    187    186
    162    163    188    187
    163    164    189    188
    164    165    190    189
    165    166    191    190
    166    167    192    191
    167    168    193    192
    168    169    194    193
    169    170    195    194
    170    171    196    195
    171    172    197    196
    172    173    198    197
    173    174    199    198
    174    150    175    199
    175    176    201    200
    176    177    202    201
    177    178    203    202
    178    179    204    203
    179    180    205    204
    180    181    206    205
    181    182    207    206
    182    183    208    207
    183    184    209    208
    184    185    210    209
    185    186    211    210
    186    187    212    211
    187    188    213    212
    188    189    214    213
    189    190    215    214
    190    191    216    215
    191    192    217    216
    192    193    218    217
    193    194    219    218
    194    195    220    219
    195    196    221    220
    196    197    222    221
    197    198    223    222
    198    199    224    223
    199    175    200    224
    200    201    226    225
    201    202    227    226
    202    203    228    227
    203    204    229    228
    204    205    230    229
    205    206    231    230
    206    207    232    231
    207    208    233    232
    208    209    234    233
    209    210    235    234
    210    211    236    235
    211    212    237    236
    212    213    238    237
    213    214    239    238
    214    215    240    239
    215    216    241    240
    216    217    242    241
    217    218    243    242
    218    219    244    243
    219    220    245    244
    220    221    246    245
    221    222    247    246
    222    223    248    247
    223    224    249    248
    224    200    225    249
    225    226    251    250
    226    227    252    251
    227    228    253    252
    228    229    254    253
    229    230    255    254
    230    231    256    255
    231    232    257    256
    232    233    258    257
    233    234    259    258
    234    235    260    259
    235    236    261    260
    236    237    262    261
    237    238    263    262
    238    239    264    263
    239    240    265    264
    240    241    266    265
    241    242    267    266
    242    243    268    267
    243    244    269    268
    244    245    270    269
    245    246    271    270
    246    247    272    271
    247    248    273    272
    248    249    274    273
    249    225    250    274
    250    251    276    275
    251    252    277    276
    252    253    278    277
    253    254    279    278
    254    255    280    279
    255    256    281    280
    256    257    282    281
    257    258    283    282
    258    259    284    283
    259    260    285    284
    260    261    286    285
    261    262    287    286
    262    263    288    287
    263    264    289    288
    264    265    290    289
    265    266    291    290
    266    267    292    291
    267    268    293    292
    268    269    294    293
    269    270    295    294
    270    271    296    295
    271    272    297    296
    272    273    298    297
    273    274    299    298
    274    250    275    299
    275    276    301    300
    276    277    302    301
    277    278    303    302
    278    279    304    303
    279    280    305    304
    280    281    306    305
    281    282    307    306
    282    283    308    307
    283    284    309    308
    284    285    310    309
    285    286    311    310
    286    287    312    311
    287    288    313    312
    288    289    314    313
    289    290    315    314
    290    291    316    315
    291    292    317    316
    292    293    318    317
    293    294    319    318
    294    295    320    319
    295    296    321    320
    296    297    322    321
    297    298    323    322
    298    299    324    323
    299    275    300    324
    300    301    326    325
    301    302    327    326
    302    303    328    327
    303    304    329    328
    304    305    330    329
    305    306    331    330
    306    307    332    331
    307    308    333    332
    308    309    334    333
    309    310    335    334
    310    311    336    335
    311    312    337    336
    312    313    338    337
    313    314    339    338
    314    315    340    339
    315    316    341    340
    316    317    342    341
    317    318    343    342
    318    319    344    343
    319    320    345    344
    320    321    346    345
    321    322    347    346
    322    323    348    347
    323    324    349    348
    324    300    325    349
    325    326    351    350
    326    327    352    351
    327    328    353    352
    328    329    354    353
    329    330    355    354
    330    331    356    355
    331    332    357    356
    332    333    358    357
    333    334    359    358
    334    335    360    359
    335    336    361    360
    336    337    362    361
    337    338    363    362
    338    339    364    363
    339    340    365    364
    340    341    366    365
    341    342    367    366
    342    343    368    367
    343    344    369    368
    344    345    370    369
    345    346    371    370
    346    347    372    371
    347    348    373    372
    348    349    374    373
    349    325    350    374
    350    351    376    375
    351    352    377    376
    352    353    378    377
    353    354    379    378
    354    355    380    379
    355    356    381    380
    356    357    382    381
    357    358    383    382
    358    359    384    383
    359    360    385    384
    360    361    386    385
    361    362    387    386
    362    363    388    387
    363    364    389    388
    364    365    390    389
    365    366    391    390
    366    367    392    391
    367    368    393    392
    368    369    394    393
    369    370    395    394
    370    371    396    395
    371    372    397    396
    372    373    398    397
    373    374    399    398
    374    350    375    399
    375    376    401    400
    376    377    402    401
    377    378    403    402
    378    379    404    403
    379    380    405    404
    380    381    406    405
    381    382    407    406
    382    383    408    407
    383    384    409    408
    384    385    410    409
    385    386    411    410
    386    387    412    411
    387    388    413    412
    388    389    414    413
    389    390    415    414
    390    391    416    415
    391    392    417    416
    392    393    418    417
    393    394    419    418
    394    395    420    419
    395    396    421    420
    396    397    422    421
    397    398    423    422
    398    399    424    423
    399    375    400    424
    400    401    426    425
    401    402    427    426
    402    403    428    427
    403    404    429    428
    404    405    430    429
    405    406    431    430
    406    407    432    431
    407    408    433    432
    408    409    434    433
    409    410    435    434
    410    411    436    435
    411    412    437    436
    412    413    438    437
    413    414    439    438
    414    415    440    439
    415    416    441    440
    416    417    442    441
    417    418    443    442
    418    419    444    443
    419    420    445    444
    420    421    446    445
    421    422    447    446
    422    423    448    447
    423    424    449    448
    424    400    425    449
    425    426    451    450
    426    427    452    451
    427    428    453    452
    428    429    454    453
    429    430    455    454
    430    431    456    455
    431    432    457    456
    432    433    458    457
    433    434    459    458
    434    435    460    459
    435    436    461    460
    436    437    462    461
    437    438    463    462
    438    439    464    463
    439    440    465    464
    440    441    466    465
    441    442    467    466
    442    443    468    467
    443    444    469    468
    444    445    470    469
    445    446    471    470
    446    447    472    471
    447    448    473    472
    448    449    474    473
    449    425    450    474
    450    451    476    475
    451    452    477    476
    452    453    478    477
    453    454    479    478
    454    455    480    479
    455    456    481    480
    456    457    482    481
    457    458    483    482
    458    459    484    483
    459    460    485    484
    460    461    486    485
    461    462    487    486
    462    463    488    487
    463    464    489    488
    464    465    490    489
    465    466    491    490
    466    467    492    491
    467    468    493    492
    468    469    494    493
    469    470    495    494
    470    471    496    495
    471    472    497    496
    472    473    498    497
    473    474    499    498
    474    450    475    499
    475    476    501    500
    476    477    502    501
    477    478    503    502
    478    479    504    503
    479    480    505    504
    480    481    506    505
    481    482    507    506
    482    483    508    507
    483    484    509    508
    484    485    510    509
    485    486    511    510
    486    487    512    511
    487    488    513    512
    488    489    514    513
    489    490    515    514
    490    491    516    515
    491    492    517    516
    492    493    518    517
    493    494    519    518
    494    495    520    519
    495    496    521    520
    496    497    522    521
    497    498    523    522
    498    499    524    523
    499    475    500    524
    500    501    526    525
    501    502    527    526
    502    503    528    527
    503    504    529    528
    504    505    530    529
    505    506    531    530
    506    507    532    531
    507    508    533    532
    508    509    534    533
    509    510    535    534
    510    511    536    535
    511    512    537    536
    512    513    538    537
    513    514    539    538
    514    515    540    539
    515    516    541    540
    516    517    542    541
    517    518    543    542
    518    519    544    543
    519    520    545    544
    520    521    546    545
    521    522    547    546
    522    523    548    547
    523    524    549    548
    524    500    525    549
    525    526    551    550
    526    527    552    551
    527    528    553    552
    528    529    554    553
    529    530    555    554
    530    531    556    555
    531    532    557    556
    532    533    558    557
    533    534    559    558
    534    535    560    559
    535    536    561    560
    536    537    562    561
    537    538    563    562
    538    539    564    563
    539    540    565    564
    540    541    566    565
    541    542    567    566
    542    543    568    567
    543    544    569    568
    544    545    570    569
    545    546    571    570
    546    547    572    571
    547    548    573    572
    548    549    574    573
    549    525    550    574
    550    551    576    575
    551    552    577    576
    552    553    578    577
    553    554    579    578
    554    555    580    579
    555    556    581    580
    556    557    582    581
    557    558    583    582
    558    559    584    583
    559    560    585    584
    560    561    586    585
    561    562    587    586
    562    563    588    587
    563    564    589    588
    564    565    590    589
    565    566    591    590
    566    567    592    591
    567    568    593    592
    568    569    594    593
    569    570    595    594
    570    571    596    595
    571    572    597    596
    572    573    598    597
    573    574    599    598
    574    550    575    599
    575    576    601    600
    576    577    602    601
    577    578    603    602
    578    579    604    603
    579    580    605    604
    580    581    606    605
    581    582    607    606
    582    583    608    607
    583    584    609    608
    584    585    610    609
    585    586    611    610
    586    587    612    611
    587    588    613    612
    588    589    614    613
    589    590    615    614
    590    591    616    615
    591    592    617    616
    592    593    618    617
    593    594    619    618
    594    595    620    619
    595    596    621    620
    596    597    622    621
    597    598    623    622
    598    599    624    623
    599    575    600    624
        </DataArray>
        <DataArray type="Int32" Name="offsets" format="ascii">
      4
      8
     12
     16
     20
     24
     28
     32
     36
     40
     44
     48
     52
     56
     60
     64
     68
     72
     76
     80
     84
     88
     92
     96
    100
    104
    108
    112
    116
    120
    124
    128
    132
    136
    140
    144
    148
    152
    156
    160
    164
    168
    172
    176
    180
    184
    188
    192
    196
    200
    204
    208
    212
    216
    220
    224
    228
    232
    236
    240
    244
    248
    252
    256
    260
    264
    268
    272
    276
    280
    284
    288
    292
    296
    300
    304
    308
    312
    316
    320
    324
    328
    332
    336
    340
    344
    348
    352
    356
    360
    364
    368
    372
    376
    380
    384
    388
    392
    396
    400
    404
    408
    412
    416
    420
    424
    428
    432
    436
    440
    444
    448
    452
    456
    460
    464
    468
    472
    476
    480
    484
    488
    492
    496
    500
    504
    508
    512
    516
    520
    524
    528
    532
    536
    540
    544
    548
    552
    556
    560
    564
    568
    572
    576
    580
    584
    588
    592
    596
    600
    604
    608
    612
    616
    620
    624
    628
    632
    636
    640
    644
    648
    652
    656
    660
    664
    668
    672
    676
    680
    684
    688
    692
    696
    700
    704
    708
    712
    716
    720
    724
    728
    732
    736
    740
    744
    748
    752
    756
    760
    764
    768
    772
    776
    780
    784
    788
    792
    796
    800
    804
    808
    812
    816
    820
    824
    828
    832
    836
    840
    844
    848
    852
    856
    860
    864
    868
    872
    876
    880
    884
    888
    892
    896
    900
    904
    908
    912
    916
    920
    924
    928
    932
    936
    940
    944
    948
    952
    956
    960
    964
    968
    972
    976
    980
    984
    988
    992
    996
   1000
   1004
   1008
   1012
   1016
   1020
   1024
   1028
   1032
   1036
   1040
   1044
   1048
   1052
   1056
   1060
   1064
   1068
   1072
   1076
   1080
   1084
   1088
   1092
   1096
   1100
   1104
   1108
   1112
   1116
   1120
   1124
   1128
   1132
   1136
   1140
   1144
   1148
   1152
   1156
   1160
   1164
   1168
   1172
   1176
   1180
   1184
   1188
   1192
   1196
   1200
   1204
   1208
   1212
   1216
   1220
   1224
   1228
   1232
   1236
   1240
   1244
   1248
   1252
   1256
   1260
   1264
   1268
   1272
   1276
   1280
   1284
   1288
   1292
   1296
   1300
   1304
   1308
   1312
   1316
   1320
   1324
   1328
   1332
   1336
   1340
   1344
   1348
   1352
   1356
   1360
   1364
   1368
   1372
   1376
   1380
   1384
   1388
   1392
   1396
   1400
   1404
   1408
   1412
   1416
   1420
   1424
   1428
   1432
   1436
   1440
   1444
   1448
   1452
   1456
   1460
   1464
   1468
   1472
   1476
   1480
   1484
   1488
   1492
   1496
   1500
   1504
   1508
   1512
   1516
   1520
   1524
   1528
   1532
   1536
   1540
   1544
   1548
   1552
   1556
   1560
   1564
   1568
   1572
   1576
   1580
   1584
   1588
   1592
   1596
   1600
   1604
   1608
   1612
   1616
   1620
   1624
   1628
   1632
   1636
   1640
   1644
   1648
   1652
   1656
   1660
   1664
   1668
   1672
   1676
   1680
   1684
   1688
   1692
   1696
   1700
   1704
   1708
   1712
   1716
   1720
   1724
   1728
   1732
   1736
   1740
   1744
   1748
   1752
   1756
   1760
   1764
   1768
   1772
   1776
   1780
   1784
   1788
   1792
   1796
   1800
   1804
   1808
   1812
   1816
   1820
   1824
   1828
   1832
   1836
   1840
   1844
   1848
   1852
   1856
   1860
   1864
   1868
   1872
   1876
   1880
   1884
   1888
   1892
   1896
   1900
   1904
   1908
   1912
   1916
   1920
   1924
   1928
   1932
   1936
   1940
   1944
   1948
   1952
   1956
   1960
   1964
   1968
   1972
   1976
   1980
   1984
   1988
   1992
   1996
   2000
   2004
   2008
   2012
   2016
   2020
   2024
   2028
   2032
   2036
   2040
   2044
   2048
   2052
   2056
   2060
   2064
   2068
   2072
   2076
   2080
   2084
   2088
   2092
   2096
   2100
   2104
   2108
   2112
   2116
   2120
   2124
   2128
   2132
   2136
   2140
   2144
   2148
   2152
   2156
   2160
   2164
   2168
   2172
   2176
   2180
   2184
   2188
   2192
   2196
   2200
   2204
   2208
   2212
   2216
   2220
   2224
   2228
   2232
   2236
   2240
   2244
   2248
   2252
   2256
   2260
   2264
   2268
   2272
   2276
   2280
   2284
   2288
   2292
   2296
   2300
   2304
   2308
   2312
   2316
   2320
   2324
   2328
   2332
   2336
   2340
   2344
   2348
   2352
   2356
   2360
   2364
   2368
   2372
   2376
   2380
   2384
   2388
   2392
   2396
   2400
        </DataArray>
      </Polys>
    </Piece>
  </PolyData>
</VTKFile>
