<?xml version="1.0"?>
<VTKFile type="PolyData" version="0.1" byte_order="LittleEndian">
  <PolyData>
    <Piece NumberOfPoints="     19" NumberOfVerts="  0" NumberOfLines="     18"
           NumberOfStrips="  0" NumberOfPolys="      0">
      <Points>
        <DataArray type="Float32" NumberOfComponents="3" format="ascii">
                      -4.98639                       1.19522                      90.90624
                      -4.97457                       2.28212                      91.73473
                      -4.96668                       4.39795                      93.46823
                      -4.96626                       6.48636                      95.23800
                      -4.97018                       9.08056                      97.47193
                      -4.93206                      12.28172                     100.03571
                      -4.87898                      15.56214                     102.49473
                      -4.82836                      18.84405                     104.95183
                      -4.77793                      22.12860                     107.40544
                      -4.72837                      25.41462                     109.85713
                      -4.68078                      28.69985                     112.30988
                      -4.63452                      31.98523                     114.76247
                      -4.59024                      35.27072                     117.21494
                      -4.54865                      38.55626                     119.66737
                      -4.50800                      41.84184                     122.11978
                      -4.47477                      44.57986                     124.16346
                      -4.44928                      46.77499                     125.79211
                      -4.42893                      49.00326                     127.37713
                      -4.41653                      50.09218                     128.20277
        </DataArray>
      </Points>
      <PointData>
        <DataArray type="Float32" Name="TranslationalVelocity" NumberOfComponents="3" format="ascii">
                       0.33606                      -2.91630                       3.84122
                       0.64167                      -5.58224                       7.33432
                       1.23658                     -11.15563                      14.13421
                       1.82379                     -16.84347                      20.84599
                       2.55321                     -24.02180                      29.18328
                       3.45328                     -32.27207                      39.47122
                       4.37565                     -40.18982                      50.01392
                       5.29843                     -48.10073                      60.56137
                       6.22196                     -56.00038                      71.11733
                       7.14590                     -63.89359                      81.67801
                       8.06962                     -71.78969                      92.23616
                       8.99338                     -79.68487                     102.79477
                       9.91717                     -87.57912                     113.35373
                      10.84097                     -95.47249                     123.91289
                      11.76479                    -103.36551                     134.47214
                      12.53465                    -109.94287                     143.27166
                      13.15186                    -115.18425                     150.32639
                      13.77838                    -120.28393                     157.48765
                      14.08456                    -122.94088                     160.98726
        </DataArray>
        <DataArray type="Float32" Name="RotationalVelocity" NumberOfComponents="3" format="ascii">
                       3.21382                      -0.00000                      -0.28117
                       3.21382                      -0.00000                      -0.28117
                       3.21382                      -0.00000                      -0.28117
                       3.21382                      -0.00000                      -0.28117
                       3.21382                      -0.00000                      -0.28117
                       3.21382                      -0.00000                      -0.28117
                       3.21382                      -0.00000                      -0.28117
                       3.21382                      -0.00000                      -0.28117
                       3.21382                      -0.00000                      -0.28117
                       3.21382                      -0.00000                      -0.28117
                       3.21382                      -0.00000                      -0.28117
                       3.21382                      -0.00000                      -0.28117
                       3.21382                      -0.00000                      -0.28117
                       3.21382                      -0.00000                      -0.28117
                       3.21382                      -0.00000                      -0.28117
                       3.21382                      -0.00000                      -0.28117
                       3.21382                      -0.00000                      -0.28117
                       3.21382                      -0.00000                      -0.28117
                       3.21382                      -0.00000                      -0.28117
        </DataArray>
        <DataArray type="Float32" Name="TranslationalAcceleration" NumberOfComponents="3" format="ascii">
                      -0.81997                     -12.43965                      -9.37227
                      -1.56954                     -23.75189                     -17.93994
                      -3.13659                     -45.77308                     -35.85144
                      -4.73583                     -67.50895                     -54.13080
                      -6.75414                     -94.50897                     -77.20022
                      -9.07385                    -127.82607                    -103.71455
                     -11.30005                    -161.96817                    -129.16022
                     -13.52434                    -196.12563                    -154.58393
                     -15.74546                    -230.31067                    -179.97141
                     -17.96477                    -264.51100                    -205.33823
                     -20.18489                    -298.70313                    -230.71430
                     -22.40475                    -332.89674                    -256.08745
                     -24.62435                    -367.09151                    -281.45758
                     -26.84370                    -401.28689                    -306.82490
                     -29.06296                    -435.48260                    -332.19110
                     -30.91229                    -463.97947                    -353.32911
                     -32.38599                    -486.82593                    -370.17357
                     -33.81985                    -510.01734                    -386.56267
                     -34.56690                    -521.35069                    -395.10143
        </DataArray>
        <DataArray type="Float32" Name="OrientationX" NumberOfComponents="3" format="ascii">
                       0.98675                      -0.10500                       0.12366
                       0.98675                      -0.10500                       0.12366
                       0.98675                      -0.10500                       0.12366
                       0.98675                      -0.10500                       0.12366
                       0.98675                      -0.10500                       0.12366
                       0.99142                      -0.08596                       0.09849
                       0.99416                      -0.07218                       0.08028
                       0.99612                      -0.06012                       0.06433
                       0.99775                      -0.04735                       0.04746
                       0.99896                      -0.03418                       0.03009
                       0.99967                      -0.02172                       0.01364
                       0.99995                      -0.00936                      -0.00267
                       0.99985                       0.00185                      -0.01746
                       0.99954                       0.01035                      -0.02866
                       0.99904                       0.01871                      -0.03968
                       0.99847                       0.02570                      -0.04889
                       0.99797                       0.03089                      -0.05573
                       0.99767                       0.03367                      -0.05939
                       0.99767                       0.03367                      -0.05939
        </DataArray>
        <DataArray type="Float32" Name="OrientationY" NumberOfComponents="3" format="ascii">
                       0.16197                       0.59503                      -0.78721
                       0.16197                       0.59503                      -0.78721
                       0.16197                       0.59503                      -0.78721
                       0.16197                       0.59503                      -0.78721
                       0.16197                       0.59503                      -0.78721
                       0.13041                       0.59808                      -0.79076
                       0.10758                       0.59990                      -0.79281
                       0.08758                       0.60123                      -0.79426
                       0.06642                       0.60237                      -0.79545
                       0.04463                       0.60326                      -0.79630
                       0.02399                       0.60383                      -0.79675
                       0.00352                       0.60415                      -0.79686
                      -0.01503                       0.60422                      -0.79667
                      -0.02909                       0.60414                      -0.79635
                      -0.04292                       0.60394                      -0.79588
                      -0.05448                       0.60368                      -0.79536
                      -0.06307                       0.60343                      -0.79491
                      -0.06767                       0.60329                      -0.79465
                      -0.06767                       0.60329                      -0.79465
        </DataArray>
        <DataArray type="Float32" Name="OrientationZ" NumberOfComponents="3" format="ascii">
                       0.00907                       0.79681                       0.60416
                       0.00907                       0.79681                       0.60416
                       0.00907                       0.79681                       0.60416
                       0.00907                       0.79681                       0.60416
                       0.00907                       0.79681                       0.60416
                       0.00907                       0.79681                       0.60416
                       0.00907                       0.79681                       0.60416
                       0.00907                       0.79681                       0.60416
                       0.00907                       0.79681                       0.60416
                       0.00907                       0.79681                       0.60416
                       0.00907                       0.79681                       0.60416
                       0.00907                       0.79681                       0.60416
                       0.00907                       0.79681                       0.60416
                       0.00907                       0.79681                       0.60416
                       0.00907                       0.79681                       0.60416
                       0.00907                       0.79681                       0.60416
                       0.00907                       0.79681                       0.60416
                       0.00907                       0.79681                       0.60416
                       0.00907                       0.79681                       0.60416
        </DataArray>
        <DataArray type="Float32" Name="Force" NumberOfComponents="3" format="ascii">
                      -1.20568                      10.46265                     -13.78094
                     181.36951                      87.26120                    -117.81066
                     269.19658                     267.90892                    -357.38299
                     264.19323                     413.04428                    -548.72483
                    1322.27364                     -94.86809                     105.26743
                    1194.94086                     -48.22114                      45.65722
                    1070.14352                       6.24920                     -24.30922
                    2067.84674                     -22.39136                      -1.51519
                    3076.05535                     -11.26480                     -31.32720
                    4153.32694                      25.44711                     -95.92026
                    6750.74569                     116.31980                    -254.76885
                    8668.16889                     224.58262                    -426.34351
                   10637.43965                     297.11959                    -551.57829
                   12928.52908                     418.39993                    -745.93184
                   15603.55399                     559.80129                    -972.58715
                   18101.73904                     691.80326                   -1184.19064
                   19794.48164                     810.20876                   -1365.76896
                   17434.35979                     581.75837                   -1029.03392
                   15218.96073                     655.16714                   -1092.58948
        </DataArray>
        <DataArray type="Float32" Name="Moment" NumberOfComponents="3" format="ascii">
                       0.00000                       0.00000                       0.00000
                       0.00000                       0.00000                       0.00000
                       0.00000                       0.00000                       0.00000
                       0.00000                       0.00000                       0.00000
                     -13.02786                   -1144.40903                    -867.70900
                     -26.83053                   -2356.87955                   -1787.02330
                     -37.34766                   -3280.73784                   -2487.50725
                     -61.25454                   -5380.79363                   -4079.80272
                     -92.22850                   -8101.64534                   -6142.79547
                    -106.01353                   -9312.56665                   -7060.93513
                    -118.67803                  -10425.05665                   -7904.44262
                    -127.43875                  -11194.62591                   -8487.94219
                     -99.03740                   -8699.76109                   -6596.29628
                    -100.27375                   -8808.36564                   -6678.64196
                     -99.13905                   -8708.69029                   -6603.06653
                     -96.33684                   -8462.53464                   -6416.42743
                     -87.51447                   -7687.54963                   -5828.82156
                     -46.18005                   -4056.60259                   -3075.78016
                     -46.14952                   -4053.92051                   -3073.74657
        </DataArray>
      </PointData>
      <Lines>
        <DataArray type="Int32" Name="connectivity" format="ascii">
      0      1
      1      2
      2      3
      3      4
      4      5
      5      6
      6      7
      7      8
      8      9
      9     10
     10     11
     11     12
     12     13
     13     14
     14     15
     15     16
     16     17
     17     18
        </DataArray>
        <DataArray type="Int32" Name="offsets" format="ascii">
      2
      4
      6
      8
     10
     12
     14
     16
     18
     20
     22
     24
     26
     28
     30
     32
     34
     36
        </DataArray>
      </Lines>
    </Piece>
  </PolyData>
</VTKFile>
