<?xml version="1.0"?>
<VTKFile type="PolyData" version="0.1" byte_order="LittleEndian">
  <PolyData>
    <Piece NumberOfPoints="     19" NumberOfVerts="  0" NumberOfLines="     18"
           NumberOfStrips="  0" NumberOfPolys="      0">
      <Points>
        <DataArray type="Float32" NumberOfComponents="3" format="ascii">
                      -4.98516                       1.18441                      90.92031
                      -4.97222                       2.26142                      91.76159
                      -4.96216                       4.35660                      93.51998
                      -4.95958                       6.42394                      95.31432
                      -4.96083                       8.99155                      97.57876
                      -4.91942                      12.16213                     100.18021
                      -4.86296                      15.41320                     102.67784
                      -4.80896                      18.66577                     105.17357
                      -4.75514                      21.92103                     107.66584
                      -4.70221                      25.17779                     110.15620
                      -4.65123                      28.43374                     112.64762
                      -4.60159                      31.68984                     115.13888
                      -4.55392                      34.94606                     117.63002
                      -4.50895                      38.20234                     120.12113
                      -4.46492                      41.45865                     122.61221
                      -4.42887                      44.17228                     124.68811
                      -4.40112                      46.34797                     126.34261
                      -4.37847                      48.55732                     127.95386
                      -4.36496                      49.63640                     128.79232
        </DataArray>
      </Points>
      <PointData>
        <DataArray type="Float32" Name="TranslationalVelocity" NumberOfComponents="3" format="ascii">
                       0.06497                      -0.57781                       0.74258
                       0.12404                      -1.10597                       1.41782
                       0.23897                      -2.20896                       2.73142
                       0.35237                      -3.33409                       4.02756
                       0.49320                      -4.75373                       5.63735
                       0.66712                      -6.38701                       7.62518
                       0.84544                      -7.95602                       9.66347
                       1.02385                      -9.52370                      11.70270
                       1.20241                     -11.08921                      13.74362
                       1.38105                     -12.65348                      15.78548
                       1.55965                     -14.21830                      17.82684
                       1.73825                     -15.78294                      19.86828
                       1.91686                     -17.34740                      21.90980
                       2.09547                     -18.91169                      23.95136
                       2.27409                     -20.47592                      25.99294
                       2.42294                     -21.77941                      27.69428
                       2.54228                     -22.81823                      29.05835
                       2.66346                     -23.82966                      30.44353
                       2.72265                     -24.35608                      31.12006
        </DataArray>
        <DataArray type="Float32" Name="RotationalVelocity" NumberOfComponents="3" format="ascii">
                       0.62696                      -0.00000                      -0.05485
                       0.62696                      -0.00000                      -0.05485
                       0.62696                      -0.00000                      -0.05485
                       0.62696                      -0.00000                      -0.05485
                       0.62696                      -0.00000                      -0.05485
                       0.62696                      -0.00000                      -0.05485
                       0.62696                      -0.00000                      -0.05485
                       0.62696                      -0.00000                      -0.05485
                       0.62696                      -0.00000                      -0.05485
                       0.62696                      -0.00000                      -0.05485
                       0.62696                      -0.00000                      -0.05485
                       0.62696                      -0.00000                      -0.05485
                       0.62696                      -0.00000                      -0.05485
                       0.62696                      -0.00000                      -0.05485
                       0.62696                      -0.00000                      -0.05485
                       0.62696                      -0.00000                      -0.05485
                       0.62696                      -0.00000                      -0.05485
                       0.62696                      -0.00000                      -0.05485
                       0.62696                      -0.00000                      -0.05485
        </DataArray>
        <DataArray type="Float32" Name="TranslationalAcceleration" NumberOfComponents="3" format="ascii">
                      -0.02562                      -0.52311                      -0.29289
                      -0.04908                      -0.99904                      -0.56095
                      -0.09884                      -1.93195                      -1.12978
                      -0.14996                      -2.85590                      -1.71411
                      -0.21468                      -4.00552                      -2.45379
                      -0.28802                      -5.41392                      -3.29210
                      -0.35743                      -6.84820                      -4.08540
                      -0.42675                      -8.28295                      -4.87778
                      -0.49594                      -9.71856                      -5.66864
                      -0.56506                     -11.15464                      -6.45864
                      -0.63421                     -12.59047                      -7.24903
                      -0.70335                     -14.02633                      -8.03929
                      -0.77248                     -15.46222                      -8.82944
                      -0.84160                     -16.89812                      -9.61948
                      -0.91071                     -18.33403                     -10.40947
                      -0.96831                     -19.53064                     -11.06778
                      -1.01414                     -20.48944                     -11.59166
                      -1.05830                     -21.45902                     -12.09639
                      -1.08164                     -21.93561                     -12.36324
        </DataArray>
        <DataArray type="Float32" Name="OrientationX" NumberOfComponents="3" format="ascii">
                       0.98664                      -0.10747                       0.12241
                       0.98664                      -0.10747                       0.12241
                       0.98664                      -0.10747                       0.12241
                       0.98664                      -0.10747                       0.12241
                       0.98664                      -0.10747                       0.12241
                       0.99133                      -0.08815                       0.09746
                       0.99408                      -0.07416                       0.07941
                       0.99605                      -0.06191                       0.06361
                       0.99770                      -0.04894                       0.04689
                       0.99893                      -0.03557                       0.02967
                       0.99965                      -0.02292                       0.01338
                       0.99994                      -0.01036                      -0.00279
                       0.99985                       0.00103                      -0.01744
                       0.99955                       0.00966                      -0.02854
                       0.99906                       0.01815                      -0.03946
                       0.99850                       0.02524                      -0.04859
                       0.99800                       0.03052                      -0.05537
                       0.99770                       0.03334                      -0.05899
                       0.99770                       0.03334                      -0.05899
        </DataArray>
        <DataArray type="Float32" Name="OrientationY" NumberOfComponents="3" format="ascii">
                       0.16259                       0.60413                      -0.78012
                       0.16259                       0.60413                      -0.78012
                       0.16259                       0.60413                      -0.78012
                       0.16259                       0.60413                      -0.78012
                       0.16259                       0.60413                      -0.78012
                       0.13104                       0.60725                      -0.78363
                       0.10820                       0.60912                      -0.78566
                       0.08821                       0.61048                      -0.78710
                       0.06705                       0.61166                      -0.78827
                       0.04525                       0.61258                      -0.78911
                       0.02462                       0.61319                      -0.78955
                       0.00415                       0.61353                      -0.78966
                      -0.01440                       0.61361                      -0.78948
                      -0.02846                       0.61354                      -0.78915
                      -0.04229                       0.61335                      -0.78868
                      -0.05385                       0.61310                      -0.78817
                      -0.06244                       0.61286                      -0.78772
                      -0.06704                       0.61271                      -0.78746
                      -0.06704                       0.61271                      -0.78746
        </DataArray>
        <DataArray type="Float32" Name="OrientationZ" NumberOfComponents="3" format="ascii">
                       0.00989                       0.78961                       0.61353
                       0.00989                       0.78961                       0.61353
                       0.00989                       0.78961                       0.61353
                       0.00989                       0.78961                       0.61353
                       0.00989                       0.78961                       0.61353
                       0.00989                       0.78961                       0.61353
                       0.00989                       0.78961                       0.61353
                       0.00989                       0.78961                       0.61353
                       0.00989                       0.78961                       0.61353
                       0.00989                       0.78961                       0.61353
                       0.00989                       0.78961                       0.61353
                       0.00989                       0.78961                       0.61353
                       0.00989                       0.78961                       0.61353
                       0.00989                       0.78961                       0.61353
                       0.00989                       0.78961                       0.61353
                       0.00989                       0.78961                       0.61353
                       0.00989                       0.78961                       0.61353
                       0.00989                       0.78961                       0.61353
                       0.00989                       0.78961                       0.61353
        </DataArray>
        <DataArray type="Float32" Name="Force" NumberOfComponents="3" format="ascii">
                      -0.00099                       0.00876                      -0.01126
                     155.91312                      13.21145                     -19.51645
                     172.91875                      30.09078                     -41.51394
                     135.68960                      35.86410                     -48.34387
                    1162.36105                    -201.48656                     240.56922
                    1155.66643                    -165.05500                     193.79054
                    1317.13522                    -169.49543                     196.90210
                    1238.36016                    -138.38500                     158.13368
                    1239.65205                    -132.23594                     150.19915
                    1471.16436                    -171.32563                     196.77428
                    1635.52923                    -206.60190                     239.52418
                    1908.80177                    -242.56640                     281.40401
                    2299.92653                    -256.44676                     292.96206
                    2511.87409                    -257.98606                     291.52610
                    2665.12968                    -248.45410                     276.78791
                    2729.66905                    -230.67997                     252.87252
                    2679.38862                    -208.75694                     225.46867
                    1994.59214                    -147.87883                     158.16013
                     558.45805                      23.99997                     -39.89082
        </DataArray>
        <DataArray type="Float32" Name="Moment" NumberOfComponents="3" format="ascii">
                       0.00000                       0.00000                       0.00000
                       0.00000                       0.00000                       0.00000
                       0.00000                       0.00000                       0.00000
                       0.00000                       0.00000                       0.00000
                      -6.10387                    -487.25977                    -378.60783
                      -6.87932                    -549.16168                    -426.70650
                      -7.01701                    -560.15364                    -435.24741
                      -7.39768                    -590.54133                    -458.85909
                      -7.25595                    -579.22759                    -450.06814
                      -6.99371                    -558.29318                    -433.80180
                      -5.76612                    -460.29776                    -357.65796
                      -5.46489                    -436.25071                    -338.97305
                      -5.39691                    -430.82406                    -334.75647
                      -5.12605                    -409.20240                    -317.95613
                      -4.94922                    -395.08594                    -306.98744
                      -4.65860                    -371.88641                    -288.96107
                      -4.21396                    -336.39166                    -261.38114
                      -2.15263                    -171.84025                    -133.52234
                      -1.84652                    -147.40400                    -114.53502
        </DataArray>
      </PointData>
      <Lines>
        <DataArray type="Int32" Name="connectivity" format="ascii">
      0      1
      1      2
      2      3
      3      4
      4      5
      5      6
      6      7
      7      8
      8      9
      9     10
     10     11
     11     12
     12     13
     13     14
     14     15
     15     16
     16     17
     17     18
        </DataArray>
        <DataArray type="Int32" Name="offsets" format="ascii">
      2
      4
      6
      8
     10
     12
     14
     16
     18
     20
     22
     24
     26
     28
     30
     32
     34
     36
        </DataArray>
      </Lines>
    </Piece>
  </PolyData>
</VTKFile>
