<?xml version="1.0"?>
<VTKFile type="PolyData" version="0.1" byte_order="LittleEndian">
  <PolyData>
    <Piece NumberOfPoints="     19" NumberOfVerts="  0" NumberOfLines="     18"
           NumberOfStrips="  0" NumberOfPolys="      0">
      <Points>
        <DataArray type="Float32" NumberOfComponents="3" format="ascii">
                      -4.96228                       0.92293                      91.18186
                      -4.92854                       1.76110                      92.26084
                      -4.87834                       3.36220                      94.47800
                      -4.83632                       4.92769                      96.72322
                      -4.78867                       6.86333                      99.54658
                      -4.68637                       9.30021                     102.84400
                      -4.56703                      11.84018                     106.06038
                      -4.45011                      14.38212                     109.27529
                      -4.33330                      16.92752                     112.48751
                      -4.21734                      19.47485                     115.69825
                      -4.10336                      22.02119                     118.90982
                      -3.99071                      24.56774                     122.12127
                      -3.88003                      27.11447                     125.33264
                      -3.77205                      29.66133                     128.54400
                      -3.66500                      32.20824                     131.75534
                      -3.57643                      34.33073                     134.43148
                      -3.50656                      36.03490                     136.56752
                      -3.44094                      37.78238                     138.66988
                      -3.40658                      38.62323                     139.74662
        </DataArray>
      </Points>
      <PointData>
        <DataArray type="Float32" Name="TranslationalVelocity" NumberOfComponents="3" format="ascii">
                       0.25872                      -3.79736                       2.95717
                       0.49368                      -7.26400                       5.64277
                       0.94250                     -14.38209                      10.77286
                       1.38135                     -21.58781                      15.78885
                       1.92395                     -30.64751                      21.99085
                       2.60706                     -41.24148                      29.79889
                       3.31908                     -51.58055                      37.93722
                       4.03164                     -61.91426                      46.08187
                       4.74518                     -72.23929                      54.23761
                       5.45925                     -82.55934                      62.39953
                       6.17305                     -92.88152                      70.55827
                       6.88691                    -103.20294                      78.71769
                       7.60081                    -113.52354                      86.87770
                       8.31476                    -123.84335                      95.03810
                       9.02872                    -134.16285                     103.19870
                       9.62370                    -142.76232                     109.99936
                      10.10141                    -149.62602                     115.45970
                      10.59127                    -156.38057                     121.05882
                      10.82698                    -159.84022                     123.75300
        </DataArray>
        <DataArray type="Float32" Name="RotationalVelocity" NumberOfComponents="3" format="ascii">
                       3.20411                      -0.00000                      -0.28032
                       3.20411                      -0.00000                      -0.28032
                       3.20411                      -0.00000                      -0.28032
                       3.20411                      -0.00000                      -0.28032
                       3.20411                      -0.00000                      -0.28032
                       3.20411                      -0.00000                      -0.28032
                       3.20411                      -0.00000                      -0.28032
                       3.20411                      -0.00000                      -0.28032
                       3.20411                      -0.00000                      -0.28032
                       3.20411                      -0.00000                      -0.28032
                       3.20411                      -0.00000                      -0.28032
                       3.20411                      -0.00000                      -0.28032
                       3.20411                      -0.00000                      -0.28032
                       3.20411                      -0.00000                      -0.28032
                       3.20411                      -0.00000                      -0.28032
                       3.20411                      -0.00000                      -0.28032
                       3.20411                      -0.00000                      -0.28032
                       3.20411                      -0.00000                      -0.28032
                       3.20411                      -0.00000                      -0.28032
        </DataArray>
        <DataArray type="Float32" Name="TranslationalAcceleration" NumberOfComponents="3" format="ascii">
                      -1.06435                      -9.54963                     -12.16558
                      -2.03600                     -18.22231                     -23.27163
                      -4.03113                     -34.78929                     -46.07601
                      -6.05083                     -50.98795                     -69.16125
                      -8.59018                     -71.01675                     -98.18619
                     -11.55955                     -96.23171                    -132.12624
                     -14.45745                    -122.51293                    -165.24939
                     -17.35385                    -148.81454                    -198.35536
                     -20.24781                    -175.15192                    -231.43353
                     -23.14038                    -201.50928                    -264.49573
                     -26.03354                    -227.85640                    -297.56474
                     -28.92649                    -254.20567                    -330.63132
                     -31.81921                    -280.55685                    -363.69529
                     -34.71172                    -306.90933                    -396.75672
                     -37.60413                    -333.26241                    -429.81715
                     -40.01444                    -355.22386                    -457.36715
                     -41.93824                    -372.85695                    -479.35625
                     -43.83143                    -390.93806                    -500.99559
                     -44.80113                    -399.63841                    -512.07924
        </DataArray>
        <DataArray type="Float32" Name="OrientationX" NumberOfComponents="3" format="ascii">
                       0.98379                      -0.15521                       0.08981
                       0.98379                      -0.15521                       0.08981
                       0.98379                      -0.15521                       0.08981
                       0.98379                      -0.15521                       0.08981
                       0.98379                      -0.15521                       0.08981
                       0.98895                      -0.13048                       0.07033
                       0.99205                      -0.11256                       0.05624
                       0.99433                      -0.09686                       0.04391
                       0.99630                      -0.08024                       0.03086
                       0.99786                      -0.06310                       0.01743
                       0.99889                      -0.04686                       0.00472
                       0.99950                      -0.03074                      -0.00789
                       0.99968                      -0.01612                      -0.01931
                       0.99960                      -0.00504                      -0.02797
                       0.99932                       0.00587                      -0.03648
                       0.99894                       0.01499                      -0.04359
                       0.99857                       0.02178                      -0.04888
                       0.99834                       0.02541                      -0.05170
                       0.99834                       0.02541                      -0.05170
        </DataArray>
        <DataArray type="Float32" Name="OrientationY" NumberOfComponents="3" format="ascii">
                       0.17755                       0.77287                      -0.60922
                       0.17755                       0.77287                      -0.60922
                       0.17755                       0.77287                      -0.60922
                       0.17755                       0.77287                      -0.60922
                       0.17755                       0.77287                      -0.60922
                       0.14607                       0.77743                      -0.61177
                       0.12329                       0.78023                      -0.61323
                       0.10333                       0.78233                      -0.61423
                       0.08221                       0.78421                      -0.61503
                       0.06044                       0.78577                      -0.61555
                       0.03982                       0.78691                      -0.61578
                       0.01937                       0.78770                      -0.61575
                       0.00082                       0.78814                      -0.61550
                      -0.01324                       0.78829                      -0.61516
                      -0.02707                       0.78828                      -0.61472
                      -0.03864                       0.78816                      -0.61426
                      -0.04723                       0.78800                      -0.61386
                      -0.05183                       0.78789                      -0.61363
                      -0.05183                       0.78789                      -0.61363
        </DataArray>
        <DataArray type="Float32" Name="OrientationZ" NumberOfComponents="3" format="ascii">
                       0.02515                       0.61529                       0.78790
                       0.02515                       0.61529                       0.78790
                       0.02515                       0.61529                       0.78790
                       0.02515                       0.61529                       0.78790
                       0.02515                       0.61529                       0.78790
                       0.02515                       0.61529                       0.78790
                       0.02515                       0.61529                       0.78790
                       0.02515                       0.61529                       0.78790
                       0.02515                       0.61529                       0.78790
                       0.02515                       0.61529                       0.78790
                       0.02515                       0.61529                       0.78790
                       0.02515                       0.61529                       0.78790
                       0.02515                       0.61529                       0.78790
                       0.02515                       0.61529                       0.78790
                       0.02515                       0.61529                       0.78790
                       0.02515                       0.61529                       0.78790
                       0.02515                       0.61529                       0.78790
                       0.02515                       0.61529                       0.78790
                       0.02515                       0.61529                       0.78790
        </DataArray>
        <DataArray type="Float32" Name="Force" NumberOfComponents="3" format="ascii">
                      -1.01448                      14.89007                     -11.59553
                     185.23320                     113.31514                     -94.40157
                     278.56054                     349.17217                    -281.56493
                     277.13438                     538.12133                    -429.07301
                    1360.34824                    -156.40645                      78.72386
                    1238.64713                     -91.70683                      32.08301
                    1136.84689                     -17.93563                     -22.27713
                    2165.35367                     -77.14103                      -8.86823
                    3160.78746                     -78.14206                     -39.85657
                    4245.34018                     -49.65676                     -96.71558
                    6823.41157                      22.44428                    -235.30168
                    8718.47340                     129.25519                    -379.19452
                   10704.94249                     186.66986                    -487.43033
                   12972.02104                     302.89129                    -650.54522
                   15619.25484                     438.25749                    -840.74352
                   18093.41634                     564.83525                   -1018.55505
                   19785.70690                     683.93119                   -1165.56987
                   17446.68159                     430.08237                    -892.68319
                   15169.23220                     569.72827                    -929.04845
        </DataArray>
        <DataArray type="Float32" Name="Moment" NumberOfComponents="3" format="ascii">
                       0.00000                       0.00000                       0.00000
                       0.00000                       0.00000                       0.00000
                       0.00000                       0.00000                       0.00000
                       0.00000                       0.00000                       0.00000
                     -36.51262                    -893.39242                   -1144.03007
                     -74.68722                   -1827.45011                   -2340.13389
                    -103.76548                   -2538.93831                   -3251.22724
                    -169.94835                   -4158.30369                   -5324.89907
                    -255.51841                   -6252.03543                   -8006.01882
                    -293.56517                   -7182.96524                   -9198.11725
                    -328.45010                   -8036.53129                  -10291.14782
                    -352.63525                   -8628.29447                  -11048.92779
                    -274.11107                   -6706.96156                   -8588.57265
                    -277.49187                   -6789.68306                   -8694.50134
                    -274.30848                   -6711.79186                   -8594.75808
                    -266.46507                   -6519.87887                   -8349.00467
                    -242.00680                   -5921.43284                   -7582.66702
                    -127.68670                   -3124.24364                   -4000.73762
                    -127.40357                   -3117.31606                   -3991.86654
        </DataArray>
      </PointData>
      <Lines>
        <DataArray type="Int32" Name="connectivity" format="ascii">
      0      1
      1      2
      2      3
      3      4
      4      5
      5      6
      6      7
      7      8
      8      9
      9     10
     10     11
     11     12
     12     13
     13     14
     14     15
     15     16
     16     17
     17     18
        </DataArray>
        <DataArray type="Int32" Name="offsets" format="ascii">
      2
      4
      6
      8
     10
     12
     14
     16
     18
     20
     22
     24
     26
     28
     30
     32
     34
     36
        </DataArray>
      </Lines>
    </Piece>
  </PolyData>
</VTKFile>
