<?xml version="1.0"?>
<VTKFile type="PolyData" version="0.1" byte_order="LittleEndian">
  <PolyData>
    <Piece NumberOfPoints="    625" NumberOfVerts="  0" NumberOfLines="      0"
           NumberOfStrips="  0" NumberOfPolys="    600">
      <Points>
        <DataArray type="Float32" NumberOfComponents="3" format="ascii">
                      -5.04503                      -1.40820                      89.48529
                      -5.04503                      -1.40820                      89.48529
                      -5.04503                      -1.40820                      89.48529
                      -5.04503                      -1.40820                      89.48529
                      -5.04503                      -1.40820                      89.48529
                      -5.04503                      -1.40820                      89.48529
                      -5.04503                      -1.40820                      89.48529
                      -5.04503                      -1.40820                      89.48529
                      -5.04503                      -1.40820                      89.48529
                      -5.04503                      -1.40820                      89.48529
                      -5.04503                      -1.40820                      89.48529
                      -5.04503                      -1.40820                      89.48529
                      -5.04503                      -1.40820                      89.48529
                      -5.04503                      -1.40820                      89.48529
                      -5.04503                      -1.40820                      89.48529
                      -5.04503                      -1.40820                      89.48529
                      -5.04503                      -1.40820                      89.48529
                      -5.04503                      -1.40820                      89.48529
                      -5.04503                      -1.40820                      89.48529
                      -5.04503                      -1.40820                      89.48529
                      -5.04503                      -1.40820                      89.48529
                      -5.04503                      -1.40820                      89.48529
                      -5.04503                      -1.40820                      89.48529
                      -5.04503                      -1.40820                      89.48529
                      -5.04503                      -1.40820                      89.48529
                      -4.44408                      -1.29085                      89.47593
                      -4.47504                      -1.23950                      89.33815
                      -4.54158                      -1.19138                      89.21230
                      -4.63952                      -1.14950                      89.10630
                      -4.76270                      -1.11651                      89.02681
                      -4.90339                      -1.09447                      88.97882
                      -5.05274                      -1.08477                      88.96536
                      -5.20137                      -1.08802                      88.98725
                      -5.33994                      -1.10401                      89.04313
                      -5.45974                      -1.13175                      89.12950
                      -5.55325                      -1.16948                      89.24091
                      -5.61460                      -1.21484                      89.37037
                      -5.63992                      -1.26497                      89.50975
                      -5.62762                      -1.31673                      89.65029
                      -5.57848                      -1.36687                      89.78315
                      -5.49559                      -1.41223                      89.89999
                      -5.38415                      -1.44996                      89.99347
                      -5.25117                      -1.47769                      90.05772
                      -5.10500                      -1.49369                      90.08869
                      -4.95483                      -1.49694                      90.08444
                      -4.81009                      -1.48724                      90.04525
                      -4.67987                      -1.46520                      89.97356
                      -4.57236                      -1.43221                      89.87389
                      -4.49432                      -1.39033                      89.75249
                      -4.45065                      -1.34221                      89.61700
                      -4.21153                      -1.17350                      89.49881
                      -4.25435                      -1.10248                      89.30823
                      -4.34638                      -1.03591                      89.13417
                      -4.48184                      -0.97799                      88.98756
                      -4.65222                      -0.93236                      88.87762
                      -4.84680                      -0.90188                      88.81124
                      -5.05337                      -0.88846                      88.79261
                      -5.25895                      -0.89296                      88.82290
                      -5.45061                      -0.91508                      88.90019
                      -5.61631                      -0.95344                      89.01964
                      -5.74565                      -1.00563                      89.17374
                      -5.83050                      -1.06837                      89.35280
                      -5.86552                      -1.13771                      89.54558
                      -5.84851                      -1.20930                      89.73996
                      -5.78055                      -1.27864                      89.92373
                      -5.66590                      -1.34138                      90.08534
                      -5.51177                      -1.39357                      90.21463
                      -5.32784                      -1.43193                      90.30349
                      -5.12566                      -1.45405                      90.34633
                      -4.91795                      -1.45855                      90.34046
                      -4.71776                      -1.44513                      90.28624
                      -4.53765                      -1.41465                      90.18709
                      -4.38896                      -1.36901                      90.04923
                      -4.28101                      -1.31110                      89.88132
                      -4.22060                      -1.24453                      89.69393
                      -4.04539                      -1.05615                      89.52749
                      -4.09663                      -0.97116                      89.29945
                      -4.20676                      -0.89151                      89.09117
                      -4.36885                      -0.82221                      88.91574
                      -4.57272                      -0.76760                      88.78418
                      -4.80556                      -0.73113                      88.70476
                      -5.05273                      -0.71507                      88.68247
                      -5.29872                      -0.72045                      88.71871
                      -5.52806                      -0.74693                      88.81120
                      -5.72634                      -0.79283                      88.95413
                      -5.88111                      -0.85528                      89.13852
                      -5.98263                      -0.93035                      89.35279
                      -6.02454                      -1.01332                      89.58346
                      -6.00419                      -1.09899                      89.81605
                      -5.92286                      -1.18196                      90.03595
                      -5.78568                      -1.25703                      90.22933
                      -5.60124                      -1.31948                      90.38404
                      -5.38115                      -1.36538                      90.49037
                      -5.13924                      -1.39185                      90.54163
                      -4.89069                      -1.39723                      90.53460
                      -4.65114                      -1.38118                      90.46973
                      -4.43563                      -1.34470                      90.35108
                      -4.25770                      -1.29010                      90.18612
                      -4.12854                      -1.22079                      89.98521
                      -4.05626                      -1.14114                      89.76097
                      -3.91624                      -0.93880                      89.55942
                      -3.97398                      -0.84303                      89.30244
                      -4.09808                      -0.75327                      89.06774
                      -4.28073                      -0.67518                      88.87005
                      -4.51047                      -0.61364                      88.72180
                      -4.77285                      -0.57254                      88.63230
                      -5.05139                      -0.55445                      88.60718
                      -5.32858                      -0.56051                      88.64802
                      -5.58702                      -0.59034                      88.75224
                      -5.81046                      -0.64207                      88.91331
                      -5.98486                      -0.71244                      89.12109
                      -6.09926                      -0.79703                      89.36254
                      -6.14648                      -0.89054                      89.62248
                      -6.12355                      -0.98707                      89.88459
                      -6.03191                      -1.08057                      90.13238
                      -5.87732                      -1.16517                      90.35029
                      -5.66949                      -1.23554                      90.52464
                      -5.42147                      -1.28726                      90.64445
                      -5.14886                      -1.31709                      90.70222
                      -4.86879                      -1.32315                      90.69430
                      -4.59884                      -1.30507                      90.62119
                      -4.35599                      -1.26396                      90.48749
                      -4.15549                      -1.20243                      90.30160
                      -4.00994                      -1.12433                      90.07520
                      -3.92848                      -1.03458                      89.82251
                      -3.81256                      -0.82145                      89.59357
                      -3.87548                      -0.71709                      89.31354
                      -4.01071                      -0.61928                      89.05777
                      -4.20975                      -0.53417                      88.84235
                      -4.46010                      -0.46712                      88.68080
                      -4.74602                      -0.42233                      88.58327
                      -5.04955                      -0.40262                      88.55590
                      -5.35162                      -0.40922                      88.60040
                      -5.63324                      -0.44173                      88.71397
                      -5.87673                      -0.49809                      88.88949
                      -6.06678                      -0.57478                      89.11591
                      -6.19145                      -0.66696                      89.37903
                      -6.24291                      -0.76885                      89.66229
                      -6.21792                      -0.87405                      89.94791
                      -6.11805                      -0.97594                      90.21794
                      -5.94959                      -1.06813                      90.45540
                      -5.72311                      -1.14481                      90.64539
                      -5.45284                      -1.20118                      90.77596
                      -5.15577                      -1.23369                      90.83890
                      -4.85057                      -1.24029                      90.83027
                      -4.55640                      -1.22058                      90.75061
                      -4.29176                      -1.17579                      90.60491
                      -4.07327                      -1.10873                      90.40234
                      -3.91466                      -1.02363                      90.15563
                      -3.82590                      -0.92582                      89.88027
                      -3.72842                      -0.70410                      89.62943
                      -3.79551                      -0.59282                      89.33085
                      -3.93970                      -0.48854                      89.05815
                      -4.15192                      -0.39780                      88.82846
                      -4.41885                      -0.32630                      88.65621
                      -4.72371                      -0.27854                      88.55222
                      -5.04734                      -0.25753                      88.52303
                      -5.36941                      -0.26457                      88.57048
                      -5.66969                      -0.29923                      88.69158
                      -5.92930                      -0.35933                      88.87872
                      -6.13194                      -0.44109                      89.12014
                      -6.26486                      -0.53938                      89.40068
                      -6.31973                      -0.64802                      89.70270
                      -6.29309                      -0.76018                      90.00724
                      -6.18661                      -0.86882                      90.29515
                      -6.00699                      -0.96711                      90.54834
                      -5.76551                      -1.04888                      90.75091
                      -5.47734                      -1.10898                      90.89013
                      -5.16060                      -1.14364                      90.95724
                      -4.83518                      -1.15068                      90.94804
                      -4.52153                      -1.12966                      90.86310
                      -4.23936                      -1.08190                      90.70775
                      -4.00640                      -1.01041                      90.49177
                      -3.83729                      -0.91967                      90.22871
                      -3.74264                      -0.81538                      89.93512
                      -3.66036                      -0.58675                      89.66669
                      -3.73079                      -0.46994                      89.35328
                      -3.88214                      -0.36047                      89.06703
                      -4.10491                      -0.26522                      88.82592
                      -4.38510                      -0.19018                      88.64511
                      -4.70511                      -0.14005                      88.53596
                      -5.04482                      -0.11798                      88.50532
                      -5.38290                      -0.12538                      88.55513
                      -5.69810                      -0.16176                      88.68224
                      -5.97061                      -0.22485                      88.87868
                      -6.18331                      -0.31067                      89.13210
                      -6.32284                      -0.41385                      89.42658
                      -6.38044                      -0.52788                      89.74361
                      -6.35247                      -0.64562                      90.06328
                      -6.24070                      -0.75966                      90.36550
                      -6.05215                      -0.86283                      90.63127
                      -5.79867                      -0.94866                      90.84391
                      -5.49619                      -1.01174                      90.99004
                      -5.16371                      -1.04813                      91.06049
                      -4.82212                      -1.05552                      91.05083
                      -4.49288                      -1.03346                      90.96167
                      -4.19669                      -0.98333                      90.79860
                      -3.95216                      -0.90828                      90.57189
                      -3.77464                      -0.81303                      90.29576
                      -3.67529                      -0.70356                      89.98757
                      -3.60618                      -0.46940                      89.70517
                      -3.67922                      -0.34826                      89.38013
                      -3.83619                      -0.23472                      89.08325
                      -4.06723                      -0.13594                      88.83319
                      -4.35782                      -0.05810                      88.64567
                      -4.68971                      -0.00611                      88.53246
                      -5.04204                       0.01677                      88.50069
                      -5.39266                       0.00910                      88.55234
                      -5.71956                      -0.02863                      88.68417
                      -6.00219                      -0.09406                      88.88791
                      -6.22280                      -0.18307                      89.15073
                      -6.36751                      -0.29008                      89.45615
                      -6.42724                      -0.40835                      89.78495
                      -6.39823                      -0.53046                      90.11648
                      -6.28231                      -0.64873                      90.42992
                      -6.08677                      -0.75573                      90.70556
                      -5.82388                      -0.84474                      90.92609
                      -5.51016                      -0.91017                      91.07765
                      -5.16534                      -0.94791                      91.15072
                      -4.81106                      -0.95557                      91.14070
                      -4.46961                      -0.93269                      91.04823
                      -4.16242                      -0.88070                      90.87911
                      -3.90881                      -0.80287                      90.64397
                      -3.72470                      -0.70408                      90.35760
                      -3.62166                      -0.59055                      90.03797
                      -3.56442                      -0.35205                      89.74474
                      -3.63943                      -0.22764                      89.41092
                      -3.80063                      -0.11104                      89.10603
                      -4.03791                      -0.00959                      88.84923
                      -4.33634                       0.07034                      88.65665
                      -4.67718                       0.12374                      88.54039
                      -5.03901                       0.14724                      88.50776
                      -5.39910                       0.13936                      88.56080
                      -5.73482                       0.10061                      88.69619
                      -6.02508                       0.03342                      88.90542
                      -6.25163                      -0.05800                      89.17534
                      -6.40024                      -0.16789                      89.48899
                      -6.46159                      -0.28935                      89.82667
                      -6.43180                      -0.41475                      90.16715
                      -6.31275                      -0.53621                      90.48904
                      -6.11193                      -0.64611                      90.77212
                      -5.84195                      -0.73752                      90.99860
                      -5.51977                      -0.80471                      91.15425
                      -5.16564                      -0.84346                      91.22928
                      -4.80181                      -0.85134                      91.21900
                      -4.45114                      -0.82784                      91.12403
                      -4.13567                      -0.77445                      90.95035
                      -3.87521                      -0.69451                      90.70887
                      -3.68613                      -0.59306                      90.41477
                      -3.58032                      -0.47646                      90.08651
                      -3.53411                      -0.23470                      89.78531
                      -3.61050                      -0.10800                      89.44537
                      -3.77466                       0.01073                      89.13488
                      -4.01629                       0.11405                      88.87337
                      -4.32020                       0.19545                      88.67725
                      -4.66730                       0.24982                      88.55886
                      -5.03577                       0.27375                      88.52563
                      -5.40247                       0.26573                      88.57965
                      -5.74434                       0.22627                      88.71752
                      -6.03993                       0.15784                      88.93059
                      -6.27064                       0.06475                      89.20546
                      -6.42198                      -0.04716                      89.52487
                      -6.48445                      -0.17085                      89.86874
                      -6.45411                      -0.29855                      90.21547
                      -6.33288                      -0.42224                      90.54327
                      -6.12837                      -0.53415                      90.83154
                      -5.85344                      -0.62724                      91.06218
                      -5.52535                      -0.69567                      91.22068
                      -5.16472                      -0.73513                      91.29710
                      -4.79421                      -0.74315                      91.28662
                      -4.43711                      -0.71922                      91.18991
                      -4.11585                      -0.66485                      91.01304
                      -3.85061                      -0.58345                      90.76713
                      -3.65806                      -0.48013                      90.46763
                      -3.55031                      -0.36140                      90.13336
                      -3.51466                      -0.11735                      89.82683
                      -3.59186                       0.01070                      89.48326
                      -3.75777                       0.13070                      89.16947
                      -4.00197                       0.23511                      88.90517
                      -4.30912                       0.31738                      88.70696
                      -4.65992                       0.37233                      88.58731
                      -5.03232                       0.39652                      88.55372
                      -5.40292                       0.38841                      88.60832
                      -5.74845                       0.34853                      88.74766
                      -6.04718                       0.27937                      88.96300
                      -6.28035                       0.18529                      89.24080
                      -6.43330                       0.07219                      89.56361
                      -6.49644                      -0.05282                      89.91115
                      -6.46578                      -0.18188                      90.26157
                      -6.34325                      -0.30689                      90.59287
                      -6.13657                      -0.41999                      90.88421
                      -5.85870                      -0.51408                      91.11731
                      -5.52711                      -0.58323                      91.27750
                      -5.16264                      -0.62311                      91.35473
                      -4.78819                      -0.63122                      91.34414
                      -4.42728                      -0.60703                      91.24640
                      -4.10259                      -0.55208                      91.06765
                      -3.83453                      -0.46981                      90.81912
                      -3.63993                      -0.36540                      90.51642
                      -3.53103                      -0.24540                      90.17858
                      -3.50571                       0.00000                      89.86927
                      -3.58318                       0.12849                      89.52450
                      -3.74967                       0.24891                      89.20961
                      -3.99473                       0.35369                      88.94439
                      -4.30295                       0.43625                      88.74549
                      -4.65497                       0.49139                      88.62542
                      -5.02866                       0.51566                      88.59172
                      -5.40056                       0.50753                      88.64650
                      -5.74729                       0.46751                      88.78633
                      -6.04707                       0.39811                      89.00242
                      -6.28105                       0.30370                      89.28120
                      -6.43454                       0.19020                      89.60513
                      -6.49789                       0.06476                      89.95388
                      -6.46713                      -0.06476                      90.30553
                      -6.34418                      -0.19020                      90.63798
                      -6.13677                      -0.30370                      90.93034
                      -5.85793                      -0.39811                      91.16425
                      -5.52519                      -0.46751                      91.32500
                      -5.15944                      -0.50753                      91.40250
                      -4.78368                      -0.51566                      91.39187
                      -4.42151                      -0.49139                      91.29379
                      -4.09569                      -0.43625                      91.11442
                      -3.82669                      -0.35369                      90.86502
                      -3.63142                      -0.24891                      90.56127
                      -3.52213                      -0.12849                      90.22225
                      -3.50715                       0.11735                      89.91262
                      -3.58435                       0.24540                      89.56905
                      -3.75027                       0.36540                      89.25526
                      -3.99447                       0.46981                      88.99095
                      -4.30162                       0.55208                      88.79275
                      -4.65241                       0.60703                      88.67309
                      -5.02481                       0.63122                      88.63951
                      -5.39542                       0.62311                      88.69410
                      -5.74094                       0.58323                      88.83345
                      -6.03967                       0.51408                      89.04879
                      -6.27284                       0.41999                      89.32659
                      -6.42580                       0.30689                      89.64940
                      -6.48893                       0.18188                      89.99694
                      -6.45827                       0.05282                      90.34736
                      -6.33575                      -0.07219                      90.67865
                      -6.12906                      -0.18529                      90.97000
                      -5.85119                      -0.27937                      91.20309
                      -5.51961                      -0.34853                      91.36328
                      -5.15514                      -0.38841                      91.44051
                      -4.78068                      -0.39652                      91.42992
                      -4.41977                      -0.37233                      91.33218
                      -4.09509                      -0.31738                      91.15343
                      -3.82702                      -0.23511                      90.90490
                      -3.63242                      -0.13070                      90.60221
                      -3.52352                      -0.01070                      90.26437
                      -3.51910                       0.23470                      89.95688
                      -3.59549                       0.36140                      89.61694
                      -3.75965                       0.48013                      89.30646
                      -4.00128                       0.58345                      89.04494
                      -4.30519                       0.66485                      88.84882
                      -4.65229                       0.71922                      88.73043
                      -5.02076                       0.74315                      88.69720
                      -5.38745                       0.73513                      88.75122
                      -5.72933                       0.69567                      88.88910
                      -6.02492                       0.62724                      89.10216
                      -6.25563                       0.53415                      89.37704
                      -6.40697                       0.42224                      89.69644
                      -6.46944                       0.29855                      90.04031
                      -6.43910                       0.17085                      90.38704
                      -6.31787                       0.04716                      90.71484
                      -6.11336                      -0.06475                      91.00311
                      -5.83843                      -0.15784                      91.23375
                      -5.51034                      -0.22627                      91.39225
                      -5.14971                      -0.26573                      91.46867
                      -4.77920                      -0.27375                      91.45819
                      -4.42210                      -0.24982                      91.36148
                      -4.10084                      -0.19545                      91.18461
                      -3.83560                      -0.11405                      90.93870
                      -3.64305                      -0.01073                      90.63920
                      -3.53530                       0.10800                      90.30493
                      -3.54190                       0.35205                      90.00210
                      -3.61691                       0.47646                      89.66828
                      -3.77812                       0.59306                      89.36339
                      -4.01539                       0.69451                      89.10659
                      -4.31382                       0.77445                      88.91401
                      -4.65466                       0.82784                      88.79775
                      -5.01650                       0.85134                      88.76511
                      -5.37658                       0.84346                      88.81816
                      -5.71230                       0.80471                      88.95355
                      -6.00256                       0.73752                      89.16278
                      -6.22911                       0.64611                      89.43270
                      -6.37773                       0.53621                      89.74635
                      -6.43907                       0.41475                      90.08403
                      -6.40928                       0.28935                      90.42451
                      -6.29024                       0.16789                      90.74640
                      -6.08941                       0.05800                      91.02948
                      -5.81943                      -0.03342                      91.25596
                      -5.49725                      -0.10061                      91.41160
                      -5.14312                      -0.13936                      91.48664
                      -4.77929                      -0.14724                      91.47635
                      -4.42862                      -0.12374                      91.38139
                      -4.11315                      -0.07034                      91.20771
                      -3.85269                       0.00959                      90.96623
                      -3.66362                       0.11104                      90.67212
                      -3.55780                       0.22764                      90.34387
                      -3.57616                       0.46940                      90.04832
                      -3.64920                       0.59055                      89.72327
                      -3.80617                       0.70408                      89.42639
                      -4.03721                       0.80287                      89.17633
                      -4.32780                       0.88070                      88.98881
                      -4.65969                       0.93269                      88.87560
                      -5.01201                       0.95557                      88.84383
                      -5.36264                       0.94791                      88.89548
                      -5.68954                       0.91017                      89.02732
                      -5.97217                       0.84474                      89.23105
                      -6.19277                       0.75573                      89.49388
                      -6.33749                       0.64873                      89.79929
                      -6.39722                       0.53046                      90.12809
                      -6.36821                       0.40835                      90.45963
                      -6.25229                       0.29008                      90.77306
                      -6.05674                       0.18307                      91.04871
                      -5.79385                       0.09406                      91.26924
                      -5.48014                       0.02863                      91.42079
                      -5.13531                      -0.00910                      91.49386
                      -4.78104                      -0.01677                      91.48384
                      -4.43959                       0.00611                      91.39137
                      -4.13240                       0.05810                      91.22225
                      -3.87878                       0.13594                      90.98712
                      -3.69468                       0.23472                      90.70074
                      -3.59164                       0.34826                      90.38111
                      -3.62284                       0.58675                      90.09562
                      -3.69326                       0.70356                      89.78221
                      -3.84461                       0.81303                      89.49596
                      -4.06738                       0.90828                      89.25485
                      -4.34757                       0.98333                      89.07404
                      -4.66758                       1.03346                      88.96489
                      -5.00729                       1.05552                      88.93425
                      -5.34537                       1.04813                      88.98406
                      -5.66057                       1.01174                      89.11117
                      -5.93308                       0.94866                      89.30761
                      -6.14579                       0.86283                      89.56103
                      -6.28532                       0.75966                      89.85551
                      -6.34291                       0.64562                      90.17254
                      -6.31494                       0.52788                      90.49221
                      -6.20317                       0.41385                      90.79443
                      -6.01463                       0.31067                      91.06020
                      -5.76115                       0.22485                      91.27284
                      -5.45866                       0.16176                      91.41897
                      -5.12618                       0.12538                      91.48942
                      -4.78459                       0.11798                      91.47976
                      -4.45536                       0.14005                      91.39060
                      -4.15917                       0.19018                      91.22753
                      -3.91463                       0.26522                      91.00082
                      -3.73711                       0.36047                      90.72469
                      -3.63777                       0.46994                      90.41650
                      -3.68339                       0.70410                      90.14414
                      -3.75048                       0.81538                      89.84557
                      -3.89467                       0.91967                      89.57286
                      -4.10689                       1.01041                      89.34317
                      -4.37382                       1.08190                      89.17092
                      -4.67868                       1.12966                      89.06694
                      -5.00231                       1.15068                      89.03775
                      -5.32438                       1.14364                      89.08520
                      -5.62466                       1.10898                      89.20629
                      -5.88427                       1.04888                      89.39343
                      -6.08691                       0.96711                      89.63486
                      -6.21983                       0.86882                      89.91539
                      -6.27470                       0.76018                      90.21742
                      -6.24805                       0.64802                      90.52195
                      -6.14158                       0.53938                      90.80986
                      -5.96195                       0.44109                      91.06306
                      -5.72047                       0.35933                      91.26563
                      -5.43231                       0.29923                      91.40484
                      -5.11557                       0.26457                      91.47196
                      -4.79015                       0.25753                      91.46275
                      -4.47650                       0.27854                      91.37781
                      -4.19433                       0.32630                      91.22247
                      -3.96137                       0.39780                      91.00648
                      -3.79226                       0.48854                      90.74343
                      -3.69761                       0.59282                      90.44983
                      -3.76002                       0.82145                      90.19407
                      -3.82294                       0.92582                      89.91404
                      -3.95817                       1.02363                      89.65827
                      -4.15721                       1.10873                      89.44285
                      -4.40756                       1.17579                      89.28130
                      -4.69348                       1.22058                      89.18377
                      -4.99701                       1.24029                      89.15640
                      -5.29908                       1.23369                      89.20090
                      -5.58071                       1.20118                      89.31447
                      -5.82419                       1.14481                      89.48999
                      -6.01424                       1.06813                      89.71642
                      -6.13891                       0.97594                      89.97953
                      -6.19037                       0.87405                      90.26279
                      -6.16538                       0.76885                      90.54841
                      -6.06552                       0.66696                      90.81844
                      -5.89705                       0.57478                      91.05591
                      -5.67057                       0.49809                      91.24589
                      -5.40031                       0.44173                      91.37646
                      -5.10324                       0.40922                      91.43941
                      -4.79803                       0.40262                      91.43078
                      -4.50387                       0.42233                      91.35111
                      -4.23922                       0.46712                      91.20542
                      -4.02073                       0.53417                      91.00285
                      -3.86212                       0.61928                      90.75613
                      -3.77336                       0.71709                      90.48077
                      -3.85620                       0.93880                      90.24570
                      -3.91394                       1.03458                      89.98873
                      -4.03804                       1.12433                      89.75403
                      -4.22069                       1.20243                      89.55634
                      -4.45043                       1.26396                      89.40809
                      -4.71281                       1.30507                      89.31859
                      -4.99134                       1.32315                      89.29347
                      -5.26854                       1.31709                      89.33431
                      -5.52698                       1.28726                      89.43853
                      -5.75042                       1.23554                      89.59960
                      -5.92482                       1.16517                      89.80738
                      -6.03922                       1.08057                      90.04883
                      -6.08644                       0.98707                      90.30877
                      -6.06351                       0.89054                      90.57087
                      -5.97187                       0.79703                      90.81867
                      -5.81728                       0.71244                      91.03658
                      -5.60944                       0.64207                      91.21092
                      -5.36143                       0.59034                      91.33074
                      -5.08882                       0.56051                      91.38850
                      -4.80875                       0.55445                      91.38058
                      -4.53880                       0.57254                      91.30748
                      -4.29595                       0.61364                      91.17378
                      -4.09545                       0.67518                      90.98789
                      -3.94990                       0.75327                      90.76149
                      -3.86844                       0.84303                      90.50880
                      -3.97785                       1.05615                      90.29957
                      -4.02909                       1.14114                      90.07153
                      -4.13921                       1.22079                      89.86325
                      -4.30130                       1.29010                      89.68782
                      -4.50517                       1.34470                      89.55626
                      -4.73801                       1.38118                      89.47684
                      -4.98519                       1.39723                      89.45455
                      -5.23117                       1.39185                      89.49078
                      -5.46051                       1.36538                      89.58327
                      -5.65880                       1.31948                      89.72620
                      -5.81356                       1.25703                      89.91059
                      -5.91509                       1.18196                      90.12486
                      -5.95699                       1.09899                      90.35553
                      -5.93664                       1.01332                      90.58813
                      -5.85532                       0.93035                      90.80802
                      -5.71813                       0.85528                      91.00140
                      -5.53369                       0.79283                      91.15612
                      -5.31361                       0.74693                      91.26244
                      -5.07169                       0.72045                      91.31370
                      -4.82315                       0.71507                      91.30667
                      -4.58359                       0.73113                      91.24180
                      -4.36808                       0.76760                      91.12315
                      -4.19016                       0.82221                      90.95819
                      -4.06099                       0.89151                      90.75728
                      -3.98871                       0.97116                      90.53304
                      -4.13647                       1.17350                      90.35667
                      -4.17930                       1.24453                      90.16609
                      -4.27133                       1.31110                      89.99203
                      -4.40679                       1.36901                      89.84542
                      -4.57716                       1.41465                      89.73548
                      -4.77175                       1.44513                      89.66910
                      -4.97832                       1.45855                      89.65047
                      -5.18389                       1.45405                      89.68076
                      -5.37555                       1.43193                      89.75805
                      -5.54126                       1.39357                      89.87750
                      -5.67060                       1.34138                      90.03160
                      -5.75545                       1.27864                      90.21066
                      -5.79046                       1.20930                      90.40344
                      -5.77346                       1.13771                      90.59782
                      -5.70550                       1.06837                      90.78159
                      -5.59085                       1.00563                      90.94320
                      -5.43671                       0.95344                      91.07249
                      -5.25278                       0.91508                      91.16135
                      -5.05061                       0.89296                      91.20419
                      -4.84290                       0.88846                      91.19832
                      -4.64270                       0.90188                      91.14410
                      -4.46260                       0.93236                      91.04495
                      -4.31390                       0.97799                      90.90709
                      -4.20596                       1.03591                      90.73918
                      -4.14555                       1.10248                      90.55178
                      -4.36152                       1.29085                      90.41958
                      -4.39248                       1.34221                      90.28179
                      -4.45902                       1.39033                      90.15594
                      -4.55696                       1.43221                      90.04995
                      -4.68014                       1.46520                      89.97046
                      -4.82083                       1.48724                      89.92247
                      -4.97018                       1.49694                      89.90900
                      -5.11881                       1.49369                      89.93090
                      -5.25738                       1.47769                      89.98678
                      -5.37718                       1.44996                      90.07314
                      -5.47070                       1.41223                      90.18455
                      -5.53204                       1.36687                      90.31402
                      -5.55736                       1.31673                      90.45339
                      -5.54506                       1.26497                      90.59393
                      -5.49593                       1.21484                      90.72679
                      -5.41303                       1.16948                      90.84364
                      -5.30160                       1.13175                      90.93712
                      -5.16861                       1.10401                      91.00136
                      -5.02244                       1.08802                      91.03234
                      -4.87227                       1.08477                      91.02809
                      -4.72753                       1.09447                      90.98889
                      -4.59731                       1.11651                      90.91720
                      -4.48981                       1.14950                      90.81753
                      -4.41176                       1.19138                      90.69614
                      -4.36809                       1.23950                      90.56065
                      -4.95497                       1.40820                      90.51472
                      -4.95497                       1.40820                      90.51472
                      -4.95497                       1.40820                      90.51472
                      -4.95497                       1.40820                      90.51472
                      -4.95497                       1.40820                      90.51472
                      -4.95497                       1.40820                      90.51472
                      -4.95497                       1.40820                      90.51472
                      -4.95497                       1.40820                      90.51472
                      -4.95497                       1.40820                      90.51472
                      -4.95497                       1.40820                      90.51472
                      -4.95497                       1.40820                      90.51472
                      -4.95497                       1.40820                      90.51472
                      -4.95497                       1.40820                      90.51472
                      -4.95497                       1.40820                      90.51472
                      -4.95497                       1.40820                      90.51472
                      -4.95497                       1.40820                      90.51472
                      -4.95497                       1.40820                      90.51472
                      -4.95497                       1.40820                      90.51472
                      -4.95497                       1.40820                      90.51472
                      -4.95497                       1.40820                      90.51472
                      -4.95497                       1.40820                      90.51472
                      -4.95497                       1.40820                      90.51472
                      -4.95497                       1.40820                      90.51472
                      -4.95497                       1.40820                      90.51472
                      -4.95497                       1.40820                      90.51472
        </DataArray>
      </Points>
      <Polys>
        <DataArray type="Int32" Name="connectivity" format="ascii">
      0      1     26     25
      1      2     27     26
      2      3     28     27
      3      4     29     28
      4      5     30     29
      5      6     31     30
      6      7     32     31
      7      8     33     32
      8      9     34     33
      9     10     35     34
     10     11     36     35
     11     12     37     36
     12     13     38     37
     13     14     39     38
     14     15     40     39
     15     16     41     40
     16     17     42     41
     17     18     43     42
     18     19     44     43
     19     20     45     44
     20     21     46     45
     21     22     47     46
     22     23     48     47
     23     24     49     48
     24      0     25     49
     25     26     51     50
     26     27     52     51
     27     28     53     52
     28     29     54     53
     29     30     55     54
     30     31     56     55
     31     32     57     56
     32     33     58     57
     33     34     59     58
     34     35     60     59
     35     36     61     60
     36     37     62     61
     37     38     63     62
     38     39     64     63
     39     40     65     64
     40     41     66     65
     41     42     67     66
     42     43     68     67
     43     44     69     68
     44     45     70     69
     45     46     71     70
     46     47     72     71
     47     48     73     72
     48     49     74     73
     49     25     50     74
     50     51     76     75
     51     52     77     76
     52     53     78     77
     53     54     79     78
     54     55     80     79
     55     56     81     80
     56     57     82     81
     57     58     83     82
     58     59     84     83
     59     60     85     84
     60     61     86     85
     61     62     87     86
     62     63     88     87
     63     64     89     88
     64     65     90     89
     65     66     91     90
     66     67     92     91
     67     68     93     92
     68     69     94     93
     69     70     95     94
     70     71     96     95
     71     72     97     96
     72     73     98     97
     73     74     99     98
     74     50     75     99
     75     76    101    100
     76     77    102    101
     77     78    103    102
     78     79    104    103
     79     80    105    104
     80     81    106    105
     81     82    107    106
     82     83    108    107
     83     84    109    108
     84     85    110    109
     85     86    111    110
     86     87    112    111
     87     88    113    112
     88     89    114    113
     89     90    115    114
     90     91    116    115
     91     92    117    116
     92     93    118    117
     93     94    119    118
     94     95    120    119
     95     96    121    120
     96     97    122    121
     97     98    123    122
     98     99    124    123
     99     75    100    124
    100    101    126    125
    101    102    127    126
    102    103    128    127
    103    104    129    128
    104    105    130    129
    105    106    131    130
    106    107    132    131
    107    108    133    132
    108    109    134    133
    109    110    135    134
    110    111    136    135
    111    112    137    136
    112    113    138    137
    113    114    139    138
    114    115    140    139
    115    116    141    140
    116    117    142    141
    117    118    143    142
    118    119    144    143
    119    120    145    144
    120    121    146    145
    121    122    147    146
    122    123    148    147
    123    124    149    148
    124    100    125    149
    125    126    151    150
    126    127    152    151
    127    128    153    152
    128    129    154    153
    129    130    155    154
    130    131    156    155
    131    132    157    156
    132    133    158    157
    133    134    159    158
    134    135    160    159
    135    136    161    160
    136    137    162    161
    137    138    163    162
    138    139    164    163
    139    140    165    164
    140    141    166    165
    141    142    167    166
    142    143    168    167
    143    144    169    168
    144    145    170    169
    145    146    171    170
    146    147    172    171
    147    148    173    172
    148    149    174    173
    149    125    150    174
    150    151    176    175
    151    152    177    176
    152    153    178    177
    153    154    179    178
    154    155    180    179
    155    156    181    180
    156    157    182    181
    157    158    183    182
    158    159    184    183
    159    160    185    184
    160    161    186    185
    161    162    187    186
    162    163    188    187
    163    164    189    188
    164    165    190    189
    165    166    191    190
    166    167    192    191
    167    168    193    192
    168    169    194    193
    169    170    195    194
    170    171    196    195
    171    172    197    196
    172    173    198    197
    173    174    199    198
    174    150    175    199
    175    176    201    200
    176    177    202    201
    177    178    203    202
    178    179    204    203
    179    180    205    204
    180    181    206    205
    181    182    207    206
    182    183    208    207
    183    184    209    208
    184    185    210    209
    185    186    211    210
    186    187    212    211
    187    188    213    212
    188    189    214    213
    189    190    215    214
    190    191    216    215
    191    192    217    216
    192    193    218    217
    193    194    219    218
    194    195    220    219
    195    196    221    220
    196    197    222    221
    197    198    223    222
    198    199    224    223
    199    175    200    224
    200    201    226    225
    201    202    227    226
    202    203    228    227
    203    204    229    228
    204    205    230    229
    205    206    231    230
    206    207    232    231
    207    208    233    232
    208    209    234    233
    209    210    235    234
    210    211    236    235
    211    212    237    236
    212    213    238    237
    213    214    239    238
    214    215    240    239
    215    216    241    240
    216    217    242    241
    217    218    243    242
    218    219    244    243
    219    220    245    244
    220    221    246    245
    221    222    247    246
    222    223    248    247
    223    224    249    248
    224    200    225    249
    225    226    251    250
    226    227    252    251
    227    228    253    252
    228    229    254    253
    229    230    255    254
    230    231    256    255
    231    232    257    256
    232    233    258    257
    233    234    259    258
    234    235    260    259
    235    236    261    260
    236    237    262    261
    237    238    263    262
    238    239    264    263
    239    240    265    264
    240    241    266    265
    241    242    267    266
    242    243    268    267
    243    244    269    268
    244    245    270    269
    245    246    271    270
    246    247    272    271
    247    248    273    272
    248    249    274    273
    249    225    250    274
    250    251    276    275
    251    252    277    276
    252    253    278    277
    253    254    279    278
    254    255    280    279
    255    256    281    280
    256    257    282    281
    257    258    283    282
    258    259    284    283
    259    260    285    284
    260    261    286    285
    261    262    287    286
    262    263    288    287
    263    264    289    288
    264    265    290    289
    265    266    291    290
    266    267    292    291
    267    268    293    292
    268    269    294    293
    269    270    295    294
    270    271    296    295
    271    272    297    296
    272    273    298    297
    273    274    299    298
    274    250    275    299
    275    276    301    300
    276    277    302    301
    277    278    303    302
    278    279    304    303
    279    280    305    304
    280    281    306    305
    281    282    307    306
    282    283    308    307
    283    284    309    308
    284    285    310    309
    285    286    311    310
    286    287    312    311
    287    288    313    312
    288    289    314    313
    289    290    315    314
    290    291    316    315
    291    292    317    316
    292    293    318    317
    293    294    319    318
    294    295    320    319
    295    296    321    320
    296    297    322    321
    297    298    323    322
    298    299    324    323
    299    275    300    324
    300    301    326    325
    301    302    327    326
    302    303    328    327
    303    304    329    328
    304    305    330    329
    305    306    331    330
    306    307    332    331
    307    308    333    332
    308    309    334    333
    309    310    335    334
    310    311    336    335
    311    312    337    336
    312    313    338    337
    313    314    339    338
    314    315    340    339
    315    316    341    340
    316    317    342    341
    317    318    343    342
    318    319    344    343
    319    320    345    344
    320    321    346    345
    321    322    347    346
    322    323    348    347
    323    324    349    348
    324    300    325    349
    325    326    351    350
    326    327    352    351
    327    328    353    352
    328    329    354    353
    329    330    355    354
    330    331    356    355
    331    332    357    356
    332    333    358    357
    333    334    359    358
    334    335    360    359
    335    336    361    360
    336    337    362    361
    337    338    363    362
    338    339    364    363
    339    340    365    364
    340    341    366    365
    341    342    367    366
    342    343    368    367
    343    344    369    368
    344    345    370    369
    345    346    371    370
    346    347    372    371
    347    348    373    372
    348    349    374    373
    349    325    350    374
    350    351    376    375
    351    352    377    376
    352    353    378    377
    353    354    379    378
    354    355    380    379
    355    356    381    380
    356    357    382    381
    357    358    383    382
    358    359    384    383
    359    360    385    384
    360    361    386    385
    361    362    387    386
    362    363    388    387
    363    364    389    388
    364    365    390    389
    365    366    391    390
    366    367    392    391
    367    368    393    392
    368    369    394    393
    369    370    395    394
    370    371    396    395
    371    372    397    396
    372    373    398    397
    373    374    399    398
    374    350    375    399
    375    376    401    400
    376    377    402    401
    377    378    403    402
    378    379    404    403
    379    380    405    404
    380    381    406    405
    381    382    407    406
    382    383    408    407
    383    384    409    408
    384    385    410    409
    385    386    411    410
    386    387    412    411
    387    388    413    412
    388    389    414    413
    389    390    415    414
    390    391    416    415
    391    392    417    416
    392    393    418    417
    393    394    419    418
    394    395    420    419
    395    396    421    420
    396    397    422    421
    397    398    423    422
    398    399    424    423
    399    375    400    424
    400    401    426    425
    401    402    427    426
    402    403    428    427
    403    404    429    428
    404    405    430    429
    405    406    431    430
    406    407    432    431
    407    408    433    432
    408    409    434    433
    409    410    435    434
    410    411    436    435
    411    412    437    436
    412    413    438    437
    413    414    439    438
    414    415    440    439
    415    416    441    440
    416    417    442    441
    417    418    443    442
    418    419    444    443
    419    420    445    444
    420    421    446    445
    421    422    447    446
    422    423    448    447
    423    424    449    448
    424    400    425    449
    425    426    451    450
    426    427    452    451
    427    428    453    452
    428    429    454    453
    429    430    455    454
    430    431    456    455
    431    432    457    456
    432    433    458    457
    433    434    459    458
    434    435    460    459
    435    436    461    460
    436    437    462    461
    437    438    463    462
    438    439    464    463
    439    440    465    464
    440    441    466    465
    441    442    467    466
    442    443    468    467
    443    444    469    468
    444    445    470    469
    445    446    471    470
    446    447    472    471
    447    448    473    472
    448    449    474    473
    449    425    450    474
    450    451    476    475
    451    452    477    476
    452    453    478    477
    453    454    479    478
    454    455    480    479
    455    456    481    480
    456    457    482    481
    457    458    483    482
    458    459    484    483
    459    460    485    484
    460    461    486    485
    461    462    487    486
    462    463    488    487
    463    464    489    488
    464    465    490    489
    465    466    491    490
    466    467    492    491
    467    468    493    492
    468    469    494    493
    469    470    495    494
    470    471    496    495
    471    472    497    496
    472    473    498    497
    473    474    499    498
    474    450    475    499
    475    476    501    500
    476    477    502    501
    477    478    503    502
    478    479    504    503
    479    480    505    504
    480    481    506    505
    481    482    507    506
    482    483    508    507
    483    484    509    508
    484    485    510    509
    485    486    511    510
    486    487    512    511
    487    488    513    512
    488    489    514    513
    489    490    515    514
    490    491    516    515
    491    492    517    516
    492    493    518    517
    493    494    519    518
    494    495    520    519
    495    496    521    520
    496    497    522    521
    497    498    523    522
    498    499    524    523
    499    475    500    524
    500    501    526    525
    501    502    527    526
    502    503    528    527
    503    504    529    528
    504    505    530    529
    505    506    531    530
    506    507    532    531
    507    508    533    532
    508    509    534    533
    509    510    535    534
    510    511    536    535
    511    512    537    536
    512    513    538    537
    513    514    539    538
    514    515    540    539
    515    516    541    540
    516    517    542    541
    517    518    543    542
    518    519    544    543
    519    520    545    544
    520    521    546    545
    521    522    547    546
    522    523    548    547
    523    524    549    548
    524    500    525    549
    525    526    551    550
    526    527    552    551
    527    528    553    552
    528    529    554    553
    529    530    555    554
    530    531    556    555
    531    532    557    556
    532    533    558    557
    533    534    559    558
    534    535    560    559
    535    536    561    560
    536    537    562    561
    537    538    563    562
    538    539    564    563
    539    540    565    564
    540    541    566    565
    541    542    567    566
    542    543    568    567
    543    544    569    568
    544    545    570    569
    545    546    571    570
    546    547    572    571
    547    548    573    572
    548    549    574    573
    549    525    550    574
    550    551    576    575
    551    552    577    576
    552    553    578    577
    553    554    579    578
    554    555    580    579
    555    556    581    580
    556    557    582    581
    557    558    583    582
    558    559    584    583
    559    560    585    584
    560    561    586    585
    561    562    587    586
    562    563    588    587
    563    564    589    588
    564    565    590    589
    565    566    591    590
    566    567    592    591
    567    568    593    592
    568    569    594    593
    569    570    595    594
    570    571    596    595
    571    572    597    596
    572    573    598    597
    573    574    599    598
    574    550    575    599
    575    576    601    600
    576    577    602    601
    577    578    603    602
    578    579    604    603
    579    580    605    604
    580    581    606    605
    581    582    607    606
    582    583    608    607
    583    584    609    608
    584    585    610    609
    585    586    611    610
    586    587    612    611
    587    588    613    612
    588    589    614    613
    589    590    615    614
    590    591    616    615
    591    592    617    616
    592    593    618    617
    593    594    619    618
    594    595    620    619
    595    596    621    620
    596    597    622    621
    597    598    623    622
    598    599    624    623
    599    575    600    624
        </DataArray>
        <DataArray type="Int32" Name="offsets" format="ascii">
      4
      8
     12
     16
     20
     24
     28
     32
     36
     40
     44
     48
     52
     56
     60
     64
     68
     72
     76
     80
     84
     88
     92
     96
    100
    104
    108
    112
    116
    120
    124
    128
    132
    136
    140
    144
    148
    152
    156
    160
    164
    168
    172
    176
    180
    184
    188
    192
    196
    200
    204
    208
    212
    216
    220
    224
    228
    232
    236
    240
    244
    248
    252
    256
    260
    264
    268
    272
    276
    280
    284
    288
    292
    296
    300
    304
    308
    312
    316
    320
    324
    328
    332
    336
    340
    344
    348
    352
    356
    360
    364
    368
    372
    376
    380
    384
    388
    392
    396
    400
    404
    408
    412
    416
    420
    424
    428
    432
    436
    440
    444
    448
    452
    456
    460
    464
    468
    472
    476
    480
    484
    488
    492
    496
    500
    504
    508
    512
    516
    520
    524
    528
    532
    536
    540
    544
    548
    552
    556
    560
    564
    568
    572
    576
    580
    584
    588
    592
    596
    600
    604
    608
    612
    616
    620
    624
    628
    632
    636
    640
    644
    648
    652
    656
    660
    664
    668
    672
    676
    680
    684
    688
    692
    696
    700
    704
    708
    712
    716
    720
    724
    728
    732
    736
    740
    744
    748
    752
    756
    760
    764
    768
    772
    776
    780
    784
    788
    792
    796
    800
    804
    808
    812
    816
    820
    824
    828
    832
    836
    840
    844
    848
    852
    856
    860
    864
    868
    872
    876
    880
    884
    888
    892
    896
    900
    904
    908
    912
    916
    920
    924
    928
    932
    936
    940
    944
    948
    952
    956
    960
    964
    968
    972
    976
    980
    984
    988
    992
    996
   1000
   1004
   1008
   1012
   1016
   1020
   1024
   1028
   1032
   1036
   1040
   1044
   1048
   1052
   1056
   1060
   1064
   1068
   1072
   1076
   1080
   1084
   1088
   1092
   1096
   1100
   1104
   1108
   1112
   1116
   1120
   1124
   1128
   1132
   1136
   1140
   1144
   1148
   1152
   1156
   1160
   1164
   1168
   1172
   1176
   1180
   1184
   1188
   1192
   1196
   1200
   1204
   1208
   1212
   1216
   1220
   1224
   1228
   1232
   1236
   1240
   1244
   1248
   1252
   1256
   1260
   1264
   1268
   1272
   1276
   1280
   1284
   1288
   1292
   1296
   1300
   1304
   1308
   1312
   1316
   1320
   1324
   1328
   1332
   1336
   1340
   1344
   1348
   1352
   1356
   1360
   1364
   1368
   1372
   1376
   1380
   1384
   1388
   1392
   1396
   1400
   1404
   1408
   1412
   1416
   1420
   1424
   1428
   1432
   1436
   1440
   1444
   1448
   1452
   1456
   1460
   1464
   1468
   1472
   1476
   1480
   1484
   1488
   1492
   1496
   1500
   1504
   1508
   1512
   1516
   1520
   1524
   1528
   1532
   1536
   1540
   1544
   1548
   1552
   1556
   1560
   1564
   1568
   1572
   1576
   1580
   1584
   1588
   1592
   1596
   1600
   1604
   1608
   1612
   1616
   1620
   1624
   1628
   1632
   1636
   1640
   1644
   1648
   1652
   1656
   1660
   1664
   1668
   1672
   1676
   1680
   1684
   1688
   1692
   1696
   1700
   1704
   1708
   1712
   1716
   1720
   1724
   1728
   1732
   1736
   1740
   1744
   1748
   1752
   1756
   1760
   1764
   1768
   1772
   1776
   1780
   1784
   1788
   1792
   1796
   1800
   1804
   1808
   1812
   1816
   1820
   1824
   1828
   1832
   1836
   1840
   1844
   1848
   1852
   1856
   1860
   1864
   1868
   1872
   1876
   1880
   1884
   1888
   1892
   1896
   1900
   1904
   1908
   1912
   1916
   1920
   1924
   1928
   1932
   1936
   1940
   1944
   1948
   1952
   1956
   1960
   1964
   1968
   1972
   1976
   1980
   1984
   1988
   1992
   1996
   2000
   2004
   2008
   2012
   2016
   2020
   2024
   2028
   2032
   2036
   2040
   2044
   2048
   2052
   2056
   2060
   2064
   2068
   2072
   2076
   2080
   2084
   2088
   2092
   2096
   2100
   2104
   2108
   2112
   2116
   2120
   2124
   2128
   2132
   2136
   2140
   2144
   2148
   2152
   2156
   2160
   2164
   2168
   2172
   2176
   2180
   2184
   2188
   2192
   2196
   2200
   2204
   2208
   2212
   2216
   2220
   2224
   2228
   2232
   2236
   2240
   2244
   2248
   2252
   2256
   2260
   2264
   2268
   2272
   2276
   2280
   2284
   2288
   2292
   2296
   2300
   2304
   2308
   2312
   2316
   2320
   2324
   2328
   2332
   2336
   2340
   2344
   2348
   2352
   2356
   2360
   2364
   2368
   2372
   2376
   2380
   2384
   2388
   2392
   2396
   2400
        </DataArray>
      </Polys>
    </Piece>
  </PolyData>
</VTKFile>
