<?xml version="1.0"?>
<VTKFile type="PolyData" version="0.1" byte_order="LittleEndian">
  <PolyData>
    <Piece NumberOfPoints="    625" NumberOfVerts="  0" NumberOfLines="      0"
           NumberOfStrips="  0" NumberOfPolys="    600">
      <Points>
        <DataArray type="Float32" NumberOfComponents="3" format="ascii">
                      -5.08215                       1.16685                      89.06100
                      -5.08215                       1.16685                      89.06100
                      -5.08215                       1.16685                      89.06100
                      -5.08215                       1.16685                      89.06100
                      -5.08215                       1.16685                      89.06100
                      -5.08215                       1.16685                      89.06100
                      -5.08215                       1.16685                      89.06100
                      -5.08215                       1.16685                      89.06100
                      -5.08215                       1.16685                      89.06100
                      -5.08215                       1.16685                      89.06100
                      -5.08215                       1.16685                      89.06100
                      -5.08215                       1.16685                      89.06100
                      -5.08215                       1.16685                      89.06100
                      -5.08215                       1.16685                      89.06100
                      -5.08215                       1.16685                      89.06100
                      -5.08215                       1.16685                      89.06100
                      -5.08215                       1.16685                      89.06100
                      -5.08215                       1.16685                      89.06100
                      -5.08215                       1.16685                      89.06100
                      -5.08215                       1.16685                      89.06100
                      -5.08215                       1.16685                      89.06100
                      -5.08215                       1.16685                      89.06100
                      -5.08215                       1.16685                      89.06100
                      -5.08215                       1.16685                      89.06100
                      -5.08215                       1.16685                      89.06100
                      -4.47811                       1.06961                      89.08701
                      -4.48676                       1.16329                      89.20418
                      -4.53240                       1.25109                      89.31727
                      -4.61215                       1.32748                      89.41918
                      -4.72100                       1.38767                      89.50350
                      -4.85211                       1.42788                      89.56493
                      -4.99724                       1.44557                      89.59962
                      -5.14729                       1.43964                      89.60537
                      -5.29281                       1.41046                      89.58185
                      -5.42466                       1.35987                      89.53051
                      -5.53456                       1.29103                      89.45458
                      -5.61561                       1.20828                      89.35885
                      -5.66270                       1.11682                      89.24931
                      -5.67289                       1.02240                      89.13287
                      -5.64553                       0.93093                      89.01682
                      -5.58234                       0.84819                      88.90846
                      -5.48729                       0.77935                      88.81461
                      -5.36636                       0.72876                      88.74116
                      -5.22713                       0.69958                      88.69271
                      -5.07837                       0.69365                      88.67233
                      -4.92942                       0.71134                      88.68129
                      -4.78963                       0.75155                      88.71902
                      -4.66779                       0.81174                      88.78315
                      -4.57156                       0.88813                      88.86967
                      -4.50698                       0.97593                      88.97312
                      -4.24246                       0.97237                      89.14524
                      -4.25443                       1.10195                      89.30730
                      -4.31755                       1.22338                      89.46373
                      -4.42785                       1.32904                      89.60468
                      -4.57840                       1.41230                      89.72130
                      -4.75975                       1.46791                      89.80627
                      -4.96049                       1.49238                      89.85424
                      -5.16802                       1.48418                      89.86221
                      -5.36929                       1.44382                      89.82967
                      -5.55166                       1.37384                      89.75866
                      -5.70367                       1.27863                      89.65365
                      -5.81576                       1.16418                      89.52123
                      -5.88090                       1.03768                      89.36973
                      -5.89499                       0.90707                      89.20867
                      -5.85715                       0.78057                      89.04816
                      -5.76975                       0.66612                      88.89829
                      -5.63829                       0.57091                      88.76848
                      -5.47102                       0.50093                      88.66688
                      -5.27846                       0.46057                      88.59988
                      -5.07270                       0.45237                      88.57169
                      -4.86668                       0.47684                      88.58408
                      -4.67333                       0.53245                      88.63626
                      -4.50481                       0.61570                      88.72497
                      -4.37171                       0.72136                      88.84463
                      -4.28239                       0.84280                      88.98771
                      -4.07323                       0.87514                      89.20928
                      -4.08756                       1.03018                      89.40321
                      -4.16308                       1.17549                      89.59038
                      -4.29507                       1.30192                      89.75904
                      -4.47522                       1.40154                      89.89859
                      -4.69221                       1.46808                      90.00026
                      -4.93242                       1.49737                      90.05767
                      -5.18074                       1.48755                      90.06720
                      -5.42158                       1.43926                      90.02826
                      -5.63980                       1.35552                      89.94329
                      -5.82169                       1.24160                      89.81764
                      -5.95583                       1.10465                      89.65919
                      -6.03377                       0.95328                      89.47791
                      -6.05063                       0.79699                      89.28518
                      -6.00535                       0.64562                      89.09312
                      -5.90077                       0.50867                      88.91379
                      -5.74346                       0.39475                      88.75846
                      -5.54331                       0.31101                      88.63689
                      -5.31289                       0.26272                      88.55672
                      -5.06669                       0.25290                      88.52298
                      -4.82016                       0.28219                      88.53780
                      -4.58881                       0.34873                      88.60025
                      -4.38716                       0.44835                      88.70640
                      -4.22790                       0.57478                      88.84958
                      -4.12101                       0.72009                      89.02079
                      -3.94099                       0.77790                      89.27656
                      -3.95713                       0.95262                      89.49509
                      -4.04224                       1.11636                      89.70601
                      -4.19097                       1.25883                      89.89607
                      -4.39398                       1.37109                      90.05332
                      -4.63850                       1.44607                      90.16789
                      -4.90918                       1.47907                      90.23258
                      -5.18901                       1.46802                      90.24332
                      -5.46041                       1.41360                      90.19944
                      -5.70631                       1.31923                      90.10369
                      -5.91128                       1.19085                      89.96210
                      -6.06243                       1.03653                      89.78355
                      -6.15027                       0.86595                      89.57927
                      -6.16927                       0.68984                      89.36209
                      -6.11824                       0.51927                      89.14566
                      -6.00039                       0.36494                      88.94358
                      -5.82312                       0.23656                      88.76854
                      -5.59758                       0.14220                      88.63155
                      -5.33793                       0.08778                      88.54120
                      -5.06049                       0.07672                      88.50319
                      -4.78268                       0.10972                      88.51989
                      -4.52198                       0.18471                      88.59026
                      -4.29475                       0.29696                      88.70987
                      -4.11527                       0.43944                      88.87122
                      -3.99483                       0.60318                      89.06416
                      -3.83421                       0.68066                      89.34607
                      -3.85180                       0.87106                      89.58420
                      -3.94454                       1.04949                      89.81405
                      -4.10662                       1.20475                      90.02116
                      -4.32784                       1.32708                      90.19252
                      -4.59431                       1.40879                      90.31738
                      -4.88927                       1.44475                      90.38787
                      -5.19421                       1.43270                      90.39957
                      -5.48996                       1.37340                      90.35175
                      -5.75793                       1.27057                      90.24742
                      -5.98129                       1.13067                      90.09311
                      -6.14600                       0.96250                      89.89855
                      -6.24171                       0.77662                      89.67594
                      -6.26242                       0.58471                      89.43927
                      -6.20681                       0.39882                      89.20342
                      -6.07839                       0.23065                      88.98321
                      -5.88522                       0.09076                      88.79246
                      -5.63944                      -0.01207                      88.64318
                      -5.35649                      -0.07138                      88.54473
                      -5.05415                      -0.08343                      88.50330
                      -4.75142                      -0.04747                      88.52151
                      -4.46733                       0.03424                      88.59819
                      -4.21971                       0.15657                      88.72854
                      -4.02413                       0.31183                      88.90436
                      -3.89288                       0.49026                      89.11460
                      -3.74698                       0.58342                      89.41729
                      -3.76574                       0.78643                      89.67119
                      -3.86462                       0.97668                      89.91626
                      -4.03743                       1.14222                      90.13709
                      -4.27330                       1.27265                      90.31980
                      -4.55742                       1.35977                      90.45292
                      -4.87192                       1.39812                      90.52808
                      -5.19705                       1.38527                      90.54056
                      -5.51239                       1.32204                      90.48958
                      -5.79810                       1.21240                      90.37833
                      -6.03625                       1.06323                      90.21381
                      -6.21187                       0.88392                      90.00635
                      -6.31393                       0.68573                      89.76900
                      -6.33601                       0.48111                      89.51666
                      -6.27672                       0.28292                      89.26519
                      -6.13979                       0.10361                      89.03039
                      -5.93382                      -0.04555                      88.82702
                      -5.67177                      -0.15519                      88.66784
                      -5.37008                      -0.21842                      88.56288
                      -5.04772                      -0.23127                      88.51871
                      -4.72494                      -0.19293                      88.53811
                      -4.42203                      -0.10580                      88.61988
                      -4.15801                       0.02463                      88.75886
                      -3.94948                       0.19017                      88.94632
                      -3.80954                       0.38042                      89.17049
                      -3.67583                       0.48619                      89.48991
                      -3.69552                       0.69928                      89.75643
                      -3.79932                       0.89898                      90.01368
                      -3.98071                       1.07275                      90.24548
                      -4.22831                       1.20966                      90.43727
                      -4.52654                       1.30111                      90.57701
                      -4.85667                       1.34136                      90.65590
                      -5.19796                       1.32788                      90.66900
                      -5.52896                       1.26150                      90.61548
                      -5.82887                       1.14641                      90.49871
                      -6.07886                       0.98984                      90.32601
                      -6.26321                       0.80162                      90.10825
                      -6.37033                       0.59358                      89.85910
                      -6.39351                       0.37879                      89.59422
                      -6.33127                       0.17075                      89.33026
                      -6.18754                      -0.01747                      89.08379
                      -5.97134                      -0.17404                      88.87031
                      -5.69626                      -0.28913                      88.70323
                      -5.37958                      -0.35550                      88.59304
                      -5.04120                      -0.36899                      88.54668
                      -4.70239                      -0.32874                      88.56705
                      -4.38442                      -0.23729                      88.65288
                      -4.10729                      -0.10038                      88.79876
                      -3.88839                       0.07339                      88.99554
                      -3.74150                       0.27309                      89.23085
                      -3.61855                       0.38895                      89.56375
                      -3.63897                       0.60995                      89.84017
                      -3.74662                       0.81707                      90.10696
                      -3.93476                       0.99729                      90.34737
                      -4.19154                       1.13928                      90.54628
                      -4.50084                       1.23413                      90.69120
                      -4.84323                       1.27587                      90.77303
                      -5.19719                       1.26189                      90.78662
                      -5.54048                       1.19305                      90.73111
                      -5.85153                       1.07369                      90.61000
                      -6.11080                       0.91130                      90.43089
                      -6.30199                       0.71609                      90.20504
                      -6.41309                       0.50033                      89.94664
                      -6.43712                       0.27757                      89.67193
                      -6.37258                       0.06180                      89.39817
                      -6.22351                      -0.13340                      89.14255
                      -5.99929                      -0.29579                      88.92114
                      -5.71399                      -0.41515                      88.74786
                      -5.38556                      -0.48399                      88.63358
                      -5.03462                      -0.49798                      88.58550
                      -4.68322                      -0.45623                      88.60663
                      -4.35345                      -0.36139                      88.69564
                      -4.06603                      -0.21939                      88.84694
                      -3.83901                      -0.03918                      89.05103
                      -3.68666                       0.16794                      89.29507
                      -3.57370                       0.29171                      89.63867
                      -3.59466                       0.51868                      89.92255
                      -3.70522                       0.73139                      90.19654
                      -3.89843                       0.91647                      90.44343
                      -4.16214                       1.06229                      90.64771
                      -4.47979                       1.15970                      90.79655
                      -4.83142                       1.20257                      90.88058
                      -5.19493                       1.18820                      90.89453
                      -5.54748                       1.11751                      90.83753
                      -5.86692                       0.99492                      90.71315
                      -6.13318                       0.82816                      90.52921
                      -6.32953                       0.62768                      90.29727
                      -6.44363                       0.40610                      90.03190
                      -6.46831                       0.17733                      89.74978
                      -6.40203                      -0.04426                      89.46862
                      -6.24894                      -0.24473                      89.20611
                      -6.01866                      -0.41150                      88.97873
                      -5.72567                      -0.53408                      88.80077
                      -5.38837                      -0.60478                      88.68341
                      -5.02796                      -0.61914                      88.63403
                      -4.66709                      -0.57627                      88.65573
                      -4.32842                      -0.47887                      88.74714
                      -4.03324                      -0.33304                      88.90252
                      -3.80010                      -0.14796                      89.11212
                      -3.64364                       0.06474                      89.36275
                      -3.54030                       0.19447                      89.71460
                      -3.56165                       0.42561                      90.00368
                      -3.67424                       0.64222                      90.28270
                      -3.87099                       0.83069                      90.53413
                      -4.13955                       0.97919                      90.74216
                      -4.46302                       1.07839                      90.89372
                      -4.82110                       1.12204                      90.97930
                      -5.19128                       1.10741                      90.99350
                      -5.55030                       1.03542                      90.93545
                      -5.87560                       0.91059                      90.80879
                      -6.14675                       0.74076                      90.62148
                      -6.34670                       0.53661                      90.38528
                      -6.46290                       0.31096                      90.11504
                      -6.48803                       0.07799                      89.82774
                      -6.42053                      -0.14766                      89.54143
                      -6.26463                      -0.35181                      89.27410
                      -6.03013                      -0.52164                      89.04255
                      -5.73176                      -0.64647                      88.86132
                      -5.38828                      -0.71847                      88.74181
                      -5.02125                      -0.73309                      88.69152
                      -4.65376                      -0.68944                      88.71362
                      -4.30888                      -0.59025                      88.80671
                      -4.00828                      -0.44175                      88.96494
                      -3.77086                      -0.25327                      89.17838
                      -3.61153                      -0.03666                      89.43361
                      -3.51775                       0.09724                      89.79147
                      -3.53933                       0.33083                      90.08364
                      -3.65312                       0.54975                      90.36564
                      -3.85197                       0.74024                      90.61974
                      -4.12338                       0.89032                      90.82999
                      -4.45031                       0.99057                      90.98316
                      -4.81220                       1.03469                      91.06965
                      -5.18633                       1.01991                      91.08401
                      -5.54917                       0.94715                      91.02534
                      -5.87794                       0.82099                      90.89733
                      -6.15198                       0.64935                      90.70802
                      -6.35406                       0.44302                      90.46931
                      -6.47150                       0.21496                      90.19619
                      -6.49690                      -0.02049                      89.90582
                      -6.42868                      -0.24854                      89.61646
                      -6.27112                      -0.45487                      89.34628
                      -6.03412                      -0.62651                      89.11226
                      -5.73257                      -0.75267                      88.92910
                      -5.38542                      -0.82543                      88.80832
                      -5.01449                      -0.84022                      88.75750
                      -4.64307                      -0.79610                      88.77983
                      -4.29452                      -0.69585                      88.87391
                      -3.99072                      -0.54576                      89.03383
                      -3.75077                      -0.35528                      89.24954
                      -3.58974                      -0.13636                      89.50749
                      -3.50571                       0.00000                      89.86927
                      -3.52736                       0.23441                      90.16246
                      -3.64155                       0.45409                      90.44543
                      -3.84109                       0.64524                      90.70042
                      -4.11345                       0.79585                      90.91141
                      -4.44152                       0.89645                      91.06512
                      -4.80468                       0.94073                      91.15191
                      -5.18011                       0.92589                      91.16632
                      -5.54422                       0.85288                      91.10744
                      -5.87414                       0.72627                      90.97899
                      -6.14913                       0.55404                      90.78901
                      -6.35192                       0.34699                      90.54947
                      -6.46976                       0.11814                      90.27539
                      -6.49526                      -0.11814                      89.98402
                      -6.42680                      -0.34699                      89.69365
                      -6.26868                      -0.55404                      89.42252
                      -6.03086                      -0.72627                      89.18769
                      -5.72826                      -0.85288                      89.00389
                      -5.37990                      -0.92589                      88.88268
                      -5.00767                      -0.94073                      88.83168
                      -4.63496                      -0.89645                      88.85409
                      -4.28519                      -0.79585                      88.94850
                      -3.98033                      -0.64524                      89.10898
                      -3.73954                      -0.45409                      89.32545
                      -3.57795                      -0.23441                      89.58430
                      -3.50406                      -0.09724                      89.94797
                      -3.52564                       0.13636                      90.24014
                      -3.63943                       0.35528                      90.52214
                      -3.83828                       0.54576                      90.77624
                      -4.10969                       0.69585                      90.98649
                      -4.43662                       0.79610                      91.13966
                      -4.79851                       0.84022                      91.22615
                      -5.17263                       0.82543                      91.24051
                      -5.53548                       0.75267                      91.18184
                      -5.86425                       0.62651                      91.05383
                      -6.13829                       0.45487                      90.86452
                      -6.34037                       0.24854                      90.62581
                      -6.45781                       0.02049                      90.35269
                      -6.48321                      -0.21496                      90.06232
                      -6.41499                      -0.44302                      89.77296
                      -6.25743                      -0.64935                      89.50278
                      -6.02043                      -0.82099                      89.26876
                      -5.71888                      -0.94715                      89.08560
                      -5.37173                      -1.01991                      88.96482
                      -5.00080                      -1.03469                      88.91400
                      -4.62938                      -0.99057                      88.93633
                      -4.28083                      -0.89032                      89.03041
                      -3.97703                      -0.74024                      89.19033
                      -3.73707                      -0.54975                      89.40604
                      -3.57605                      -0.33083                      89.66399
                      -3.51292                      -0.19447                      90.02760
                      -3.53427                       0.03666                      90.31668
                      -3.64686                       0.25327                      90.59570
                      -3.84361                       0.44175                      90.84713
                      -4.11216                       0.59025                      91.05516
                      -4.43564                       0.68944                      91.20672
                      -4.79372                       0.73309                      91.29230
                      -5.16390                       0.71847                      91.30650
                      -5.52292                       0.64647                      91.24845
                      -5.84822                       0.52164                      91.12179
                      -6.11937                       0.35181                      90.93448
                      -6.31932                       0.14766                      90.69828
                      -6.43551                      -0.07799                      90.42804
                      -6.46065                      -0.31096                      90.14074
                      -6.39315                      -0.53661                      89.85443
                      -6.23725                      -0.74076                      89.58710
                      -6.00275                      -0.91059                      89.35555
                      -5.70438                      -1.03542                      89.17432
                      -5.36089                      -1.10741                      89.05481
                      -4.99387                      -1.12204                      89.00452
                      -4.62637                      -1.07839                      89.02662
                      -4.28149                      -0.97919                      89.11971
                      -3.98090                      -0.83069                      89.27794
                      -3.74347                      -0.64222                      89.49138
                      -3.58414                      -0.42561                      89.74661
                      -3.53262                      -0.29171                      90.10817
                      -3.55359                      -0.06474                      90.39205
                      -3.66415                       0.14796                      90.66604
                      -3.85735                       0.33304                      90.91293
                      -4.12107                       0.47887                      91.11721
                      -4.43872                       0.57627                      91.26605
                      -4.79034                       0.61914                      91.35008
                      -5.15385                       0.60478                      91.36403
                      -5.50640                       0.53408                      91.30703
                      -5.82584                       0.41150                      91.18265
                      -6.09210                       0.24473                      90.99871
                      -6.28845                       0.04426                      90.76677
                      -6.40255                      -0.17733                      90.50140
                      -6.42724                      -0.40610                      90.21928
                      -6.36095                      -0.62768                      89.93812
                      -6.20786                      -0.82816                      89.67561
                      -5.97759                      -0.99492                      89.44823
                      -5.68460                      -1.11751                      89.27027
                      -5.34730                      -1.18820                      89.15291
                      -4.98689                      -1.20257                      89.10353
                      -4.62601                      -1.15970                      89.12523
                      -4.28735                      -1.06229                      89.21664
                      -3.99217                      -0.91647                      89.37202
                      -3.75902                      -0.73139                      89.58162
                      -3.60256                      -0.51868                      89.83225
                      -3.56378                      -0.38895                      90.18975
                      -3.58420                      -0.16794                      90.46616
                      -3.69186                       0.03918                      90.73296
                      -3.87999                       0.21939                      90.97337
                      -4.13677                       0.36139                      91.17228
                      -4.44608                       0.45623                      91.31720
                      -4.78846                       0.49798                      91.39903
                      -5.14242                       0.48399                      91.41261
                      -5.48571                       0.41515                      91.35711
                      -5.79676                       0.29579                      91.23600
                      -6.05603                       0.13340                      91.05689
                      -6.24722                      -0.06180                      90.83104
                      -6.35832                      -0.27757                      90.57264
                      -6.38236                      -0.50033                      90.29793
                      -6.31781                      -0.71609                      90.02417
                      -6.16874                      -0.91130                      89.76855
                      -5.94452                      -1.07369                      89.54714
                      -5.65922                      -1.19305                      89.37386
                      -5.33079                      -1.26189                      89.25958
                      -4.97985                      -1.27587                      89.21150
                      -4.62845                      -1.23413                      89.23263
                      -4.29868                      -1.13929                      89.32164
                      -4.01126                      -0.99729                      89.47294
                      -3.78424                      -0.81707                      89.67703
                      -3.63189                      -0.60995                      89.92107
                      -3.60737                      -0.48619                      90.27241
                      -3.62706                      -0.27309                      90.53893
                      -3.73086                      -0.07339                      90.79618
                      -3.91225                       0.10038                      91.02798
                      -4.15985                       0.23729                      91.21977
                      -4.45808                       0.32874                      91.35951
                      -4.78821                       0.36899                      91.43840
                      -5.12950                       0.35550                      91.45150
                      -5.46050                       0.28913                      91.39798
                      -5.76041                       0.17404                      91.28121
                      -6.01040                       0.01747                      91.10851
                      -6.19475                      -0.17075                      90.89075
                      -6.30187                      -0.37879                      90.64160
                      -6.32505                      -0.59358                      90.37672
                      -6.26281                      -0.80162                      90.11276
                      -6.11908                      -0.98984                      89.86629
                      -5.90288                      -1.14641                      89.65281
                      -5.62780                      -1.26150                      89.48573
                      -5.31112                      -1.32788                      89.37554
                      -4.97274                      -1.34136                      89.32918
                      -4.63393                      -1.30111                      89.34955
                      -4.31596                      -1.20966                      89.43537
                      -4.03883                      -1.07275                      89.58126
                      -3.81993                      -0.89898                      89.77804
                      -3.67304                      -0.69928                      90.01335
                      -3.66483                      -0.58342                      90.35628
                      -3.68358                      -0.38042                      90.61019
                      -3.78247                      -0.19017                      90.85526
                      -3.95528                      -0.02463                      91.07609
                      -4.19115                       0.10580                      91.25880
                      -4.47527                       0.19293                      91.39192
                      -4.78977                       0.23127                      91.46708
                      -5.11490                       0.21842                      91.47956
                      -5.43023                       0.15519                      91.42857
                      -5.71595                       0.04555                      91.31733
                      -5.95410                      -0.10361                      91.15281
                      -6.12972                      -0.28292                      90.94535
                      -6.23178                      -0.48111                      90.70800
                      -6.25385                      -0.68573                      90.45566
                      -6.19457                      -0.88392                      90.20419
                      -6.05764                      -1.06323                      89.96939
                      -5.85167                      -1.21240                      89.76602
                      -5.58961                      -1.32204                      89.60684
                      -5.28793                      -1.38527                      89.50188
                      -4.96557                      -1.39812                      89.45771
                      -4.64279                      -1.35977                      89.47711
                      -4.33988                      -1.27265                      89.55887
                      -4.07586                      -1.14222                      89.69785
                      -3.86733                      -0.97668                      89.88532
                      -3.72739                      -0.78643                      90.10949
                      -3.73837                      -0.68066                      90.44157
                      -3.75595                      -0.49026                      90.67970
                      -3.84870                      -0.31183                      90.90955
                      -4.01078                      -0.15657                      91.11666
                      -4.23200                      -0.03424                      91.28802
                      -4.49846                       0.04747                      91.41287
                      -4.79343                       0.08343                      91.48337
                      -5.09837                       0.07138                      91.49507
                      -5.39411                       0.01207                      91.44725
                      -5.66208                      -0.09076                      91.34291
                      -5.88544                      -0.23065                      91.18861
                      -6.05015                      -0.39882                      90.99405
                      -6.14587                      -0.58471                      90.77143
                      -6.16657                      -0.77662                      90.53477
                      -6.11097                      -0.96250                      90.29892
                      -5.98255                      -1.13067                      90.07870
                      -5.78937                      -1.27057                      89.88796
                      -5.54359                      -1.37340                      89.73868
                      -5.26065                      -1.43270                      89.64023
                      -4.95831                      -1.44475                      89.59880
                      -4.65558                      -1.40879                      89.61700
                      -4.37148                      -1.32708                      89.69369
                      -4.12387                      -1.20475                      89.82403
                      -3.92829                      -1.04949                      89.99986
                      -3.79704                      -0.87106                      90.21010
                      -3.83145                      -0.77790                      90.52856
                      -3.84759                      -0.60318                      90.74709
                      -3.93270                      -0.43944                      90.95801
                      -4.08143                      -0.29696                      91.14807
                      -4.28444                      -0.18471                      91.30532
                      -4.52897                      -0.10972                      91.41989
                      -4.79965                      -0.07672                      91.48458
                      -5.07948                      -0.08778                      91.49532
                      -5.35087                      -0.14220                      91.45144
                      -5.59678                      -0.23656                      91.35569
                      -5.80175                      -0.36494                      91.21410
                      -5.95289                      -0.51927                      91.03555
                      -6.04073                      -0.68984                      90.83127
                      -6.05973                      -0.86595                      90.61409
                      -6.00870                      -1.03653                      90.39766
                      -5.89085                      -1.19085                      90.19557
                      -5.71359                      -1.31923                      90.02054
                      -5.48804                      -1.41360                      89.88354
                      -5.22839                      -1.46802                      89.79320
                      -4.95095                      -1.47907                      89.75519
                      -4.67315                      -1.44607                      89.77189
                      -4.41244                      -1.37109                      89.84226
                      -4.18521                      -1.25883                      89.96187
                      -4.00574                      -1.11636                      90.12322
                      -3.88530                      -0.95262                      90.31615
                      -3.95001                      -0.87514                      90.61778
                      -3.96433                      -0.72009                      90.81170
                      -4.03986                      -0.57478                      90.99888
                      -4.17184                      -0.44835                      91.16754
                      -4.35199                      -0.34873                      91.30709
                      -4.56899                      -0.28219                      91.40876
                      -4.80919                      -0.25290                      91.46617
                      -5.05752                      -0.26272                      91.47570
                      -5.29835                      -0.31101                      91.43676
                      -5.51658                      -0.39475                      91.35179
                      -5.69847                      -0.50867                      91.22613
                      -5.83260                      -0.64562                      91.06769
                      -5.91054                      -0.79699                      90.88641
                      -5.92741                      -0.95328                      90.69368
                      -5.88212                      -1.10465                      90.50162
                      -5.77754                      -1.24160                      90.32229
                      -5.62023                      -1.35552                      90.16696
                      -5.42008                      -1.43926                      90.04539
                      -5.18967                      -1.48755                      89.96521
                      -4.94346                      -1.49737                      89.93148
                      -4.69693                      -1.46808                      89.94630
                      -4.46558                      -1.40154                      90.00875
                      -4.26394                      -1.30192                      90.11490
                      -4.10467                      -1.17549                      90.25808
                      -3.99779                      -1.03018                      90.42929
                      -4.10554                      -0.97237                      90.71024
                      -4.11751                      -0.84280                      90.87230
                      -4.18063                      -0.72136                      91.02872
                      -4.29093                      -0.61570                      91.16968
                      -4.44148                      -0.53245                      91.28630
                      -4.62283                      -0.47684                      91.37127
                      -4.82357                      -0.45237                      91.41924
                      -5.03110                      -0.46057                      91.42721
                      -5.23237                      -0.50093                      91.39466
                      -5.41474                      -0.57091                      91.32366
                      -5.56675                      -0.66612                      91.21864
                      -5.67884                      -0.78057                      91.08623
                      -5.74398                      -0.90707                      90.93473
                      -5.75807                      -1.03768                      90.77367
                      -5.72023                      -1.16418                      90.61316
                      -5.63283                      -1.27863                      90.46329
                      -5.50137                      -1.37384                      90.33348
                      -5.33410                      -1.44382                      90.23188
                      -5.14154                      -1.48418                      90.16488
                      -4.93578                      -1.49238                      90.13669
                      -4.72976                      -1.46791                      90.14908
                      -4.53641                      -1.41230                      90.20126
                      -4.36789                      -1.32904                      90.28997
                      -4.23479                      -1.22338                      90.40963
                      -4.14547                      -1.10195                      90.55271
                      -4.32750                      -1.06961                      90.80850
                      -4.33615                      -0.97593                      90.92568
                      -4.38179                      -0.88813                      91.03877
                      -4.46153                      -0.81174                      91.14068
                      -4.57038                      -0.75155                      91.22500
                      -4.70150                      -0.71134                      91.28643
                      -4.84663                      -0.69365                      91.32111
                      -4.99668                      -0.69958                      91.32687
                      -5.14219                      -0.72876                      91.30334
                      -5.27405                      -0.77935                      91.25201
                      -5.38395                      -0.84819                      91.17608
                      -5.46499                      -0.93093                      91.08035
                      -5.51209                      -1.02240                      90.97081
                      -5.52228                      -1.11682                      90.85436
                      -5.49492                      -1.20828                      90.73832
                      -5.43173                      -1.29103                      90.62996
                      -5.33668                      -1.35987                      90.53611
                      -5.21575                      -1.41046                      90.46265
                      -5.07652                      -1.43964                      90.41421
                      -4.92776                      -1.44557                      90.39383
                      -4.77881                      -1.42788                      90.40279
                      -4.63902                      -1.38767                      90.44052
                      -4.51718                      -1.32748                      90.50465
                      -4.42095                      -1.25109                      90.59116
                      -4.35637                      -1.16329                      90.69461
                      -4.91785                      -1.16685                      90.93900
                      -4.91785                      -1.16685                      90.93900
                      -4.91785                      -1.16685                      90.93900
                      -4.91785                      -1.16685                      90.93900
                      -4.91785                      -1.16685                      90.93900
                      -4.91785                      -1.16685                      90.93900
                      -4.91785                      -1.16685                      90.93900
                      -4.91785                      -1.16685                      90.93900
                      -4.91785                      -1.16685                      90.93900
                      -4.91785                      -1.16685                      90.93900
                      -4.91785                      -1.16685                      90.93900
                      -4.91785                      -1.16685                      90.93900
                      -4.91785                      -1.16685                      90.93900
                      -4.91785                      -1.16685                      90.93900
                      -4.91785                      -1.16685                      90.93900
                      -4.91785                      -1.16685                      90.93900
                      -4.91785                      -1.16685                      90.93900
                      -4.91785                      -1.16685                      90.93900
                      -4.91785                      -1.16685                      90.93900
                      -4.91785                      -1.16685                      90.93900
                      -4.91785                      -1.16685                      90.93900
                      -4.91785                      -1.16685                      90.93900
                      -4.91785                      -1.16685                      90.93900
                      -4.91785                      -1.16685                      90.93900
                      -4.91785                      -1.16685                      90.93900
        </DataArray>
      </Points>
      <Polys>
        <DataArray type="Int32" Name="connectivity" format="ascii">
      0      1     26     25
      1      2     27     26
      2      3     28     27
      3      4     29     28
      4      5     30     29
      5      6     31     30
      6      7     32     31
      7      8     33     32
      8      9     34     33
      9     10     35     34
     10     11     36     35
     11     12     37     36
     12     13     38     37
     13     14     39     38
     14     15     40     39
     15     16     41     40
     16     17     42     41
     17     18     43     42
     18     19     44     43
     19     20     45     44
     20     21     46     45
     21     22     47     46
     22     23     48     47
     23     24     49     48
     24      0     25     49
     25     26     51     50
     26     27     52     51
     27     28     53     52
     28     29     54     53
     29     30     55     54
     30     31     56     55
     31     32     57     56
     32     33     58     57
     33     34     59     58
     34     35     60     59
     35     36     61     60
     36     37     62     61
     37     38     63     62
     38     39     64     63
     39     40     65     64
     40     41     66     65
     41     42     67     66
     42     43     68     67
     43     44     69     68
     44     45     70     69
     45     46     71     70
     46     47     72     71
     47     48     73     72
     48     49     74     73
     49     25     50     74
     50     51     76     75
     51     52     77     76
     52     53     78     77
     53     54     79     78
     54     55     80     79
     55     56     81     80
     56     57     82     81
     57     58     83     82
     58     59     84     83
     59     60     85     84
     60     61     86     85
     61     62     87     86
     62     63     88     87
     63     64     89     88
     64     65     90     89
     65     66     91     90
     66     67     92     91
     67     68     93     92
     68     69     94     93
     69     70     95     94
     70     71     96     95
     71     72     97     96
     72     73     98     97
     73     74     99     98
     74     50     75     99
     75     76    101    100
     76     77    102    101
     77     78    103    102
     78     79    104    103
     79     80    105    104
     80     81    106    105
     81     82    107    106
     82     83    108    107
     83     84    109    108
     84     85    110    109
     85     86    111    110
     86     87    112    111
     87     88    113    112
     88     89    114    113
     89     90    115    114
     90     91    116    115
     91     92    117    116
     92     93    118    117
     93     94    119    118
     94     95    120    119
     95     96    121    120
     96     97    122    121
     97     98    123    122
     98     99    124    123
     99     75    100    124
    100    101    126    125
    101    102    127    126
    102    103    128    127
    103    104    129    128
    104    105    130    129
    105    106    131    130
    106    107    132    131
    107    108    133    132
    108    109    134    133
    109    110    135    134
    110    111    136    135
    111    112    137    136
    112    113    138    137
    113    114    139    138
    114    115    140    139
    115    116    141    140
    116    117    142    141
    117    118    143    142
    118    119    144    143
    119    120    145    144
    120    121    146    145
    121    122    147    146
    122    123    148    147
    123    124    149    148
    124    100    125    149
    125    126    151    150
    126    127    152    151
    127    128    153    152
    128    129    154    153
    129    130    155    154
    130    131    156    155
    131    132    157    156
    132    133    158    157
    133    134    159    158
    134    135    160    159
    135    136    161    160
    136    137    162    161
    137    138    163    162
    138    139    164    163
    139    140    165    164
    140    141    166    165
    141    142    167    166
    142    143    168    167
    143    144    169    168
    144    145    170    169
    145    146    171    170
    146    147    172    171
    147    148    173    172
    148    149    174    173
    149    125    150    174
    150    151    176    175
    151    152    177    176
    152    153    178    177
    153    154    179    178
    154    155    180    179
    155    156    181    180
    156    157    182    181
    157    158    183    182
    158    159    184    183
    159    160    185    184
    160    161    186    185
    161    162    187    186
    162    163    188    187
    163    164    189    188
    164    165    190    189
    165    166    191    190
    166    167    192    191
    167    168    193    192
    168    169    194    193
    169    170    195    194
    170    171    196    195
    171    172    197    196
    172    173    198    197
    173    174    199    198
    174    150    175    199
    175    176    201    200
    176    177    202    201
    177    178    203    202
    178    179    204    203
    179    180    205    204
    180    181    206    205
    181    182    207    206
    182    183    208    207
    183    184    209    208
    184    185    210    209
    185    186    211    210
    186    187    212    211
    187    188    213    212
    188    189    214    213
    189    190    215    214
    190    191    216    215
    191    192    217    216
    192    193    218    217
    193    194    219    218
    194    195    220    219
    195    196    221    220
    196    197    222    221
    197    198    223    222
    198    199    224    223
    199    175    200    224
    200    201    226    225
    201    202    227    226
    202    203    228    227
    203    204    229    228
    204    205    230    229
    205    206    231    230
    206    207    232    231
    207    208    233    232
    208    209    234    233
    209    210    235    234
    210    211    236    235
    211    212    237    236
    212    213    238    237
    213    214    239    238
    214    215    240    239
    215    216    241    240
    216    217    242    241
    217    218    243    242
    218    219    244    243
    219    220    245    244
    220    221    246    245
    221    222    247    246
    222    223    248    247
    223    224    249    248
    224    200    225    249
    225    226    251    250
    226    227    252    251
    227    228    253    252
    228    229    254    253
    229    230    255    254
    230    231    256    255
    231    232    257    256
    232    233    258    257
    233    234    259    258
    234    235    260    259
    235    236    261    260
    236    237    262    261
    237    238    263    262
    238    239    264    263
    239    240    265    264
    240    241    266    265
    241    242    267    266
    242    243    268    267
    243    244    269    268
    244    245    270    269
    245    246    271    270
    246    247    272    271
    247    248    273    272
    248    249    274    273
    249    225    250    274
    250    251    276    275
    251    252    277    276
    252    253    278    277
    253    254    279    278
    254    255    280    279
    255    256    281    280
    256    257    282    281
    257    258    283    282
    258    259    284    283
    259    260    285    284
    260    261    286    285
    261    262    287    286
    262    263    288    287
    263    264    289    288
    264    265    290    289
    265    266    291    290
    266    267    292    291
    267    268    293    292
    268    269    294    293
    269    270    295    294
    270    271    296    295
    271    272    297    296
    272    273    298    297
    273    274    299    298
    274    250    275    299
    275    276    301    300
    276    277    302    301
    277    278    303    302
    278    279    304    303
    279    280    305    304
    280    281    306    305
    281    282    307    306
    282    283    308    307
    283    284    309    308
    284    285    310    309
    285    286    311    310
    286    287    312    311
    287    288    313    312
    288    289    314    313
    289    290    315    314
    290    291    316    315
    291    292    317    316
    292    293    318    317
    293    294    319    318
    294    295    320    319
    295    296    321    320
    296    297    322    321
    297    298    323    322
    298    299    324    323
    299    275    300    324
    300    301    326    325
    301    302    327    326
    302    303    328    327
    303    304    329    328
    304    305    330    329
    305    306    331    330
    306    307    332    331
    307    308    333    332
    308    309    334    333
    309    310    335    334
    310    311    336    335
    311    312    337    336
    312    313    338    337
    313    314    339    338
    314    315    340    339
    315    316    341    340
    316    317    342    341
    317    318    343    342
    318    319    344    343
    319    320    345    344
    320    321    346    345
    321    322    347    346
    322    323    348    347
    323    324    349    348
    324    300    325    349
    325    326    351    350
    326    327    352    351
    327    328    353    352
    328    329    354    353
    329    330    355    354
    330    331    356    355
    331    332    357    356
    332    333    358    357
    333    334    359    358
    334    335    360    359
    335    336    361    360
    336    337    362    361
    337    338    363    362
    338    339    364    363
    339    340    365    364
    340    341    366    365
    341    342    367    366
    342    343    368    367
    343    344    369    368
    344    345    370    369
    345    346    371    370
    346    347    372    371
    347    348    373    372
    348    349    374    373
    349    325    350    374
    350    351    376    375
    351    352    377    376
    352    353    378    377
    353    354    379    378
    354    355    380    379
    355    356    381    380
    356    357    382    381
    357    358    383    382
    358    359    384    383
    359    360    385    384
    360    361    386    385
    361    362    387    386
    362    363    388    387
    363    364    389    388
    364    365    390    389
    365    366    391    390
    366    367    392    391
    367    368    393    392
    368    369    394    393
    369    370    395    394
    370    371    396    395
    371    372    397    396
    372    373    398    397
    373    374    399    398
    374    350    375    399
    375    376    401    400
    376    377    402    401
    377    378    403    402
    378    379    404    403
    379    380    405    404
    380    381    406    405
    381    382    407    406
    382    383    408    407
    383    384    409    408
    384    385    410    409
    385    386    411    410
    386    387    412    411
    387    388    413    412
    388    389    414    413
    389    390    415    414
    390    391    416    415
    391    392    417    416
    392    393    418    417
    393    394    419    418
    394    395    420    419
    395    396    421    420
    396    397    422    421
    397    398    423    422
    398    399    424    423
    399    375    400    424
    400    401    426    425
    401    402    427    426
    402    403    428    427
    403    404    429    428
    404    405    430    429
    405    406    431    430
    406    407    432    431
    407    408    433    432
    408    409    434    433
    409    410    435    434
    410    411    436    435
    411    412    437    436
    412    413    438    437
    413    414    439    438
    414    415    440    439
    415    416    441    440
    416    417    442    441
    417    418    443    442
    418    419    444    443
    419    420    445    444
    420    421    446    445
    421    422    447    446
    422    423    448    447
    423    424    449    448
    424    400    425    449
    425    426    451    450
    426    427    452    451
    427    428    453    452
    428    429    454    453
    429    430    455    454
    430    431    456    455
    431    432    457    456
    432    433    458    457
    433    434    459    458
    434    435    460    459
    435    436    461    460
    436    437    462    461
    437    438    463    462
    438    439    464    463
    439    440    465    464
    440    441    466    465
    441    442    467    466
    442    443    468    467
    443    444    469    468
    444    445    470    469
    445    446    471    470
    446    447    472    471
    447    448    473    472
    448    449    474    473
    449    425    450    474
    450    451    476    475
    451    452    477    476
    452    453    478    477
    453    454    479    478
    454    455    480    479
    455    456    481    480
    456    457    482    481
    457    458    483    482
    458    459    484    483
    459    460    485    484
    460    461    486    485
    461    462    487    486
    462    463    488    487
    463    464    489    488
    464    465    490    489
    465    466    491    490
    466    467    492    491
    467    468    493    492
    468    469    494    493
    469    470    495    494
    470    471    496    495
    471    472    497    496
    472    473    498    497
    473    474    499    498
    474    450    475    499
    475    476    501    500
    476    477    502    501
    477    478    503    502
    478    479    504    503
    479    480    505    504
    480    481    506    505
    481    482    507    506
    482    483    508    507
    483    484    509    508
    484    485    510    509
    485    486    511    510
    486    487    512    511
    487    488    513    512
    488    489    514    513
    489    490    515    514
    490    491    516    515
    491    492    517    516
    492    493    518    517
    493    494    519    518
    494    495    520    519
    495    496    521    520
    496    497    522    521
    497    498    523    522
    498    499    524    523
    499    475    500    524
    500    501    526    525
    501    502    527    526
    502    503    528    527
    503    504    529    528
    504    505    530    529
    505    506    531    530
    506    507    532    531
    507    508    533    532
    508    509    534    533
    509    510    535    534
    510    511    536    535
    511    512    537    536
    512    513    538    537
    513    514    539    538
    514    515    540    539
    515    516    541    540
    516    517    542    541
    517    518    543    542
    518    519    544    543
    519    520    545    544
    520    521    546    545
    521    522    547    546
    522    523    548    547
    523    524    549    548
    524    500    525    549
    525    526    551    550
    526    527    552    551
    527    528    553    552
    528    529    554    553
    529    530    555    554
    530    531    556    555
    531    532    557    556
    532    533    558    557
    533    534    559    558
    534    535    560    559
    535    536    561    560
    536    537    562    561
    537    538    563    562
    538    539    564    563
    539    540    565    564
    540    541    566    565
    541    542    567    566
    542    543    568    567
    543    544    569    568
    544    545    570    569
    545    546    571    570
    546    547    572    571
    547    548    573    572
    548    549    574    573
    549    525    550    574
    550    551    576    575
    551    552    577    576
    552    553    578    577
    553    554    579    578
    554    555    580    579
    555    556    581    580
    556    557    582    581
    557    558    583    582
    558    559    584    583
    559    560    585    584
    560    561    586    585
    561    562    587    586
    562    563    588    587
    563    564    589    588
    564    565    590    589
    565    566    591    590
    566    567    592    591
    567    568    593    592
    568    569    594    593
    569    570    595    594
    570    571    596    595
    571    572    597    596
    572    573    598    597
    573    574    599    598
    574    550    575    599
    575    576    601    600
    576    577    602    601
    577    578    603    602
    578    579    604    603
    579    580    605    604
    580    581    606    605
    581    582    607    606
    582    583    608    607
    583    584    609    608
    584    585    610    609
    585    586    611    610
    586    587    612    611
    587    588    613    612
    588    589    614    613
    589    590    615    614
    590    591    616    615
    591    592    617    616
    592    593    618    617
    593    594    619    618
    594    595    620    619
    595    596    621    620
    596    597    622    621
    597    598    623    622
    598    599    624    623
    599    575    600    624
        </DataArray>
        <DataArray type="Int32" Name="offsets" format="ascii">
      4
      8
     12
     16
     20
     24
     28
     32
     36
     40
     44
     48
     52
     56
     60
     64
     68
     72
     76
     80
     84
     88
     92
     96
    100
    104
    108
    112
    116
    120
    124
    128
    132
    136
    140
    144
    148
    152
    156
    160
    164
    168
    172
    176
    180
    184
    188
    192
    196
    200
    204
    208
    212
    216
    220
    224
    228
    232
    236
    240
    244
    248
    252
    256
    260
    264
    268
    272
    276
    280
    284
    288
    292
    296
    300
    304
    308
    312
    316
    320
    324
    328
    332
    336
    340
    344
    348
    352
    356
    360
    364
    368
    372
    376
    380
    384
    388
    392
    396
    400
    404
    408
    412
    416
    420
    424
    428
    432
    436
    440
    444
    448
    452
    456
    460
    464
    468
    472
    476
    480
    484
    488
    492
    496
    500
    504
    508
    512
    516
    520
    524
    528
    532
    536
    540
    544
    548
    552
    556
    560
    564
    568
    572
    576
    580
    584
    588
    592
    596
    600
    604
    608
    612
    616
    620
    624
    628
    632
    636
    640
    644
    648
    652
    656
    660
    664
    668
    672
    676
    680
    684
    688
    692
    696
    700
    704
    708
    712
    716
    720
    724
    728
    732
    736
    740
    744
    748
    752
    756
    760
    764
    768
    772
    776
    780
    784
    788
    792
    796
    800
    804
    808
    812
    816
    820
    824
    828
    832
    836
    840
    844
    848
    852
    856
    860
    864
    868
    872
    876
    880
    884
    888
    892
    896
    900
    904
    908
    912
    916
    920
    924
    928
    932
    936
    940
    944
    948
    952
    956
    960
    964
    968
    972
    976
    980
    984
    988
    992
    996
   1000
   1004
   1008
   1012
   1016
   1020
   1024
   1028
   1032
   1036
   1040
   1044
   1048
   1052
   1056
   1060
   1064
   1068
   1072
   1076
   1080
   1084
   1088
   1092
   1096
   1100
   1104
   1108
   1112
   1116
   1120
   1124
   1128
   1132
   1136
   1140
   1144
   1148
   1152
   1156
   1160
   1164
   1168
   1172
   1176
   1180
   1184
   1188
   1192
   1196
   1200
   1204
   1208
   1212
   1216
   1220
   1224
   1228
   1232
   1236
   1240
   1244
   1248
   1252
   1256
   1260
   1264
   1268
   1272
   1276
   1280
   1284
   1288
   1292
   1296
   1300
   1304
   1308
   1312
   1316
   1320
   1324
   1328
   1332
   1336
   1340
   1344
   1348
   1352
   1356
   1360
   1364
   1368
   1372
   1376
   1380
   1384
   1388
   1392
   1396
   1400
   1404
   1408
   1412
   1416
   1420
   1424
   1428
   1432
   1436
   1440
   1444
   1448
   1452
   1456
   1460
   1464
   1468
   1472
   1476
   1480
   1484
   1488
   1492
   1496
   1500
   1504
   1508
   1512
   1516
   1520
   1524
   1528
   1532
   1536
   1540
   1544
   1548
   1552
   1556
   1560
   1564
   1568
   1572
   1576
   1580
   1584
   1588
   1592
   1596
   1600
   1604
   1608
   1612
   1616
   1620
   1624
   1628
   1632
   1636
   1640
   1644
   1648
   1652
   1656
   1660
   1664
   1668
   1672
   1676
   1680
   1684
   1688
   1692
   1696
   1700
   1704
   1708
   1712
   1716
   1720
   1724
   1728
   1732
   1736
   1740
   1744
   1748
   1752
   1756
   1760
   1764
   1768
   1772
   1776
   1780
   1784
   1788
   1792
   1796
   1800
   1804
   1808
   1812
   1816
   1820
   1824
   1828
   1832
   1836
   1840
   1844
   1848
   1852
   1856
   1860
   1864
   1868
   1872
   1876
   1880
   1884
   1888
   1892
   1896
   1900
   1904
   1908
   1912
   1916
   1920
   1924
   1928
   1932
   1936
   1940
   1944
   1948
   1952
   1956
   1960
   1964
   1968
   1972
   1976
   1980
   1984
   1988
   1992
   1996
   2000
   2004
   2008
   2012
   2016
   2020
   2024
   2028
   2032
   2036
   2040
   2044
   2048
   2052
   2056
   2060
   2064
   2068
   2072
   2076
   2080
   2084
   2088
   2092
   2096
   2100
   2104
   2108
   2112
   2116
   2120
   2124
   2128
   2132
   2136
   2140
   2144
   2148
   2152
   2156
   2160
   2164
   2168
   2172
   2176
   2180
   2184
   2188
   2192
   2196
   2200
   2204
   2208
   2212
   2216
   2220
   2224
   2228
   2232
   2236
   2240
   2244
   2248
   2252
   2256
   2260
   2264
   2268
   2272
   2276
   2280
   2284
   2288
   2292
   2296
   2300
   2304
   2308
   2312
   2316
   2320
   2324
   2328
   2332
   2336
   2340
   2344
   2348
   2352
   2356
   2360
   2364
   2368
   2372
   2376
   2380
   2384
   2388
   2392
   2396
   2400
        </DataArray>
      </Polys>
    </Piece>
  </PolyData>
</VTKFile>
