<?xml version="1.0"?>
<VTKFile type="PolyData" version="0.1" byte_order="LittleEndian">
  <PolyData>
    <Piece NumberOfPoints="     19" NumberOfVerts="  0" NumberOfLines="     18"
           NumberOfStrips="  0" NumberOfPolys="      0">
      <Points>
        <DataArray type="Float32" NumberOfComponents="3" format="ascii">
                      -5.14255                       1.20737                      89.12140
                      -5.27299                       2.30945                      88.32373
                      -5.54947                       4.56883                      86.80697
                      -5.83332                       6.85440                      85.32738
                      -6.19256                       9.72706                      83.50007
                      -6.58115                      13.09133                      81.18651
                      -6.95499                      16.37943                      78.76589
                      -7.33127                      19.66591                      76.34345
                      -7.70774                      22.94981                      73.91747
                      -8.08510                      26.23221                      71.48959
                      -8.46440                      29.51524                      69.06289
                      -8.84503                      32.79804                      66.63610
                      -9.22763                      36.08060                      64.20928
                      -9.61292                      39.36291                      61.78256
                      -9.99913                      42.64513                      59.35587
                     -10.32162                      45.38028                      57.33362
                     -10.58071                      47.56364                      55.70958
                     -10.84497                      49.71437                      54.04151
                     -10.97484                      50.81436                      53.24105
        </DataArray>
      </Points>
      <PointData>
        <DataArray type="Float32" Name="TranslationalVelocity" NumberOfComponents="3" format="ascii">
                       0.19784                       1.66891                       2.26129
                       0.37842                       3.18425                       4.32540
                       0.74864                       6.07032                       8.55703
                       1.12315                       8.88797                      12.83771
                       1.59386                      12.36923                      18.21796
                       2.14513                      16.76600                      24.51895
                       2.68391                      21.36088                      30.67727
                       3.22243                      25.95956                      36.83257
                       3.76053                      30.56489                      42.98303
                       4.29838                      35.17394                      49.13068
                       4.83633                      39.78109                      55.27952
                       5.37425                      44.38864                      61.42793
                       5.91212                      48.99656                      67.57588
                       6.44996                      53.60472                      73.72337
                       6.98778                      58.21300                      79.87068
                       7.43596                      62.05333                      84.99338
                       7.79372                      65.13749                      89.08263
                       8.14614                      68.30492                      93.11076
                       8.32638                      69.82541                      95.17095
        </DataArray>
        <DataArray type="Float32" Name="RotationalVelocity" NumberOfComponents="3" format="ascii">
                       1.87291                      -0.00000                      -0.16386
                       1.87291                      -0.00000                      -0.16386
                       1.87291                      -0.00000                      -0.16386
                       1.87291                      -0.00000                      -0.16386
                       1.87291                      -0.00000                      -0.16386
                       1.87291                      -0.00000                      -0.16386
                       1.87291                      -0.00000                      -0.16386
                       1.87291                      -0.00000                      -0.16386
                       1.87291                      -0.00000                      -0.16386
                       1.87291                      -0.00000                      -0.16386
                       1.87291                      -0.00000                      -0.16386
                       1.87291                      -0.00000                      -0.16386
                       1.87291                      -0.00000                      -0.16386
                       1.87291                      -0.00000                      -0.16386
                       1.87291                      -0.00000                      -0.16386
                       1.87291                      -0.00000                      -0.16386
                       1.87291                      -0.00000                      -0.16386
                       1.87291                      -0.00000                      -0.16386
                       1.87291                      -0.00000                      -0.16386
        </DataArray>
        <DataArray type="Float32" Name="TranslationalAcceleration" NumberOfComponents="3" format="ascii">
                       0.28053                      -4.20800                       3.20652
                       0.53529                      -8.04935                       6.11837
                       1.02142                     -15.93238                      11.67492
                       1.49650                     -23.91041                      17.10507
                       2.08375                     -33.93991                      23.81741
                       2.82390                     -45.67436                      32.27731
                       3.59606                     -57.13249                      41.10316
                       4.36884                     -68.58479                      49.93602
                       5.14268                     -80.02768                      58.78115
                       5.91713                     -91.46518                      67.63315
                       6.69128                    -102.90497                      76.48163
                       7.46548                    -114.34393                      85.33086
                       8.23975                    -125.78201                      94.18074
                       9.01405                    -137.21922                     103.03108
                       9.78837                    -148.65610                     111.88162
                      10.43366                    -158.18670                     119.25727
                      10.95181                    -165.79396                     125.17973
                      11.48341                    -173.28287                     131.25598
                      11.73900                    -177.11664                     134.17734
        </DataArray>
        <DataArray type="Float32" Name="OrientationX" NumberOfComponents="3" format="ascii">
                       0.98249                       0.17055                       0.07497
                       0.98249                       0.17055                       0.07497
                       0.98249                       0.17055                       0.07497
                       0.98249                       0.17055                       0.07497
                       0.98249                       0.17055                       0.07497
                       0.98710                       0.15233                       0.04918
                       0.98981                       0.13910                       0.03056
                       0.99174                       0.12749                       0.01429
                       0.99334                       0.11516                      -0.00291
                       0.99453                       0.10242                      -0.02061
                       0.99521                       0.09033                      -0.03733
                       0.99547                       0.07831                      -0.05390
                       0.99535                       0.06738                      -0.06889
                       0.99502                       0.05908                      -0.08024
                       0.99451                       0.05091                      -0.09140
                       0.99394                       0.04406                      -0.10071
                       0.99343                       0.03897                      -0.10763
                       0.99312                       0.03624                      -0.11133
                       0.99312                       0.03624                      -0.11133
        </DataArray>
        <DataArray type="Float32" Name="OrientationY" NumberOfComponents="3" format="ascii">
                       0.16024                      -0.56836                      -0.80703
                       0.16024                      -0.56836                      -0.80703
                       0.16024                      -0.56836                      -0.80703
                       0.16024                      -0.56836                      -0.80703
                       0.16024                      -0.56836                      -0.80703
                       0.12882                      -0.57351                      -0.80901
                       0.10608                      -0.57686                      -0.80992
                       0.08617                      -0.57954                      -0.81038
                       0.06511                      -0.58211                      -0.81050
                       0.04341                      -0.58449                      -0.81024
                       0.02286                      -0.58648                      -0.80964
                       0.00249                      -0.58821                      -0.80871
                      -0.01598                      -0.58956                      -0.80757
                      -0.02998                      -0.59045                      -0.80652
                      -0.04375                      -0.59121                      -0.80533
                      -0.05526                      -0.59176                      -0.80422
                      -0.06381                      -0.59211                      -0.80332
                      -0.06838                      -0.59229                      -0.80282
                      -0.06838                      -0.59229                      -0.80282
        </DataArray>
        <DataArray type="Float32" Name="OrientationZ" NumberOfComponents="3" format="ascii">
                      -0.09503                       0.80491                      -0.58574
                      -0.09503                       0.80491                      -0.58574
                      -0.09503                       0.80491                      -0.58574
                      -0.09503                       0.80491                      -0.58574
                      -0.09503                       0.80491                      -0.58574
                      -0.09503                       0.80491                      -0.58574
                      -0.09503                       0.80491                      -0.58574
                      -0.09503                       0.80491                      -0.58574
                      -0.09503                       0.80491                      -0.58574
                      -0.09503                       0.80491                      -0.58574
                      -0.09503                       0.80491                      -0.58574
                      -0.09503                       0.80491                      -0.58574
                      -0.09503                       0.80491                      -0.58574
                      -0.09503                       0.80491                      -0.58574
                      -0.09503                       0.80491                      -0.58574
                      -0.09503                       0.80491                      -0.58574
                      -0.09503                       0.80491                      -0.58574
                      -0.09503                       0.80491                      -0.58574
                      -0.09503                       0.80491                      -0.58574
        </DataArray>
        <DataArray type="Float32" Name="Force" NumberOfComponents="3" format="ascii">
                      -0.28713                      -2.42213                      -3.28188
                     142.01639                     -27.13746                     -60.33297
                     192.78608                     -88.38114                    -152.73014
                     181.23238                    -136.77449                    -217.35707
                    1687.47573                     403.72331                     281.01055
                    1957.26532                     372.99220                     195.00901
                    2227.05422                     357.82824                     130.39972
                    2985.86079                     419.09321                      91.47855
                    3331.13956                     396.28902                       4.12251
                    3934.78790                     410.22440                     -74.66504
                    5147.43457                     455.97916                    -208.53222
                    6004.19814                     463.09856                    -337.75222
                    7254.70845                     527.32866                    -452.37393
                    8157.08709                     539.38210                    -582.21435
                    9127.94025                     555.23379                    -717.94472
                    9961.84555                     569.41020                    -833.75849
                   10324.48963                     566.93069                    -896.00205
                    8103.76442                     451.38313                    -694.49004
                    5123.77985                     139.92049                    -639.01761
        </DataArray>
        <DataArray type="Float32" Name="Moment" NumberOfComponents="3" format="ascii">
                       0.00000                       0.00000                       0.00000
                       0.00000                       0.00000                       0.00000
                       0.00000                       0.00000                       0.00000
                       0.00000                       0.00000                       0.00000
                      72.79618                    -616.58018                     448.68779
                     131.70009                   -1115.49348                     811.74893
                     173.28847                   -1467.74513                    1068.08382
                     255.06722                   -2160.40721                    1572.13671
                     362.64149                   -3071.55617                    2235.18334
                     411.65915                   -3486.73341                    2537.30943
                     450.69364                   -3817.35367                    2777.90308
                     481.30720                   -4076.64912                    2966.59338
                     399.01727                   -3379.65731                    2459.38974
                     403.27298                   -3415.70298                    2485.62031
                     397.31254                   -3365.21827                    2448.88239
                     384.30725                   -3255.06415                    2368.72281
                     347.43707                   -2942.77543                    2141.46910
                     177.48421                   -1503.28278                    1093.94471
                     163.52335                   -1385.03496                    1007.89531
        </DataArray>
      </PointData>
      <Lines>
        <DataArray type="Int32" Name="connectivity" format="ascii">
      0      1
      1      2
      2      3
      3      4
      4      5
      5      6
      6      7
      7      8
      8      9
      9     10
     10     11
     11     12
     12     13
     13     14
     14     15
     15     16
     16     17
     17     18
        </DataArray>
        <DataArray type="Int32" Name="offsets" format="ascii">
      2
      4
      6
      8
     10
     12
     14
     16
     18
     20
     22
     24
     26
     28
     30
     32
     34
     36
        </DataArray>
      </Lines>
    </Piece>
  </PolyData>
</VTKFile>
