<?xml version="1.0"?>
<VTKFile type="PolyData" version="0.1" byte_order="LittleEndian">
  <PolyData>
    <Piece NumberOfPoints="    625" NumberOfVerts="  0" NumberOfLines="      0"
           NumberOfStrips="  0" NumberOfPolys="    600">
      <Points>
        <DataArray type="Float32" NumberOfComponents="3" format="ascii">
                      -4.90168                       0.98866                      91.12379
                      -4.90168                       0.98866                      91.12379
                      -4.90168                       0.98866                      91.12379
                      -4.90168                       0.98866                      91.12379
                      -4.90168                       0.98866                      91.12379
                      -4.90168                       0.98866                      91.12379
                      -4.90168                       0.98866                      91.12379
                      -4.90168                       0.98866                      91.12379
                      -4.90168                       0.98866                      91.12379
                      -4.90168                       0.98866                      91.12379
                      -4.90168                       0.98866                      91.12379
                      -4.90168                       0.98866                      91.12379
                      -4.90168                       0.98866                      91.12379
                      -4.90168                       0.98866                      91.12379
                      -4.90168                       0.98866                      91.12379
                      -4.90168                       0.98866                      91.12379
                      -4.90168                       0.98866                      91.12379
                      -4.90168                       0.98866                      91.12379
                      -4.90168                       0.98866                      91.12379
                      -4.90168                       0.98866                      91.12379
                      -4.90168                       0.98866                      91.12379
                      -4.90168                       0.98866                      91.12379
                      -4.90168                       0.98866                      91.12379
                      -4.90168                       0.98866                      91.12379
                      -4.90168                       0.98866                      91.12379
                      -4.31268                       0.90627                      90.97789
                      -4.32288                       0.79415                      91.07742
                      -4.36996                       0.68908                      91.17398
                      -4.45096                       0.59765                      91.26150
                      -4.56081                       0.52561                      91.33448
                      -4.69258                       0.47750                      91.38834
                      -4.83801                       0.45632                      91.41970
                      -4.98795                       0.46342                      91.42657
                      -5.13299                       0.49834                      91.40854
                      -5.26401                       0.55889                      91.36673
                      -5.37278                       0.64127                      91.30377
                      -5.45246                       0.74030                      91.22362
                      -5.49805                       0.84976                      91.13131
                      -5.50668                       0.96277                      91.03264
                      -5.47781                       1.07223                      90.93382
                      -5.41326                       1.17127                      90.84105
                      -5.31708                       1.25365                      90.76016
                      -5.19531                       1.31420                      90.69623
                      -5.05561                       1.34912                      90.65328
                      -4.90675                       1.35622                      90.63402
                      -4.75808                       1.33504                      90.63964
                      -4.61896                       1.28693                      90.66980
                      -4.49811                       1.21489                      90.72260
                      -4.40314                       1.12346                      90.79473
                      -4.34000                       1.01839                      90.88164
                      -4.09207                       0.82388                      90.86422
                      -4.10617                       0.66881                      91.00189
                      -4.17129                       0.52348                      91.13544
                      -4.28333                       0.39702                      91.25649
                      -4.43526                       0.29739                      91.35744
                      -4.61752                       0.23083                      91.43193
                      -4.81867                       0.20154                      91.47530
                      -5.02606                       0.21136                      91.48481
                      -5.22667                       0.25966                      91.45987
                      -5.40788                       0.34341                      91.40204
                      -5.55832                       0.45736                      91.31496
                      -5.66853                       0.59433                      91.20410
                      -5.73159                       0.74573                      91.07642
                      -5.74353                       0.90203                      90.93995
                      -5.70360                       1.05343                      90.80327
                      -5.61431                       1.19041                      90.67495
                      -5.48128                       1.30435                      90.56307
                      -5.31286                       1.38810                      90.47465
                      -5.11963                       1.43640                      90.41525
                      -4.91374                       1.44622                      90.38861
                      -4.70812                       1.41693                      90.39638
                      -4.51569                       1.35038                      90.43810
                      -4.34855                       1.25074                      90.51113
                      -4.21718                       1.12429                      90.61089
                      -4.12986                       0.97896                      90.73110
                      -3.93788                       0.74149                      90.75637
                      -3.95476                       0.55593                      90.92109
                      -4.03268                       0.38203                      91.08090
                      -4.16675                       0.23072                      91.22575
                      -4.34854                       0.11150                      91.34654
                      -4.56663                       0.03186                      91.43568
                      -4.80732                      -0.00319                      91.48757
                      -5.05548                       0.00856                      91.49895
                      -5.29552                       0.06635                      91.46911
                      -5.51237                       0.16657                      91.39991
                      -5.69238                       0.30292                      91.29571
                      -5.82425                       0.46682                      91.16305
                      -5.89971                       0.64798                      91.01028
                      -5.91399                       0.83501                      90.84698
                      -5.86622                       1.01617                      90.68343
                      -5.75938                       1.18007                      90.52989
                      -5.60019                       1.31641                      90.39601
                      -5.39866                       1.41663                      90.29021
                      -5.16745                       1.47443                      90.21914
                      -4.92108                       1.48617                      90.18725
                      -4.67504                       1.45113                      90.19656
                      -4.44478                       1.37149                      90.24647
                      -4.24478                       1.25227                      90.33386
                      -4.08759                       1.10095                      90.45323
                      -3.98311                       0.92705                      90.59708
                      -3.82068                       0.65910                      90.65175
                      -3.83970                       0.45000                      90.83737
                      -3.92750                       0.25404                      91.01746
                      -4.07858                       0.08353                      91.18068
                      -4.28344                      -0.05082                      91.31680
                      -4.52920                      -0.14056                      91.41725
                      -4.80042                      -0.18005                      91.47572
                      -5.08007                      -0.16682                      91.48855
                      -5.35057                      -0.10169                      91.45491
                      -5.59492                       0.01124                      91.37694
                      -5.79777                       0.16488                      91.25952
                      -5.94638                       0.34958                      91.11003
                      -6.03140                       0.55372                      90.93787
                      -6.04750                       0.76449                      90.75386
                      -5.99366                       0.96863                      90.56955
                      -5.87327                       1.15333                      90.39653
                      -5.69389                       1.30697                      90.24567
                      -5.46679                       1.41990                      90.12645
                      -5.20624                       1.48503                      90.04636
                      -4.92862                       1.49826                      90.01042
                      -4.65136                       1.45877                      90.02091
                      -4.39189                       1.36903                      90.07716
                      -4.16651                       1.23468                      90.17564
                      -3.98938                       1.06417                      90.31015
                      -3.87164                       0.86821                      90.47225
                      -3.72894                       0.57672                      90.54936
                      -3.74966                       0.34885                      90.75164
                      -3.84535                       0.13530                      90.94788
                      -4.00998                      -0.05051                      91.12575
                      -4.23322                      -0.19691                      91.27408
                      -4.50103                      -0.29470                      91.38354
                      -4.79659                      -0.33774                      91.44726
                      -5.10133                      -0.32331                      91.46124
                      -5.39610                      -0.25234                      91.42459
                      -5.66237                      -0.12927                      91.33961
                      -5.88343                       0.03815                      91.21166
                      -6.04537                       0.23942                      91.04876
                      -6.13802                       0.46188                      90.86115
                      -6.15556                       0.69155                      90.66063
                      -6.09689                       0.91401                      90.45979
                      -5.96570                       1.11528                      90.27124
                      -5.77022                       1.28271                      90.10685
                      -5.52275                       1.40577                      89.97693
                      -5.23882                       1.47675                      89.88965
                      -4.93629                       1.49117                      89.85049
                      -4.63415                       1.44813                      89.86192
                      -4.35140                       1.35034                      89.92321
                      -4.10580                       1.20394                      90.03052
                      -3.91278                       1.01813                      90.17711
                      -3.78447                       0.80458                      90.35375
                      -3.65675                       0.49433                      90.44868
                      -3.67885                       0.25137                      90.66435
                      -3.78087                       0.02368                      90.87359
                      -3.95640                      -0.17443                      91.06324
                      -4.19442                      -0.33053                      91.22139
                      -4.47997                      -0.43480                      91.33811
                      -4.79511                      -0.48069                      91.40605
                      -5.12003                      -0.46531                      91.42095
                      -5.43432                      -0.38964                      91.38187
                      -5.71823                      -0.25842                      91.29127
                      -5.95392                      -0.07990                      91.15484
                      -6.12659                       0.13469                      90.98115
                      -6.22538                       0.37189                      90.78112
                      -6.24408                       0.61677                      90.56732
                      -6.18153                       0.85397                      90.35317
                      -6.04165                       1.06856                      90.15214
                      -5.83323                       1.24708                      89.97686
                      -5.56936                       1.37829                      89.83833
                      -5.26663                       1.45397                      89.74527
                      -4.94406                       1.46934                      89.70352
                      -4.62191                       1.42346                      89.71571
                      -4.32044                       1.31919                      89.78106
                      -4.05857                       1.16309                      89.89548
                      -3.85277                       0.96497                      90.05177
                      -3.71596                       0.73728                      90.24012
                      -3.60063                       0.41194                      90.34940
                      -3.62383                       0.15691                      90.57579
                      -3.73092                      -0.08209                      90.79543
                      -3.91518                      -0.29005                      90.99451
                      -4.16503                      -0.45391                      91.16052
                      -4.46477                      -0.56336                      91.28303
                      -4.79556                      -0.61152                      91.35435
                      -5.13663                      -0.59538                      91.36999
                      -5.46654                      -0.51595                      91.32897
                      -5.76456                      -0.37821                      91.23386
                      -6.01196                      -0.19083                      91.09065
                      -6.19321                       0.03443                      90.90834
                      -6.29691                       0.28341                      90.69837
                      -6.31654                       0.54047                      90.47394
                      -6.25088                       0.78945                      90.24915
                      -6.10405                       1.01471                      90.03813
                      -5.88527                       1.20209                      89.85414
                      -5.60829                       1.33983                      89.70873
                      -5.29052                       1.41926                      89.61105
                      -4.95192                       1.43541                      89.56722
                      -4.61376                       1.38724                      89.58001
                      -4.29731                       1.27779                      89.64862
                      -4.02243                       1.11394                      89.76872
                      -3.80640                       0.90597                      89.93277
                      -3.66279                       0.66697                      90.13048
                      -3.55840                       0.32955                      90.25134
                      -3.58245                       0.06506                      90.48614
                      -3.69352                      -0.18282                      90.71393
                      -3.88462                      -0.39850                      90.92040
                      -4.14375                      -0.56844                      91.09257
                      -4.45461                      -0.68195                      91.21963
                      -4.79769                      -0.73191                      91.29359
                      -5.15142                      -0.71517                      91.30981
                      -5.49357                      -0.63279                      91.26727
                      -5.80266                      -0.48994                      91.16864
                      -6.05925                      -0.29559                      91.02011
                      -6.24722                      -0.06197                      90.83103
                      -6.35477                       0.19625                      90.61326
                      -6.37513                       0.46285                      90.38050
                      -6.30703                       0.72108                      90.14737
                      -6.15475                       0.95470                      89.92852
                      -5.92785                       1.14904                      89.73769
                      -5.64059                       1.29189                      89.58688
                      -5.31102                       1.37427                      89.48557
                      -4.95985                       1.39101                      89.44012
                      -4.60914                       1.34106                      89.45339
                      -4.28093                       1.22755                      89.52454
                      -3.99585                       1.05761                      89.64910
                      -3.77180                       0.84193                      89.81925
                      -3.62286                       0.59405                      90.02429
                      -3.52858                       0.24716                      90.15437
                      -3.55329                      -0.02447                      90.39550
                      -3.66735                      -0.27903                      90.62943
                      -3.86361                      -0.50054                      90.84147
                      -4.12972                      -0.67506                      91.01829
                      -4.44897                      -0.79163                      91.14878
                      -4.80131                      -0.84294                      91.22474
                      -5.16458                      -0.82574                      91.24140
                      -5.51597                      -0.74114                      91.19771
                      -5.83339                      -0.59443                      91.09641
                      -6.09690                      -0.39485                      90.94388
                      -6.28995                      -0.15492                      90.74969
                      -6.40040                       0.11027                      90.52605
                      -6.42131                       0.38406                      90.28701
                      -6.35137                       0.64925                      90.04759
                      -6.19498                       0.88918                      89.82283
                      -5.96196                       1.08876                      89.62686
                      -5.66695                       1.23547                      89.47198
                      -5.32849                       1.32007                      89.36794
                      -4.96784                       1.33726                      89.32126
                      -4.60767                       1.28596                      89.33489
                      -4.27061                       1.16939                      89.40795
                      -3.97783                       0.99486                      89.53588
                      -3.74774                       0.77336                      89.71061
                      -3.59478                       0.51880                      89.92119
                      -3.51022                       0.16478                      90.05840
                      -3.53538                      -0.11184                      90.30395
                      -3.65154                      -0.37108                      90.54218
                      -3.85140                      -0.59664                      90.75811
                      -4.12240                      -0.77437                      90.93817
                      -4.44751                      -0.89308                      91.07106
                      -4.80631                      -0.94533                      91.14841
                      -5.17624                      -0.92782                      91.16537
                      -5.53408                      -0.84166                      91.12088
                      -5.85733                      -0.69226                      91.01773
                      -6.12567                      -0.48902                      90.86240
                      -6.32226                      -0.24469                      90.66465
                      -6.43474                       0.02537                      90.43690
                      -6.45604                       0.30418                      90.19348
                      -6.38482                       0.57424                      89.94966
                      -6.22555                       0.81857                      89.72078
                      -5.98825                       1.02182                      89.52121
                      -5.68783                       1.17121                      89.36349
                      -5.34316                       1.25737                      89.25754
                      -4.97589                       1.27488                      89.21000
                      -4.60911                       1.22263                      89.22388
                      -4.26587                       1.10392                      89.29829
                      -3.96772                       0.92620                      89.42856
                      -3.73340                       0.70063                      89.60650
                      -3.57764                       0.44139                      89.82094
                      -3.50271                       0.08239                      89.96337
                      -3.52814                      -0.19718                      90.21155
                      -3.64554                      -0.45918                      90.45231
                      -3.84752                      -0.68715                      90.67055
                      -4.12141                      -0.86677                      90.85253
                      -4.44999                      -0.98674                      90.98683
                      -4.81261                      -1.03955                      91.06500
                      -5.18649                      -1.02185                      91.08215
                      -5.54814                      -0.93478                      91.03718
                      -5.87483                      -0.78379                      90.93293
                      -6.14604                      -0.57837                      90.77594
                      -6.34472                      -0.33144                      90.57609
                      -6.45840                      -0.05851                      90.34591
                      -6.47992                       0.22328                      90.09989
                      -6.40794                       0.49622                      89.85348
                      -6.24698                       0.74315                      89.62216
                      -6.00715                       0.94856                      89.42046
                      -5.70353                       1.09955                      89.26106
                      -5.35518                       1.18663                      89.15398
                      -4.98400                       1.20432                      89.10594
                      -4.61332                       1.15152                      89.11996
                      -4.26641                       1.03154                      89.19516
                      -3.96508                       0.85192                      89.32682
                      -3.72827                       0.62395                      89.50666
                      -3.57085                       0.36195                      89.72338
                      -3.50571                       0.00000                      89.86927
                      -3.53123                      -0.28054                      90.11831
                      -3.64903                      -0.54345                      90.35992
                      -3.85172                      -0.77222                      90.57891
                      -4.12657                      -0.95247                      90.76153
                      -4.45629                      -1.07286                      90.89630
                      -4.82018                      -1.12585                      90.97475
                      -5.19536                      -1.10810                      90.99195
                      -5.55827                      -1.02071                      90.94683
                      -5.88611                      -0.86920                      90.84221
                      -6.15826                      -0.66307                      90.68468
                      -6.35764                      -0.41527                      90.48412
                      -6.47171                      -0.14139                      90.25315
                      -6.49331                       0.14139                      90.00627
                      -6.42108                       0.41527                      89.75899
                      -6.25956                       0.66307                      89.52686
                      -6.01889                       0.86920                      89.32446
                      -5.71421                       1.02071                      89.16451
                      -5.36464                       1.10810                      89.05705
                      -4.99217                       1.12585                      89.00884
                      -4.62019                       1.07286                      89.02291
                      -4.27207                       0.95247                      89.09838
                      -3.96969                       0.77222                      89.23050
                      -3.73205                       0.54345                      89.41096
                      -3.57408                       0.28054                      89.62844
                      -3.51910                      -0.08239                      89.77608
                      -3.54453                      -0.36195                      90.02425
                      -3.66192                      -0.62395                      90.26502
                      -3.86391                      -0.85192                      90.48325
                      -4.13780                      -1.03154                      90.66523
                      -4.46637                      -1.15152                      90.79953
                      -4.82899                      -1.20432                      90.87771
                      -5.20288                      -1.18663                      90.89485
                      -5.56452                      -1.09955                      90.84988
                      -5.89122                      -0.94856                      90.74563
                      -6.16243                      -0.74315                      90.58865
                      -6.36111                      -0.49622                      90.38879
                      -6.47478                      -0.22328                      90.15862
                      -6.49631                       0.05851                      89.91260
                      -6.42433                       0.33144                      89.66618
                      -6.26337                       0.57837                      89.43486
                      -6.02354                       0.78379                      89.23316
                      -5.71992                       0.93478                      89.07376
                      -5.37157                       1.02185                      88.96668
                      -5.00039                       1.03955                      88.91864
                      -4.62970                       0.98674                      88.93266
                      -4.28280                       0.86677                      89.00787
                      -3.98147                       0.68715                      89.13952
                      -3.74466                       0.45918                      89.31936
                      -3.58724                       0.19718                      89.53609
                      -3.54300                      -0.16478                      89.68380
                      -3.56816                      -0.44139                      89.92936
                      -3.68431                      -0.70063                      90.16759
                      -3.88417                      -0.92620                      90.38352
                      -4.15517                      -1.10392                      90.56358
                      -4.48028                      -1.22263                      90.69646
                      -4.83908                      -1.27488                      90.77382
                      -5.20902                      -1.25737                      90.79078
                      -5.56685                      -1.17121                      90.74629
                      -5.89010                      -1.02182                      90.64313
                      -6.15845                      -0.81857                      90.48780
                      -6.35504                      -0.57424                      90.29005
                      -6.46751                      -0.30418                      90.06231
                      -6.48881                      -0.02537                      89.81888
                      -6.41759                       0.24469                      89.57507
                      -6.25833                       0.48902                      89.34618
                      -6.02103                       0.69226                      89.14661
                      -5.72060                       0.84166                      88.98890
                      -5.37593                       0.92782                      88.88294
                      -5.00867                       0.94533                      88.83541
                      -4.64189                       0.89308                      88.84928
                      -4.29864                       0.77437                      88.92369
                      -4.00049                       0.59664                      89.05396
                      -3.76617                       0.37108                      89.23191
                      -3.61041                       0.11184                      89.44634
                      -3.57774                      -0.24716                      89.59248
                      -3.60245                      -0.51880                      89.83361
                      -3.71651                      -0.77336                      90.06754
                      -3.91277                      -0.99486                      90.27958
                      -4.17888                      -1.16939                      90.45640
                      -4.49813                      -1.28596                      90.58689
                      -4.85047                      -1.33726                      90.66285
                      -5.21374                      -1.32007                      90.67951
                      -5.56513                      -1.23547                      90.63582
                      -5.88255                      -1.08876                      90.53452
                      -6.14606                      -0.88918                      90.38199
                      -6.33911                      -0.64925                      90.18780
                      -6.44956                      -0.38406                      89.96416
                      -6.47047                      -0.11027                      89.72512
                      -6.40053                       0.15492                      89.48570
                      -6.24414                       0.39485                      89.26094
                      -6.01112                       0.59443                      89.06497
                      -5.71611                       0.74114                      88.91009
                      -5.37764                       0.82574                      88.80605
                      -5.01700                       0.84294                      88.75937
                      -4.65683                       0.79163                      88.77299
                      -4.31977                       0.67506                      88.84606
                      -4.02699                       0.50054                      88.97398
                      -3.79690                       0.27903                      89.14872
                      -3.64394                       0.02447                      89.35930
                      -3.62394                      -0.32955                      89.50215
                      -3.64800                      -0.59405                      89.73695
                      -3.75907                      -0.84193                      89.96474
                      -3.95017                      -1.05761                      90.17121
                      -4.20929                      -1.22755                      90.34338
                      -4.52016                      -1.34106                      90.47044
                      -4.86323                      -1.39101                      90.54441
                      -5.21696                      -1.37427                      90.56063
                      -5.55912                      -1.29189                      90.51808
                      -5.86820                      -1.14904                      90.41945
                      -6.12479                      -0.95470                      90.27092
                      -6.31277                      -0.72108                      90.08184
                      -6.42031                      -0.46285                      89.86407
                      -6.44068                      -0.19625                      89.63131
                      -6.37258                       0.06197                      89.39818
                      -6.22029                       0.29559                      89.17933
                      -5.99339                       0.48994                      88.98850
                      -5.70613                       0.63279                      88.83770
                      -5.37656                       0.71517                      88.73638
                      -5.02539                       0.73191                      88.69093
                      -4.67468                       0.68195                      88.70420
                      -4.34648                       0.56844                      88.77535
                      -4.06139                       0.39850                      88.89991
                      -3.83734                       0.18282                      89.07006
                      -3.68841                      -0.06506                      89.27510
                      -3.68257                      -0.41194                      89.41292
                      -3.70576                      -0.66697                      89.63931
                      -3.81286                      -0.90597                      89.85894
                      -3.99711                      -1.11394                      90.05802
                      -4.24696                      -1.27779                      90.22403
                      -4.54670                      -1.38724                      90.34654
                      -4.87750                      -1.43541                      90.41786
                      -5.21856                      -1.41926                      90.43350
                      -5.54847                      -1.33983                      90.39248
                      -5.84649                      -1.20209                      90.29738
                      -6.09389                      -1.01471                      90.15417
                      -6.27514                      -0.78945                      89.97185
                      -6.37884                      -0.54047                      89.76188
                      -6.39847                      -0.28341                      89.53745
                      -6.33281                      -0.03443                      89.31267
                      -6.18598                       0.19083                      89.10165
                      -5.96720                       0.37821                      88.91765
                      -5.69022                       0.51595                      88.77224
                      -5.37245                       0.59538                      88.67456
                      -5.03385                       0.61152                      88.63074
                      -4.69570                       0.56336                      88.64353
                      -4.37924                       0.45391                      88.71213
                      -4.10436                       0.29005                      88.83223
                      -3.88833                       0.08209                      88.99629
                      -3.74472                      -0.15691                      89.19399
                      -3.75507                      -0.49433                      89.32489
                      -3.77716                      -0.73728                      89.54057
                      -3.87919                      -0.96497                      89.74981
                      -4.05472                      -1.16309                      89.93946
                      -4.29274                      -1.31919                      90.09761
                      -4.57829                      -1.42346                      90.21432
                      -4.89343                      -1.46934                      90.28226
                      -5.21835                      -1.45397                      90.29716
                      -5.53264                      -1.37829                      90.25808
                      -5.81655                      -1.24708                      90.16748
                      -6.05224                      -1.06856                      90.03106
                      -6.22491                      -0.85397                      89.85737
                      -6.32370                      -0.61677                      89.65734
                      -6.34240                      -0.37189                      89.44354
                      -6.27985                      -0.13469                      89.22939
                      -6.13997                       0.07990                      89.02836
                      -5.93154                       0.25842                      88.85307
                      -5.66768                       0.38964                      88.71455
                      -5.36495                       0.46531                      88.62149
                      -5.04238                       0.48069                      88.57974
                      -4.72023                       0.43480                      88.59193
                      -4.41876                       0.33053                      88.65728
                      -4.15689                       0.17443                      88.77170
                      -3.95109                      -0.02368                      88.92799
                      -3.81428                      -0.25137                      89.11633
                      -3.84364                      -0.57672                      89.23828
                      -3.86437                      -0.80458                      89.44056
                      -3.96005                      -1.01813                      89.63680
                      -4.12468                      -1.20394                      89.81467
                      -4.34792                      -1.35034                      89.96300
                      -4.61573                      -1.44813                      90.07246
                      -4.91129                      -1.49117                      90.13618
                      -5.21603                      -1.47675                      90.15015
                      -5.51080                      -1.40577                      90.11350
                      -5.77708                      -1.28271                      90.02853
                      -5.99813                      -1.11528                      89.90058
                      -6.16007                      -0.91402                      89.73768
                      -6.25272                      -0.69155                      89.55007
                      -6.27027                      -0.46188                      89.34955
                      -6.21160                      -0.23942                      89.14871
                      -6.08041                      -0.03815                      88.96016
                      -5.88493                       0.12927                      88.79577
                      -5.63745                       0.25234                      88.66585
                      -5.35353                       0.32331                      88.57857
                      -5.05099                       0.33774                      88.53941
                      -4.74886                       0.29470                      88.55084
                      -4.46611                       0.19691                      88.61213
                      -4.22050                       0.05051                      88.71944
                      -4.02749                      -0.13530                      88.86603
                      -3.89918                      -0.34885                      89.04267
                      -3.95177                      -0.65910                      89.15337
                      -3.97079                      -0.86821                      89.33900
                      -4.05859                      -1.06417                      89.51908
                      -4.20967                      -1.23468                      89.68231
                      -4.41453                      -1.36903                      89.81842
                      -4.66029                      -1.45877                      89.91887
                      -4.93151                      -1.49826                      89.97734
                      -5.21116                      -1.48503                      89.99017
                      -5.48166                      -1.41990                      89.95653
                      -5.72601                      -1.30697                      89.87856
                      -5.92886                      -1.15333                      89.76114
                      -6.07747                      -0.96863                      89.61165
                      -6.16249                      -0.76449                      89.43950
                      -6.17859                      -0.55372                      89.25548
                      -6.12476                      -0.34958                      89.07118
                      -6.00436                      -0.16488                      88.89816
                      -5.82498                      -0.01124                      88.74729
                      -5.59788                       0.10169                      88.62807
                      -5.33734                       0.16682                      88.54798
                      -5.05971                       0.18005                      88.51205
                      -4.78245                       0.14056                      88.52253
                      -4.52298                       0.05082                      88.57878
                      -4.29760                      -0.08353                      88.67726
                      -4.12047                      -0.25404                      88.81177
                      -4.00273                      -0.45000                      88.97387
                      -4.08536                      -0.74149                      89.07069
                      -4.10224                      -0.92705                      89.23542
                      -4.18016                      -1.10095                      89.39523
                      -4.31423                      -1.25227                      89.54008
                      -4.49602                      -1.37149                      89.66087
                      -4.71411                      -1.45113                      89.75001
                      -4.95480                      -1.48617                      89.80190
                      -5.20296                      -1.47443                      89.81328
                      -5.44300                      -1.41663                      89.78343
                      -5.65984                      -1.31641                      89.71423
                      -5.83986                      -1.18007                      89.61003
                      -5.97173                      -1.01617                      89.47738
                      -6.04718                      -0.83501                      89.32460
                      -6.06147                      -0.64798                      89.16131
                      -6.01369                      -0.46682                      88.99775
                      -5.90686                      -0.30292                      88.84421
                      -5.74767                      -0.16657                      88.71034
                      -5.54614                      -0.06635                      88.60454
                      -5.31493                      -0.00856                      88.53346
                      -5.06856                       0.00319                      88.50157
                      -4.82252                      -0.03186                      88.51088
                      -4.59226                      -0.11150                      88.56080
                      -4.39226                      -0.23072                      88.64818
                      -4.23507                      -0.38203                      88.76755
                      -4.13058                      -0.55593                      88.91140
                      -4.25593                      -0.82388                      88.99125
                      -4.27004                      -0.97896                      89.12891
                      -4.33516                      -1.12429                      89.26247
                      -4.44720                      -1.25074                      89.38352
                      -4.59912                      -1.35038                      89.48447
                      -4.78138                      -1.41693                      89.55896
                      -4.98253                      -1.44622                      89.60233
                      -5.18992                      -1.43640                      89.61184
                      -5.39053                      -1.38810                      89.58689
                      -5.57175                      -1.30435                      89.52906
                      -5.72218                      -1.19041                      89.44198
                      -5.83239                      -1.05343                      89.33112
                      -5.89545                      -0.90203                      89.20345
                      -5.90739                      -0.74573                      89.06698
                      -5.86746                      -0.59433                      88.93029
                      -5.77818                      -0.45736                      88.80198
                      -5.64515                      -0.34341                      88.69010
                      -5.47672                      -0.25966                      88.60168
                      -5.28350                      -0.21136                      88.54228
                      -5.07760                      -0.20154                      88.51563
                      -4.87198                      -0.23083                      88.52341
                      -4.67956                      -0.29739                      88.56512
                      -4.51241                      -0.39702                      88.63816
                      -4.38105                      -0.52348                      88.73791
                      -4.29373                      -0.66881                      88.85813
                      -4.49293                      -0.90627                      88.91762
                      -4.50313                      -1.01839                      89.01715
                      -4.55021                      -1.12346                      89.11371
                      -4.63121                      -1.21489                      89.20123
                      -4.74106                      -1.28693                      89.27421
                      -4.87283                      -1.33504                      89.32807
                      -5.01826                      -1.35622                      89.35943
                      -5.16820                      -1.34912                      89.36630
                      -5.31324                      -1.31420                      89.34827
                      -5.44426                      -1.25365                      89.30646
                      -5.55303                      -1.17127                      89.24350
                      -5.63271                      -1.07223                      89.16335
                      -5.67830                      -0.96277                      89.07104
                      -5.68693                      -0.84976                      88.97237
                      -5.65806                      -0.74030                      88.87355
                      -5.59351                      -0.64127                      88.78078
                      -5.49733                      -0.55889                      88.69989
                      -5.37556                      -0.49834                      88.63596
                      -5.23586                      -0.46342                      88.59301
                      -5.08700                      -0.45632                      88.57375
                      -4.93833                      -0.47750                      88.57937
                      -4.79921                      -0.52561                      88.60953
                      -4.67836                      -0.59765                      88.66233
                      -4.58339                      -0.68908                      88.73446
                      -4.52025                      -0.79415                      88.82137
                      -5.09832                      -0.98866                      88.87622
                      -5.09832                      -0.98866                      88.87622
                      -5.09832                      -0.98866                      88.87622
                      -5.09832                      -0.98866                      88.87622
                      -5.09832                      -0.98866                      88.87622
                      -5.09832                      -0.98866                      88.87622
                      -5.09832                      -0.98866                      88.87622
                      -5.09832                      -0.98866                      88.87622
                      -5.09832                      -0.98866                      88.87622
                      -5.09832                      -0.98866                      88.87622
                      -5.09832                      -0.98866                      88.87622
                      -5.09832                      -0.98866                      88.87622
                      -5.09832                      -0.98866                      88.87622
                      -5.09832                      -0.98866                      88.87622
                      -5.09832                      -0.98866                      88.87622
                      -5.09832                      -0.98866                      88.87622
                      -5.09832                      -0.98866                      88.87622
                      -5.09832                      -0.98866                      88.87622
                      -5.09832                      -0.98866                      88.87622
                      -5.09832                      -0.98866                      88.87622
                      -5.09832                      -0.98866                      88.87622
                      -5.09832                      -0.98866                      88.87622
                      -5.09832                      -0.98866                      88.87622
                      -5.09832                      -0.98866                      88.87622
                      -5.09832                      -0.98866                      88.87622
        </DataArray>
      </Points>
      <Polys>
        <DataArray type="Int32" Name="connectivity" format="ascii">
      0      1     26     25
      1      2     27     26
      2      3     28     27
      3      4     29     28
      4      5     30     29
      5      6     31     30
      6      7     32     31
      7      8     33     32
      8      9     34     33
      9     10     35     34
     10     11     36     35
     11     12     37     36
     12     13     38     37
     13     14     39     38
     14     15     40     39
     15     16     41     40
     16     17     42     41
     17     18     43     42
     18     19     44     43
     19     20     45     44
     20     21     46     45
     21     22     47     46
     22     23     48     47
     23     24     49     48
     24      0     25     49
     25     26     51     50
     26     27     52     51
     27     28     53     52
     28     29     54     53
     29     30     55     54
     30     31     56     55
     31     32     57     56
     32     33     58     57
     33     34     59     58
     34     35     60     59
     35     36     61     60
     36     37     62     61
     37     38     63     62
     38     39     64     63
     39     40     65     64
     40     41     66     65
     41     42     67     66
     42     43     68     67
     43     44     69     68
     44     45     70     69
     45     46     71     70
     46     47     72     71
     47     48     73     72
     48     49     74     73
     49     25     50     74
     50     51     76     75
     51     52     77     76
     52     53     78     77
     53     54     79     78
     54     55     80     79
     55     56     81     80
     56     57     82     81
     57     58     83     82
     58     59     84     83
     59     60     85     84
     60     61     86     85
     61     62     87     86
     62     63     88     87
     63     64     89     88
     64     65     90     89
     65     66     91     90
     66     67     92     91
     67     68     93     92
     68     69     94     93
     69     70     95     94
     70     71     96     95
     71     72     97     96
     72     73     98     97
     73     74     99     98
     74     50     75     99
     75     76    101    100
     76     77    102    101
     77     78    103    102
     78     79    104    103
     79     80    105    104
     80     81    106    105
     81     82    107    106
     82     83    108    107
     83     84    109    108
     84     85    110    109
     85     86    111    110
     86     87    112    111
     87     88    113    112
     88     89    114    113
     89     90    115    114
     90     91    116    115
     91     92    117    116
     92     93    118    117
     93     94    119    118
     94     95    120    119
     95     96    121    120
     96     97    122    121
     97     98    123    122
     98     99    124    123
     99     75    100    124
    100    101    126    125
    101    102    127    126
    102    103    128    127
    103    104    129    128
    104    105    130    129
    105    106    131    130
    106    107    132    131
    107    108    133    132
    108    109    134    133
    109    110    135    134
    110    111    136    135
    111    112    137    136
    112    113    138    137
    113    114    139    138
    114    115    140    139
    115    116    141    140
    116    117    142    141
    117    118    143    142
    118    119    144    143
    119    120    145    144
    120    121    146    145
    121    122    147    146
    122    123    148    147
    123    124    149    148
    124    100    125    149
    125    126    151    150
    126    127    152    151
    127    128    153    152
    128    129    154    153
    129    130    155    154
    130    131    156    155
    131    132    157    156
    132    133    158    157
    133    134    159    158
    134    135    160    159
    135    136    161    160
    136    137    162    161
    137    138    163    162
    138    139    164    163
    139    140    165    164
    140    141    166    165
    141    142    167    166
    142    143    168    167
    143    144    169    168
    144    145    170    169
    145    146    171    170
    146    147    172    171
    147    148    173    172
    148    149    174    173
    149    125    150    174
    150    151    176    175
    151    152    177    176
    152    153    178    177
    153    154    179    178
    154    155    180    179
    155    156    181    180
    156    157    182    181
    157    158    183    182
    158    159    184    183
    159    160    185    184
    160    161    186    185
    161    162    187    186
    162    163    188    187
    163    164    189    188
    164    165    190    189
    165    166    191    190
    166    167    192    191
    167    168    193    192
    168    169    194    193
    169    170    195    194
    170    171    196    195
    171    172    197    196
    172    173    198    197
    173    174    199    198
    174    150    175    199
    175    176    201    200
    176    177    202    201
    177    178    203    202
    178    179    204    203
    179    180    205    204
    180    181    206    205
    181    182    207    206
    182    183    208    207
    183    184    209    208
    184    185    210    209
    185    186    211    210
    186    187    212    211
    187    188    213    212
    188    189    214    213
    189    190    215    214
    190    191    216    215
    191    192    217    216
    192    193    218    217
    193    194    219    218
    194    195    220    219
    195    196    221    220
    196    197    222    221
    197    198    223    222
    198    199    224    223
    199    175    200    224
    200    201    226    225
    201    202    227    226
    202    203    228    227
    203    204    229    228
    204    205    230    229
    205    206    231    230
    206    207    232    231
    207    208    233    232
    208    209    234    233
    209    210    235    234
    210    211    236    235
    211    212    237    236
    212    213    238    237
    213    214    239    238
    214    215    240    239
    215    216    241    240
    216    217    242    241
    217    218    243    242
    218    219    244    243
    219    220    245    244
    220    221    246    245
    221    222    247    246
    222    223    248    247
    223    224    249    248
    224    200    225    249
    225    226    251    250
    226    227    252    251
    227    228    253    252
    228    229    254    253
    229    230    255    254
    230    231    256    255
    231    232    257    256
    232    233    258    257
    233    234    259    258
    234    235    260    259
    235    236    261    260
    236    237    262    261
    237    238    263    262
    238    239    264    263
    239    240    265    264
    240    241    266    265
    241    242    267    266
    242    243    268    267
    243    244    269    268
    244    245    270    269
    245    246    271    270
    246    247    272    271
    247    248    273    272
    248    249    274    273
    249    225    250    274
    250    251    276    275
    251    252    277    276
    252    253    278    277
    253    254    279    278
    254    255    280    279
    255    256    281    280
    256    257    282    281
    257    258    283    282
    258    259    284    283
    259    260    285    284
    260    261    286    285
    261    262    287    286
    262    263    288    287
    263    264    289    288
    264    265    290    289
    265    266    291    290
    266    267    292    291
    267    268    293    292
    268    269    294    293
    269    270    295    294
    270    271    296    295
    271    272    297    296
    272    273    298    297
    273    274    299    298
    274    250    275    299
    275    276    301    300
    276    277    302    301
    277    278    303    302
    278    279    304    303
    279    280    305    304
    280    281    306    305
    281    282    307    306
    282    283    308    307
    283    284    309    308
    284    285    310    309
    285    286    311    310
    286    287    312    311
    287    288    313    312
    288    289    314    313
    289    290    315    314
    290    291    316    315
    291    292    317    316
    292    293    318    317
    293    294    319    318
    294    295    320    319
    295    296    321    320
    296    297    322    321
    297    298    323    322
    298    299    324    323
    299    275    300    324
    300    301    326    325
    301    302    327    326
    302    303    328    327
    303    304    329    328
    304    305    330    329
    305    306    331    330
    306    307    332    331
    307    308    333    332
    308    309    334    333
    309    310    335    334
    310    311    336    335
    311    312    337    336
    312    313    338    337
    313    314    339    338
    314    315    340    339
    315    316    341    340
    316    317    342    341
    317    318    343    342
    318    319    344    343
    319    320    345    344
    320    321    346    345
    321    322    347    346
    322    323    348    347
    323    324    349    348
    324    300    325    349
    325    326    351    350
    326    327    352    351
    327    328    353    352
    328    329    354    353
    329    330    355    354
    330    331    356    355
    331    332    357    356
    332    333    358    357
    333    334    359    358
    334    335    360    359
    335    336    361    360
    336    337    362    361
    337    338    363    362
    338    339    364    363
    339    340    365    364
    340    341    366    365
    341    342    367    366
    342    343    368    367
    343    344    369    368
    344    345    370    369
    345    346    371    370
    346    347    372    371
    347    348    373    372
    348    349    374    373
    349    325    350    374
    350    351    376    375
    351    352    377    376
    352    353    378    377
    353    354    379    378
    354    355    380    379
    355    356    381    380
    356    357    382    381
    357    358    383    382
    358    359    384    383
    359    360    385    384
    360    361    386    385
    361    362    387    386
    362    363    388    387
    363    364    389    388
    364    365    390    389
    365    366    391    390
    366    367    392    391
    367    368    393    392
    368    369    394    393
    369    370    395    394
    370    371    396    395
    371    372    397    396
    372    373    398    397
    373    374    399    398
    374    350    375    399
    375    376    401    400
    376    377    402    401
    377    378    403    402
    378    379    404    403
    379    380    405    404
    380    381    406    405
    381    382    407    406
    382    383    408    407
    383    384    409    408
    384    385    410    409
    385    386    411    410
    386    387    412    411
    387    388    413    412
    388    389    414    413
    389    390    415    414
    390    391    416    415
    391    392    417    416
    392    393    418    417
    393    394    419    418
    394    395    420    419
    395    396    421    420
    396    397    422    421
    397    398    423    422
    398    399    424    423
    399    375    400    424
    400    401    426    425
    401    402    427    426
    402    403    428    427
    403    404    429    428
    404    405    430    429
    405    406    431    430
    406    407    432    431
    407    408    433    432
    408    409    434    433
    409    410    435    434
    410    411    436    435
    411    412    437    436
    412    413    438    437
    413    414    439    438
    414    415    440    439
    415    416    441    440
    416    417    442    441
    417    418    443    442
    418    419    444    443
    419    420    445    444
    420    421    446    445
    421    422    447    446
    422    423    448    447
    423    424    449    448
    424    400    425    449
    425    426    451    450
    426    427    452    451
    427    428    453    452
    428    429    454    453
    429    430    455    454
    430    431    456    455
    431    432    457    456
    432    433    458    457
    433    434    459    458
    434    435    460    459
    435    436    461    460
    436    437    462    461
    437    438    463    462
    438    439    464    463
    439    440    465    464
    440    441    466    465
    441    442    467    466
    442    443    468    467
    443    444    469    468
    444    445    470    469
    445    446    471    470
    446    447    472    471
    447    448    473    472
    448    449    474    473
    449    425    450    474
    450    451    476    475
    451    452    477    476
    452    453    478    477
    453    454    479    478
    454    455    480    479
    455    456    481    480
    456    457    482    481
    457    458    483    482
    458    459    484    483
    459    460    485    484
    460    461    486    485
    461    462    487    486
    462    463    488    487
    463    464    489    488
    464    465    490    489
    465    466    491    490
    466    467    492    491
    467    468    493    492
    468    469    494    493
    469    470    495    494
    470    471    496    495
    471    472    497    496
    472    473    498    497
    473    474    499    498
    474    450    475    499
    475    476    501    500
    476    477    502    501
    477    478    503    502
    478    479    504    503
    479    480    505    504
    480    481    506    505
    481    482    507    506
    482    483    508    507
    483    484    509    508
    484    485    510    509
    485    486    511    510
    486    487    512    511
    487    488    513    512
    488    489    514    513
    489    490    515    514
    490    491    516    515
    491    492    517    516
    492    493    518    517
    493    494    519    518
    494    495    520    519
    495    496    521    520
    496    497    522    521
    497    498    523    522
    498    499    524    523
    499    475    500    524
    500    501    526    525
    501    502    527    526
    502    503    528    527
    503    504    529    528
    504    505    530    529
    505    506    531    530
    506    507    532    531
    507    508    533    532
    508    509    534    533
    509    510    535    534
    510    511    536    535
    511    512    537    536
    512    513    538    537
    513    514    539    538
    514    515    540    539
    515    516    541    540
    516    517    542    541
    517    518    543    542
    518    519    544    543
    519    520    545    544
    520    521    546    545
    521    522    547    546
    522    523    548    547
    523    524    549    548
    524    500    525    549
    525    526    551    550
    526    527    552    551
    527    528    553    552
    528    529    554    553
    529    530    555    554
    530    531    556    555
    531    532    557    556
    532    533    558    557
    533    534    559    558
    534    535    560    559
    535    536    561    560
    536    537    562    561
    537    538    563    562
    538    539    564    563
    539    540    565    564
    540    541    566    565
    541    542    567    566
    542    543    568    567
    543    544    569    568
    544    545    570    569
    545    546    571    570
    546    547    572    571
    547    548    573    572
    548    549    574    573
    549    525    550    574
    550    551    576    575
    551    552    577    576
    552    553    578    577
    553    554    579    578
    554    555    580    579
    555    556    581    580
    556    557    582    581
    557    558    583    582
    558    559    584    583
    559    560    585    584
    560    561    586    585
    561    562    587    586
    562    563    588    587
    563    564    589    588
    564    565    590    589
    565    566    591    590
    566    567    592    591
    567    568    593    592
    568    569    594    593
    569    570    595    594
    570    571    596    595
    571    572    597    596
    572    573    598    597
    573    574    599    598
    574    550    575    599
    575    576    601    600
    576    577    602    601
    577    578    603    602
    578    579    604    603
    579    580    605    604
    580    581    606    605
    581    582    607    606
    582    583    608    607
    583    584    609    608
    584    585    610    609
    585    586    611    610
    586    587    612    611
    587    588    613    612
    588    589    614    613
    589    590    615    614
    590    591    616    615
    591    592    617    616
    592    593    618    617
    593    594    619    618
    594    595    620    619
    595    596    621    620
    596    597    622    621
    597    598    623    622
    598    599    624    623
    599    575    600    624
        </DataArray>
        <DataArray type="Int32" Name="offsets" format="ascii">
      4
      8
     12
     16
     20
     24
     28
     32
     36
     40
     44
     48
     52
     56
     60
     64
     68
     72
     76
     80
     84
     88
     92
     96
    100
    104
    108
    112
    116
    120
    124
    128
    132
    136
    140
    144
    148
    152
    156
    160
    164
    168
    172
    176
    180
    184
    188
    192
    196
    200
    204
    208
    212
    216
    220
    224
    228
    232
    236
    240
    244
    248
    252
    256
    260
    264
    268
    272
    276
    280
    284
    288
    292
    296
    300
    304
    308
    312
    316
    320
    324
    328
    332
    336
    340
    344
    348
    352
    356
    360
    364
    368
    372
    376
    380
    384
    388
    392
    396
    400
    404
    408
    412
    416
    420
    424
    428
    432
    436
    440
    444
    448
    452
    456
    460
    464
    468
    472
    476
    480
    484
    488
    492
    496
    500
    504
    508
    512
    516
    520
    524
    528
    532
    536
    540
    544
    548
    552
    556
    560
    564
    568
    572
    576
    580
    584
    588
    592
    596
    600
    604
    608
    612
    616
    620
    624
    628
    632
    636
    640
    644
    648
    652
    656
    660
    664
    668
    672
    676
    680
    684
    688
    692
    696
    700
    704
    708
    712
    716
    720
    724
    728
    732
    736
    740
    744
    748
    752
    756
    760
    764
    768
    772
    776
    780
    784
    788
    792
    796
    800
    804
    808
    812
    816
    820
    824
    828
    832
    836
    840
    844
    848
    852
    856
    860
    864
    868
    872
    876
    880
    884
    888
    892
    896
    900
    904
    908
    912
    916
    920
    924
    928
    932
    936
    940
    944
    948
    952
    956
    960
    964
    968
    972
    976
    980
    984
    988
    992
    996
   1000
   1004
   1008
   1012
   1016
   1020
   1024
   1028
   1032
   1036
   1040
   1044
   1048
   1052
   1056
   1060
   1064
   1068
   1072
   1076
   1080
   1084
   1088
   1092
   1096
   1100
   1104
   1108
   1112
   1116
   1120
   1124
   1128
   1132
   1136
   1140
   1144
   1148
   1152
   1156
   1160
   1164
   1168
   1172
   1176
   1180
   1184
   1188
   1192
   1196
   1200
   1204
   1208
   1212
   1216
   1220
   1224
   1228
   1232
   1236
   1240
   1244
   1248
   1252
   1256
   1260
   1264
   1268
   1272
   1276
   1280
   1284
   1288
   1292
   1296
   1300
   1304
   1308
   1312
   1316
   1320
   1324
   1328
   1332
   1336
   1340
   1344
   1348
   1352
   1356
   1360
   1364
   1368
   1372
   1376
   1380
   1384
   1388
   1392
   1396
   1400
   1404
   1408
   1412
   1416
   1420
   1424
   1428
   1432
   1436
   1440
   1444
   1448
   1452
   1456
   1460
   1464
   1468
   1472
   1476
   1480
   1484
   1488
   1492
   1496
   1500
   1504
   1508
   1512
   1516
   1520
   1524
   1528
   1532
   1536
   1540
   1544
   1548
   1552
   1556
   1560
   1564
   1568
   1572
   1576
   1580
   1584
   1588
   1592
   1596
   1600
   1604
   1608
   1612
   1616
   1620
   1624
   1628
   1632
   1636
   1640
   1644
   1648
   1652
   1656
   1660
   1664
   1668
   1672
   1676
   1680
   1684
   1688
   1692
   1696
   1700
   1704
   1708
   1712
   1716
   1720
   1724
   1728
   1732
   1736
   1740
   1744
   1748
   1752
   1756
   1760
   1764
   1768
   1772
   1776
   1780
   1784
   1788
   1792
   1796
   1800
   1804
   1808
   1812
   1816
   1820
   1824
   1828
   1832
   1836
   1840
   1844
   1848
   1852
   1856
   1860
   1864
   1868
   1872
   1876
   1880
   1884
   1888
   1892
   1896
   1900
   1904
   1908
   1912
   1916
   1920
   1924
   1928
   1932
   1936
   1940
   1944
   1948
   1952
   1956
   1960
   1964
   1968
   1972
   1976
   1980
   1984
   1988
   1992
   1996
   2000
   2004
   2008
   2012
   2016
   2020
   2024
   2028
   2032
   2036
   2040
   2044
   2048
   2052
   2056
   2060
   2064
   2068
   2072
   2076
   2080
   2084
   2088
   2092
   2096
   2100
   2104
   2108
   2112
   2116
   2120
   2124
   2128
   2132
   2136
   2140
   2144
   2148
   2152
   2156
   2160
   2164
   2168
   2172
   2176
   2180
   2184
   2188
   2192
   2196
   2200
   2204
   2208
   2212
   2216
   2220
   2224
   2228
   2232
   2236
   2240
   2244
   2248
   2252
   2256
   2260
   2264
   2268
   2272
   2276
   2280
   2284
   2288
   2292
   2296
   2300
   2304
   2308
   2312
   2316
   2320
   2324
   2328
   2332
   2336
   2340
   2344
   2348
   2352
   2356
   2360
   2364
   2368
   2372
   2376
   2380
   2384
   2388
   2392
   2396
   2400
        </DataArray>
      </Polys>
    </Piece>
  </PolyData>
</VTKFile>
