<?xml version="1.0"?>
<VTKFile type="PolyData" version="0.1" byte_order="LittleEndian">
  <PolyData>
    <Piece NumberOfPoints="     19" NumberOfVerts="  0" NumberOfLines="     18"
           NumberOfStrips="  0" NumberOfPolys="      0">
      <Points>
        <DataArray type="Float32" NumberOfComponents="3" format="ascii">
                      -4.93535                       0.16382                      91.48963
                      -4.87723                       0.30966                      92.84729
                      -4.78247                       0.50710                      95.57380
                      -4.69787                       0.65993                      98.30565
                      -4.59820                       0.82432                     101.72375
                      -4.42710                       1.16406                     105.80751
                      -4.23320                       1.63315                     109.87607
                      -4.04161                       2.10480                     113.94444
                      -3.84994                       2.58081                     118.01232
                      -3.65901                       3.05928                     122.07997
                      -3.47011                       3.53655                     126.14784
                      -3.28253                       4.01413                     130.21574
                      -3.09692                       4.49200                     134.28368
                      -2.91398                       4.97010                     138.35172
                      -2.73198                       5.44831                     142.41979
                      -2.58095                       5.84688                     145.80990
                      -2.46075                       6.17358                     148.52109
                      -2.34240                       6.55498                     151.22634
                      -2.28350                       6.70423                     152.58349
        </DataArray>
      </Points>
      <PointData>
        <DataArray type="Float32" Name="TranslationalVelocity" NumberOfComponents="3" format="ascii">
                       0.04589                      -4.78747                       0.52451
                       0.08674                      -9.15059                       0.99143
                       0.14205                     -17.90665                       1.62360
                       0.18486                     -26.67699                       2.11291
                       0.23090                     -37.64868                       2.63924
                       0.32607                     -50.77168                       3.72698
                       0.45747                     -63.85235                       5.22890
                       0.58958                     -76.93180                       6.73899
                       0.72292                     -90.00972                       8.26303
                       0.85695                    -103.08668                       9.79494
                       0.99064                    -116.16376                      11.32305
                       1.12441                    -129.24056                      12.85212
                       1.25827                    -142.31697                      14.38212
                       1.39220                    -155.39292                      15.91287
                       1.52615                    -168.46871                      17.44395
                       1.63779                    -179.36519                      18.72005
                       1.72931                    -188.07933                      19.76608
                       1.83614                    -196.77395                      20.98720
                       1.87795                    -201.13566                      21.46507
        </DataArray>
        <DataArray type="Float32" Name="RotationalVelocity" NumberOfComponents="3" format="ascii">
                       3.20172                      -0.00000                      -0.28011
                       3.20172                      -0.00000                      -0.28011
                       3.20172                      -0.00000                      -0.28011
                       3.20172                      -0.00000                      -0.28011
                       3.20172                      -0.00000                      -0.28011
                       3.20172                      -0.00000                      -0.28011
                       3.20172                      -0.00000                      -0.28011
                       3.20172                      -0.00000                      -0.28011
                       3.20172                      -0.00000                      -0.28011
                       3.20172                      -0.00000                      -0.28011
                       3.20172                      -0.00000                      -0.28011
                       3.20172                      -0.00000                      -0.28011
                       3.20172                      -0.00000                      -0.28011
                       3.20172                      -0.00000                      -0.28011
                       3.20172                      -0.00000                      -0.28011
                       3.20172                      -0.00000                      -0.28011
                       3.20172                      -0.00000                      -0.28011
                       3.20172                      -0.00000                      -0.28011
                       3.20172                      -0.00000                      -0.28011
        </DataArray>
        <DataArray type="Float32" Name="TranslationalAcceleration" NumberOfComponents="3" format="ascii">
                      -1.34100                      -1.69656                     -15.32765
                      -2.56313                      -3.20693                     -29.29671
                      -5.01578                      -5.25440                     -57.33059
                      -7.47243                      -6.84102                     -85.41030
                     -10.54572                      -8.54908                    -120.53809
                     -14.22157                     -12.07034                    -162.55326
                     -17.88553                     -16.92776                    -204.43253
                     -21.54915                     -21.81155                    -246.30786
                     -25.21233                     -26.74038                    -288.17831
                     -28.87525                     -31.69459                    -330.04564
                     -32.53821                     -36.63652                    -371.91340
                     -36.20108                     -41.58155                    -413.78022
                     -39.86384                     -46.52958                    -455.64583
                     -43.52648                     -51.48005                    -497.50996
                     -47.18907                     -56.43156                    -539.37355
                     -50.24123                     -60.55848                    -574.25986
                     -52.68210                     -63.94114                    -602.15913
                     -55.11749                     -67.88866                    -629.99576
                     -56.33922                     -69.43434                    -643.96027
        </DataArray>
        <DataArray type="Float32" Name="OrientationX" NumberOfComponents="3" format="ascii">
                       0.97439                      -0.22417                      -0.01763
                       0.97439                      -0.22417                      -0.01763
                       0.97439                      -0.22417                      -0.01763
                       0.97439                      -0.22417                      -0.01763
                       0.97439                      -0.22417                      -0.01763
                       0.98094                      -0.19316                      -0.02133
                       0.98503                      -0.17068                      -0.02398
                       0.98819                      -0.15098                      -0.02628
                       0.99109                      -0.13009                      -0.02870
                       0.99360                      -0.10855                      -0.03118
                       0.99555                      -0.08812                      -0.03351
                       0.99705                      -0.06784                      -0.03581
                       0.99806                      -0.04943                      -0.03788
                       0.99859                      -0.03546                      -0.03944
                       0.99892                      -0.02170                      -0.04096
                       0.99906                      -0.01020                      -0.04223
                       0.99907                      -0.00165                      -0.04318
                       0.99904                       0.00293                      -0.04368
                       0.99904                       0.00293                      -0.04368
        </DataArray>
        <DataArray type="Float32" Name="OrientationY" NumberOfComponents="3" format="ascii">
                       0.22069                       0.96841                      -0.11608
                       0.22069                       0.96841                      -0.11608
                       0.22069                       0.96841                      -0.11608
                       0.22069                       0.96841                      -0.11608
                       0.22069                       0.96841                      -0.11608
                       0.18949                       0.97507                      -0.11546
                       0.16688                       0.97925                      -0.11494
                       0.14706                       0.98249                      -0.11443
                       0.12606                       0.98547                      -0.11385
                       0.10439                       0.98807                      -0.11319
                       0.08385                       0.99010                      -0.11253
                       0.06346                       0.99170                      -0.11182
                       0.04495                       0.99279                      -0.11113
                       0.03090                       0.99339                      -0.11059
                       0.01708                       0.99378                      -0.11003
                       0.00552                       0.99397                      -0.10955
                      -0.00308                       0.99402                      -0.10918
                      -0.00768                       0.99401                      -0.10898
                      -0.00768                       0.99401                      -0.10898
        </DataArray>
        <DataArray type="Float32" Name="OrientationZ" NumberOfComponents="3" format="ascii">
                       0.04310                       0.10922                       0.99308
                       0.04310                       0.10922                       0.99308
                       0.04310                       0.10922                       0.99308
                       0.04310                       0.10922                       0.99308
                       0.04310                       0.10922                       0.99308
                       0.04310                       0.10922                       0.99308
                       0.04310                       0.10922                       0.99308
                       0.04310                       0.10922                       0.99308
                       0.04310                       0.10922                       0.99308
                       0.04310                       0.10922                       0.99308
                       0.04310                       0.10922                       0.99308
                       0.04310                       0.10922                       0.99308
                       0.04310                       0.10922                       0.99308
                       0.04310                       0.10922                       0.99308
                       0.04310                       0.10922                       0.99308
                       0.04310                       0.10922                       0.99308
                       0.04310                       0.10922                       0.99308
                       0.04310                       0.10922                       0.99308
                       0.04310                       0.10922                       0.99308
        </DataArray>
        <DataArray type="Float32" Name="Force" NumberOfComponents="3" format="ascii">
                      -0.22846                      23.83472                      -2.61133
                     196.04766                     148.97797                     -24.89199
                     305.08085                     454.14723                     -63.18503
                     313.43659                     694.64648                     -89.99676
                    1412.03777                    -250.65883                     -33.71277
                    1286.03618                    -161.31408                     -38.07036
                    1209.99954                     -63.95193                     -45.47803
                    2283.06088                    -176.95423                     -79.61890
                    3275.56571                    -203.08051                    -119.81806
                    4381.27235                    -198.47917                    -168.30922
                    6972.42144                    -180.00357                    -282.79099
                    8871.06821                     -97.90924                    -374.21629
                   10886.35589                     -84.92808                    -463.10275
                   13158.17929                      -3.09000                    -570.69486
                   15806.48469                      91.84169                    -696.06541
                   18282.35769                     180.17184                    -813.22678
                   19988.64597                     283.59402                    -898.64971
                   17611.97297                      27.34067                    -767.32589
                   15254.49250                     276.99492                    -692.47260
        </DataArray>
        <DataArray type="Float32" Name="Moment" NumberOfComponents="3" format="ascii">
                       0.00000                       0.00000                       0.00000
                       0.00000                       0.00000                       0.00000
                       0.00000                       0.00000                       0.00000
                       0.00000                       0.00000                       0.00000
                     -64.19998                    -162.69172                   -1479.34059
                    -130.39343                    -330.43519                   -3004.61622
                    -180.54870                    -457.53567                   -4160.32899
                    -295.08490                    -747.78642                   -6799.55195
                    -442.74822                   -1121.98593                  -10202.11303
                    -508.01688                   -1287.38584                  -11706.07894
                    -567.57488                   -1438.31416                  -13078.45599
                    -608.83570                   -1542.87485                  -14029.21654
                    -472.85973                   -1198.29271                  -10895.96341
                    -478.38320                   -1212.28996                  -11023.23915
                    -472.80357                   -1198.15039                  -10894.66936
                    -459.07670                   -1163.36459                  -10578.36528
                    -416.85213                   -1056.36163                   -9605.39740
                    -220.01646                    -557.55250                   -5069.77267
                    -219.27242                    -555.66698                   -5052.62785
        </DataArray>
      </PointData>
      <Lines>
        <DataArray type="Int32" Name="connectivity" format="ascii">
      0      1
      1      2
      2      3
      3      4
      4      5
      5      6
      6      7
      7      8
      8      9
      9     10
     10     11
     11     12
     12     13
     13     14
     14     15
     15     16
     16     17
     17     18
        </DataArray>
        <DataArray type="Int32" Name="offsets" format="ascii">
      2
      4
      6
      8
     10
     12
     14
     16
     18
     20
     22
     24
     26
     28
     30
     32
     34
     36
        </DataArray>
      </Lines>
    </Piece>
  </PolyData>
</VTKFile>
