<?xml version="1.0"?>
<VTKFile type="PolyData" version="0.1" byte_order="LittleEndian">
  <PolyData>
    <Piece NumberOfPoints="     19" NumberOfVerts="  0" NumberOfLines="     18"
           NumberOfStrips="  0" NumberOfPolys="      0">
      <Points>
        <DataArray type="Float32" NumberOfComponents="3" format="ascii">
                      -5.03127                      -1.44719                      90.39329
                      -5.06087                      -2.76662                      90.74838
                      -5.15033                      -5.42904                      91.36914
                      -5.25413                      -8.10265                      91.94758
                      -5.39245                     -11.45143                      92.64536
                      -5.49369                     -15.43500                      93.61632
                      -5.56001                     -19.38583                      94.71054
                      -5.62840                     -23.33589                      95.80741
                      -5.69629                     -27.28482                      96.90850
                      -5.76468                     -31.23307                      98.01202
                      -5.83522                     -35.18155                      99.11456
                      -5.90704                     -39.12989                     100.21749
                      -5.98079                     -43.07807                     101.32086
                      -6.05719                     -47.02607                     102.42468
                      -6.13451                     -50.97401                     103.52867
                      -6.19958                     -54.26395                     104.44878
                      -6.25151                     -56.89376                     105.19250
                      -6.30013                     -59.50923                     105.98926
                      -6.32862                     -60.82771                     106.34757
        </DataArray>
      </Points>
      <PointData>
        <DataArray type="Float32" Name="TranslationalVelocity" NumberOfComponents="3" format="ascii">
                      -0.40244                      -1.24139                      -4.59991
                      -0.76936                      -2.36181                      -8.79377
                      -1.50973                      -4.31004                     -17.25632
                      -2.25322                      -6.11974                     -25.75446
                      -3.18447                      -8.29918                     -36.39860
                      -4.29223                     -11.35724                     -49.06047
                      -5.39090                     -14.81680                     -61.61826
                      -6.48935                     -18.28423                     -74.17361
                      -7.58749                     -21.76518                     -86.72536
                      -8.68543                     -25.25373                     -99.27497
                      -9.78345                     -28.73855                    -111.82529
                     -10.88142                     -32.22427                    -124.37518
                     -11.97935                     -35.71085                    -136.92455
                     -13.07722                     -39.19811                    -149.47336
                     -14.17508                     -42.68565                    -162.02196
                     -15.08996                     -45.59214                    -172.47909
                     -15.82128                     -47.94164                    -180.83801
                     -16.54860                     -50.46063                    -189.15134
                     -16.91525                     -51.59162                    -193.34216
        </DataArray>
        <DataArray type="Float32" Name="RotationalVelocity" NumberOfComponents="3" format="ascii">
                       3.17852                      -0.00000                      -0.27808
                       3.17852                      -0.00000                      -0.27808
                       3.17852                      -0.00000                      -0.27808
                       3.17852                      -0.00000                      -0.27808
                       3.17852                      -0.00000                      -0.27808
                       3.17852                      -0.00000                      -0.27808
                       3.17852                      -0.00000                      -0.27808
                       3.17852                      -0.00000                      -0.27808
                       3.17852                      -0.00000                      -0.27808
                       3.17852                      -0.00000                      -0.27808
                       3.17852                      -0.00000                      -0.27808
                       3.17852                      -0.00000                      -0.27808
                       3.17852                      -0.00000                      -0.27808
                       3.17852                      -0.00000                      -0.27808
                       3.17852                      -0.00000                      -0.27808
                       3.17852                      -0.00000                      -0.27808
                       3.17852                      -0.00000                      -0.27808
                       3.17852                      -0.00000                      -0.27808
                       3.17852                      -0.00000                      -0.27808
        </DataArray>
        <DataArray type="Float32" Name="TranslationalAcceleration" NumberOfComponents="3" format="ascii">
                      -0.34550                      14.73191                      -3.94912
                      -0.65734                      28.16342                      -7.51344
                      -1.19965                      55.26629                     -13.71209
                      -1.70344                      82.48322                     -19.47045
                      -2.31019                     116.57324                     -26.40557
                      -3.16139                     157.12508                     -36.13488
                      -4.12424                     197.34328                     -47.14031
                      -5.08928                     237.55367                     -58.17073
                      -6.05808                     277.75252                     -69.24412
                      -7.02899                     317.94452                     -80.34167
                      -7.99886                     358.13877                     -91.42736
                      -8.96898                     398.33164                    -102.51594
                      -9.93934                     438.52288                    -113.60723
                     -10.90990                     478.71230                    -124.70067
                     -11.88053                     518.90104                    -135.79504
                     -12.68944                     552.39154                    -145.04098
                     -13.34333                     579.16219                    -152.51498
                     -14.04435                     605.78673                    -160.52768
                     -14.35913                     619.20848                    -164.12559
        </DataArray>
        <DataArray type="Float32" Name="OrientationX" NumberOfComponents="3" format="ascii">
                       0.95011                      -0.10075                      -0.29520
                       0.95011                      -0.10075                      -0.29520
                       0.95011                      -0.10075                      -0.29520
                       0.95011                      -0.10075                      -0.29520
                       0.95011                      -0.10075                      -0.29520
                       0.95955                      -0.09295                      -0.26574
                       0.96576                      -0.08727                      -0.24434
                       0.97076                      -0.08227                      -0.22553
                       0.97561                      -0.07695                      -0.20557
                       0.98015                      -0.07144                      -0.18494
                       0.98401                      -0.06620                      -0.16534
                       0.98743                      -0.06097                      -0.14585
                       0.99016                      -0.05621                      -0.12812
                       0.99201                      -0.05259                      -0.11466
                       0.99364                      -0.04902                      -0.10138
                       0.99485                      -0.04603                      -0.09027
                       0.99567                      -0.04380                      -0.08200
                       0.99608                      -0.04260                      -0.07757
                       0.99608                      -0.04260                      -0.07757
        </DataArray>
        <DataArray type="Float32" Name="OrientationY" NumberOfComponents="3" format="ascii">
                       0.31123                       0.24296                       0.91875
                       0.31123                       0.24296                       0.91875
                       0.31123                       0.24296                       0.91875
                       0.31123                       0.24296                       0.91875
                       0.31123                       0.24296                       0.91875
                       0.28076                       0.24605                       0.92770
                       0.25861                       0.24812                       0.93357
                       0.23916                       0.24982                       0.93829
                       0.21851                       0.25151                       0.94287
                       0.19716                       0.25313                       0.94713
                       0.17688                       0.25455                       0.95075
                       0.15670                       0.25586                       0.95393
                       0.13835                       0.25694                       0.95647
                       0.12441                       0.25771                       0.95818
                       0.11067                       0.25841                       0.95967
                       0.09916                       0.25896                       0.96078
                       0.09060                       0.25935                       0.96152
                       0.08601                       0.25955                       0.96189
                       0.08601                       0.25955                       0.96189
        </DataArray>
        <DataArray type="Float32" Name="OrientationZ" NumberOfComponents="3" format="ascii">
                      -0.02085                      -0.96479                       0.26219
                      -0.02085                      -0.96479                       0.26219
                      -0.02085                      -0.96479                       0.26219
                      -0.02085                      -0.96479                       0.26219
                      -0.02085                      -0.96479                       0.26219
                      -0.02085                      -0.96479                       0.26219
                      -0.02085                      -0.96479                       0.26219
                      -0.02085                      -0.96479                       0.26219
                      -0.02085                      -0.96479                       0.26219
                      -0.02085                      -0.96479                       0.26219
                      -0.02085                      -0.96479                       0.26219
                      -0.02085                      -0.96479                       0.26219
                      -0.02085                      -0.96479                       0.26219
                      -0.02085                      -0.96479                       0.26219
                      -0.02085                      -0.96479                       0.26219
                      -0.02085                      -0.96479                       0.26219
                      -0.02085                      -0.96479                       0.26219
                      -0.02085                      -0.96479                       0.26219
                      -0.02085                      -0.96479                       0.26219
        </DataArray>
        <DataArray type="Float32" Name="Force" NumberOfComponents="3" format="ascii">
                       3.06318                       9.44885                      35.01233
                     217.68795                      36.28033                     150.80847
                     357.49772                     115.86710                     454.77885
                     384.73783                     178.72910                     688.25695
                    1390.11229                    -124.67770                    -348.24661
                    1194.31737                     -89.69789                    -235.09965
                    1089.39984                     -58.23467                    -127.66697
                    2106.43187                    -131.70838                    -317.16275
                    3083.39906                    -182.16475                    -425.14754
                    4154.93321                    -227.61808                    -507.20374
                    6757.66740                    -337.42598                    -704.31866
                    8694.09606                    -401.48825                    -786.08214
                   10666.09663                    -483.45854                    -930.91308
                   12975.72372                    -563.50172                   -1041.80821
                   15682.95326                    -657.67533                   -1173.08550
                   18217.22050                    -745.94692                   -1296.39746
                   19928.47013                    -793.73997                   -1336.19929
                   17442.62640                    -751.01683                   -1376.64108
                   15186.41987                    -588.19610                    -956.90332
        </DataArray>
        <DataArray type="Float32" Name="Moment" NumberOfComponents="3" format="ascii">
                       0.00000                       0.00000                       0.00000
                       0.00000                       0.00000                       0.00000
                       0.00000                       0.00000                       0.00000
                       0.00000                       0.00000                       0.00000
                      31.42211                    1454.19976                    -395.19701
                      63.90270                    2957.38587                    -803.70668
                      88.00376                    4072.77107                   -1106.82660
                     143.47785                    6640.08502                   -1804.52635
                     215.21286                    9959.94618                   -2706.74024
                     246.41549                   11403.98906                   -3099.17699
                     275.15877                   12734.21374                   -3460.68223
                     294.89531                   13647.61138                   -3708.90949
                     228.58927                   10578.99989                   -2874.97584
                     231.12534                   10696.36808                   -2906.87212
                     228.27812                   10564.60029                   -2871.06257
                     221.64075                   10257.42596                   -2787.58410
                     201.15892                    9309.53700                   -2529.98339
                     105.97351                    4904.40246                   -1332.83285
                     105.75831                    4894.44298                   -1330.12624
        </DataArray>
      </PointData>
      <Lines>
        <DataArray type="Int32" Name="connectivity" format="ascii">
      0      1
      1      2
      2      3
      3      4
      4      5
      5      6
      6      7
      7      8
      8      9
      9     10
     10     11
     11     12
     12     13
     13     14
     14     15
     15     16
     16     17
     17     18
        </DataArray>
        <DataArray type="Int32" Name="offsets" format="ascii">
      2
      4
      6
      8
     10
     12
     14
     16
     18
     20
     22
     24
     26
     28
     30
     32
     34
     36
        </DataArray>
      </Lines>
    </Piece>
  </PolyData>
</VTKFile>
