<?xml version="1.0"?>
<VTKFile type="PolyData" version="0.1" byte_order="LittleEndian">
  <PolyData>
    <Piece NumberOfPoints="     19" NumberOfVerts="  0" NumberOfLines="     18"
           NumberOfStrips="  0" NumberOfPolys="      0">
      <Points>
        <DataArray type="Float32" NumberOfComponents="3" format="ascii">
                      -4.99136                       1.23624                      90.84949
                      -4.98405                       2.36065                      91.62637
                      -4.98496                       4.55506                      93.25928
                      -4.99323                       6.72374                      94.92970
                      -5.00796                       9.41930                      97.04017
                      -4.98315                      12.73670                      99.45182
                      -4.94369                      16.12846                     101.75511
                      -4.90670                      19.52160                     104.05643
                      -4.86990                      22.91722                     106.35413
                      -4.83400                      26.31421                     108.64985
                      -4.80004                      29.71046                     110.94666
                      -4.76743                      33.10684                     113.24331
                      -4.73679                      36.50331                     115.53983
                      -4.70885                      39.89984                     117.83631
                      -4.68184                      43.29638                     120.13277
                      -4.65998                      46.12688                     122.04649
                      -4.64361                      48.39568                     123.57096
                      -4.63250                      50.69553                     125.05030
                      -4.62463                      51.82183                     125.82424
        </DataArray>
      </Points>
      <PointData>
        <DataArray type="Float32" Name="TranslationalVelocity" NumberOfComponents="3" format="ascii">
                       0.34141                      -2.68389                       3.90234
                       0.65193                      -5.13822                       7.45165
                       1.25796                     -10.29243                      14.37854
                       1.85688                     -15.56300                      21.22425
                       2.60131                     -22.22087                      29.73307
                       3.51747                     -29.84037                      40.20483
                       4.45416                     -37.12187                      50.91130
                       5.39124                     -44.39645                      61.62212
                       6.32900                     -51.65957                      72.34077
                       7.26714                     -58.91617                      83.06377
                       8.20507                     -66.17571                      93.78441
                       9.14304                     -73.43434                     104.50545
                      10.08104                     -80.69203                     115.22681
                      11.01905                     -87.94885                     125.94831
                      11.95707                     -95.20533                     136.66989
                      12.73876                    -101.25223                     145.60467
                      13.36533                    -106.06893                     152.76639
                      14.00047                    -110.74169                     160.02613
                      14.31152                    -113.18690                     163.58142
        </DataArray>
        <DataArray type="Float32" Name="RotationalVelocity" NumberOfComponents="3" format="ascii">
                       3.15661                      -0.00000                      -0.27617
                       3.15661                      -0.00000                      -0.27617
                       3.15661                      -0.00000                      -0.27617
                       3.15661                      -0.00000                      -0.27617
                       3.15661                      -0.00000                      -0.27617
                       3.15661                      -0.00000                      -0.27617
                       3.15661                      -0.00000                      -0.27617
                       3.15661                      -0.00000                      -0.27617
                       3.15661                      -0.00000                      -0.27617
                       3.15661                      -0.00000                      -0.27617
                       3.15661                      -0.00000                      -0.27617
                       3.15661                      -0.00000                      -0.27617
                       3.15661                      -0.00000                      -0.27617
                       3.15661                      -0.00000                      -0.27617
                       3.15661                      -0.00000                      -0.27617
                       3.15661                      -0.00000                      -0.27617
                       3.15661                      -0.00000                      -0.27617
                       3.15661                      -0.00000                      -0.27617
                       3.15661                      -0.00000                      -0.27617
        </DataArray>
        <DataArray type="Float32" Name="TranslationalAcceleration" NumberOfComponents="3" format="ascii">
                      -0.74094                     -12.41452                      -8.46899
                      -1.41851                     -23.70596                     -16.21362
                      -2.84147                     -45.74284                     -32.47810
                      -4.29657                     -67.52154                     -49.10998
                      -6.13468                     -94.59131                     -70.11972
                      -8.23823                    -127.90549                     -94.16345
                     -10.24843                    -161.96598                    -117.14006
                     -12.25671                    -196.04029                    -140.09482
                     -14.26183                    -230.13951                    -163.01342
                     -16.26514                    -264.25252                    -185.91141
                     -18.26927                    -298.35806                    -208.81869
                     -20.27314                    -332.46488                    -231.72309
                     -22.27676                    -366.57269                    -254.62452
                     -24.28014                    -400.68096                    -277.52322
                     -26.28342                    -434.78949                    -300.42083
                     -27.95277                    -463.21367                    -319.50167
                     -29.28251                    -485.99720                    -334.70058
                     -30.57248                    -509.09239                    -349.44509
                     -31.24753                    -520.40285                    -357.16091
        </DataArray>
        <DataArray type="Float32" Name="OrientationX" NumberOfComponents="3" format="ascii">
                       0.98716                      -0.09509                       0.12833
                       0.98716                      -0.09509                       0.12833
                       0.98716                      -0.09509                       0.12833
                       0.98716                      -0.09509                       0.12833
                       0.98716                      -0.09509                       0.12833
                       0.99175                      -0.07723                       0.10230
                       0.99443                      -0.06430                       0.08346
                       0.99635                      -0.05299                       0.06697
                       0.99793                      -0.04101                       0.04953
                       0.99909                      -0.02867                       0.03155
                       0.99975                      -0.01698                       0.01454
                       0.99998                      -0.00539                      -0.00233
                       0.99983                       0.00512                      -0.01762
                       0.99949                       0.01308                      -0.02921
                       0.99896                       0.02092                      -0.04061
                       0.99837                       0.02747                      -0.05013
                       0.99784                       0.03233                      -0.05720
                       0.99753                       0.03494                      -0.06099
                       0.99753                       0.03494                      -0.06099
        </DataArray>
        <DataArray type="Float32" Name="OrientationY" NumberOfComponents="3" format="ascii">
                       0.15962                       0.55832                      -0.81413
                       0.15962                       0.55832                      -0.81413
                       0.15962                       0.55832                      -0.81413
                       0.15962                       0.55832                      -0.81413
                       0.15962                       0.55832                      -0.81413
                       0.12805                       0.56106                      -0.81781
                       0.10520                       0.56269                      -0.81994
                       0.08520                       0.56387                      -0.82146
                       0.06404                       0.56487                      -0.82269
                       0.04224                       0.56563                      -0.82358
                       0.02160                       0.56610                      -0.82405
                       0.00113                       0.56633                      -0.82418
                      -0.01742                       0.56633                      -0.82399
                      -0.03148                       0.56620                      -0.82366
                      -0.04531                       0.56597                      -0.82318
                      -0.05687                       0.56569                      -0.82266
                      -0.06546                       0.56543                      -0.82219
                      -0.07005                       0.56528                      -0.82192
                      -0.07005                       0.56528                      -0.82192
        </DataArray>
        <DataArray type="Float32" Name="OrientationZ" NumberOfComponents="3" format="ascii">
                       0.00576                       0.82416                       0.56633
                       0.00576                       0.82416                       0.56633
                       0.00576                       0.82416                       0.56633
                       0.00576                       0.82416                       0.56633
                       0.00576                       0.82416                       0.56633
                       0.00576                       0.82416                       0.56633
                       0.00576                       0.82416                       0.56633
                       0.00576                       0.82416                       0.56633
                       0.00576                       0.82416                       0.56633
                       0.00576                       0.82416                       0.56633
                       0.00576                       0.82416                       0.56633
                       0.00576                       0.82416                       0.56633
                       0.00576                       0.82416                       0.56633
                       0.00576                       0.82416                       0.56633
                       0.00576                       0.82416                       0.56633
                       0.00576                       0.82416                       0.56633
                       0.00576                       0.82416                       0.56633
                       0.00576                       0.82416                       0.56633
                       0.00576                       0.82416                       0.56633
        </DataArray>
        <DataArray type="Float32" Name="Force" NumberOfComponents="3" format="ascii">
                      -1.17658                       9.24931                     -13.44836
                     179.76833                      80.04744                    -118.32008
                     264.87576                     243.72698                    -357.38522
                     258.98859                     374.59014                    -547.76773
                    1352.79355                     -92.81185                     121.30558
                    1247.58361                     -48.34272                      57.66086
                    1144.94032                       3.18282                     -16.27902
                    2142.95375                     -21.36280                       9.28923
                    3114.98961                      -5.52596                     -23.64602
                    4174.48334                      32.08258                     -89.15484
                    6714.84926                     123.61893                    -248.20812
                    8592.89725                     228.82371                    -420.41521
                   10551.43483                     301.21990                    -545.69545
                   12790.89033                     418.95326                    -739.81161
                   15395.64839                     555.98290                    -965.72536
                   17822.60227                     683.16157                   -1175.49444
                   19455.61232                     792.34557                   -1350.99971
                   17052.97624                     578.68707                   -1015.62574
                   14672.59084                     641.95920                   -1083.48941
        </DataArray>
        <DataArray type="Float32" Name="Moment" NumberOfComponents="3" format="ascii">
                       0.00000                       0.00000                       0.00000
                       0.00000                       0.00000                       0.00000
                       0.00000                       0.00000                       0.00000
                       0.00000                       0.00000                       0.00000
                      -8.16603                   -1168.21041                    -802.73989
                     -16.57149                   -2370.67448                   -1629.01731
                     -22.99661                   -3289.83543                   -2260.62199
                     -37.65340                   -5386.59770                   -3701.41956
                     -56.61246                   -8098.83147                   -5565.14053
                     -65.06247                   -9307.66806                   -6395.79685
                     -72.79808                  -10414.30502                   -7156.22632
                     -78.17556                  -11183.59227                   -7684.84477
                     -60.76736                   -8693.22110                   -5973.57745
                     -61.52294                   -8801.31232                   -6047.85272
                     -60.90016                   -8712.21929                   -5986.63213
                     -59.17405                   -8465.28648                   -5816.95138
                     -53.75774                   -7690.44263                   -5284.51471
                     -28.38614                   -4060.84698                   -2790.42528
                     -28.26382                   -4043.34879                   -2778.40135
        </DataArray>
      </PointData>
      <Lines>
        <DataArray type="Int32" Name="connectivity" format="ascii">
      0      1
      1      2
      2      3
      3      4
      4      5
      5      6
      6      7
      7      8
      8      9
      9     10
     10     11
     11     12
     12     13
     13     14
     14     15
     15     16
     16     17
     17     18
        </DataArray>
        <DataArray type="Int32" Name="offsets" format="ascii">
      2
      4
      6
      8
     10
     12
     14
     16
     18
     20
     22
     24
     26
     28
     30
     32
     34
     36
        </DataArray>
      </Lines>
    </Piece>
  </PolyData>
</VTKFile>
