<?xml version="1.0"?>
<VTKFile type="PolyData" version="0.1" byte_order="LittleEndian">
  <PolyData>
    <Piece NumberOfPoints="    625" NumberOfVerts="  0" NumberOfLines="      0"
           NumberOfStrips="  0" NumberOfPolys="    600">
      <Points>
        <DataArray type="Float32" NumberOfComponents="3" format="ascii">
                      -5.02211                      -1.47839                      89.74727
                      -5.02211                      -1.47839                      89.74727
                      -5.02211                      -1.47839                      89.74727
                      -5.02211                      -1.47839                      89.74727
                      -5.02211                      -1.47839                      89.74727
                      -5.02211                      -1.47839                      89.74727
                      -5.02211                      -1.47839                      89.74727
                      -5.02211                      -1.47839                      89.74727
                      -5.02211                      -1.47839                      89.74727
                      -5.02211                      -1.47839                      89.74727
                      -5.02211                      -1.47839                      89.74727
                      -5.02211                      -1.47839                      89.74727
                      -5.02211                      -1.47839                      89.74727
                      -5.02211                      -1.47839                      89.74727
                      -5.02211                      -1.47839                      89.74727
                      -5.02211                      -1.47839                      89.74727
                      -5.02211                      -1.47839                      89.74727
                      -5.02211                      -1.47839                      89.74727
                      -5.02211                      -1.47839                      89.74727
                      -5.02211                      -1.47839                      89.74727
                      -5.02211                      -1.47839                      89.74727
                      -5.02211                      -1.47839                      89.74727
                      -5.02211                      -1.47839                      89.74727
                      -5.02211                      -1.47839                      89.74727
                      -5.02211                      -1.47839                      89.74727
                      -4.42307                      -1.35519                      89.71608
                      -4.45464                      -1.32997                      89.57134
                      -4.52175                      -1.30634                      89.43898
                      -4.62018                      -1.28578                      89.32732
                      -4.74375                      -1.26958                      89.24336
                      -4.88470                      -1.25876                      89.19240
                      -5.03417                      -1.25400                      89.17761
                      -5.18276                      -1.25559                      89.19995
                      -5.32114                      -1.26345                      89.25800
                      -5.44062                      -1.27707                      89.34811
                      -5.53368                      -1.29559                      89.46463
                      -5.59449                      -1.31786                      89.60023
                      -5.61921                      -1.34248                      89.74639
                      -5.60630                      -1.36790                      89.89393
                      -5.55657                      -1.39252                      90.03358
                      -5.47314                      -1.41479                      90.15656
                      -5.36126                      -1.43331                      90.25515
                      -5.22795                      -1.44693                      90.32315
                      -5.08159                      -1.45479                      90.35629
                      -4.93138                      -1.45638                      90.35248
                      -4.78675                      -1.45162                      90.31197
                      -4.65680                      -1.44080                      90.23730
                      -4.54968                      -1.42460                      90.13316
                      -4.47213                      -1.40404                      90.00610
                      -4.42903                      -1.38041                      89.86410
                      -4.19243                      -1.23199                      89.71712
                      -4.23609                      -1.19711                      89.51693
                      -4.32891                      -1.16443                      89.33387
                      -4.46506                      -1.13599                      89.17942
                      -4.63597                      -1.11358                      89.06330
                      -4.83092                      -1.09861                      88.99280
                      -5.03765                      -1.09203                      88.97236
                      -5.24317                      -1.09424                      89.00325
                      -5.43457                      -1.10510                      89.08354
                      -5.59982                      -1.12393                      89.20818
                      -5.72854                      -1.14956                      89.36934
                      -5.81264                      -1.18037                      89.55689
                      -5.84684                      -1.21441                      89.75905
                      -5.82899                      -1.24957                      89.96312
                      -5.76020                      -1.28362                      90.15627
                      -5.64481                      -1.31442                      90.32637
                      -5.49006                      -1.34005                      90.46273
                      -5.30568                      -1.35888                      90.55678
                      -5.10324                      -1.36975                      90.60261
                      -4.89548                      -1.37195                      90.59734
                      -4.69544                      -1.36537                      90.54131
                      -4.51570                      -1.35040                      90.43803
                      -4.36754                      -1.32799                      90.29400
                      -4.26028                      -1.29955                      90.11826
                      -4.20066                      -1.26687                      89.92185
                      -4.02820                      -1.10879                      89.72398
                      -4.08045                      -1.06706                      89.48444
                      -4.19152                      -1.02795                      89.26538
                      -4.35443                      -0.99392                      89.08057
                      -4.55894                      -0.96711                      88.94162
                      -4.79221                      -0.94920                      88.85726
                      -5.03958                      -0.94131                      88.83280
                      -5.28551                      -0.94396                      88.86977
                      -5.51453                      -0.95695                      88.96584
                      -5.71227                      -0.97949                      89.11498
                      -5.86630                      -1.01016                      89.30782
                      -5.96693                      -1.04702                      89.53224
                      -6.00785                      -1.08776                      89.77415
                      -5.98649                      -1.12982                      90.01833
                      -5.90418                      -1.17057                      90.24946
                      -5.76611                      -1.20743                      90.45299
                      -5.58093                      -1.23809                      90.61616
                      -5.36030                      -1.26063                      90.72870
                      -5.11807                      -1.27363                      90.78354
                      -4.86947                      -1.27627                      90.77724
                      -4.63010                      -1.26839                      90.71019
                      -4.41502                      -1.25048                      90.58661
                      -4.23774                      -1.22367                      90.41426
                      -4.10940                      -1.18963                      90.20397
                      -4.03806                      -1.15052                      89.96895
                      -3.90096                      -0.98559                      89.73407
                      -3.95984                      -0.93857                      89.46413
                      -4.08500                      -0.89449                      89.21728
                      -4.26857                      -0.85615                      89.00903
                      -4.49904                      -0.82593                      88.85245
                      -4.76190                      -0.80575                      88.75739
                      -5.04066                      -0.79687                      88.72983
                      -5.31778                      -0.79984                      88.77148
                      -5.57587                      -0.81449                      88.87974
                      -5.79869                      -0.83989                      89.04781
                      -5.97226                      -0.87444                      89.26511
                      -6.08566                      -0.91598                      89.51801
                      -6.13178                      -0.96189                      89.79060
                      -6.10770                      -1.00929                      90.06577
                      -6.01495                      -1.05520                      90.32621
                      -5.85936                      -1.09674                      90.55558
                      -5.65069                      -1.13130                      90.73944
                      -5.40207                      -1.15669                      90.86626
                      -5.12911                      -1.17134                      90.92806
                      -4.84896                      -1.17432                      90.92096
                      -4.57923                      -1.16544                      90.84541
                      -4.33686                      -1.14525                      90.70615
                      -4.13709                      -1.11504                      90.51193
                      -3.99246                      -1.07669                      90.27496
                      -3.91207                      -1.03262                      90.01012
                      -3.79919                      -0.86239                      89.74639
                      -3.86334                      -0.81115                      89.45223
                      -3.99973                      -0.76312                      89.18323
                      -4.19978                      -0.72133                      88.95629
                      -4.45092                      -0.68841                      88.78567
                      -4.73738                      -0.66641                      88.68208
                      -5.04114                      -0.65673                      88.65204
                      -5.34313                      -0.65998                      88.69743
                      -5.62437                      -0.67594                      88.81541
                      -5.86719                      -0.70362                      88.99855
                      -6.05633                      -0.74127                      89.23535
                      -6.17991                      -0.78654                      89.51094
                      -6.23016                      -0.83657                      89.80799
                      -6.20392                      -0.88822                      90.10785
                      -6.10285                      -0.93825                      90.39166
                      -5.93330                      -0.98352                      90.64160
                      -5.70591                      -1.02117                      90.84197
                      -5.43498                      -1.04885                      90.98016
                      -5.13752                      -1.06481                      91.04751
                      -4.83224                      -1.06805                      91.03977
                      -4.53831                      -1.05837                      90.95744
                      -4.27420                      -1.03638                      90.80568
                      -4.05650                      -1.00346                      90.59404
                      -3.89890                      -0.96167                      90.33581
                      -3.81129                      -0.91364                      90.04721
                      -3.71696                      -0.73919                      89.76042
                      -3.78537                      -0.68455                      89.44678
                      -3.93079                      -0.63335                      89.15997
                      -4.14409                      -0.58879                      88.91800
                      -4.41186                      -0.55368                      88.73607
                      -4.71729                      -0.53023                      88.62562
                      -5.04117                      -0.51991                      88.59359
                      -5.36316                      -0.52337                      88.64199
                      -5.66302                      -0.54039                      88.76778
                      -5.92192                      -0.56990                      88.96305
                      -6.12359                      -0.61005                      89.21554
                      -6.25535                      -0.65831                      89.50938
                      -6.30893                      -0.71166                      89.82610
                      -6.28096                      -0.76673                      90.14582
                      -6.17320                      -0.82008                      90.44843
                      -5.99241                      -0.86834                      90.71492
                      -5.74996                      -0.90849                      90.92855
                      -5.46109                      -0.93800                      91.07590
                      -5.14393                      -0.95502                      91.14771
                      -4.81843                      -0.95847                      91.13946
                      -4.50503                      -0.94815                      91.05167
                      -4.22343                      -0.92470                      90.88987
                      -3.99132                      -0.88960                      90.66421
                      -3.82328                      -0.84504                      90.38887
                      -3.72987                      -0.79384                      90.08116
                      -3.65081                      -0.61600                      89.77585
                      -3.72262                      -0.55864                      89.44663
                      -3.87527                      -0.50489                      89.14557
                      -4.09917                      -0.45812                      88.89157
                      -4.38025                      -0.42127                      88.70060
                      -4.70084                      -0.39665                      88.58467
                      -5.04082                      -0.38582                      88.55105
                      -5.37881                      -0.38945                      88.60185
                      -5.69358                      -0.40731                      88.73389
                      -5.96534                      -0.43829                      88.93886
                      -6.17703                      -0.48043                      89.20390
                      -6.31534                      -0.53109                      89.51234
                      -6.37158                      -0.58709                      89.84480
                      -6.34222                      -0.64490                      90.18040
                      -6.22910                      -0.70090                      90.49805
                      -6.03933                      -0.75156                      90.77779
                      -5.78484                      -0.79370                      91.00204
                      -5.48161                      -0.82468                      91.15671
                      -5.14870                      -0.84254                      91.23208
                      -4.80702                      -0.84617                      91.22342
                      -4.47805                      -0.83534                      91.13127
                      -4.18245                      -0.81072                      90.96143
                      -3.93880                      -0.77387                      90.72455
                      -3.76241                      -0.72710                      90.43554
                      -3.66436                      -0.67335                      90.11254
                      -3.59854                      -0.49280                      89.79250
                      -3.67301                      -0.43331                      89.45106
                      -3.83133                      -0.37756                      89.13881
                      -4.06354                      -0.32906                      88.87539
                      -4.35505                      -0.29084                      88.67733
                      -4.68755                      -0.26531                      88.55709
                      -5.04015                      -0.25407                      88.52222
                      -5.39069                      -0.25784                      88.57491
                      -5.71714                      -0.27637                      88.71185
                      -5.99900                      -0.30849                      88.92444
                      -6.21855                      -0.35220                      89.19931
                      -6.36199                      -0.40474                      89.51920
                      -6.42032                      -0.46282                      89.86401
                      -6.38987                      -0.52278                      90.21207
                      -6.27255                      -0.58085                      90.54151
                      -6.07574                      -0.63339                      90.83163
                      -5.81179                      -0.67710                      91.06421
                      -5.49730                      -0.70923                      91.22462
                      -5.15203                      -0.72775                      91.30279
                      -4.79767                      -0.73152                      91.29381
                      -4.45648                      -0.72028                      91.19824
                      -4.14991                      -0.69475                      91.02209
                      -3.89722                      -0.65654                      90.77642
                      -3.71428                      -0.60803                      90.47668
                      -3.61259                      -0.55228                      90.14169
                      -3.55869                      -0.36960                      89.81024
                      -3.63517                      -0.30851                      89.45958
                      -3.79775                      -0.25126                      89.13891
                      -4.03623                      -0.20144                      88.86838
                      -4.33561                      -0.16219                      88.66498
                      -4.67708                      -0.13597                      88.54150
                      -5.03919                      -0.12443                      88.50569
                      -5.39919                      -0.12830                      88.55980
                      -5.73445                      -0.14733                      88.70043
                      -6.02391                      -0.18032                      88.91876
                      -6.24938                      -0.22521                      89.20105
                      -6.39670                      -0.27917                      89.52957
                      -6.45660                      -0.33881                      89.88368
                      -6.42533                      -0.40039                      90.24113
                      -6.30484                      -0.46003                      90.57946
                      -6.10272                      -0.51399                      90.87741
                      -5.83165                      -0.55887                      91.11626
                      -5.50868                      -0.59187                      91.28100
                      -5.15409                      -0.61089                      91.36128
                      -4.79017                      -0.61476                      91.35205
                      -4.43978                      -0.60322                      91.25391
                      -4.12494                      -0.57700                      91.07300
                      -3.86542                      -0.53775                      90.82071
                      -3.67755                      -0.48794                      90.51287
                      -3.57312                      -0.43069                      90.16884
                      -3.53029                      -0.24640                      89.82898
                      -3.60818                      -0.18419                      89.47189
                      -3.77375                      -0.12589                      89.14533
                      -4.01660                      -0.07516                      88.86984
                      -4.32147                      -0.03519                      88.66271
                      -4.66921                      -0.00849                      88.53696
                      -5.03797                       0.00326                      88.50049
                      -5.40457                      -0.00067                      88.55559
                      -5.74598                      -0.02005                      88.69881
                      -6.04075                      -0.05365                      88.92114
                      -6.27036                      -0.09936                      89.20861
                      -6.42038                      -0.15431                      89.54316
                      -6.48138                      -0.21505                      89.90376
                      -6.44954                      -0.27775                      90.26777
                      -6.32684                      -0.33849                      90.61231
                      -6.12101                      -0.39344                      90.91573
                      -5.84497                      -0.43915                      91.15896
                      -5.51607                      -0.47275                      91.32672
                      -5.15497                      -0.49212                      91.40848
                      -4.78437                      -0.49606                      91.39909
                      -4.42755                      -0.48431                      91.29914
                      -4.10693                      -0.45761                      91.11491
                      -3.84266                      -0.41764                      90.85799
                      -3.65134                      -0.36691                      90.54451
                      -3.54499                      -0.30861                      90.19416
                      -3.51275                      -0.12320                      89.84866
                      -3.59146                      -0.06033                      89.48777
                      -3.75880                      -0.00140                      89.15774
                      -4.00424                       0.04987                      88.87930
                      -4.31236                       0.09026                      88.66996
                      -4.66381                       0.11725                      88.54287
                      -5.03649                       0.12912                      88.50602
                      -5.40700                       0.12514                      88.56171
                      -5.75205                       0.10556                      88.70645
                      -6.04996                       0.07160                      88.93115
                      -6.28202                       0.02541                      89.22168
                      -6.43364                      -0.03013                      89.55980
                      -6.49529                      -0.09151                      89.92425
                      -6.46310                      -0.15489                      90.29214
                      -6.33910                      -0.21627                      90.64035
                      -6.13107                      -0.27180                      90.94700
                      -5.85209                      -0.31800                      91.19282
                      -5.51969                      -0.35196                      91.36237
                      -5.15474                      -0.37154                      91.44500
                      -4.78019                      -0.37552                      91.43551
                      -4.41957                      -0.36365                      91.33449
                      -4.09553                      -0.33666                      91.14831
                      -3.82844                      -0.29627                      90.88864
                      -3.63508                      -0.24500                      90.57182
                      -3.52760                      -0.18607                      90.21774
                      -3.50571                       0.00000                      89.86927
                      -3.58470                       0.06309                      89.50712
                      -3.75262                       0.12222                      89.17593
                      -3.99891                       0.17367                      88.89653
                      -4.30811                       0.21421                      88.68646
                      -4.66078                       0.24129                      88.55892
                      -5.03477                       0.25320                      88.52194
                      -5.40657                       0.24921                      88.57782
                      -5.75283                       0.22956                      88.72307
                      -6.05178                       0.19548                      88.94855
                      -6.28464                       0.14912                      89.24010
                      -6.43679                       0.09339                      89.57940
                      -6.49866                       0.03180                      89.94512
                      -6.46636                      -0.03180                      90.31429
                      -6.34193                      -0.09339                      90.66372
                      -6.13317                      -0.14912                      90.97144
                      -5.85322                      -0.19548                      91.21812
                      -5.51965                      -0.22956                      91.38826
                      -5.15344                      -0.24921                      91.47118
                      -4.77758                      -0.25320                      91.46165
                      -4.41570                      -0.24129                      91.36029
                      -4.09053                      -0.21421                      91.17345
                      -3.82250                      -0.17367                      90.91288
                      -3.62847                      -0.12222                      90.59495
                      -3.52061                      -0.06309                      90.23964
                      -3.50906                       0.12320                      89.89079
                      -3.58778                       0.18607                      89.52989
                      -3.75511                       0.24500                      89.19986
                      -4.00055                       0.29627                      88.92143
                      -4.30867                       0.33666                      88.71209
                      -4.66012                       0.36365                      88.58500
                      -5.03281                       0.37552                      88.54814
                      -5.40331                       0.37154                      88.60383
                      -5.74837                       0.35196                      88.74857
                      -6.04628                       0.31800                      88.97327
                      -6.27833                       0.27180                      89.26381
                      -6.42995                       0.21627                      89.60192
                      -6.49160                       0.15489                      89.96637
                      -6.45942                       0.09151                      90.33426
                      -6.33542                       0.03013                      90.68247
                      -6.12739                      -0.02541                      90.98912
                      -5.84841                      -0.07160                      91.23494
                      -5.51600                      -0.10556                      91.40450
                      -5.15106                      -0.12514                      91.48712
                      -4.77651                      -0.12912                      91.47763
                      -4.41588                      -0.11725                      91.37662
                      -4.09185                      -0.09026                      91.19043
                      -3.82476                      -0.04987                      90.93077
                      -3.63140                       0.00140                      90.61394
                      -3.52391                       0.06033                      90.25987
                      -3.52292                       0.24640                      89.91322
                      -3.60081                       0.30861                      89.55613
                      -3.76638                       0.36691                      89.22958
                      -4.00923                       0.41764                      88.95408
                      -4.31410                       0.45761                      88.74695
                      -4.66184                       0.48431                      88.62120
                      -5.03060                       0.49606                      88.58473
                      -5.39720                       0.49212                      88.63984
                      -5.73861                       0.47275                      88.78305
                      -6.03338                       0.43915                      89.00538
                      -6.26299                       0.39344                      89.29285
                      -6.41301                       0.33849                      89.62740
                      -6.47401                       0.27775                      89.98801
                      -6.44217                       0.21505                      90.35202
                      -6.31947                       0.15431                      90.69656
                      -6.11364                       0.09936                      90.99997
                      -5.83760                       0.05365                      91.24321
                      -5.50870                       0.02005                      91.41097
                      -5.14760                       0.00067                      91.49272
                      -4.77700                      -0.00326                      91.48333
                      -4.42018                       0.00849                      91.38338
                      -4.09956                       0.03519                      91.19916
                      -3.83529                       0.07516                      90.94223
                      -3.64397                       0.12589                      90.62875
                      -3.53762                       0.18419                      90.27841
                      -3.54763                       0.36960                      89.93661
                      -3.62411                       0.43069                      89.58595
                      -3.78670                       0.48794                      89.26528
                      -4.02517                       0.53775                      88.99475
                      -4.32455                       0.57700                      88.79135
                      -4.66603                       0.60322                      88.66787
                      -5.02814                       0.61476                      88.63206
                      -5.38813                       0.61089                      88.68617
                      -5.72339                       0.59187                      88.82680
                      -6.01285                       0.55887                      89.04512
                      -6.23832                       0.51399                      89.32742
                      -6.38564                       0.46003                      89.65594
                      -6.44554                       0.40039                      90.01005
                      -6.41427                       0.33881                      90.36750
                      -6.29379                       0.27917                      90.70583
                      -6.09166                       0.22521                      91.00378
                      -5.82060                       0.18032                      91.24262
                      -5.49762                       0.14733                      91.40736
                      -5.14304                       0.12830                      91.48765
                      -4.77911                       0.12443                      91.47842
                      -4.42872                       0.13597                      91.38028
                      -4.11388                       0.16219                      91.19937
                      -3.85437                       0.20144                      90.94708
                      -3.66649                       0.25126                      90.63924
                      -3.56206                       0.30851                      90.29521
                      -3.58380                       0.49280                      89.96099
                      -3.65827                       0.55228                      89.61955
                      -3.81659                       0.60803                      89.30731
                      -4.04880                       0.65654                      89.04388
                      -4.34031                       0.69475                      88.84583
                      -4.67281                       0.72028                      88.72559
                      -5.02541                       0.73152                      88.69072
                      -5.37595                       0.72775                      88.74341
                      -5.70240                       0.70923                      88.88035
                      -5.98426                       0.67710                      89.09293
                      -6.20380                       0.63339                      89.36781
                      -6.34725                       0.58085                      89.68770
                      -6.40558                       0.52278                      90.03250
                      -6.37513                       0.46282                      90.38056
                      -6.25781                       0.40474                      90.71000
                      -6.06099                       0.35220                      91.00013
                      -5.79705                       0.30849                      91.23270
                      -5.48256                       0.27637                      91.39311
                      -5.13729                       0.25784                      91.47129
                      -4.78293                       0.25407                      91.46230
                      -4.44174                       0.26531                      91.36674
                      -4.13517                       0.29084                      91.19058
                      -3.88248                       0.32906                      90.94492
                      -3.69954                       0.37756                      90.64517
                      -3.59785                       0.43331                      90.31018
                      -3.63239                       0.61600                      89.98647
                      -3.70419                       0.67335                      89.65725
                      -3.85684                       0.72710                      89.35618
                      -4.08074                       0.77387                      89.10219
                      -4.36182                       0.81072                      88.91122
                      -4.68242                       0.83534                      88.79528
                      -5.02239                       0.84617                      88.76166
                      -5.36038                       0.84254                      88.81247
                      -5.67515                       0.82468                      88.94450
                      -5.94692                       0.79370                      89.14948
                      -6.15861                       0.75156                      89.41451
                      -6.29692                       0.70090                      89.72295
                      -6.35316                       0.64490                      90.05542
                      -6.32380                       0.58709                      90.39102
                      -6.21068                       0.53109                      90.70867
                      -6.02091                       0.48043                      90.98840
                      -5.76641                       0.43829                      91.21265
                      -5.46318                       0.40731                      91.36732
                      -5.13027                       0.38945                      91.44270
                      -4.78859                       0.38582                      91.43404
                      -4.45962                       0.39665                      91.34189
                      -4.16402                       0.42127                      91.17204
                      -3.92037                       0.45812                      90.93517
                      -3.74398                       0.50489                      90.64615
                      -3.64593                       0.55864                      90.32315
                      -3.69485                       0.73919                      90.01315
                      -3.76326                       0.79384                      89.69952
                      -3.90868                       0.84504                      89.41271
                      -4.12198                       0.88960                      89.17073
                      -4.38975                       0.92470                      88.98881
                      -4.69517                       0.94815                      88.87836
                      -5.01906                       0.95847                      88.84633
                      -5.34105                       0.95502                      88.89473
                      -5.64091                       0.93800                      89.02052
                      -5.89981                       0.90849                      89.21579
                      -6.10148                       0.86834                      89.46828
                      -6.23324                       0.82008                      89.76212
                      -6.28682                       0.76673                      90.07884
                      -6.25885                       0.71166                      90.39855
                      -6.15109                       0.65831                      90.70117
                      -5.97030                       0.61005                      90.96766
                      -5.72785                       0.56990                      91.18129
                      -5.43898                       0.54039                      91.32864
                      -5.12182                       0.52337                      91.40045
                      -4.79632                       0.51991                      91.39220
                      -4.48292                       0.53023                      91.30441
                      -4.20132                       0.55368                      91.14261
                      -3.96920                       0.58879                      90.91695
                      -3.80116                       0.63335                      90.64161
                      -3.70776                       0.68455                      90.33390
                      -3.77339                       0.86239                      90.04125
                      -3.83755                       0.91364                      89.74709
                      -3.97394                       0.96167                      89.47810
                      -4.17399                       1.00346                      89.25115
                      -4.42513                       1.03638                      89.08053
                      -4.71158                       1.05837                      88.97694
                      -5.01534                       1.06805                      88.94690
                      -5.31733                       1.06481                      88.99229
                      -5.59857                       1.04885                      89.11027
                      -5.84139                       1.02117                      89.29341
                      -6.03053                       0.98352                      89.53022
                      -6.15411                       0.93825                      89.80580
                      -6.20436                       0.88822                      90.10286
                      -6.17813                       0.83657                      90.40271
                      -6.07706                       0.78654                      90.68652
                      -5.90750                       0.74127                      90.93646
                      -5.68011                       0.70362                      91.13683
                      -5.40918                       0.67594                      91.27502
                      -5.11173                       0.65998                      91.34237
                      -4.80644                       0.65673                      91.33463
                      -4.51251                       0.66641                      91.25230
                      -4.24840                       0.68841                      91.10054
                      -4.03070                       0.72133                      90.88890
                      -3.87310                       0.76312                      90.63067
                      -3.78549                       0.81115                      90.34207
                      -3.87148                       0.98559                      90.07105
                      -3.93036                       1.03262                      89.80112
                      -4.05551                       1.07669                      89.55427
                      -4.23909                       1.11504                      89.34601
                      -4.46956                       1.14525                      89.18944
                      -4.73242                       1.16544                      89.09438
                      -5.01117                       1.17432                      89.06681
                      -5.28830                       1.17134                      89.10847
                      -5.54638                       1.15669                      89.21673
                      -5.76921                       1.13130                      89.38479
                      -5.94278                       1.09674                      89.60210
                      -6.05618                       1.05520                      89.85499
                      -6.10229                       1.00929                      90.12759
                      -6.07822                       0.96189                      90.40275
                      -5.98547                       0.91598                      90.66320
                      -5.82988                       0.87444                      90.89256
                      -5.62121                       0.83989                      91.07643
                      -5.37259                       0.81449                      91.20324
                      -5.09962                       0.79984                      91.26504
                      -4.81948                       0.79687                      91.25794
                      -4.54974                       0.80575                      91.18239
                      -4.30738                       0.82593                      91.04313
                      -4.10761                       0.85615                      90.84891
                      -3.96298                       0.89449                      90.61194
                      -3.88259                       0.93857                      90.34711
                      -3.99504                       1.10879                      90.10308
                      -4.04728                       1.15052                      89.86354
                      -4.15835                       1.18963                      89.64448
                      -4.32126                       1.22367                      89.45968
                      -4.52577                       1.25048                      89.32073
                      -4.75905                       1.26839                      89.23637
                      -5.00641                       1.27627                      89.21191
                      -5.25234                       1.27363                      89.24887
                      -5.48136                       1.26063                      89.34495
                      -5.67910                       1.23809                      89.49409
                      -5.83313                       1.20743                      89.68693
                      -5.93376                       1.17057                      89.91135
                      -5.97469                       1.12982                      90.15325
                      -5.95332                       1.08776                      90.39744
                      -5.87102                       1.04702                      90.62856
                      -5.73294                       1.01016                      90.83210
                      -5.54777                       0.97949                      90.99527
                      -5.32713                       0.95695                      91.10780
                      -5.08490                       0.94396                      91.16265
                      -4.83630                       0.94131                      91.15635
                      -4.59694                       0.94920                      91.08930
                      -4.38186                       0.96711                      90.96572
                      -4.20458                       0.99392                      90.79337
                      -4.07623                       1.02795                      90.58308
                      -4.00489                       1.06706                      90.34806
                      -4.15557                       1.23199                      90.13835
                      -4.19924                       1.26687                      89.93816
                      -4.29206                       1.29955                      89.75510
                      -4.42820                       1.32799                      89.60065
                      -4.59912                       1.35040                      89.48453
                      -4.79406                       1.36537                      89.41403
                      -5.00079                       1.37195                      89.39359
                      -5.20631                       1.36975                      89.42448
                      -5.39771                       1.35888                      89.50477
                      -5.56297                       1.34005                      89.62941
                      -5.69169                       1.31442                      89.79057
                      -5.77579                       1.28362                      89.97812
                      -5.80999                       1.24957                      90.18028
                      -5.79214                       1.21441                      90.38435
                      -5.72335                       1.18037                      90.57750
                      -5.60796                       1.14956                      90.74760
                      -5.45321                       1.12393                      90.88396
                      -5.26882                       1.10510                      90.97801
                      -5.06639                       1.09424                      91.02384
                      -4.85863                       1.09203                      91.01857
                      -4.65859                       1.09861                      90.96254
                      -4.47884                       1.11358                      90.85926
                      -4.33069                       1.13599                      90.71523
                      -4.22343                       1.16443                      90.53949
                      -4.16381                       1.19711                      90.34308
                      -4.38253                       1.35519                      90.17943
                      -4.41410                       1.38041                      90.03470
                      -4.48121                       1.40404                      89.90234
                      -4.57964                       1.42460                      89.79067
                      -4.70322                       1.44080                      89.70672
                      -4.84416                       1.45162                      89.65575
                      -4.99363                       1.45638                      89.64097
                      -5.14222                       1.45479                      89.66330
                      -5.28060                       1.44693                      89.72135
                      -5.40008                       1.43331                      89.81146
                      -5.49314                       1.41479                      89.92798
                      -5.55395                       1.39252                      90.06358
                      -5.57867                       1.36790                      90.20975
                      -5.56577                       1.34248                      90.35729
                      -5.51604                       1.31786                      90.49693
                      -5.43261                       1.29559                      90.61992
                      -5.32072                       1.27707                      90.71850
                      -5.18741                       1.26345                      90.78650
                      -5.04105                       1.25559                      90.81964
                      -4.89084                       1.25400                      90.81583
                      -4.74621                       1.25876                      90.77532
                      -4.61626                       1.26958                      90.70065
                      -4.50914                       1.28578                      90.59651
                      -4.43160                       1.30634                      90.46945
                      -4.38849                       1.32997                      90.32745
                      -4.97789                       1.47839                      90.25274
                      -4.97789                       1.47839                      90.25274
                      -4.97789                       1.47839                      90.25274
                      -4.97789                       1.47839                      90.25274
                      -4.97789                       1.47839                      90.25274
                      -4.97789                       1.47839                      90.25274
                      -4.97789                       1.47839                      90.25274
                      -4.97789                       1.47839                      90.25274
                      -4.97789                       1.47839                      90.25274
                      -4.97789                       1.47839                      90.25274
                      -4.97789                       1.47839                      90.25274
                      -4.97789                       1.47839                      90.25274
                      -4.97789                       1.47839                      90.25274
                      -4.97789                       1.47839                      90.25274
                      -4.97789                       1.47839                      90.25274
                      -4.97789                       1.47839                      90.25274
                      -4.97789                       1.47839                      90.25274
                      -4.97789                       1.47839                      90.25274
                      -4.97789                       1.47839                      90.25274
                      -4.97789                       1.47839                      90.25274
                      -4.97789                       1.47839                      90.25274
                      -4.97789                       1.47839                      90.25274
                      -4.97789                       1.47839                      90.25274
                      -4.97789                       1.47839                      90.25274
                      -4.97789                       1.47839                      90.25274
        </DataArray>
      </Points>
      <Polys>
        <DataArray type="Int32" Name="connectivity" format="ascii">
      0      1     26     25
      1      2     27     26
      2      3     28     27
      3      4     29     28
      4      5     30     29
      5      6     31     30
      6      7     32     31
      7      8     33     32
      8      9     34     33
      9     10     35     34
     10     11     36     35
     11     12     37     36
     12     13     38     37
     13     14     39     38
     14     15     40     39
     15     16     41     40
     16     17     42     41
     17     18     43     42
     18     19     44     43
     19     20     45     44
     20     21     46     45
     21     22     47     46
     22     23     48     47
     23     24     49     48
     24      0     25     49
     25     26     51     50
     26     27     52     51
     27     28     53     52
     28     29     54     53
     29     30     55     54
     30     31     56     55
     31     32     57     56
     32     33     58     57
     33     34     59     58
     34     35     60     59
     35     36     61     60
     36     37     62     61
     37     38     63     62
     38     39     64     63
     39     40     65     64
     40     41     66     65
     41     42     67     66
     42     43     68     67
     43     44     69     68
     44     45     70     69
     45     46     71     70
     46     47     72     71
     47     48     73     72
     48     49     74     73
     49     25     50     74
     50     51     76     75
     51     52     77     76
     52     53     78     77
     53     54     79     78
     54     55     80     79
     55     56     81     80
     56     57     82     81
     57     58     83     82
     58     59     84     83
     59     60     85     84
     60     61     86     85
     61     62     87     86
     62     63     88     87
     63     64     89     88
     64     65     90     89
     65     66     91     90
     66     67     92     91
     67     68     93     92
     68     69     94     93
     69     70     95     94
     70     71     96     95
     71     72     97     96
     72     73     98     97
     73     74     99     98
     74     50     75     99
     75     76    101    100
     76     77    102    101
     77     78    103    102
     78     79    104    103
     79     80    105    104
     80     81    106    105
     81     82    107    106
     82     83    108    107
     83     84    109    108
     84     85    110    109
     85     86    111    110
     86     87    112    111
     87     88    113    112
     88     89    114    113
     89     90    115    114
     90     91    116    115
     91     92    117    116
     92     93    118    117
     93     94    119    118
     94     95    120    119
     95     96    121    120
     96     97    122    121
     97     98    123    122
     98     99    124    123
     99     75    100    124
    100    101    126    125
    101    102    127    126
    102    103    128    127
    103    104    129    128
    104    105    130    129
    105    106    131    130
    106    107    132    131
    107    108    133    132
    108    109    134    133
    109    110    135    134
    110    111    136    135
    111    112    137    136
    112    113    138    137
    113    114    139    138
    114    115    140    139
    115    116    141    140
    116    117    142    141
    117    118    143    142
    118    119    144    143
    119    120    145    144
    120    121    146    145
    121    122    147    146
    122    123    148    147
    123    124    149    148
    124    100    125    149
    125    126    151    150
    126    127    152    151
    127    128    153    152
    128    129    154    153
    129    130    155    154
    130    131    156    155
    131    132    157    156
    132    133    158    157
    133    134    159    158
    134    135    160    159
    135    136    161    160
    136    137    162    161
    137    138    163    162
    138    139    164    163
    139    140    165    164
    140    141    166    165
    141    142    167    166
    142    143    168    167
    143    144    169    168
    144    145    170    169
    145    146    171    170
    146    147    172    171
    147    148    173    172
    148    149    174    173
    149    125    150    174
    150    151    176    175
    151    152    177    176
    152    153    178    177
    153    154    179    178
    154    155    180    179
    155    156    181    180
    156    157    182    181
    157    158    183    182
    158    159    184    183
    159    160    185    184
    160    161    186    185
    161    162    187    186
    162    163    188    187
    163    164    189    188
    164    165    190    189
    165    166    191    190
    166    167    192    191
    167    168    193    192
    168    169    194    193
    169    170    195    194
    170    171    196    195
    171    172    197    196
    172    173    198    197
    173    174    199    198
    174    150    175    199
    175    176    201    200
    176    177    202    201
    177    178    203    202
    178    179    204    203
    179    180    205    204
    180    181    206    205
    181    182    207    206
    182    183    208    207
    183    184    209    208
    184    185    210    209
    185    186    211    210
    186    187    212    211
    187    188    213    212
    188    189    214    213
    189    190    215    214
    190    191    216    215
    191    192    217    216
    192    193    218    217
    193    194    219    218
    194    195    220    219
    195    196    221    220
    196    197    222    221
    197    198    223    222
    198    199    224    223
    199    175    200    224
    200    201    226    225
    201    202    227    226
    202    203    228    227
    203    204    229    228
    204    205    230    229
    205    206    231    230
    206    207    232    231
    207    208    233    232
    208    209    234    233
    209    210    235    234
    210    211    236    235
    211    212    237    236
    212    213    238    237
    213    214    239    238
    214    215    240    239
    215    216    241    240
    216    217    242    241
    217    218    243    242
    218    219    244    243
    219    220    245    244
    220    221    246    245
    221    222    247    246
    222    223    248    247
    223    224    249    248
    224    200    225    249
    225    226    251    250
    226    227    252    251
    227    228    253    252
    228    229    254    253
    229    230    255    254
    230    231    256    255
    231    232    257    256
    232    233    258    257
    233    234    259    258
    234    235    260    259
    235    236    261    260
    236    237    262    261
    237    238    263    262
    238    239    264    263
    239    240    265    264
    240    241    266    265
    241    242    267    266
    242    243    268    267
    243    244    269    268
    244    245    270    269
    245    246    271    270
    246    247    272    271
    247    248    273    272
    248    249    274    273
    249    225    250    274
    250    251    276    275
    251    252    277    276
    252    253    278    277
    253    254    279    278
    254    255    280    279
    255    256    281    280
    256    257    282    281
    257    258    283    282
    258    259    284    283
    259    260    285    284
    260    261    286    285
    261    262    287    286
    262    263    288    287
    263    264    289    288
    264    265    290    289
    265    266    291    290
    266    267    292    291
    267    268    293    292
    268    269    294    293
    269    270    295    294
    270    271    296    295
    271    272    297    296
    272    273    298    297
    273    274    299    298
    274    250    275    299
    275    276    301    300
    276    277    302    301
    277    278    303    302
    278    279    304    303
    279    280    305    304
    280    281    306    305
    281    282    307    306
    282    283    308    307
    283    284    309    308
    284    285    310    309
    285    286    311    310
    286    287    312    311
    287    288    313    312
    288    289    314    313
    289    290    315    314
    290    291    316    315
    291    292    317    316
    292    293    318    317
    293    294    319    318
    294    295    320    319
    295    296    321    320
    296    297    322    321
    297    298    323    322
    298    299    324    323
    299    275    300    324
    300    301    326    325
    301    302    327    326
    302    303    328    327
    303    304    329    328
    304    305    330    329
    305    306    331    330
    306    307    332    331
    307    308    333    332
    308    309    334    333
    309    310    335    334
    310    311    336    335
    311    312    337    336
    312    313    338    337
    313    314    339    338
    314    315    340    339
    315    316    341    340
    316    317    342    341
    317    318    343    342
    318    319    344    343
    319    320    345    344
    320    321    346    345
    321    322    347    346
    322    323    348    347
    323    324    349    348
    324    300    325    349
    325    326    351    350
    326    327    352    351
    327    328    353    352
    328    329    354    353
    329    330    355    354
    330    331    356    355
    331    332    357    356
    332    333    358    357
    333    334    359    358
    334    335    360    359
    335    336    361    360
    336    337    362    361
    337    338    363    362
    338    339    364    363
    339    340    365    364
    340    341    366    365
    341    342    367    366
    342    343    368    367
    343    344    369    368
    344    345    370    369
    345    346    371    370
    346    347    372    371
    347    348    373    372
    348    349    374    373
    349    325    350    374
    350    351    376    375
    351    352    377    376
    352    353    378    377
    353    354    379    378
    354    355    380    379
    355    356    381    380
    356    357    382    381
    357    358    383    382
    358    359    384    383
    359    360    385    384
    360    361    386    385
    361    362    387    386
    362    363    388    387
    363    364    389    388
    364    365    390    389
    365    366    391    390
    366    367    392    391
    367    368    393    392
    368    369    394    393
    369    370    395    394
    370    371    396    395
    371    372    397    396
    372    373    398    397
    373    374    399    398
    374    350    375    399
    375    376    401    400
    376    377    402    401
    377    378    403    402
    378    379    404    403
    379    380    405    404
    380    381    406    405
    381    382    407    406
    382    383    408    407
    383    384    409    408
    384    385    410    409
    385    386    411    410
    386    387    412    411
    387    388    413    412
    388    389    414    413
    389    390    415    414
    390    391    416    415
    391    392    417    416
    392    393    418    417
    393    394    419    418
    394    395    420    419
    395    396    421    420
    396    397    422    421
    397    398    423    422
    398    399    424    423
    399    375    400    424
    400    401    426    425
    401    402    427    426
    402    403    428    427
    403    404    429    428
    404    405    430    429
    405    406    431    430
    406    407    432    431
    407    408    433    432
    408    409    434    433
    409    410    435    434
    410    411    436    435
    411    412    437    436
    412    413    438    437
    413    414    439    438
    414    415    440    439
    415    416    441    440
    416    417    442    441
    417    418    443    442
    418    419    444    443
    419    420    445    444
    420    421    446    445
    421    422    447    446
    422    423    448    447
    423    424    449    448
    424    400    425    449
    425    426    451    450
    426    427    452    451
    427    428    453    452
    428    429    454    453
    429    430    455    454
    430    431    456    455
    431    432    457    456
    432    433    458    457
    433    434    459    458
    434    435    460    459
    435    436    461    460
    436    437    462    461
    437    438    463    462
    438    439    464    463
    439    440    465    464
    440    441    466    465
    441    442    467    466
    442    443    468    467
    443    444    469    468
    444    445    470    469
    445    446    471    470
    446    447    472    471
    447    448    473    472
    448    449    474    473
    449    425    450    474
    450    451    476    475
    451    452    477    476
    452    453    478    477
    453    454    479    478
    454    455    480    479
    455    456    481    480
    456    457    482    481
    457    458    483    482
    458    459    484    483
    459    460    485    484
    460    461    486    485
    461    462    487    486
    462    463    488    487
    463    464    489    488
    464    465    490    489
    465    466    491    490
    466    467    492    491
    467    468    493    492
    468    469    494    493
    469    470    495    494
    470    471    496    495
    471    472    497    496
    472    473    498    497
    473    474    499    498
    474    450    475    499
    475    476    501    500
    476    477    502    501
    477    478    503    502
    478    479    504    503
    479    480    505    504
    480    481    506    505
    481    482    507    506
    482    483    508    507
    483    484    509    508
    484    485    510    509
    485    486    511    510
    486    487    512    511
    487    488    513    512
    488    489    514    513
    489    490    515    514
    490    491    516    515
    491    492    517    516
    492    493    518    517
    493    494    519    518
    494    495    520    519
    495    496    521    520
    496    497    522    521
    497    498    523    522
    498    499    524    523
    499    475    500    524
    500    501    526    525
    501    502    527    526
    502    503    528    527
    503    504    529    528
    504    505    530    529
    505    506    531    530
    506    507    532    531
    507    508    533    532
    508    509    534    533
    509    510    535    534
    510    511    536    535
    511    512    537    536
    512    513    538    537
    513    514    539    538
    514    515    540    539
    515    516    541    540
    516    517    542    541
    517    518    543    542
    518    519    544    543
    519    520    545    544
    520    521    546    545
    521    522    547    546
    522    523    548    547
    523    524    549    548
    524    500    525    549
    525    526    551    550
    526    527    552    551
    527    528    553    552
    528    529    554    553
    529    530    555    554
    530    531    556    555
    531    532    557    556
    532    533    558    557
    533    534    559    558
    534    535    560    559
    535    536    561    560
    536    537    562    561
    537    538    563    562
    538    539    564    563
    539    540    565    564
    540    541    566    565
    541    542    567    566
    542    543    568    567
    543    544    569    568
    544    545    570    569
    545    546    571    570
    546    547    572    571
    547    548    573    572
    548    549    574    573
    549    525    550    574
    550    551    576    575
    551    552    577    576
    552    553    578    577
    553    554    579    578
    554    555    580    579
    555    556    581    580
    556    557    582    581
    557    558    583    582
    558    559    584    583
    559    560    585    584
    560    561    586    585
    561    562    587    586
    562    563    588    587
    563    564    589    588
    564    565    590    589
    565    566    591    590
    566    567    592    591
    567    568    593    592
    568    569    594    593
    569    570    595    594
    570    571    596    595
    571    572    597    596
    572    573    598    597
    573    574    599    598
    574    550    575    599
    575    576    601    600
    576    577    602    601
    577    578    603    602
    578    579    604    603
    579    580    605    604
    580    581    606    605
    581    582    607    606
    582    583    608    607
    583    584    609    608
    584    585    610    609
    585    586    611    610
    586    587    612    611
    587    588    613    612
    588    589    614    613
    589    590    615    614
    590    591    616    615
    591    592    617    616
    592    593    618    617
    593    594    619    618
    594    595    620    619
    595    596    621    620
    596    597    622    621
    597    598    623    622
    598    599    624    623
    599    575    600    624
        </DataArray>
        <DataArray type="Int32" Name="offsets" format="ascii">
      4
      8
     12
     16
     20
     24
     28
     32
     36
     40
     44
     48
     52
     56
     60
     64
     68
     72
     76
     80
     84
     88
     92
     96
    100
    104
    108
    112
    116
    120
    124
    128
    132
    136
    140
    144
    148
    152
    156
    160
    164
    168
    172
    176
    180
    184
    188
    192
    196
    200
    204
    208
    212
    216
    220
    224
    228
    232
    236
    240
    244
    248
    252
    256
    260
    264
    268
    272
    276
    280
    284
    288
    292
    296
    300
    304
    308
    312
    316
    320
    324
    328
    332
    336
    340
    344
    348
    352
    356
    360
    364
    368
    372
    376
    380
    384
    388
    392
    396
    400
    404
    408
    412
    416
    420
    424
    428
    432
    436
    440
    444
    448
    452
    456
    460
    464
    468
    472
    476
    480
    484
    488
    492
    496
    500
    504
    508
    512
    516
    520
    524
    528
    532
    536
    540
    544
    548
    552
    556
    560
    564
    568
    572
    576
    580
    584
    588
    592
    596
    600
    604
    608
    612
    616
    620
    624
    628
    632
    636
    640
    644
    648
    652
    656
    660
    664
    668
    672
    676
    680
    684
    688
    692
    696
    700
    704
    708
    712
    716
    720
    724
    728
    732
    736
    740
    744
    748
    752
    756
    760
    764
    768
    772
    776
    780
    784
    788
    792
    796
    800
    804
    808
    812
    816
    820
    824
    828
    832
    836
    840
    844
    848
    852
    856
    860
    864
    868
    872
    876
    880
    884
    888
    892
    896
    900
    904
    908
    912
    916
    920
    924
    928
    932
    936
    940
    944
    948
    952
    956
    960
    964
    968
    972
    976
    980
    984
    988
    992
    996
   1000
   1004
   1008
   1012
   1016
   1020
   1024
   1028
   1032
   1036
   1040
   1044
   1048
   1052
   1056
   1060
   1064
   1068
   1072
   1076
   1080
   1084
   1088
   1092
   1096
   1100
   1104
   1108
   1112
   1116
   1120
   1124
   1128
   1132
   1136
   1140
   1144
   1148
   1152
   1156
   1160
   1164
   1168
   1172
   1176
   1180
   1184
   1188
   1192
   1196
   1200
   1204
   1208
   1212
   1216
   1220
   1224
   1228
   1232
   1236
   1240
   1244
   1248
   1252
   1256
   1260
   1264
   1268
   1272
   1276
   1280
   1284
   1288
   1292
   1296
   1300
   1304
   1308
   1312
   1316
   1320
   1324
   1328
   1332
   1336
   1340
   1344
   1348
   1352
   1356
   1360
   1364
   1368
   1372
   1376
   1380
   1384
   1388
   1392
   1396
   1400
   1404
   1408
   1412
   1416
   1420
   1424
   1428
   1432
   1436
   1440
   1444
   1448
   1452
   1456
   1460
   1464
   1468
   1472
   1476
   1480
   1484
   1488
   1492
   1496
   1500
   1504
   1508
   1512
   1516
   1520
   1524
   1528
   1532
   1536
   1540
   1544
   1548
   1552
   1556
   1560
   1564
   1568
   1572
   1576
   1580
   1584
   1588
   1592
   1596
   1600
   1604
   1608
   1612
   1616
   1620
   1624
   1628
   1632
   1636
   1640
   1644
   1648
   1652
   1656
   1660
   1664
   1668
   1672
   1676
   1680
   1684
   1688
   1692
   1696
   1700
   1704
   1708
   1712
   1716
   1720
   1724
   1728
   1732
   1736
   1740
   1744
   1748
   1752
   1756
   1760
   1764
   1768
   1772
   1776
   1780
   1784
   1788
   1792
   1796
   1800
   1804
   1808
   1812
   1816
   1820
   1824
   1828
   1832
   1836
   1840
   1844
   1848
   1852
   1856
   1860
   1864
   1868
   1872
   1876
   1880
   1884
   1888
   1892
   1896
   1900
   1904
   1908
   1912
   1916
   1920
   1924
   1928
   1932
   1936
   1940
   1944
   1948
   1952
   1956
   1960
   1964
   1968
   1972
   1976
   1980
   1984
   1988
   1992
   1996
   2000
   2004
   2008
   2012
   2016
   2020
   2024
   2028
   2032
   2036
   2040
   2044
   2048
   2052
   2056
   2060
   2064
   2068
   2072
   2076
   2080
   2084
   2088
   2092
   2096
   2100
   2104
   2108
   2112
   2116
   2120
   2124
   2128
   2132
   2136
   2140
   2144
   2148
   2152
   2156
   2160
   2164
   2168
   2172
   2176
   2180
   2184
   2188
   2192
   2196
   2200
   2204
   2208
   2212
   2216
   2220
   2224
   2228
   2232
   2236
   2240
   2244
   2248
   2252
   2256
   2260
   2264
   2268
   2272
   2276
   2280
   2284
   2288
   2292
   2296
   2300
   2304
   2308
   2312
   2316
   2320
   2324
   2328
   2332
   2336
   2340
   2344
   2348
   2352
   2356
   2360
   2364
   2368
   2372
   2376
   2380
   2384
   2388
   2392
   2396
   2400
        </DataArray>
      </Polys>
    </Piece>
  </PolyData>
</VTKFile>
