<?xml version="1.0"?>
<VTKFile type="PolyData" version="0.1" byte_order="LittleEndian">
  <PolyData>
    <Piece NumberOfPoints="    625" NumberOfVerts="  0" NumberOfLines="      0"
           NumberOfStrips="  0" NumberOfPolys="    600">
      <Points>
        <DataArray type="Float32" NumberOfComponents="3" format="ascii">
                      -4.86941                      -0.07113                      91.49261
                      -4.86941                      -0.07113                      91.49261
                      -4.86941                      -0.07113                      91.49261
                      -4.86941                      -0.07113                      91.49261
                      -4.86941                      -0.07113                      91.49261
                      -4.86941                      -0.07113                      91.49261
                      -4.86941                      -0.07113                      91.49261
                      -4.86941                      -0.07113                      91.49261
                      -4.86941                      -0.07113                      91.49261
                      -4.86941                      -0.07113                      91.49261
                      -4.86941                      -0.07113                      91.49261
                      -4.86941                      -0.07113                      91.49261
                      -4.86941                      -0.07113                      91.49261
                      -4.86941                      -0.07113                      91.49261
                      -4.86941                      -0.07113                      91.49261
                      -4.86941                      -0.07113                      91.49261
                      -4.86941                      -0.07113                      91.49261
                      -4.86941                      -0.07113                      91.49261
                      -4.86941                      -0.07113                      91.49261
                      -4.86941                      -0.07113                      91.49261
                      -4.86941                      -0.07113                      91.49261
                      -4.86941                      -0.07113                      91.49261
                      -4.86941                      -0.07113                      91.49261
                      -4.86941                      -0.07113                      91.49261
                      -4.86941                      -0.07113                      91.49261
                      -4.28310                      -0.06521                      91.31598
                      -4.30248                      -0.21412                      91.31058
                      -4.35816                      -0.35368                      91.30880
                      -4.44665                      -0.47512                      91.31076
                      -4.56239                      -0.57079                      91.31632
                      -4.69811                      -0.63470                      91.32515
                      -4.84527                      -0.66283                      91.33668
                      -4.99463                      -0.65340                      91.35020
                      -5.13681                      -0.60702                      91.36485
                      -5.26287                      -0.52659                      91.37971
                      -5.36490                      -0.41717                      91.39385
                      -5.43647                      -0.28564                      91.40638
                      -5.47310                      -0.14026                      91.41652
                      -5.47247                       0.00984                      91.42362
                      -5.43464                       0.15523                      91.42723
                      -5.36198                       0.28676                      91.42715
                      -5.25906                       0.39618                      91.42336
                      -5.13233                       0.47661                      91.41610
                      -4.98977                       0.52299                      91.40584
                      -4.84033                       0.53242                      91.39321
                      -4.69340                       0.50429                      91.37902
                      -4.55821                       0.44038                      91.36415
                      -4.44326                       0.34470                      91.34953
                      -4.35577                       0.22327                      91.33609
                      -4.30124                       0.08371                      91.32467
                      -4.06518                      -0.05928                      91.17158
                      -4.09198                      -0.26525                      91.16411
                      -4.16900                      -0.45828                      91.16165
                      -4.29140                      -0.62624                      91.16435
                      -4.45148                      -0.75857                      91.17205
                      -4.63919                      -0.84697                      91.18426
                      -4.84273                      -0.88587                      91.20021
                      -5.04932                      -0.87283                      91.21891
                      -5.24597                      -0.80868                      91.23917
                      -5.42033                      -0.69744                      91.25973
                      -5.56144                      -0.54610                      91.27929
                      -5.66044                      -0.36417                      91.29662
                      -5.71110                      -0.16308                      91.31063
                      -5.71024                       0.04453                      91.32045
                      -5.65791                       0.24561                      91.32546
                      -5.55741                       0.42754                      91.32533
                      -5.41505                       0.57888                      91.32009
                      -5.23977                       0.69012                      91.31006
                      -5.04259                       0.75427                      91.29586
                      -4.83589                       0.76731                      91.27840
                      -4.63267                       0.72841                      91.25877
                      -4.44569                       0.64001                      91.23820
                      -4.28670                       0.50768                      91.21798
                      -4.16570                       0.33972                      91.19939
                      -4.09028                       0.14669                      91.18359
                      -3.91368                      -0.05335                      91.03299
                      -3.94575                      -0.29981                      91.02405
                      -4.03791                      -0.53079                      91.02110
                      -4.18437                      -0.73176                      91.02434
                      -4.37592                      -0.89011                      91.03355
                      -4.60053                      -0.99589                      91.04816
                      -4.84409                      -1.04244                      91.06725
                      -5.09129                      -1.02684                      91.08962
                      -5.32660                      -0.95007                      91.11387
                      -5.53524                      -0.81696                      91.13847
                      -5.70409                      -0.63587                      91.16187
                      -5.82254                      -0.41818                      91.18261
                      -5.88316                      -0.17756                      91.19938
                      -5.88213                       0.07086                      91.21113
                      -5.81953                       0.31148                      91.21712
                      -5.69927                       0.52917                      91.21697
                      -5.52892                       0.71026                      91.21070
                      -5.31918                       0.84337                      91.19869
                      -5.08324                       0.92014                      91.18171
                      -4.83591                       0.93573                      91.16081
                      -4.59273                       0.88919                      91.13732
                      -4.36900                       0.78341                      91.11270
                      -4.17875                       0.62506                      91.08851
                      -4.03396                       0.42409                      91.06627
                      -3.94371                       0.19311                      91.04736
                      -3.79916                      -0.04742                      90.89763
                      -3.83530                      -0.32515                      90.88756
                      -3.93916                      -0.58543                      90.88424
                      -4.10420                      -0.81191                      90.88789
                      -4.32005                      -0.99035                      90.89827
                      -4.57316                      -1.10954                      90.91473
                      -4.84762                      -1.16199                      90.93624
                      -5.12618                      -1.14442                      90.96145
                      -5.39135                      -1.05791                      90.98878
                      -5.62645                      -0.90791                      91.01649
                      -5.81673                      -0.70385                      91.04286
                      -5.95021                      -0.45854                      91.06623
                      -6.01852                      -0.18739                      91.08513
                      -6.01736                       0.09255                      91.09837
                      -5.94681                       0.36369                      91.10512
                      -5.81129                       0.60900                      91.10496
                      -5.61933                       0.81307                      91.09789
                      -5.38299                       0.96307                      91.08436
                      -5.11711                       1.04957                      91.06522
                      -4.83840                       1.06715                      91.04167
                      -4.56437                       1.01469                      91.01520
                      -4.31225                       0.89550                      90.98746
                      -4.09787                       0.71706                      90.96020
                      -3.93470                       0.49059                      90.93513
                      -3.83301                       0.23031                      90.91383
                      -3.71011                      -0.04149                      90.76451
                      -3.74950                      -0.34415                      90.75353
                      -3.86267                      -0.62778                      90.74991
                      -4.04251                      -0.87457                      90.75389
                      -4.27774                      -1.06902                      90.76520
                      -4.55356                      -1.19891                      90.78314
                      -4.85264                      -1.25607                      90.80658
                      -5.15620                      -1.23692                      90.83405
                      -5.44516                      -1.14265                      90.86383
                      -5.70136                      -0.97919                      90.89403
                      -5.90870                      -0.75682                      90.92277
                      -6.05416                      -0.48949                      90.94823
                      -6.12860                      -0.19402                      90.96883
                      -6.12734                       0.11103                      90.98326
                      -6.05045                       0.40650                      90.99061
                      -5.90278                       0.67383                      90.99043
                      -5.69359                       0.89620                      90.98273
                      -5.43604                       1.05966                      90.96798
                      -5.14631                       1.15393                      90.94713
                      -4.84259                       1.17308                      90.92147
                      -4.54398                       1.11592                      90.89262
                      -4.26923                       0.98603                      90.86239
                      -4.03562                       0.79158                      90.83269
                      -3.85781                       0.54479                      90.80537
                      -3.74699                       0.26116                      90.78216
                      -3.64061                      -0.03557                      90.63309
                      -3.68260                      -0.35826                      90.62139
                      -3.80327                      -0.66068                      90.61753
                      -3.99503                      -0.92382                      90.62177
                      -4.24583                      -1.13115                      90.63383
                      -4.53992                      -1.26964                      90.65296
                      -4.85881                      -1.33058                      90.67795
                      -5.18247                      -1.31016                      90.70724
                      -5.49056                      -1.20965                      90.73899
                      -5.76373                      -1.03537                      90.77119
                      -5.98481                      -0.79826                      90.80183
                      -6.13990                      -0.51324                      90.82899
                      -6.21927                      -0.19820                      90.85094
                      -6.21793                       0.12706                      90.86633
                      -6.13595                       0.44210                      90.87417
                      -5.97850                       0.72713                      90.87398
                      -5.75546                       0.96423                      90.86576
                      -5.48085                       1.13852                      90.85004
                      -5.17192                       1.23903                      90.82781
                      -4.84809                       1.25945                      90.80045
                      -4.52970                       1.19850                      90.76969
                      -4.23676                       1.06001                      90.73746
                      -3.98768                       0.85269                      90.70579
                      -3.79810                       0.58955                      90.67666
                      -3.67993                       0.28713                      90.65191
                      -3.58719                      -0.02964                      90.50308
                      -3.63127                      -0.36837                      90.49079
                      -3.75793                      -0.68581                      90.48675
                      -3.95922                      -0.96203                      90.49119
                      -4.22248                      -1.17966                      90.50385
                      -4.53118                      -1.32503                      90.52393
                      -4.86592                      -1.38901                      90.55017
                      -5.20566                      -1.36757                      90.58092
                      -5.52907                      -1.26206                      90.61424
                      -5.81581                      -1.07912                      90.64804
                      -6.04787                      -0.83023                      90.68021
                      -6.21067                      -0.53105                      90.70871
                      -6.29398                      -0.20035                      90.73176
                      -6.29257                       0.14107                      90.74791
                      -6.20652                       0.47177                      90.75614
                      -6.04125                       0.77096                      90.75594
                      -5.80712                       1.01984                      90.74731
                      -5.51887                       1.20278                      90.73081
                      -5.19459                       1.30829                      90.70747
                      -4.85467                       1.32973                      90.67875
                      -4.52046                       1.26575                      90.64647
                      -4.21296                       1.12038                      90.61264
                      -3.95150                       0.90275                      90.57939
                      -3.75250                       0.62654                      90.54881
                      -3.62846                       0.30909                      90.52283
                      -3.54764                      -0.02371                      90.37428
                      -3.59335                      -0.37502                      90.36154
                      -3.72472                      -0.70425                      90.35734
                      -3.93348                      -0.99072                      90.36196
                      -4.20652                      -1.21643                      90.37509
                      -4.52668                      -1.36720                      90.39591
                      -4.87384                      -1.43355                      90.42312
                      -5.22620                      -1.41131                      90.45501
                      -5.56161                      -1.30189                      90.48957
                      -5.85900                      -1.11216                      90.52463
                      -6.09968                      -0.85403                      90.55799
                      -6.26852                      -0.54373                      90.58755
                      -6.35493                      -0.20076                      90.61145
                      -6.35346                       0.15334                      90.62820
                      -6.26422                       0.49631                      90.63674
                      -6.09281                       0.80661                      90.63653
                      -5.84999                       1.06473                      90.62759
                      -5.55103                       1.25447                      90.61047
                      -5.21472                       1.36389                      90.58626
                      -4.86218                       1.38612                      90.55648
                      -4.51556                       1.31977                      90.52299
                      -4.19665                       1.16901                      90.48791
                      -3.92548                       0.94330                      90.45342
                      -3.71909                       0.65682                      90.42172
                      -3.59045                       0.32759                      90.39477
                      -3.52051                      -0.01778                      90.24657
                      -3.56746                      -0.37857                      90.23349
                      -3.70237                      -0.71668                      90.22918
                      -3.91676                      -1.01088                      90.23391
                      -4.19717                      -1.24268                      90.24740
                      -4.52596                      -1.39751                      90.26879
                      -4.88250                      -1.46566                      90.29673
                      -5.24436                      -1.44282                      90.32948
                      -5.58882                      -1.33045                      90.36497
                      -5.89423                      -1.13559                      90.40098
                      -6.14140                      -0.87050                      90.43523
                      -6.31480                      -0.55183                      90.46559
                      -6.40354                      -0.19961                      90.49014
                      -6.40204                       0.16404                      90.50734
                      -6.31038                       0.51627                      90.51611
                      -6.13435                       0.83494                      90.51589
                      -5.88498                       1.10003                      90.50671
                      -5.57796                       1.29488                      90.48914
                      -5.23257                       1.40725                      90.46427
                      -4.87052                       1.43009                      90.43369
                      -4.51455                       1.36195                      90.39929
                      -4.18703                       1.20711                      90.36326
                      -3.90854                       0.97531                      90.32785
                      -3.69659                       0.68111                      90.29529
                      -3.56447                       0.34300                      90.26761
                      -3.50484                      -0.01186                      90.11987
                      -3.55265                      -0.37926                      90.10654
                      -3.69004                      -0.72358                      90.10215
                      -3.90836                      -1.02318                      90.10697
                      -4.19392                      -1.25923                      90.12071
                      -4.52875                      -1.41690                      90.14249
                      -4.89182                      -1.48630                      90.17094
                      -5.26033                      -1.46304                      90.20429
                      -5.61111                      -1.34861                      90.24043
                      -5.92212                      -1.15018                      90.27710
                      -6.17383                      -0.88022                      90.31199
                      -6.35041                      -0.55571                      90.34290
                      -6.44078                      -0.19702                      90.36790
                      -6.43924                       0.17331                      90.38542
                      -6.34591                       0.53200                      90.39435
                      -6.16664                       0.85651                      90.39413
                      -5.91270                       1.12647                      90.38478
                      -5.60005                       1.32490                      90.36688
                      -5.24832                       1.43933                      90.34156
                      -4.87962                       1.46259                      90.31041
                      -4.51712                       1.39319                      90.27539
                      -4.18359                       1.23552                      90.23870
                      -3.90000                       0.99946                      90.20263
                      -3.68415                       0.69987                      90.16947
                      -3.54961                       0.35555                      90.14129
                      -3.50002                      -0.00593                      89.99411
                      -3.54834                      -0.37725                      89.98064
                      -3.68719                      -0.72523                      89.97620
                      -3.90784                      -1.02803                      89.98108
                      -4.19644                      -1.26659                      89.99496
                      -4.53484                      -1.42595                      90.01697
                      -4.90178                      -1.49608                      90.04573
                      -5.27422                      -1.47258                      90.07943
                      -5.62873                      -1.35693                      90.11596
                      -5.94306                      -1.15638                      90.15302
                      -6.19745                      -0.88355                      90.18828
                      -6.37592                      -0.55557                      90.21952
                      -6.46725                      -0.19306                      90.24479
                      -6.46570                       0.18121                      90.26249
                      -6.37137                       0.54372                      90.27151
                      -6.19019                       0.87170                      90.27129
                      -5.93354                       1.14453                      90.26184
                      -5.61755                       1.34507                      90.24375
                      -5.26208                       1.46073                      90.21817
                      -4.88945                       1.48423                      90.18668
                      -4.52309                       1.41410                      90.15129
                      -4.18601                       1.25474                      90.11420
                      -3.89939                       1.01617                      90.07776
                      -3.68124                       0.71338                      90.04424
                      -3.54527                       0.36539                      90.01576
                      -3.50571                       0.00000                      89.86927
                      -3.55420                      -0.37262                      89.85575
                      -3.69353                      -0.72182                      89.85130
                      -3.91495                      -1.02567                      89.85619
                      -4.20455                      -1.26507                      89.87012
                      -4.54414                      -1.42498                      89.89221
                      -4.91236                      -1.49536                      89.92107
                      -5.28609                      -1.47177                      89.95489
                      -5.64185                      -1.35571                      89.99155
                      -5.95728                      -1.15447                      90.02874
                      -6.21255                      -0.88069                      90.06412
                      -6.39164                      -0.55157                      90.09547
                      -6.48329                      -0.18779                      90.12082
                      -6.48173                       0.18779                      90.13859
                      -6.38708                       0.55157                      90.14764
                      -6.20526                       0.88069                      90.14742
                      -5.94772                       1.15447                      90.13794
                      -5.63063                       1.35571                      90.11979
                      -5.27391                       1.47177                      90.09411
                      -4.89999                       1.49536                      90.06252
                      -4.53234                       1.42498                      90.02700
                      -4.19408                       1.26507                      89.98978
                      -3.90646                       1.02567                      89.95321
                      -3.68756                       0.72182                      89.91958
                      -3.55111                       0.37262                      89.89100
                      -3.52179                       0.00593                      89.74534
                      -3.57011                      -0.36539                      89.73187
                      -3.70896                      -0.71338                      89.72743
                      -3.92961                      -1.01617                      89.73231
                      -4.21820                      -1.25474                      89.74619
                      -4.55660                      -1.41410                      89.76820
                      -4.92355                      -1.48423                      89.79696
                      -5.29598                      -1.46073                      89.83067
                      -5.65050                      -1.34507                      89.86719
                      -5.96483                      -1.14453                      89.90425
                      -6.21922                      -0.87169                      89.93951
                      -6.39768                      -0.54372                      89.97075
                      -6.48901                      -0.18121                      89.99602
                      -6.48746                       0.19306                      90.01372
                      -6.39313                       0.55557                      90.02275
                      -6.21195                       0.88355                      90.02252
                      -5.95531                       1.15638                      90.01307
                      -5.63932                       1.35693                      89.99499
                      -5.28384                       1.47258                      89.96940
                      -4.91122                       1.49608                      89.93792
                      -4.54485                       1.42595                      89.90252
                      -4.20777                       1.26659                      89.86544
                      -3.92115                       1.02803                      89.82899
                      -3.70300                       0.72523                      89.79547
                      -3.56703                       0.37725                      89.76699
                      -3.54837                       0.01186                      89.62233
                      -3.59618                      -0.35555                      89.60900
                      -3.73357                      -0.69987                      89.60461
                      -3.95189                      -0.99946                      89.60944
                      -4.23744                      -1.23552                      89.62317
                      -4.57228                      -1.39319                      89.64495
                      -4.93535                      -1.46259                      89.67341
                      -5.30386                      -1.43933                      89.70675
                      -5.65464                      -1.32490                      89.74290
                      -5.96565                      -1.12647                      89.77956
                      -6.21736                      -0.85651                      89.81445
                      -6.39394                      -0.53200                      89.84537
                      -6.48431                      -0.17331                      89.87037
                      -6.48277                       0.19702                      89.88788
                      -6.38944                       0.55571                      89.89681
                      -6.21017                       0.88022                      89.89659
                      -5.95623                       1.15018                      89.88724
                      -5.64357                       1.34861                      89.86934
                      -5.29185                       1.46304                      89.84402
                      -4.92315                       1.48630                      89.81288
                      -4.56065                       1.41690                      89.77785
                      -4.22712                       1.25923                      89.74116
                      -3.94352                       1.02318                      89.70510
                      -3.72768                       0.72358                      89.67194
                      -3.59314                       0.37926                      89.64376
                      -3.58581                       0.01778                      89.50027
                      -3.63275                      -0.34300                      89.48718
                      -3.76766                      -0.68111                      89.48287
                      -3.98205                      -0.97531                      89.48761
                      -4.26246                      -1.20711                      89.50109
                      -4.59126                      -1.36195                      89.52248
                      -4.94779                      -1.43009                      89.55042
                      -5.30966                      -1.40725                      89.58317
                      -5.65411                      -1.29488                      89.61866
                      -5.95952                      -1.10003                      89.65467
                      -6.20670                      -0.83494                      89.68893
                      -6.38010                      -0.51627                      89.71929
                      -6.46883                      -0.16404                      89.74384
                      -6.46733                       0.19961                      89.76103
                      -6.37568                       0.55183                      89.76980
                      -6.19964                       0.87050                      89.76959
                      -5.95027                       1.13559                      89.76040
                      -5.64325                       1.33045                      89.74283
                      -5.29786                       1.44282                      89.71797
                      -4.93581                       1.46566                      89.68738
                      -4.57984                       1.39751                      89.65299
                      -4.25232                       1.24268                      89.61696
                      -3.97384                       1.01088                      89.58155
                      -3.76188                       0.71668                      89.54898
                      -3.62977                       0.37857                      89.52131
                      -3.63470                       0.02371                      89.37921
                      -3.68041                      -0.32759                      89.36647
                      -3.81178                      -0.65682                      89.36227
                      -4.02054                      -0.94330                      89.36688
                      -4.29358                      -1.16901                      89.38001
                      -4.61374                      -1.31977                      89.40084
                      -4.96090                      -1.38612                      89.42805
                      -5.31326                      -1.36389                      89.45994
                      -5.64867                      -1.25447                      89.49449
                      -5.94606                      -1.06473                      89.52955
                      -6.18673                      -0.80661                      89.56291
                      -6.35558                      -0.49631                      89.59247
                      -6.44199                      -0.15334                      89.61638
                      -6.44052                       0.20076                      89.63312
                      -6.35128                       0.54373                      89.64166
                      -6.17986                       0.85403                      89.64145
                      -5.93705                       1.11216                      89.63251
                      -5.63809                       1.30189                      89.61540
                      -5.30178                       1.41131                      89.59119
                      -4.94923                       1.43355                      89.56141
                      -4.60262                       1.36719                      89.52792
                      -4.28370                       1.21643                      89.49283
                      -4.01253                       0.99072                      89.45835
                      -3.80614                       0.70425                      89.42664
                      -3.67751                       0.37502                      89.39970
                      -3.69601                       0.02964                      89.25924
                      -3.74009                      -0.30909                      89.24695
                      -3.86675                      -0.62654                      89.24290
                      -4.06804                      -0.90275                      89.24735
                      -4.33130                      -1.12038                      89.26001
                      -4.64000                      -1.26575                      89.28009
                      -4.97474                      -1.32973                      89.30633
                      -5.31449                      -1.30829                      89.33707
                      -5.63789                      -1.20278                      89.37040
                      -5.92463                      -1.01984                      89.40420
                      -6.15669                      -0.77096                      89.43637
                      -6.31950                      -0.47177                      89.46487
                      -6.40281                      -0.14107                      89.48792
                      -6.40139                       0.20035                      89.50406
                      -6.31535                       0.53104                      89.51230
                      -6.15007                       0.83024                      89.51209
                      -5.91595                       1.07912                      89.50347
                      -5.62769                       1.26206                      89.48697
                      -5.30341                       1.36757                      89.46363
                      -4.96349                       1.38901                      89.43491
                      -4.62928                       1.32503                      89.40262
                      -4.32179                       1.17966                      89.36879
                      -4.06032                       0.96203                      89.33555
                      -3.86132                       0.68581                      89.30497
                      -3.73729                       0.36837                      89.27899
                      -3.77120                       0.03557                      89.14048
                      -3.81319                      -0.28713                      89.12877
                      -3.93386                      -0.58955                      89.12492
                      -4.12561                      -0.85269                      89.12915
                      -4.37642                      -1.06001                      89.14122
                      -4.67050                      -1.19850                      89.16035
                      -4.98940                      -1.25945                      89.18534
                      -5.31306                      -1.23903                      89.21463
                      -5.62115                      -1.13852                      89.24638
                      -5.89432                      -0.96423                      89.27858
                      -6.11539                      -0.72713                      89.30922
                      -6.27049                      -0.44210                      89.33637
                      -6.34986                      -0.12706                      89.35833
                      -6.34851                       0.19820                      89.37372
                      -6.26654                       0.51324                      89.38156
                      -6.10908                       0.79826                      89.38137
                      -5.88604                       1.03537                      89.37315
                      -5.61143                       1.20965                      89.35743
                      -5.30251                       1.31016                      89.33520
                      -4.97868                       1.33058                      89.30784
                      -4.66029                       1.26964                      89.27708
                      -4.36735                       1.13115                      89.24485
                      -4.11826                       0.92382                      89.21318
                      -3.92868                       0.66068                      89.18405
                      -3.81052                       0.35826                      89.15930
                      -3.86246                       0.04149                      89.02313
                      -3.90185                      -0.26116                      89.01215
                      -4.01502                      -0.54479                      89.00853
                      -4.19486                      -0.79158                      89.01251
                      -4.43009                      -0.98603                      89.02382
                      -4.70591                      -1.11592                      89.04176
                      -5.00499                      -1.17308                      89.06520
                      -5.30855                      -1.15393                      89.09267
                      -5.59751                      -1.05966                      89.12245
                      -5.85371                      -0.89620                      89.15265
                      -6.06105                      -0.67383                      89.18139
                      -6.20651                      -0.40650                      89.20685
                      -6.28095                      -0.11103                      89.22745
                      -6.27969                       0.19402                      89.24188
                      -6.20280                       0.48949                      89.24923
                      -6.05513                       0.75682                      89.24905
                      -5.84595                       0.97919                      89.24135
                      -5.58839                       1.14265                      89.22661
                      -5.29866                       1.23692                      89.20575
                      -4.99494                       1.25607                      89.18009
                      -4.69633                       1.19891                      89.15124
                      -4.42158                       1.06902                      89.12101
                      -4.18797                       0.87457                      89.09131
                      -4.01017                       0.62778                      89.06399
                      -3.89934                       0.34414                      89.04078
                      -3.97328                       0.04742                      88.90749
                      -4.00942                      -0.23031                      88.89741
                      -4.11327                      -0.49059                      88.89409
                      -4.27831                      -0.71706                      88.89774
                      -4.49417                      -0.89550                      88.90812
                      -4.74728                      -1.01469                      88.92458
                      -5.02174                      -1.06715                      88.94610
                      -5.30030                      -1.04957                      88.97131
                      -5.56546                      -0.96307                      88.99863
                      -5.80057                      -0.81307                      89.02634
                      -5.99084                      -0.60900                      89.05272
                      -6.12433                      -0.36369                      89.07609
                      -6.19263                      -0.09255                      89.09498
                      -6.19148                       0.18739                      89.10822
                      -6.12092                       0.45854                      89.11497
                      -5.98541                       0.70385                      89.11481
                      -5.79345                       0.90791                      89.10774
                      -5.55710                       1.05791                      89.09421
                      -5.29122                       1.14442                      89.07507
                      -5.01251                       1.16199                      89.05153
                      -4.73849                       1.10954                      89.02505
                      -4.48636                       0.99035                      88.99731
                      -4.27198                       0.81191                      88.97005
                      -4.10882                       0.58543                      88.94498
                      -4.00712                       0.32515                      88.92368
                      -4.10956                       0.05335                      88.79407
                      -4.14163                      -0.19311                      88.78513
                      -4.23379                      -0.42409                      88.78219
                      -4.38025                      -0.62506                      88.78542
                      -4.57180                      -0.78341                      88.79464
                      -4.79641                      -0.88919                      88.80925
                      -5.03997                      -0.93573                      88.82834
                      -5.28717                      -0.92014                      88.85071
                      -5.52248                      -0.84337                      88.87495
                      -5.73112                      -0.71026                      88.89955
                      -5.89997                      -0.52917                      88.92295
                      -6.01842                      -0.31148                      88.94369
                      -6.07904                      -0.07086                      88.96046
                      -6.07801                       0.17756                      88.97221
                      -6.01540                       0.41818                      88.97820
                      -5.89515                       0.63587                      88.97805
                      -5.72480                       0.81696                      88.97178
                      -5.51506                       0.95007                      88.95977
                      -5.27912                       1.02684                      88.94279
                      -5.03179                       1.04244                      88.92189
                      -4.78861                       0.99589                      88.89840
                      -4.56488                       0.89011                      88.87379
                      -4.37463                       0.73176                      88.84960
                      -4.22984                       0.53079                      88.82735
                      -4.13959                       0.29981                      88.80845
                      -4.28282                       0.05928                      88.68390
                      -4.30962                      -0.14669                      88.67642
                      -4.38664                      -0.33972                      88.67396
                      -4.50904                      -0.50768                      88.67667
                      -4.66912                      -0.64001                      88.68437
                      -4.85683                      -0.72841                      88.69658
                      -5.06038                      -0.76731                      88.71253
                      -5.26697                      -0.75427                      88.73122
                      -5.46362                      -0.69012                      88.75149
                      -5.63798                      -0.57888                      88.77204
                      -5.77909                      -0.42754                      88.79160
                      -5.87808                      -0.24561                      88.80893
                      -5.92874                      -0.04453                      88.82295
                      -5.92788                       0.16308                      88.83277
                      -5.87556                       0.36417                      88.83777
                      -5.77506                       0.54610                      88.83765
                      -5.63270                       0.69744                      88.83241
                      -5.45742                       0.80868                      88.82237
                      -5.26023                       0.87283                      88.80818
                      -5.05354                       0.88587                      88.79072
                      -4.85032                       0.84697                      88.77108
                      -4.66334                       0.75857                      88.75051
                      -4.50435                       0.62624                      88.73030
                      -4.38334                       0.45828                      88.71170
                      -4.30792                       0.26525                      88.69591
                      -4.52251                       0.06521                      88.57953
                      -4.54189                      -0.08371                      88.57413
                      -4.59757                      -0.22327                      88.57235
                      -4.68606                      -0.34470                      88.57430
                      -4.80180                      -0.44038                      88.57987
                      -4.93752                      -0.50429                      88.58870
                      -5.08468                      -0.53242                      88.60023
                      -5.23404                      -0.52299                      88.61375
                      -5.37622                      -0.47661                      88.62840
                      -5.50228                      -0.39618                      88.64326
                      -5.60430                      -0.28676                      88.65740
                      -5.67588                      -0.15523                      88.66993
                      -5.71250                      -0.00984                      88.68006
                      -5.71188                       0.14026                      88.68716
                      -5.67405                       0.28564                      88.69078
                      -5.60139                       0.41717                      88.69069
                      -5.49846                       0.52659                      88.68690
                      -5.37174                       0.60702                      88.67965
                      -5.22918                       0.65340                      88.66939
                      -5.07973                       0.66283                      88.65676
                      -4.93280                       0.63470                      88.64257
                      -4.79762                       0.57079                      88.62769
                      -4.68267                       0.47512                      88.61308
                      -4.59518                       0.35368                      88.59964
                      -4.54065                       0.21412                      88.58821
                      -5.13059                       0.07113                      88.50739
                      -5.13059                       0.07113                      88.50739
                      -5.13059                       0.07113                      88.50739
                      -5.13059                       0.07113                      88.50739
                      -5.13059                       0.07113                      88.50739
                      -5.13059                       0.07113                      88.50739
                      -5.13059                       0.07113                      88.50739
                      -5.13059                       0.07113                      88.50739
                      -5.13059                       0.07113                      88.50739
                      -5.13059                       0.07113                      88.50739
                      -5.13059                       0.07113                      88.50739
                      -5.13059                       0.07113                      88.50739
                      -5.13059                       0.07113                      88.50739
                      -5.13059                       0.07113                      88.50739
                      -5.13059                       0.07113                      88.50739
                      -5.13059                       0.07113                      88.50739
                      -5.13059                       0.07113                      88.50739
                      -5.13059                       0.07113                      88.50739
                      -5.13059                       0.07113                      88.50739
                      -5.13059                       0.07113                      88.50739
                      -5.13059                       0.07113                      88.50739
                      -5.13059                       0.07113                      88.50739
                      -5.13059                       0.07113                      88.50739
                      -5.13059                       0.07113                      88.50739
                      -5.13059                       0.07113                      88.50739
        </DataArray>
      </Points>
      <Polys>
        <DataArray type="Int32" Name="connectivity" format="ascii">
      0      1     26     25
      1      2     27     26
      2      3     28     27
      3      4     29     28
      4      5     30     29
      5      6     31     30
      6      7     32     31
      7      8     33     32
      8      9     34     33
      9     10     35     34
     10     11     36     35
     11     12     37     36
     12     13     38     37
     13     14     39     38
     14     15     40     39
     15     16     41     40
     16     17     42     41
     17     18     43     42
     18     19     44     43
     19     20     45     44
     20     21     46     45
     21     22     47     46
     22     23     48     47
     23     24     49     48
     24      0     25     49
     25     26     51     50
     26     27     52     51
     27     28     53     52
     28     29     54     53
     29     30     55     54
     30     31     56     55
     31     32     57     56
     32     33     58     57
     33     34     59     58
     34     35     60     59
     35     36     61     60
     36     37     62     61
     37     38     63     62
     38     39     64     63
     39     40     65     64
     40     41     66     65
     41     42     67     66
     42     43     68     67
     43     44     69     68
     44     45     70     69
     45     46     71     70
     46     47     72     71
     47     48     73     72
     48     49     74     73
     49     25     50     74
     50     51     76     75
     51     52     77     76
     52     53     78     77
     53     54     79     78
     54     55     80     79
     55     56     81     80
     56     57     82     81
     57     58     83     82
     58     59     84     83
     59     60     85     84
     60     61     86     85
     61     62     87     86
     62     63     88     87
     63     64     89     88
     64     65     90     89
     65     66     91     90
     66     67     92     91
     67     68     93     92
     68     69     94     93
     69     70     95     94
     70     71     96     95
     71     72     97     96
     72     73     98     97
     73     74     99     98
     74     50     75     99
     75     76    101    100
     76     77    102    101
     77     78    103    102
     78     79    104    103
     79     80    105    104
     80     81    106    105
     81     82    107    106
     82     83    108    107
     83     84    109    108
     84     85    110    109
     85     86    111    110
     86     87    112    111
     87     88    113    112
     88     89    114    113
     89     90    115    114
     90     91    116    115
     91     92    117    116
     92     93    118    117
     93     94    119    118
     94     95    120    119
     95     96    121    120
     96     97    122    121
     97     98    123    122
     98     99    124    123
     99     75    100    124
    100    101    126    125
    101    102    127    126
    102    103    128    127
    103    104    129    128
    104    105    130    129
    105    106    131    130
    106    107    132    131
    107    108    133    132
    108    109    134    133
    109    110    135    134
    110    111    136    135
    111    112    137    136
    112    113    138    137
    113    114    139    138
    114    115    140    139
    115    116    141    140
    116    117    142    141
    117    118    143    142
    118    119    144    143
    119    120    145    144
    120    121    146    145
    121    122    147    146
    122    123    148    147
    123    124    149    148
    124    100    125    149
    125    126    151    150
    126    127    152    151
    127    128    153    152
    128    129    154    153
    129    130    155    154
    130    131    156    155
    131    132    157    156
    132    133    158    157
    133    134    159    158
    134    135    160    159
    135    136    161    160
    136    137    162    161
    137    138    163    162
    138    139    164    163
    139    140    165    164
    140    141    166    165
    141    142    167    166
    142    143    168    167
    143    144    169    168
    144    145    170    169
    145    146    171    170
    146    147    172    171
    147    148    173    172
    148    149    174    173
    149    125    150    174
    150    151    176    175
    151    152    177    176
    152    153    178    177
    153    154    179    178
    154    155    180    179
    155    156    181    180
    156    157    182    181
    157    158    183    182
    158    159    184    183
    159    160    185    184
    160    161    186    185
    161    162    187    186
    162    163    188    187
    163    164    189    188
    164    165    190    189
    165    166    191    190
    166    167    192    191
    167    168    193    192
    168    169    194    193
    169    170    195    194
    170    171    196    195
    171    172    197    196
    172    173    198    197
    173    174    199    198
    174    150    175    199
    175    176    201    200
    176    177    202    201
    177    178    203    202
    178    179    204    203
    179    180    205    204
    180    181    206    205
    181    182    207    206
    182    183    208    207
    183    184    209    208
    184    185    210    209
    185    186    211    210
    186    187    212    211
    187    188    213    212
    188    189    214    213
    189    190    215    214
    190    191    216    215
    191    192    217    216
    192    193    218    217
    193    194    219    218
    194    195    220    219
    195    196    221    220
    196    197    222    221
    197    198    223    222
    198    199    224    223
    199    175    200    224
    200    201    226    225
    201    202    227    226
    202    203    228    227
    203    204    229    228
    204    205    230    229
    205    206    231    230
    206    207    232    231
    207    208    233    232
    208    209    234    233
    209    210    235    234
    210    211    236    235
    211    212    237    236
    212    213    238    237
    213    214    239    238
    214    215    240    239
    215    216    241    240
    216    217    242    241
    217    218    243    242
    218    219    244    243
    219    220    245    244
    220    221    246    245
    221    222    247    246
    222    223    248    247
    223    224    249    248
    224    200    225    249
    225    226    251    250
    226    227    252    251
    227    228    253    252
    228    229    254    253
    229    230    255    254
    230    231    256    255
    231    232    257    256
    232    233    258    257
    233    234    259    258
    234    235    260    259
    235    236    261    260
    236    237    262    261
    237    238    263    262
    238    239    264    263
    239    240    265    264
    240    241    266    265
    241    242    267    266
    242    243    268    267
    243    244    269    268
    244    245    270    269
    245    246    271    270
    246    247    272    271
    247    248    273    272
    248    249    274    273
    249    225    250    274
    250    251    276    275
    251    252    277    276
    252    253    278    277
    253    254    279    278
    254    255    280    279
    255    256    281    280
    256    257    282    281
    257    258    283    282
    258    259    284    283
    259    260    285    284
    260    261    286    285
    261    262    287    286
    262    263    288    287
    263    264    289    288
    264    265    290    289
    265    266    291    290
    266    267    292    291
    267    268    293    292
    268    269    294    293
    269    270    295    294
    270    271    296    295
    271    272    297    296
    272    273    298    297
    273    274    299    298
    274    250    275    299
    275    276    301    300
    276    277    302    301
    277    278    303    302
    278    279    304    303
    279    280    305    304
    280    281    306    305
    281    282    307    306
    282    283    308    307
    283    284    309    308
    284    285    310    309
    285    286    311    310
    286    287    312    311
    287    288    313    312
    288    289    314    313
    289    290    315    314
    290    291    316    315
    291    292    317    316
    292    293    318    317
    293    294    319    318
    294    295    320    319
    295    296    321    320
    296    297    322    321
    297    298    323    322
    298    299    324    323
    299    275    300    324
    300    301    326    325
    301    302    327    326
    302    303    328    327
    303    304    329    328
    304    305    330    329
    305    306    331    330
    306    307    332    331
    307    308    333    332
    308    309    334    333
    309    310    335    334
    310    311    336    335
    311    312    337    336
    312    313    338    337
    313    314    339    338
    314    315    340    339
    315    316    341    340
    316    317    342    341
    317    318    343    342
    318    319    344    343
    319    320    345    344
    320    321    346    345
    321    322    347    346
    322    323    348    347
    323    324    349    348
    324    300    325    349
    325    326    351    350
    326    327    352    351
    327    328    353    352
    328    329    354    353
    329    330    355    354
    330    331    356    355
    331    332    357    356
    332    333    358    357
    333    334    359    358
    334    335    360    359
    335    336    361    360
    336    337    362    361
    337    338    363    362
    338    339    364    363
    339    340    365    364
    340    341    366    365
    341    342    367    366
    342    343    368    367
    343    344    369    368
    344    345    370    369
    345    346    371    370
    346    347    372    371
    347    348    373    372
    348    349    374    373
    349    325    350    374
    350    351    376    375
    351    352    377    376
    352    353    378    377
    353    354    379    378
    354    355    380    379
    355    356    381    380
    356    357    382    381
    357    358    383    382
    358    359    384    383
    359    360    385    384
    360    361    386    385
    361    362    387    386
    362    363    388    387
    363    364    389    388
    364    365    390    389
    365    366    391    390
    366    367    392    391
    367    368    393    392
    368    369    394    393
    369    370    395    394
    370    371    396    395
    371    372    397    396
    372    373    398    397
    373    374    399    398
    374    350    375    399
    375    376    401    400
    376    377    402    401
    377    378    403    402
    378    379    404    403
    379    380    405    404
    380    381    406    405
    381    382    407    406
    382    383    408    407
    383    384    409    408
    384    385    410    409
    385    386    411    410
    386    387    412    411
    387    388    413    412
    388    389    414    413
    389    390    415    414
    390    391    416    415
    391    392    417    416
    392    393    418    417
    393    394    419    418
    394    395    420    419
    395    396    421    420
    396    397    422    421
    397    398    423    422
    398    399    424    423
    399    375    400    424
    400    401    426    425
    401    402    427    426
    402    403    428    427
    403    404    429    428
    404    405    430    429
    405    406    431    430
    406    407    432    431
    407    408    433    432
    408    409    434    433
    409    410    435    434
    410    411    436    435
    411    412    437    436
    412    413    438    437
    413    414    439    438
    414    415    440    439
    415    416    441    440
    416    417    442    441
    417    418    443    442
    418    419    444    443
    419    420    445    444
    420    421    446    445
    421    422    447    446
    422    423    448    447
    423    424    449    448
    424    400    425    449
    425    426    451    450
    426    427    452    451
    427    428    453    452
    428    429    454    453
    429    430    455    454
    430    431    456    455
    431    432    457    456
    432    433    458    457
    433    434    459    458
    434    435    460    459
    435    436    461    460
    436    437    462    461
    437    438    463    462
    438    439    464    463
    439    440    465    464
    440    441    466    465
    441    442    467    466
    442    443    468    467
    443    444    469    468
    444    445    470    469
    445    446    471    470
    446    447    472    471
    447    448    473    472
    448    449    474    473
    449    425    450    474
    450    451    476    475
    451    452    477    476
    452    453    478    477
    453    454    479    478
    454    455    480    479
    455    456    481    480
    456    457    482    481
    457    458    483    482
    458    459    484    483
    459    460    485    484
    460    461    486    485
    461    462    487    486
    462    463    488    487
    463    464    489    488
    464    465    490    489
    465    466    491    490
    466    467    492    491
    467    468    493    492
    468    469    494    493
    469    470    495    494
    470    471    496    495
    471    472    497    496
    472    473    498    497
    473    474    499    498
    474    450    475    499
    475    476    501    500
    476    477    502    501
    477    478    503    502
    478    479    504    503
    479    480    505    504
    480    481    506    505
    481    482    507    506
    482    483    508    507
    483    484    509    508
    484    485    510    509
    485    486    511    510
    486    487    512    511
    487    488    513    512
    488    489    514    513
    489    490    515    514
    490    491    516    515
    491    492    517    516
    492    493    518    517
    493    494    519    518
    494    495    520    519
    495    496    521    520
    496    497    522    521
    497    498    523    522
    498    499    524    523
    499    475    500    524
    500    501    526    525
    501    502    527    526
    502    503    528    527
    503    504    529    528
    504    505    530    529
    505    506    531    530
    506    507    532    531
    507    508    533    532
    508    509    534    533
    509    510    535    534
    510    511    536    535
    511    512    537    536
    512    513    538    537
    513    514    539    538
    514    515    540    539
    515    516    541    540
    516    517    542    541
    517    518    543    542
    518    519    544    543
    519    520    545    544
    520    521    546    545
    521    522    547    546
    522    523    548    547
    523    524    549    548
    524    500    525    549
    525    526    551    550
    526    527    552    551
    527    528    553    552
    528    529    554    553
    529    530    555    554
    530    531    556    555
    531    532    557    556
    532    533    558    557
    533    534    559    558
    534    535    560    559
    535    536    561    560
    536    537    562    561
    537    538    563    562
    538    539    564    563
    539    540    565    564
    540    541    566    565
    541    542    567    566
    542    543    568    567
    543    544    569    568
    544    545    570    569
    545    546    571    570
    546    547    572    571
    547    548    573    572
    548    549    574    573
    549    525    550    574
    550    551    576    575
    551    552    577    576
    552    553    578    577
    553    554    579    578
    554    555    580    579
    555    556    581    580
    556    557    582    581
    557    558    583    582
    558    559    584    583
    559    560    585    584
    560    561    586    585
    561    562    587    586
    562    563    588    587
    563    564    589    588
    564    565    590    589
    565    566    591    590
    566    567    592    591
    567    568    593    592
    568    569    594    593
    569    570    595    594
    570    571    596    595
    571    572    597    596
    572    573    598    597
    573    574    599    598
    574    550    575    599
    575    576    601    600
    576    577    602    601
    577    578    603    602
    578    579    604    603
    579    580    605    604
    580    581    606    605
    581    582    607    606
    582    583    608    607
    583    584    609    608
    584    585    610    609
    585    586    611    610
    586    587    612    611
    587    588    613    612
    588    589    614    613
    589    590    615    614
    590    591    616    615
    591    592    617    616
    592    593    618    617
    593    594    619    618
    594    595    620    619
    595    596    621    620
    596    597    622    621
    597    598    623    622
    598    599    624    623
    599    575    600    624
        </DataArray>
        <DataArray type="Int32" Name="offsets" format="ascii">
      4
      8
     12
     16
     20
     24
     28
     32
     36
     40
     44
     48
     52
     56
     60
     64
     68
     72
     76
     80
     84
     88
     92
     96
    100
    104
    108
    112
    116
    120
    124
    128
    132
    136
    140
    144
    148
    152
    156
    160
    164
    168
    172
    176
    180
    184
    188
    192
    196
    200
    204
    208
    212
    216
    220
    224
    228
    232
    236
    240
    244
    248
    252
    256
    260
    264
    268
    272
    276
    280
    284
    288
    292
    296
    300
    304
    308
    312
    316
    320
    324
    328
    332
    336
    340
    344
    348
    352
    356
    360
    364
    368
    372
    376
    380
    384
    388
    392
    396
    400
    404
    408
    412
    416
    420
    424
    428
    432
    436
    440
    444
    448
    452
    456
    460
    464
    468
    472
    476
    480
    484
    488
    492
    496
    500
    504
    508
    512
    516
    520
    524
    528
    532
    536
    540
    544
    548
    552
    556
    560
    564
    568
    572
    576
    580
    584
    588
    592
    596
    600
    604
    608
    612
    616
    620
    624
    628
    632
    636
    640
    644
    648
    652
    656
    660
    664
    668
    672
    676
    680
    684
    688
    692
    696
    700
    704
    708
    712
    716
    720
    724
    728
    732
    736
    740
    744
    748
    752
    756
    760
    764
    768
    772
    776
    780
    784
    788
    792
    796
    800
    804
    808
    812
    816
    820
    824
    828
    832
    836
    840
    844
    848
    852
    856
    860
    864
    868
    872
    876
    880
    884
    888
    892
    896
    900
    904
    908
    912
    916
    920
    924
    928
    932
    936
    940
    944
    948
    952
    956
    960
    964
    968
    972
    976
    980
    984
    988
    992
    996
   1000
   1004
   1008
   1012
   1016
   1020
   1024
   1028
   1032
   1036
   1040
   1044
   1048
   1052
   1056
   1060
   1064
   1068
   1072
   1076
   1080
   1084
   1088
   1092
   1096
   1100
   1104
   1108
   1112
   1116
   1120
   1124
   1128
   1132
   1136
   1140
   1144
   1148
   1152
   1156
   1160
   1164
   1168
   1172
   1176
   1180
   1184
   1188
   1192
   1196
   1200
   1204
   1208
   1212
   1216
   1220
   1224
   1228
   1232
   1236
   1240
   1244
   1248
   1252
   1256
   1260
   1264
   1268
   1272
   1276
   1280
   1284
   1288
   1292
   1296
   1300
   1304
   1308
   1312
   1316
   1320
   1324
   1328
   1332
   1336
   1340
   1344
   1348
   1352
   1356
   1360
   1364
   1368
   1372
   1376
   1380
   1384
   1388
   1392
   1396
   1400
   1404
   1408
   1412
   1416
   1420
   1424
   1428
   1432
   1436
   1440
   1444
   1448
   1452
   1456
   1460
   1464
   1468
   1472
   1476
   1480
   1484
   1488
   1492
   1496
   1500
   1504
   1508
   1512
   1516
   1520
   1524
   1528
   1532
   1536
   1540
   1544
   1548
   1552
   1556
   1560
   1564
   1568
   1572
   1576
   1580
   1584
   1588
   1592
   1596
   1600
   1604
   1608
   1612
   1616
   1620
   1624
   1628
   1632
   1636
   1640
   1644
   1648
   1652
   1656
   1660
   1664
   1668
   1672
   1676
   1680
   1684
   1688
   1692
   1696
   1700
   1704
   1708
   1712
   1716
   1720
   1724
   1728
   1732
   1736
   1740
   1744
   1748
   1752
   1756
   1760
   1764
   1768
   1772
   1776
   1780
   1784
   1788
   1792
   1796
   1800
   1804
   1808
   1812
   1816
   1820
   1824
   1828
   1832
   1836
   1840
   1844
   1848
   1852
   1856
   1860
   1864
   1868
   1872
   1876
   1880
   1884
   1888
   1892
   1896
   1900
   1904
   1908
   1912
   1916
   1920
   1924
   1928
   1932
   1936
   1940
   1944
   1948
   1952
   1956
   1960
   1964
   1968
   1972
   1976
   1980
   1984
   1988
   1992
   1996
   2000
   2004
   2008
   2012
   2016
   2020
   2024
   2028
   2032
   2036
   2040
   2044
   2048
   2052
   2056
   2060
   2064
   2068
   2072
   2076
   2080
   2084
   2088
   2092
   2096
   2100
   2104
   2108
   2112
   2116
   2120
   2124
   2128
   2132
   2136
   2140
   2144
   2148
   2152
   2156
   2160
   2164
   2168
   2172
   2176
   2180
   2184
   2188
   2192
   2196
   2200
   2204
   2208
   2212
   2216
   2220
   2224
   2228
   2232
   2236
   2240
   2244
   2248
   2252
   2256
   2260
   2264
   2268
   2272
   2276
   2280
   2284
   2288
   2292
   2296
   2300
   2304
   2308
   2312
   2316
   2320
   2324
   2328
   2332
   2336
   2340
   2344
   2348
   2352
   2356
   2360
   2364
   2368
   2372
   2376
   2380
   2384
   2388
   2392
   2396
   2400
        </DataArray>
      </Polys>
    </Piece>
  </PolyData>
</VTKFile>
