<?xml version="1.0"?>
<VTKFile type="PolyData" version="0.1" byte_order="LittleEndian">
  <PolyData>
    <Piece NumberOfPoints="     19" NumberOfVerts="  0" NumberOfLines="     18"
           NumberOfStrips="  0" NumberOfPolys="      0">
      <Points>
        <DataArray type="Float32" NumberOfComponents="3" format="ascii">
                      -4.93658                       0.26209                      91.47557
                      -4.87957                       0.49749                      92.82064
                      -4.78646                       0.87489                      95.52817
                      -4.70327                       1.20806                      98.24398
                      -4.60519                       1.59812                     101.64377
                      -4.43683                       2.20746                     105.69620
                      -4.24642                       2.94501                     109.72491
                      -4.05834                       3.68507                     113.75328
                      -3.87019                       4.42946                     117.78087
                      -3.68280                       5.17627                     121.80807
                      -3.49743                       5.92191                     125.83556
                      -3.31339                       6.66784                     129.86306
                      -3.13131                       7.41404                     133.89059
                      -2.95191                       8.16048                     137.91820
                      -2.77345                       8.90701                     141.94583
                      -2.62536                       9.52919                     145.30224
                      -2.50757                      10.03470                     147.98596
                      -2.39193                      10.59438                     150.66014
                      -2.33416                      10.83316                     152.00448
        </DataArray>
      </Points>
      <PointData>
        <DataArray type="Float32" Name="TranslationalVelocity" NumberOfComponents="3" format="ascii">
                       0.07375                      -4.76365                       0.84296
                       0.13999                      -9.10581                       1.60006
                       0.24618                     -17.84016                       2.81388
                       0.33993                     -26.59836                       3.88545
                       0.44969                     -37.56058                       5.13999
                       0.62115                     -50.64168                       7.09979
                       0.82869                     -63.65269                       9.47193
                       1.03693                     -76.66192                      11.85219
                       1.24639                     -89.66870                      14.24633
                       1.45654                    -102.67398                      16.64830
                       1.66635                    -115.67965                      19.04645
                       1.87624                    -128.68496                      21.44556
                       2.08622                    -141.68982                      23.84557
                       2.29625                    -154.69418                      26.24631
                       2.50632                    -167.69834                      28.64736
                       2.68139                    -178.53513                      30.64844
                       2.82364                    -187.19982                      32.27430
                       2.98112                    -195.83327                      34.07438
                       3.04831                    -200.17327                      34.84237
        </DataArray>
        <DataArray type="Float32" Name="RotationalVelocity" NumberOfComponents="3" format="ascii">
                       3.21627                      -0.00000                      -0.28139
                       3.21627                      -0.00000                      -0.28139
                       3.21627                      -0.00000                      -0.28139
                       3.21627                      -0.00000                      -0.28139
                       3.21627                      -0.00000                      -0.28139
                       3.21627                      -0.00000                      -0.28139
                       3.21627                      -0.00000                      -0.28139
                       3.21627                      -0.00000                      -0.28139
                       3.21627                      -0.00000                      -0.28139
                       3.21627                      -0.00000                      -0.28139
                       3.21627                      -0.00000                      -0.28139
                       3.21627                      -0.00000                      -0.28139
                       3.21627                      -0.00000                      -0.28139
                       3.21627                      -0.00000                      -0.28139
                       3.21627                      -0.00000                      -0.28139
                       3.21627                      -0.00000                      -0.28139
                       3.21627                      -0.00000                      -0.28139
                       3.21627                      -0.00000                      -0.28139
                       3.21627                      -0.00000                      -0.28139
        </DataArray>
        <DataArray type="Float32" Name="TranslationalAcceleration" NumberOfComponents="3" format="ascii">
                      -1.34038                      -2.73533                     -15.32060
                      -2.56216                      -5.19215                     -29.28561
                      -5.01982                      -9.13222                     -57.37677
                      -7.48419                     -12.61133                     -85.54472
                     -10.56875                     -16.68500                    -120.80131
                     -14.24947                     -23.04587                    -162.87223
                     -17.91046                     -30.74302                    -204.71746
                     -21.57094                     -38.46647                    -246.55697
                     -25.23073                     -46.23493                    -288.38857
                     -28.89010                     -54.02874                    -330.21534
                     -32.54958                     -61.81021                    -372.04336
                     -36.20895                     -69.59475                    -413.87023
                     -39.86821                     -77.38222                    -455.69568
                     -43.52731                     -85.17205                    -497.51948
                     -47.18637                     -92.96288                    -539.34267
                     -50.23558                     -99.45591                    -574.19526
                     -52.67361                    -104.73137                    -602.06210
                     -55.10284                    -110.57138                    -629.82830
                     -56.32401                    -113.06345                    -643.78638
        </DataArray>
        <DataArray type="Float32" Name="OrientationX" NumberOfComponents="3" format="ascii">
                       0.97567                      -0.21921                      -0.00299
                       0.97567                      -0.21921                      -0.00299
                       0.97567                      -0.21921                      -0.00299
                       0.97567                      -0.21921                      -0.00299
                       0.97567                      -0.21921                      -0.00299
                       0.98204                      -0.18848                      -0.00873
                       0.98601                      -0.16620                      -0.01285
                       0.98905                      -0.14668                      -0.01645
                       0.99183                      -0.12598                      -0.02025
                       0.99422                      -0.10463                      -0.02414
                       0.99604                      -0.08440                      -0.02782
                       0.99744                      -0.06430                      -0.03145
                       0.99834                      -0.04606                      -0.03473
                       0.99879                      -0.03222                      -0.03720
                       0.99904                      -0.01859                      -0.03963
                       0.99911                      -0.00720                      -0.04166
                       0.99907                       0.00127                      -0.04316
                       0.99902                       0.00581                      -0.04397
                       0.99902                       0.00581                      -0.04397
        </DataArray>
        <DataArray type="Float32" Name="OrientationY" NumberOfComponents="3" format="ascii">
                       0.21512                       0.95990                      -0.17974
                       0.21512                       0.95990                      -0.17974
                       0.21512                       0.95990                      -0.17974
                       0.21512                       0.95990                      -0.17974
                       0.21512                       0.95990                      -0.17974
                       0.18389                       0.96641                      -0.17956
                       0.16125                       0.97049                      -0.17931
                       0.14141                       0.97363                      -0.17901
                       0.12039                       0.97652                      -0.17863
                       0.09871                       0.97904                      -0.17814
                       0.07816                       0.98099                      -0.17760
                       0.05775                       0.98252                      -0.17700
                       0.03924                       0.98354                      -0.17638
                       0.02519                       0.98409                      -0.17588
                       0.01137                       0.98444                      -0.17535
                      -0.00019                       0.98459                      -0.17488
                      -0.00879                       0.98462                      -0.17451
                      -0.01339                       0.98460                      -0.17431
                      -0.01339                       0.98460                      -0.17431
        </DataArray>
        <DataArray type="Float32" Name="OrientationZ" NumberOfComponents="3" format="ascii">
                       0.04228                       0.17473                       0.98371
                       0.04228                       0.17473                       0.98371
                       0.04228                       0.17473                       0.98371
                       0.04228                       0.17473                       0.98371
                       0.04228                       0.17473                       0.98371
                       0.04228                       0.17473                       0.98371
                       0.04228                       0.17473                       0.98371
                       0.04228                       0.17473                       0.98371
                       0.04228                       0.17473                       0.98371
                       0.04228                       0.17473                       0.98371
                       0.04228                       0.17473                       0.98371
                       0.04228                       0.17473                       0.98371
                       0.04228                       0.17473                       0.98371
                       0.04228                       0.17473                       0.98371
                       0.04228                       0.17473                       0.98371
                       0.04228                       0.17473                       0.98371
                       0.04228                       0.17473                       0.98371
                       0.04228                       0.17473                       0.98371
                       0.04228                       0.17473                       0.98371
        </DataArray>
        <DataArray type="Float32" Name="Force" NumberOfComponents="3" format="ascii">
                      -0.35825                      23.14007                      -4.09476
                     194.95519                     147.53363                     -34.58376
                     302.55391                     451.24696                     -93.15393
                     309.86081                     691.42031                    -136.12779
                    1398.79578                    -238.60125                     -17.73619
                    1268.11977                    -151.18736                     -27.64659
                    1184.10047                     -55.50945                     -41.03006
                    2252.44424                    -162.69451                     -67.90650
                    3254.63552                    -187.54855                    -106.56360
                    4363.04563                    -179.90822                    -155.55740
                    6967.79714                    -154.18187                    -272.07269
                    8877.12644                     -67.06167                    -369.60530
                   10891.43579                     -47.32477                    -459.68100
                   13176.79723                      40.95495                    -573.58048
                   15844.76545                     143.31062                    -706.42365
                   18339.75881                     238.87724                    -830.62690
                   20060.26912                     344.81368                    -923.38669
                   17697.89781                      83.70976                    -775.48031
                   15380.27953                     321.37323                    -718.08885
        </DataArray>
        <DataArray type="Float32" Name="Moment" NumberOfComponents="3" format="ascii">
                       0.00000                       0.00000                       0.00000
                       0.00000                       0.00000                       0.00000
                       0.00000                       0.00000                       0.00000
                       0.00000                       0.00000                       0.00000
                     -62.97116                    -260.25232                   -1465.21174
                    -128.46899                    -530.94703                   -2989.21384
                    -178.10119                    -736.07101                   -4144.05489
                    -291.28388                   -1203.84161                   -6777.58752
                    -437.32086                   -1807.39504                  -10175.57291
                    -501.90728                   -2074.32302                  -11678.36843
                    -560.93507                   -2318.27785                  -13051.82588
                    -601.77488                   -2487.06394                  -14002.08584
                    -467.40811                   -1931.74207                  -10875.64251
                    -472.90576                   -1954.46322                  -11003.56181
                    -467.26869                   -1931.16587                  -10872.39854
                    -453.73485                   -1875.23210                  -10557.49327
                    -412.01573                   -1702.81196                   -9586.77374
                    -217.42993                    -898.61200                   -5059.15516
                    -216.89786                    -896.41301                   -5046.77494
        </DataArray>
      </PointData>
      <Lines>
        <DataArray type="Int32" Name="connectivity" format="ascii">
      0      1
      1      2
      2      3
      3      4
      4      5
      5      6
      6      7
      7      8
      8      9
      9     10
     10     11
     11     12
     12     13
     13     14
     14     15
     15     16
     16     17
     17     18
        </DataArray>
        <DataArray type="Int32" Name="offsets" format="ascii">
      2
      4
      6
      8
     10
     12
     14
     16
     18
     20
     22
     24
     26
     28
     30
     32
     34
     36
        </DataArray>
      </Lines>
    </Piece>
  </PolyData>
</VTKFile>
