<?xml version="1.0"?>
<VTKFile type="PolyData" version="0.1" byte_order="LittleEndian">
  <PolyData>
    <Piece NumberOfPoints="     19" NumberOfVerts="  0" NumberOfLines="     18"
           NumberOfStrips="  0" NumberOfPolys="      0">
      <Points>
        <DataArray type="Float32" NumberOfComponents="3" format="ascii">
                      -4.93457                      -0.00748                      91.49856
                      -4.87578                      -0.01774                      92.86396
                      -4.78060                      -0.13294                      95.59517
                      -4.69604                      -0.29296                      98.32661
                      -4.59667                      -0.51977                     101.74114
                      -4.42452                      -0.64888                     105.83694
                      -4.22828                      -0.64798                     109.93233
                      -4.03432                      -0.64449                     114.02783
                      -3.84023                      -0.63662                     118.12336
                      -3.64686                      -0.62627                     122.21892
                      -3.45553                      -0.61711                     126.31457
                      -3.26551                      -0.60764                     130.41028
                      -3.07746                      -0.59786                     134.50608
                      -2.89209                      -0.58784                     138.60199
                      -2.70765                      -0.57771                     142.69794
                      -2.55458                      -0.56920                     146.11130
                      -2.43268                      -0.55449                     148.84199
                      -2.31207                      -0.48475                     151.57301
                      -2.25246                      -0.49157                     152.93829
        </DataArray>
      </Points>
      <PointData>
        <DataArray type="Float32" Name="TranslationalVelocity" NumberOfComponents="3" format="ascii">
                      -0.00077                      -1.75977                      -0.00875
                      -0.00182                      -3.36310                      -0.02076
                      -0.01361                      -6.56794                      -0.15551
                      -0.02998                      -9.77197                      -0.34272
                      -0.05320                     -13.77661                      -0.60805
                      -0.06641                     -18.58568                      -0.75909
                      -0.06632                     -23.39675                      -0.75803
                      -0.06596                     -28.20772                      -0.75395
                      -0.06516                     -33.01871                      -0.74474
                      -0.06410                     -37.82969                      -0.73264
                      -0.06316                     -42.64055                      -0.72192
                      -0.06219                     -47.45135                      -0.71084
                      -0.06119                     -52.26205                      -0.69941
                      -0.06016                     -57.07262                      -0.68768
                      -0.05913                     -61.88313                      -0.67583
                      -0.05826                     -65.89190                      -0.66588
                      -0.05675                     -69.09887                      -0.64867
                      -0.04961                     -72.30609                      -0.56709
                      -0.05031                     -73.90936                      -0.57506
        </DataArray>
        <DataArray type="Float32" Name="RotationalVelocity" NumberOfComponents="3" format="ascii">
                       1.16985                      -0.00000                      -0.10235
                       1.16985                      -0.00000                      -0.10235
                       1.16985                      -0.00000                      -0.10235
                       1.16985                      -0.00000                      -0.10235
                       1.16985                      -0.00000                      -0.10235
                       1.16985                      -0.00000                      -0.10235
                       1.16985                      -0.00000                      -0.10235
                       1.16985                      -0.00000                      -0.10235
                       1.16985                      -0.00000                      -0.10235
                       1.16985                      -0.00000                      -0.10235
                       1.16985                      -0.00000                      -0.10235
                       1.16985                      -0.00000                      -0.10235
                       1.16985                      -0.00000                      -0.10235
                       1.16985                      -0.00000                      -0.10235
                       1.16985                      -0.00000                      -0.10235
                       1.16985                      -0.00000                      -0.10235
                       1.16985                      -0.00000                      -0.10235
                       1.16985                      -0.00000                      -0.10235
                       1.16985                      -0.00000                      -0.10235
        </DataArray>
        <DataArray type="Float32" Name="TranslationalAcceleration" NumberOfComponents="3" format="ascii">
                      -0.18019                      -0.16273                      -2.05953
                      -0.34439                      -0.30624                      -3.93636
                      -0.67356                      -0.46254                      -7.69877
                      -1.00309                      -0.55694                     -11.46540
                      -1.41524                      -0.63796                     -16.17632
                      -1.90874                      -0.93282                     -21.81705
                      -2.40114                      -1.40717                     -27.44515
                      -2.89350                      -1.88506                     -33.07285
                      -3.38582                      -2.36901                     -38.70007
                      -3.87811                      -2.85637                     -44.32699
                      -4.37040                      -3.34209                     -49.95391
                      -4.86268                      -3.82822                     -55.58071
                      -5.35495                      -4.31476                     -61.20737
                      -5.84720                      -4.80163                     -66.83384
                      -6.33945                      -5.28865                     -72.46024
                      -6.74965                      -5.69458                     -77.14891
                      -7.07773                      -6.03023                     -80.89887
                      -7.40529                      -6.44179                     -84.64281
                      -7.56945                      -6.59005                     -86.51917
        </DataArray>
        <DataArray type="Float32" Name="OrientationX" NumberOfComponents="3" format="ascii">
                       0.97212                      -0.23039                      -0.04359
                       0.97212                      -0.23039                      -0.04359
                       0.97212                      -0.23039                      -0.04359
                       0.97212                      -0.23039                      -0.04359
                       0.97212                      -0.23039                      -0.04359
                       0.97897                      -0.19924                      -0.04374
                       0.98330                      -0.17664                      -0.04381
                       0.98665                      -0.15684                      -0.04386
                       0.98976                      -0.13584                      -0.04389
                       0.99249                      -0.11418                      -0.04390
                       0.99464                      -0.09365                      -0.04389
                       0.99635                      -0.07325                      -0.04387
                       0.99754                      -0.05473                      -0.04383
                       0.99821                      -0.04068                      -0.04379
                       0.99868                      -0.02685                      -0.04374
                       0.99893                      -0.01528                      -0.04369
                       0.99902                      -0.00668                      -0.04365
                       0.99905                      -0.00207                      -0.04363
                       0.99905                      -0.00207                      -0.04363
        </DataArray>
        <DataArray type="Float32" Name="OrientationY" NumberOfComponents="3" format="ascii">
                       0.23039                       0.97308                      -0.00520
                       0.23039                       0.97308                      -0.00520
                       0.23039                       0.97308                      -0.00520
                       0.23039                       0.97308                      -0.00520
                       0.23039                       0.97308                      -0.00520
                       0.19926                       0.97994                      -0.00381
                       0.17669                       0.98426                      -0.00280
                       0.15690                       0.98761                      -0.00192
                       0.13593                       0.99072                      -0.00099
                       0.11429                       0.99345                      -0.00003
                       0.09377                       0.99559                       0.00088
                       0.07339                       0.99730                       0.00177
                       0.05490                       0.99849                       0.00259
                       0.04086                       0.99916                       0.00320
                       0.02704                       0.99963                       0.00381
                       0.01548                       0.99987                       0.00432
                       0.00689                       0.99997                       0.00469
                       0.00228                       0.99999                       0.00489
                       0.00228                       0.99999                       0.00489
        </DataArray>
        <DataArray type="Float32" Name="OrientationZ" NumberOfComponents="3" format="ascii">
                       0.04362                      -0.00499                       0.99904
                       0.04362                      -0.00499                       0.99904
                       0.04362                      -0.00499                       0.99904
                       0.04362                      -0.00499                       0.99904
                       0.04362                      -0.00499                       0.99904
                       0.04362                      -0.00499                       0.99904
                       0.04362                      -0.00499                       0.99904
                       0.04362                      -0.00499                       0.99904
                       0.04362                      -0.00499                       0.99904
                       0.04362                      -0.00499                       0.99904
                       0.04362                      -0.00499                       0.99904
                       0.04362                      -0.00499                       0.99904
                       0.04362                      -0.00499                       0.99904
                       0.04362                      -0.00499                       0.99904
                       0.04362                      -0.00499                       0.99904
                       0.04362                      -0.00499                       0.99904
                       0.04362                      -0.00499                       0.99904
                       0.04362                      -0.00499                       0.99904
                       0.04362                      -0.00499                       0.99904
        </DataArray>
        <DataArray type="Float32" Name="Force" NumberOfComponents="3" format="ascii">
                       0.00147                       3.37929                       0.01681
                     163.77771                      45.73012                      -6.92231
                     197.65921                     107.07144                      -8.09537
                     170.64461                     136.64970                      -6.76825
                    1557.61971                    -552.73702                     -70.76559
                    1822.55329                    -655.83199                     -82.84735
                    2708.36778                   -1053.06756                    -123.50538
                    3273.87484                   -1111.22254                    -148.48596
                    3902.49943                   -1136.49663                    -176.05813
                    4529.64595                   -1169.38390                    -203.60377
                    5318.21289                   -1204.16433                    -238.20654
                    6058.58246                   -1219.63203                    -270.60859
                    6452.42927                   -1194.93108                    -287.68079
                    6994.11876                   -1177.48390                    -311.24407
                    7439.11974                   -1135.95467                    -330.46568
                    7673.60969                   -1063.13232                    -340.34007
                    7471.37792                    -933.17164                    -330.86178
                    5388.79563                    -602.09786                    -238.28267
                    2039.77831                      27.37024                     -88.92090
        </DataArray>
        <DataArray type="Float32" Name="Moment" NumberOfComponents="3" format="ascii">
                       0.00000                       0.00000                       0.00000
                       0.00000                       0.00000                       0.00000
                       0.00000                       0.00000                       0.00000
                       0.00000                       0.00000                       0.00000
                     -25.58961                       2.92587                    -586.10581
                     -25.24999                       2.88704                    -578.32712
                     -29.74816                       3.40135                    -681.35346
                     -43.94869                       5.02501                   -1006.60311
                     -61.31049                       7.01013                   -1404.25859
                     -74.04414                       8.46607                   -1695.91086
                     -79.67793                       9.11023                   -1824.94726
                     -85.63134                       9.79093                   -1961.30465
                     -80.44573                       9.19802                   -1842.53316
                     -80.63523                       9.21968                   -1846.87334
                     -78.43079                       8.96763                   -1796.38290
                     -74.94963                       8.56960                   -1716.65022
                     -67.19664                       7.68314                   -1539.07518
                     -34.48169                       3.94257                    -789.77043
                     -29.66903                       3.39230                    -679.54098
        </DataArray>
      </PointData>
      <Lines>
        <DataArray type="Int32" Name="connectivity" format="ascii">
      0      1
      1      2
      2      3
      3      4
      4      5
      5      6
      6      7
      7      8
      8      9
      9     10
     10     11
     11     12
     12     13
     13     14
     14     15
     15     16
     16     17
     17     18
        </DataArray>
        <DataArray type="Int32" Name="offsets" format="ascii">
      2
      4
      6
      8
     10
     12
     14
     16
     18
     20
     22
     24
     26
     28
     30
     32
     34
     36
        </DataArray>
      </Lines>
    </Piece>
  </PolyData>
</VTKFile>
